PCBNEW-LibModule-V1  So 22 Sep 2013 19:18:55 CEST
# encoding utf-8
Units mm
$INDEX
7SEGMENT-LED__HDSM531_HDSM533_SMD_16SEP2013
7SegmentLED_LTS6760_LTS6780_16Sep2013
7SegmentLED_SBC18-11EGWA_16Sep2013
$EndINDEX
$MODULE 7SEGMENT-LED__HDSM531_HDSM533_SMD_16SEP2013
Po 0 0 0 15 523C5D80 00000000 ~~
Li 7SEGMENT-LED__HDSM531_HDSM533_SMD_16SEP2013
Sc 0
AR 
Op 0 0 0
T0 -7.7 -4.525 1.524 1.524 0 0.3048 N V 21 N "U"
T1 0.025 13.95 1.524 1.524 0 0.3048 N I 21 N "7SEGMENT-LED__HDSM531_HDSM533_SMD_16SEP2013"
DC 3.825 6.075 3.925 6.75 0.381 21
DS 2.35 6.125 2.35 0.625 0.381 21
DS -4.5 6.3 -4.5 0.8 0.381 21
DS -4.325 -0.75 -4.325 -6.25 0.381 21
DS 2.35 -0.85 2.35 -6.35 0.381 21
DS -3.675 -7.025 1.825 -7.025 0.381 21
DS -3.825 -0.05 1.675 -0.05 0.381 21
DS -3.725 7.025 1.775 7.025 0.381 21
DS 6.25 7.425 6.25 -7.425 0.381 21
DS -6.25 -7.425 -6.25 7.425 0.381 21
$PAD
Sh "3" R 1.8 3 0 0 0
Dr 0 0 0
At SMD N 00888000
Ne 0 ""
Po 0 9.5
.SolderPaste -0.2
$EndPAD
$PAD
Sh "2" R 1.8 3 0 0 0
Dr 0 0 0
At SMD N 00888000
Ne 0 ""
Po -2.45 9.5
.SolderPaste -0.2
$EndPAD
$PAD
Sh "1" R 1.8 3 0 0 0
Dr 0 0 0
At SMD N 00888000
Ne 0 ""
Po -4.9 9.5
.SolderPaste -0.2
$EndPAD
$PAD
Sh "4" R 1.8 3 0 0 0
Dr 0 0 0
At SMD N 00888000
Ne 0 ""
Po 2.45 9.5
.SolderPaste -0.2
$EndPAD
$PAD
Sh "5" R 1.8 3 0 0 0
Dr 0 0 0
At SMD N 00888000
Ne 0 ""
Po 4.9 9.5
.SolderPaste -0.2
$EndPAD
$PAD
Sh "6" R 1.8 3 0 0 0
Dr 0 0 0
At SMD N 00888000
Ne 0 ""
Po 4.9 -9.5
.SolderPaste -0.2
$EndPAD
$PAD
Sh "7" R 1.8 3 0 0 0
Dr 0 0 0
At SMD N 00888000
Ne 0 ""
Po 2.45 -9.5
.SolderPaste -0.2
$EndPAD
$PAD
Sh "8" R 1.8 3 0 0 0
Dr 0 0 0
At SMD N 00888000
Ne 0 ""
Po 0 -9.5
.SolderPaste -0.2
$EndPAD
$PAD
Sh "9" R 1.8 3 0 0 0
Dr 0 0 0
At SMD N 00888000
Ne 0 ""
Po -2.45 -9.5
.SolderPaste -0.2
$EndPAD
$PAD
Sh "10" R 1.8 3 0 0 0
Dr 0 0 0
At SMD N 00888000
Ne 0 ""
Po -4.9 -9.5
.SolderPaste -0.2
$EndPAD
$PAD
Sh "" O 4 6 0 0 0
Dr 0 0 0
At SMD N 00020000
Ne 0 ""
Po 0 0
$EndPAD
$SHAPE3D
Na "7Segment_HDSM531_HDSM533_Wings3D_RevA_17Sep2013/7Segment_HDSM531_HDSM533_Green_Faktor03937_Wings3D_RevA_17Sep2013.wrl"
Sc 0.3937 0.3937 0.3937
Of 0 0 0
Ro 0 0 0
$EndSHAPE3D
$EndMODULE 7SEGMENT-LED__HDSM531_HDSM533_SMD_16SEP2013
$MODULE 7SegmentLED_LTS6760_LTS6780_16Sep2013
Po 0 0 0 15 52373F21 00000000 ~~
Li 7SegmentLED_LTS6760_LTS6780_16Sep2013
Sc 0
AR 
Op 0 0 0
T0 -9.5 -5.8 1.524 1.524 0 0.3048 N V 21 N "U"
T1 -0.4 12 1.524 1.524 0 0.3048 N I 21 N "7SegmentLED_LTS6760_LTS6780_16Sep2013"
DC 4 5 4.4 5.2 0.381 21
DS -3 -5 -4 0 0.381 21
DS -4 0 -5 5 0.381 21
DS -5 5 2 5 0.381 21
DS 2 5 3 0 0.381 21
DS 4 -5 3 0 0.381 21
DS 3 0 -4 0 0.381 21
DS -3 -5 4 -5 0.381 21
DS 6.3 9.6 -6.3 9.6 0.381 21
DS -6.3 -5.7 -6.3 5.7 0.381 21
DS 6.3 -5.7 6.3 5.7 0.381 21
DS -6.3 -9.6 6.3 -9.6 0.381 21
$PAD
Sh "1" O 1.524 2.524 0 0 0
Dr 0.8 0 0
At STD N 00E0FFFF
Ne 0 ""
Po -5.08 7.62
$EndPAD
$PAD
Sh "2" O 1.524 2.524 0 0 0
Dr 0.8 0 0
At STD N 00E0FFFF
Ne 0 ""
Po -2.54 7.62
$EndPAD
$PAD
Sh "3" O 1.524 2.524 0 0 0
Dr 0.8 0 0
At STD N 00E0FFFF
Ne 0 ""
Po 0 7.62
$EndPAD
$PAD
Sh "4" O 1.524 2.524 0 0 0
Dr 0.8 0 0
At STD N 00E0FFFF
Ne 0 ""
Po 2.54 7.62
$EndPAD
$PAD
Sh "5" O 1.524 2.524 0 0 0
Dr 0.8 0 0
At STD N 00E0FFFF
Ne 0 ""
Po 5.08 7.62
$EndPAD
$PAD
Sh "6" O 1.524 2.524 0 0 0
Dr 0.8 0 0
At STD N 00E0FFFF
Ne 0 ""
Po 5.08 -7.62
$EndPAD
$PAD
Sh "7" O 1.524 2.524 0 0 0
Dr 0.8 0 0
At STD N 00E0FFFF
Ne 0 ""
Po 2.54 -7.62
$EndPAD
$PAD
Sh "8" O 1.524 2.524 0 0 0
Dr 0.8 0 0
At STD N 00E0FFFF
Ne 0 ""
Po 0 -7.62
$EndPAD
$PAD
Sh "9" O 1.524 2.524 0 0 0
Dr 0.8 0 0
At STD N 00E0FFFF
Ne 0 ""
Po -2.54 -7.62
$EndPAD
$PAD
Sh "10" O 1.524 2.524 0 0 0
Dr 0.8 0 0
At STD N 00E0FFFF
Ne 0 ""
Po -5.08 -7.62
$EndPAD
$SHAPE3D
Na "7Segment_HDSM531_HDSM533_Wings3D_RevA_17Sep2013/7Segment_LTS6760_LTS6780_Faktor03937_Wings3D_RevA_22Sep2013.wrl"
Sc 0.3937 0.3937 0.3937
Of 0 0 0
Ro 0 0 0
$EndSHAPE3D
$EndMODULE 7SegmentLED_LTS6760_LTS6780_16Sep2013
$MODULE 7SegmentLED_SBC18-11EGWA_16Sep2013
Po 0 0 0 15 52371EFD 00000000 ~~
Li 7SegmentLED_SBC18-11EGWA_16Sep2013
Sc 0
AR 
Op 0 0 0
T0 0 -33 1.524 1.524 0 0.3048 N V 21 N "U"
T1 -1 31 1.524 1.524 0 0.3048 N I 21 N "7SegmentLED_SBC18-11EGWA_16Sep2013"
DS 15.5 25.3 15.9 25 0.381 21
DS 15.9 25 16.3 25 0.381 21
DS 16.3 25 16.6 25.1 0.381 21
DS 16.6 25.1 16.9 25.5 0.381 21
DS 16.9 25.5 16.9 26.4 0.381 21
DS 16.9 26.4 16.8 26.7 0.381 21
DS 16.8 26.7 16.6 26.9 0.381 21
DS 16.6 26.9 16.1 27 0.381 21
DS 16.1 27 15.6 26.9 0.381 21
DS 15.5 25 15.5 28 0.381 21
DS 14.1 26.8 13.9 26.9 0.381 21
DS 13.9 26.9 13.2 26.9 0.381 21
DS 13.2 26.9 12.9 26.8 0.381 21
DS 12.9 26.8 12.7 26.5 0.381 21
DS 12.7 26.5 12.7 25.6 0.381 21
DS 12.7 25.6 12.8 25.3 0.381 21
DS 12.8 25.3 13.2 25 0.381 21
DS 13.2 25 13.7 25 0.381 21
DS 13.7 25 14.1 25.2 0.381 21
DS 14.1 24 14.1 27.1 0.381 21
DS 0.6 3.4 0.4 3.2 0.381 21
DS 0.4 3.2 -0.1 3.2 0.381 21
DS -0.1 3.2 -0.4 3.3 0.381 21
DS -0.4 3.3 -0.7 3.6 0.381 21
DS -0.7 3.6 -0.8 4 0.381 21
DS -0.8 4 -0.8 4.7 0.381 21
DS -0.8 4.7 -0.5 5 0.381 21
DS -0.5 5 -0.2 5.2 0.381 21
DS -0.2 5.2 0.2 5.2 0.381 21
DS 0.2 5.2 0.6 5 0.381 21
DS -0.7 6 -0.4 6.2 0.381 21
DS -0.4 6.2 0.1 6.2 0.381 21
DS 0.1 6.2 0.4 6 0.381 21
DS 0.4 6 0.6 5.7 0.381 21
DS 0.6 5.7 0.6 3.2 0.381 21
DS -9.6 -9.8 -8.4 -9.8 0.381 21
DS -8.4 -10.8 -8.7 -10.8 0.381 21
DS -8.7 -10.8 -8.9 -10.7 0.381 21
DS -8.9 -10.7 -9.1 -10.4 0.381 21
DS -9.1 -10.4 -9.1 -7.8 0.381 21
DS -11.4 11 -11.7 11.2 0.381 21
DS -11.7 11.2 -12.2 11.2 0.381 21
DS -12.2 11.2 -12.5 11.1 0.381 21
DS -12.5 11.1 -12.7 10.9 0.381 21
DS -12.7 10.9 -12.7 9.8 0.381 21
DS -12.7 9.8 -12.6 9.4 0.381 21
DS -12.6 9.4 -12.3 9.2 0.381 21
DS -12.3 9.2 -11.8 9.2 0.381 21
DS -11.8 9.2 -11.5 9.3 0.381 21
DS -11.5 9.3 -11.3 9.6 0.381 21
DS -11.3 9.6 -11.3 9.9 0.381 21
DS -11.3 9.9 -12.7 10.2 0.381 21
DS -1.3 16 -1.6 16.2 0.381 21
DS -1.6 16.2 -2.1 16.2 0.381 21
DS -2.1 16.2 -2.5 16.1 0.381 21
DS -2.5 16.1 -2.8 15.7 0.381 21
DS -2.8 15.7 -2.8 14.9 0.381 21
DS -2.8 14.9 -2.6 14.5 0.381 21
DS -2.6 14.5 -2.3 14.2 0.381 21
DS -2.3 14.2 -1.7 14.2 0.381 21
DS -1.7 14.2 -1.3 14.5 0.381 21
DS -1.3 13.3 -1.3 16.3 0.381 21
DS 9.8 9.4 9.6 9.3 0.381 21
DS 9.6 9.3 9.2 9.2 0.381 21
DS 9.2 9.2 8.9 9.2 0.381 21
DS 8.9 9.2 8.5 9.4 0.381 21
DS 8.5 9.4 8.3 9.8 0.381 21
DS 8.3 9.8 8.3 10.6 0.381 21
DS 8.3 10.6 8.4 10.9 0.381 21
DS 8.4 10.9 8.7 11.1 0.381 21
DS 8.7 11.1 9.3 11.2 0.381 21
DS 9.3 11.2 9.7 11 0.381 21
DS 11.4 -9.1 11.6 -8.8 0.381 21
DS 11.6 -8.8 12.1 -8.8 0.381 21
DS 12.1 -8.8 12.4 -8.9 0.381 21
DS 12.4 -8.9 12.7 -9.3 0.381 21
DS 12.7 -9.3 12.7 -10.2 0.381 21
DS 12.7 -10.2 12.6 -10.5 0.381 21
DS 12.6 -10.5 12.3 -10.7 0.381 21
DS 12.3 -10.7 11.8 -10.8 0.381 21
DS 11.8 -10.8 11.5 -10.7 0.381 21
DS 11.4 -11.8 11.4 -8.8 0.381 21
DS 0.7 -15 0.4 -14.8 0.381 21
DS 0.4 -14.8 -0.2 -14.8 0.381 21
DS -0.2 -14.8 -0.6 -14.9 0.381 21
DS -0.6 -14.9 -0.7 -15.1 0.381 21
DS -0.7 -15.1 -0.8 -15.5 0.381 21
DS -0.8 -15.5 -0.7 -15.7 0.381 21
DS -0.7 -15.7 -0.4 -15.9 0.381 21
DS -0.4 -15.9 0.1 -15.9 0.381 21
DS 0.1 -15.9 0.3 -15.9 0.381 21
DS 0.3 -15.9 0.6 -16.1 0.381 21
DS -0.7 -16.6 -0.4 -16.8 0.381 21
DS -0.4 -16.8 0 -16.8 0.381 21
DS 0 -16.8 0.5 -16.7 0.381 21
DS 0.5 -16.7 0.7 -16.3 0.381 21
DS 0.7 -16.3 0.7 -14.7 0.381 21
DC 14 21 16 22 0.381 21
DS 13 2 10 17 0.381 21
DS 10 17 12 17 0.381 21
DS 12 17 15 2 0.381 21
DS 15 2 13 2 0.381 21
DS 16 -17 13 -2 0.381 21
DS 13 -2 15 -2 0.381 21
DS 15 -2 18 -17 0.381 21
DS 18 -17 16 -17 0.381 21
DS -15 2 -18 17 0.381 21
DS -18 17 -16 17 0.381 21
DS -16 17 -13 2 0.381 21
DS -13 2 -15 2 0.381 21
DS -12 -17 -15 -2 0.381 21
DS -15 -2 -13 -2 0.381 21
DS -13 -2 -10 -17 0.381 21
DS -10 -17 -12 -17 0.381 21
DS 13 0 13 -1 0.381 21
DS 13 -1 -13 -1 0.381 21
DS -13 -1 -13 1 0.381 21
DS -13 1 13 1 0.381 21
DS 13 1 13 0 0.381 21
DS 10 20 10 19 0.381 21
DS -16 20 10 20 0.381 21
DS -16 18 -16 20 0.381 21
DS 10 18 -16 18 0.381 21
DS 10 19 10 18 0.381 21
DS 16 -19 16 -20 0.381 21
DS 16 -20 -10 -20 0.381 21
DS -10 -20 -10 -18 0.381 21
DS -10 -18 16 -18 0.381 21
DS 16 -18 16 -19 0.381 21
DS -19 -28 19 -28 0.381 21
DS 19 -28 19 28 0.381 21
DS 19 28 -19 28 0.381 21
DS -19 28 -19 -28 0.381 21
$PAD
Sh "1" O 1.524 2.524 0 0 0
Dr 0.8 0 0
At STD N 00E0FFFF
Ne 0 ""
Po -5.08 24.13
$EndPAD
$PAD
Sh "2" O 1.524 2.524 0 0 0
Dr 0.8 0 0
At STD N 00E0FFFF
Ne 0 ""
Po -2.54 24.13
$EndPAD
$PAD
Sh "3" O 1.524 2.524 0 0 0
Dr 0.8 0 0
At STD N 00E0FFFF
Ne 0 ""
Po 0 24.13
$EndPAD
$PAD
Sh "4" O 1.524 2.524 0 0 0
Dr 0.8 0 0
At STD N 00E0FFFF
Ne 0 ""
Po 2.54 24.13
$EndPAD
$PAD
Sh "5" O 1.524 2.524 0 0 0
Dr 0.8 0 0
At STD N 00E0FFFF
Ne 0 ""
Po 5.08 24.13
$EndPAD
$PAD
Sh "6" O 1.524 2.524 0 0 0
Dr 0.8 0 0
At STD N 00E0FFFF
Ne 0 ""
Po 5.08 -24.13
$EndPAD
$PAD
Sh "7" O 1.524 2.524 0 0 0
Dr 0.8 0 0
At STD N 00E0FFFF
Ne 0 ""
Po 2.54 -24.13
$EndPAD
$PAD
Sh "8" O 1.524 2.524 0 0 0
Dr 0.8 0 0
At STD N 00E0FFFF
Ne 0 ""
Po 0 -24.13
$EndPAD
$PAD
Sh "9" O 1.524 2.524 0 0 0
Dr 0.8 0 0
At STD N 00E0FFFF
Ne 0 ""
Po -2.54 -24.13
$EndPAD
$PAD
Sh "10" O 1.524 2.524 0 0 0
Dr 0.8 0 0
At STD N 00E0FFFF
Ne 0 ""
Po -5.08 -24.13
$EndPAD
$SHAPE3D
Na "7Segment_HDSM531_HDSM533_Wings3D_RevA_17Sep2013/7Segment_SBC18-11EGWA_Faktor03937_Wings3D_RevA_22Sep2013.wrl"
Sc 0.3937 0.3937 0.3937
Of 0 0 0
Ro 0 0 0
$EndSHAPE3D
$EndMODULE 7SegmentLED_SBC18-11EGWA_16Sep2013
$EndLIBRARY
