PCBNEW-LibModule-V1  So 22 Sep 2013 21:40:04 CEST
# encoding utf-8
Units mm
$INDEX
BNC_Socket_TYCO-AMP_LargePads_RevA_Date21Jun2010
BNC_Socket_TYCO-AMP_RevA_Date21Jun2010
$EndINDEX
$MODULE BNC_Socket_TYCO-AMP_LargePads_RevA_Date21Jun2010
Po 0 0 0 15 4C1FD4F4 00000000 ~~
Li BNC_Socket_TYCO-AMP_LargePads_RevA_Date21Jun2010
Cd BNC Socket TYCO AMP
Kw BNC Socket TYCO AMP
Sc 0
AR 
Op 0 0 0
T0 0.508 9.652 1.524 1.524 0 0.3048 N V 21 N "X"
T1 10.89914 -9.6012 1.524 1.524 900 0.3048 N V 21 N "BNC_Socket_TYCO-AMP_LargePads_RevA_Date21Jun2010"
DS -5.4991 -11.80084 5.4991 -12.60094 0.381 21
DS -5.4991 -11.00074 5.4991 -11.80084 0.381 21
DS -5.4991 -10.20064 5.4991 -11.00074 0.381 21
DS -5.4991 -9.40054 5.4991 -10.20064 0.381 21
DS -5.4991 -8.60044 5.4991 -9.40054 0.381 21
DS -5.4991 -7.80034 5.4991 -8.60044 0.381 21
DC 0 -22.69998 1.00076 -22.69998 0.381 21
DS 4.8006 -14.69898 4.8006 -26.70048 0.381 21
DS 4.8006 -26.70048 -4.8006 -26.70048 0.381 21
DS -4.8006 -26.70048 -4.8006 -14.69898 0.381 21
DS 5.4991 -7.2009 5.4991 -14.69898 0.381 21
DS 5.4991 -14.69898 -5.4991 -14.69898 0.381 21
DS -5.4991 -14.69898 -5.4991 -7.2009 0.381 21
DS -7.80034 7.2009 7.80034 7.2009 0.381 21
DS 7.80034 7.2009 7.80034 -7.2009 0.381 21
DS 7.80034 -7.2009 -7.80034 -7.2009 0.381 21
DS -7.80034 -7.2009 -7.80034 7.2009 0.381 21
$PAD
Sh "2" O 3.50012 7.00024 0 0 0
Dr 2.19964 0 0
At STD N 00E0FFFF
Ne 0 ""
Po -5.09778 0.7366
$EndPAD
$PAD
Sh "2" O 3.50012 7.00024 0 0 0
Dr 2.19964 0 0
At STD N 00E0FFFF
Ne 0 ""
Po 5.10032 0.7366
$EndPAD
$PAD
Sh "1" O 1.6002 2.49936 0 0 0
Dr 1.00076 0 0
At STD N 00E0FFFF
Ne 0 ""
Po 0 5.00126
$EndPAD
$PAD
Sh "2" O 1.6002 2.49936 0 0 0
Dr 1.00076 0 0
At STD N 00E0FFFF
Ne 0 ""
Po -2.49936 5.00126
$EndPAD
$SHAPE3D
Na "BNC-Socket_Wings3D_RevA_22Sep2013/BNC-Socket_RevA_Faktor03937_22Sep2013.wrl"
Sc 0.3937 0.3937 0.3937
Of 0 0 0
Ro 0 0 0
$EndSHAPE3D
$EndMODULE BNC_Socket_TYCO-AMP_LargePads_RevA_Date21Jun2010
$MODULE BNC_Socket_TYCO-AMP_RevA_Date21Jun2010
Po 0 0 0 15 4C1F8960 00000000 ~~
Li BNC_Socket_TYCO-AMP_RevA_Date21Jun2010
Cd BNC Socket TYCO AMP
Kw BNC Socket TYCO AMP
Sc 0
AR 
Op 0 0 0
T0 0.508 9.652 1.524 1.524 0 0.3048 N V 21 N "X"
T1 10.89914 -9.6012 1.524 1.524 900 0.3048 N V 21 N "BNC_Socket_TYCO-AMP_RevA_Date21Jun2010"
DS -5.4991 -11.80084 5.4991 -12.60094 0.381 21
DS -5.4991 -11.00074 5.4991 -11.80084 0.381 21
DS -5.4991 -10.20064 5.4991 -11.00074 0.381 21
DS -5.4991 -9.40054 5.4991 -10.20064 0.381 21
DS -5.4991 -8.60044 5.4991 -9.40054 0.381 21
DS -5.4991 -7.80034 5.4991 -8.60044 0.381 21
DC 0 -22.69998 1.00076 -22.69998 0.381 21
DS 4.8006 -14.69898 4.8006 -26.70048 0.381 21
DS 4.8006 -26.70048 -4.8006 -26.70048 0.381 21
DS -4.8006 -26.70048 -4.8006 -14.69898 0.381 21
DS 5.4991 -7.2009 5.4991 -14.69898 0.381 21
DS 5.4991 -14.69898 -5.4991 -14.69898 0.381 21
DS -5.4991 -14.69898 -5.4991 -7.2009 0.381 21
DS -7.80034 7.2009 7.80034 7.2009 0.381 21
DS 7.80034 7.2009 7.80034 -7.2009 0.381 21
DS 7.80034 -7.2009 -7.80034 -7.2009 0.381 21
DS -7.80034 -7.2009 -7.80034 7.2009 0.381 21
$PAD
Sh "2" O 3.50012 5.00126 0 0 0
Dr 2.19964 0 0
At STD N 00E0FFFF
Ne 0 ""
Po -5.09778 0.7366
$EndPAD
$PAD
Sh "2" O 3.50012 5.00126 0 0 0
Dr 2.19964 0 0
At STD N 00E0FFFF
Ne 0 ""
Po 5.10032 0.7366
$EndPAD
$PAD
Sh "1" C 1.6002 1.6002 0 0 0
Dr 1.00076 0 0
At STD N 00E0FFFF
Ne 0 ""
Po 0 5.00126
$EndPAD
$PAD
Sh "2" C 1.6002 1.6002 0 0 0
Dr 1.00076 0 0
At STD N 00E0FFFF
Ne 0 ""
Po -2.49936 5.00126
$EndPAD
$SHAPE3D
Na "BNC-Socket_Wings3D_RevA_22Sep2013/BNC-Socket_RevA_Faktor03937_22Sep2013.wrl"
Sc 0.3937 0.3937 0.3937
Of 0 0 0
Ro 0 0 0
$EndSHAPE3D
$EndMODULE BNC_Socket_TYCO-AMP_RevA_Date21Jun2010
$EndLIBRARY
