PCBNEW-LibModule-V1  gio 17 feb 2011 22:23:36 CET
$INDEX
c_0402
c_0603
c_0805
c_1206
c_1210
c_2512
c_tant_A
c_tant_B
c_tant_C
c_tant_D
c_tant_X
c_tant_E
c_tant_S
c_tant_T
c_tant_U
c_tant_V
c_tant_R
c_1808
c_1812
c_1825
c_2220
c_2225
c_elec_4x5.7
c_elec_4x4.5
c_elec_4x5.3
c_elec_4x5.8
c_elec_3x5.3
c_elec_5x4.5
c_elec_5x5.3
c_elec_5x5.7
c_elec_5x5.8
c_elec_6.3x4.5
c_elec_6.3x5.3
c_elec_6.3x5.7
c_elec_6.3x5.8
c_elec_6.3x7.7
c_elec_8x6.5
c_elec_8x6.7
c_elec_8x10
c_elec_8x10.5
c_elec_10x10.5
c_elec_10x10
c_elec_10x7.7
$EndINDEX
$MODULE c_0402
Po 0 0 0 15 49047259 00000000 ~~
Li c_0402
Cd SMT capacitor, 0402
Sc 00000000
AR
Op 0 0 0
T0 0 -190 60 60 0 12 N V 21 "c_0402"
T1 0 190 60 60 0 12 N I 21 "C***"
DS 130 -110 130 110 50 21
DS -130 -110 -130 110 50 21
DS -210 -110 -210 110 50 21
DS -210 110 210 110 50 21
DS 210 110 210 -110 50 21
DS 210 -110 -210 -110 50 21
$PAD
Sh "1" R 315 275 0 0 0
Dr 0 0 0
At SMD N 00888000
Ne 0 ""
Po 216 0
$EndPAD
$PAD
Sh "2" R 315 275 0 0 0
Dr 0 0 0
At SMD N 00888000
Ne 0 ""
Po -216 0
$EndPAD
$SHAPE3D
Na "smd/capacitors/c_0402.wrl"
Sc 1.000000 1.000000 1.000000
Of 0.000000 0.000000 0.000000
Ro 0.000000 0.000000 0.000000
$EndSHAPE3D
$EndMODULE  c_0402
$MODULE c_0603
Po 0 0 0 15 490472AA 00000000 ~~
Li c_0603
Cd SMT capacitor, 0603
Sc 00000000
AR
Op 0 0 0
T0 0 -250 79 79 0 16 N V 21 "c_0603"
T1 0 250 79 79 0 16 N I 21 "C***"
DS 220 160 220 -160 50 21
DS -220 -150 -220 160 50 21
DS -320 -160 320 -160 50 21
DS 320 -160 320 160 50 21
DS 320 160 -320 160 50 21
DS -320 160 -320 -160 50 21
$PAD
Sh "1" R 354 394 0 0 0
Dr 0 0 0
At SMD N 00888000
Ne 0 ""
Po 296 0
$EndPAD
$PAD
Sh "2" R 354 394 0 0 0
Dr 0 0 0
At SMD N 00888000
Ne 0 ""
Po -296 0
$EndPAD
$SHAPE3D
Na "smd/capacitors/c_0603.wrl"
Sc 1.000000 1.000000 1.000000
Of 0.000000 0.000000 0.000000
Ro 0.000000 0.000000 0.000000
$EndSHAPE3D
$EndMODULE  c_0603
$MODULE c_0805
Po 0 0 0 15 49047394 00000000 ~~
Li c_0805
Cd SMT capacitor, 0805
Sc 00000000
AR
Op 0 0 0
T0 0 -390 118 118 0 24 N V 21 "c_0805"
T1 0 390 118 118 0 24 N I 21 "C***"
DS 250 -250 250 250 50 21
DS -250 -250 -250 240 50 21
DS -400 -250 400 -250 50 21
DS 400 -250 400 250 50 21
DS 400 250 -400 250 50 21
DS -400 250 -400 -250 50 21
$PAD
Sh "1" R 512 590 0 0 0
Dr 0 0 0
At SMD N 00888000
Ne 0 ""
Po 375 0
$EndPAD
$PAD
Sh "2" R 512 590 0 0 0
Dr 0 0 0
At SMD N 00888000
Ne 0 ""
Po -375 0
$EndPAD
$SHAPE3D
Na "smd/capacitors/c_0805.wrl"
Sc 1.000000 1.000000 1.000000
Of 0.000000 0.000000 0.000000
Ro 0.000000 0.000000 0.000000
$EndSHAPE3D
$EndMODULE  c_0805
$MODULE c_1206
Po 0 0 0 15 490473F0 00000000 ~~
Li c_1206
Cd SMT capacitor, 1206
Sc 00000000
AR
Op 0 0 0
T0 10 -510 197 197 0 47 N V 21 "c_1206"
T1 0 500 197 197 0 47 N I 21 "C***"
DS 450 320 450 -320 50 21
DS -450 -320 -450 320 50 21
DS -630 -320 -630 320 50 21
DS -630 320 630 320 50 21
DS 630 320 630 -320 50 21
DS 630 -320 -630 -320 50 21
$PAD
Sh "1" R 630 710 0 0 0
Dr 0 0 0
At SMD N 00888000
Ne 0 ""
Po 550 0
$EndPAD
$PAD
Sh "2" R 630 710 0 0 0
Dr 0 0 0
At SMD N 00888000
Ne 0 ""
Po -550 0
$EndPAD
$SHAPE3D
Na "smd/capacitors/c_1206.wrl"
Sc 1.000000 1.000000 1.000000
Of 0.000000 0.000000 0.000000
Ro 0.000000 0.000000 0.000000
$EndSHAPE3D
$EndMODULE  c_1206
$MODULE c_1210
Po 0 0 0 15 49047413 00000000 ~~
Li c_1210
Cd SMT capacitor, 1210
Sc 00000000
AR
Op 0 0 0
T0 10 -690 197 197 0 47 N V 21 "c_1210"
T1 -10 680 197 197 0 47 N I 21 "C***"
DS -630 -490 -630 490 50 21
DS 630 490 630 -490 50 21
DS 450 -490 450 490 50 21
DS -450 490 -450 -490 50 21
DS -630 490 630 490 50 21
DS 630 -490 -630 -490 50 21
$PAD
Sh "1" R 630 1060 0 0 0
Dr 0 0 0
At SMD N 00888000
Ne 0 ""
Po 550 0
$EndPAD
$PAD
Sh "2" R 630 1060 0 0 0
Dr 0 0 0
At SMD N 00888000
Ne 0 ""
Po -550 0
$EndPAD
$SHAPE3D
Na "smd/capacitors/c_1210.wrl"
Sc 1.000000 1.000000 1.000000
Of 0.000000 0.000000 0.000000
Ro 0.000000 0.000000 0.000000
$EndSHAPE3D
$EndMODULE  c_1210
$MODULE c_2225
Po 0 0 0 15 49F57929 00000000 ~~
Li c_2225
Cd SMT capacitor, 2225
Sc 00000000
AR
Op 0 0 0
T0 0 -1500 197 197 0 47 N V 21 N"c_2225"
T1 0 1500 197 197 0 47 N I 21 N"C***"
DS 850 -1250 850 1250 50 21
DS -850 -1250 -850 1250 50 21
DS -1100 -1250 1100 -1250 50 21
DS 1100 -1250 1100 1250 50 21
DS 1100 1250 -1100 1250 50 21
DS -1100 1250 -1100 -1250 50 21
$PAD
Sh "1" R 728 2677 0 0 0
Dr 0 0 0
At SMD N 00888000
Ne 0 ""
Po 1014 0
$EndPAD
$PAD
Sh "2" R 728 2677 0 0 0
Dr 0 0 0
At SMD N 00888000
Ne 0 ""
Po -1014 0
$EndPAD
$SHAPE3D
Na "smd/capacitors/c_2225.wrl"
Sc 1.000000 1.000000 1.000000
Of 0.000000 0.000000 0.000000
Ro 0.000000 0.000000 0.000000
$EndSHAPE3D
$EndMODULE  c_2225
$MODULE c_2220
Po 0 0 0 15 49F5796D 00000000 ~~
Li c_2220
Cd SMT capacitor, 2220
Sc 00000000
AR
Op 0 0 0
T0 0 -1300 197 197 0 47 N V 21 N"c_2220"
T1 0 1300 197 197 0 47 N I 21 N"C***"
DS 850 -1000 850 1000 50 21
DS -850 -1000 -850 1000 50 21
DS -1100 -1000 1100 -1000 50 21
DS 1100 -1000 1100 1000 50 21
DS 1100 1000 -1100 1000 50 21
DS -1100 1000 -1100 -1000 50 21
$PAD
Sh "1" R 728 2165 0 0 0
Dr 0 0 0
At SMD N 00888000
Ne 0 ""
Po 1014 0
$EndPAD
$PAD
Sh "2" R 728 2165 0 0 0
Dr 0 0 0
At SMD N 00888000
Ne 0 ""
Po -1014 0
$EndPAD
$SHAPE3D
Na "smd/capacitors/c_2220.wrl"
Sc 1.000000 1.000000 1.000000
Of 0.000000 0.000000 0.000000
Ro 0.000000 0.000000 0.000000
$EndSHAPE3D
$EndMODULE  c_2220
$MODULE c_1825
Po 0 0 0 15 49F579BF 00000000 ~~
Li c_1825
Cd SMT capacitor, 1825
Sc 00000000
AR
Op 0 0 0
T0 0 -1550 197 197 0 47 N V 21 N"c_1825"
T1 0 1550 197 197 0 47 N I 21 N"C***"
DS 650 -1250 650 1250 50 21
DS -650 -1250 -650 1250 50 21
DS -900 -1250 -900 1250 50 21
DS -900 1250 900 1250 50 21
DS 900 1250 900 -1250 50 21
DS 900 -1250 -900 -1250 50 21
$PAD
Sh "1" R 709 2717 0 0 0
Dr 0 0 0
At SMD N 00888000
Ne 0 ""
Po 807 0
$EndPAD
$PAD
Sh "2" R 709 2717 0 0 0
Dr 0 0 0
At SMD N 00888000
Ne 0 ""
Po -807 0
$EndPAD
$SHAPE3D
Na "smd/capacitors/c_1825.wrl"
Sc 1.000000 1.000000 1.000000
Of 0.000000 0.000000 0.000000
Ro 0.000000 0.000000 0.000000
$EndSHAPE3D
$EndMODULE  c_1825
$MODULE c_1812
Po 0 0 0 15 49F57A12 00000000 ~~
Li c_1812
Cd SMT capacitor, 1812
Sc 00000000
AR
Op 0 0 0
T0 0 -900 197 197 0 47 N V 21 N"c_1812"
T1 0 900 197 197 0 47 N I 21 N"C***"
DS 650 -650 650 650 50 21
DS -650 -650 -650 650 50 21
DS -900 -650 -900 650 50 21
DS -900 650 900 650 50 21
DS 900 650 900 -650 50 21
DS 900 -650 -900 -650 50 21
$PAD
Sh "1" R 709 1457 0 0 0
Dr 0 0 0
At SMD N 00888000
Ne 0 ""
Po 807 0
$EndPAD
$PAD
Sh "2" R 709 1457 0 0 0
Dr 0 0 0
At SMD N 00888000
Ne 0 ""
Po -807 0
$EndPAD
$SHAPE3D
Na "smd/capacitors/c_1812.wrl"
Sc 1.000000 1.000000 1.000000
Of 0.000000 0.000000 0.000000
Ro 0.000000 0.000000 0.000000
$EndSHAPE3D
$EndMODULE  c_1812
$MODULE c_1808
Po 0 0 0 15 49F57A45 00000000 ~~
Li c_1808
Cd SMT capacitor, 1808
Sc 00000000
AR
Op 0 0 0
T0 10 -690 197 197 0 47 N V 21 N"c_1808"
T1 -10 680 197 197 0 47 N I 21 N"C***"
DS -650 -400 -650 400 50 21
DS 650 -400 650 400 50 21
DS -900 -400 -900 400 50 21
DS -900 400 900 400 50 21
DS 900 400 900 -400 50 21
DS 900 -400 -900 -400 50 21
$PAD
Sh "1" R 709 945 0 0 0
Dr 0 0 0
At SMD N 00888000
Ne 0 ""
Po 807 0
$EndPAD
$PAD
Sh "2" R 709 945 0 0 0
Dr 0 0 0
At SMD N 00888000
Ne 0 ""
Po -807 0
$EndPAD
$SHAPE3D
Na "smd/capacitors/c_1808.wrl"
Sc 1.000000 1.000000 1.000000
Of 0.000000 0.000000 0.000000
Ro 0.000000 0.000000 0.000000
$EndSHAPE3D
$EndMODULE  c_1808
$MODULE c_2512
Po 0 0 0 15 4C1FB425 00000000 ~~
Li Capacitor_SMD2512
Cd Capacitor, SMD, 2512, Hand soldering,
Kw Capacitor, SMD, 2512, Hand soldering,
Sc 00000000
AR
Op 0 0 0
T0 39 -1220 600 600 0 120 N V 21 N"C"
T1 -157 1654 600 600 0 120 N V 21 N"Capacitor_SMD2512"
DC 0 0 315 0 150 17
DS -1969 827 1969 827 150 21
DS 1929 -827 -591 -827 150 21
DS -591 -827 -1969 -827 150 21
DC 0 0 197 0 150 17
DC 0 0 79 0 150 17
$PAD
Sh "1" R 1772 1260 0 0 0
Dr 0 0 0
At SMD N 00888000
Ne 0 ""
Po -1890 0
$EndPAD
$PAD
Sh "2" R 1772 1260 0 0 0
Dr 0 0 0
At SMD N 00888000
Ne 0 ""
Po 1890 0
$EndPAD
$EndMODULE  Capacitor_SMD2512
$MODULE c_elec_4x5.7
Po 0 0 0 15 49F5A3B0 00000000 ~~
Li c_elec_4x5.7
Cd SMT capacitor, aluminium electrolytic, 4x5.7
Sc 00000000
AR
Op 0 0 0
T0 0 -1100 197 197 0 47 N V 21 N"c_elec_4x5.7"
T1 0 1100 197 197 0 47 N I 21 N"C***"
DS 650 0 350 0 50 21
DS 500 -150 500 150 50 21
DS 600 900 -900 900 50 21
DS 900 -600 900 600 50 21
DS 600 900 900 600 50 21
DS 600 -900 -900 -900 50 21
DS 600 -900 900 -600 50 21
DS -800 50 -800 -50 50 21
DS -750 -250 -750 250 50 21
DS -700 350 -700 -350 50 21
DS -650 450 -650 -450 50 21
DS -600 -500 -600 500 50 21
DS -550 550 -550 -550 50 21
DS -500 -600 -500 600 50 21
DS -450 -650 -450 650 50 21
DC 0 0 -800 0 50 21
DS -900 -900 -900 900 50 21
$PAD
Sh "1" R 1024 630 0 0 0
Dr 0 0 0
At SMD N 00888000
Ne 0 ""
Po 709 0
$EndPAD
$PAD
Sh "2" R 1024 630 0 0 0
Dr 0 0 0
At SMD N 00888000
Ne 0 ""
Po -709 0
$EndPAD
$SHAPE3D
Na "smd/capacitors/c_elec_4x5_7.wrl"
Sc 1.000000 1.000000 1.000000
Of 0.000000 0.000000 0.000000
Ro 0.000000 0.000000 0.000000
$EndSHAPE3D
$EndMODULE  c_elec_4x5.7
$MODULE c_elec_4x4.5
Po 0 0 0 15 49F5A3C5 00000000 ~~
Li c_elec_4x4.5
Cd SMT capacitor, aluminium electrolytic, 4x4.5
Sc 00000000
AR
Op 0 0 0
T0 0 -1100 197 197 0 47 N V 21 N"c_elec_4x4.5"
T1 0 1100 197 197 0 47 N I 21 N"C***"
DS 650 0 350 0 50 21
DS 500 -150 500 150 50 21
DS 600 900 -900 900 50 21
DS 900 -600 900 600 50 21
DS 600 900 900 600 50 21
DS 600 -900 -900 -900 50 21
DS 600 -900 900 -600 50 21
DS -800 50 -800 -50 50 21
DS -750 -250 -750 250 50 21
DS -700 350 -700 -350 50 21
DS -650 450 -650 -450 50 21
DS -600 -500 -600 500 50 21
DS -550 550 -550 -550 50 21
DS -500 -600 -500 600 50 21
DS -450 -650 -450 650 50 21
DC 0 0 -800 0 50 21
DS -900 -900 -900 900 50 21
$PAD
Sh "1" R 1024 630 0 0 0
Dr 0 0 0
At SMD N 00888000
Ne 0 ""
Po 709 0
$EndPAD
$PAD
Sh "2" R 1024 630 0 0 0
Dr 0 0 0
At SMD N 00888000
Ne 0 ""
Po -709 0
$EndPAD
$SHAPE3D
Na "smd/capacitors/c_elec_4x4_5.wrl"
Sc 1.000000 1.000000 1.000000
Of 0.000000 0.000000 0.000000
Ro 0.000000 0.000000 0.000000
$EndSHAPE3D
$EndMODULE  c_elec_4x4.5
$MODULE c_elec_4x5.3
Po 0 0 0 15 49F5A3DC 00000000 ~~
Li c_elec_4x5.3
Cd SMT capacitor, aluminium electrolytic, 4x5.3
Sc 00000000
AR
Op 0 0 0
T0 0 -1100 197 197 0 47 N V 21 N"c_elec_4x5.3"
T1 0 1100 197 197 0 47 N I 21 N"C***"
DS 650 0 350 0 50 21
DS 500 -150 500 150 50 21
DS 600 900 -900 900 50 21
DS 900 -600 900 600 50 21
DS 600 900 900 600 50 21
DS 600 -900 -900 -900 50 21
DS 600 -900 900 -600 50 21
DS -800 50 -800 -50 50 21
DS -750 -250 -750 250 50 21
DS -700 350 -700 -350 50 21
DS -650 450 -650 -450 50 21
DS -600 -500 -600 500 50 21
DS -550 550 -550 -550 50 21
DS -500 -600 -500 600 50 21
DS -450 -650 -450 650 50 21
DC 0 0 -800 0 50 21
DS -900 -900 -900 900 50 21
$PAD
Sh "1" R 1024 630 0 0 0
Dr 0 0 0
At SMD N 00888000
Ne 0 ""
Po 709 0
$EndPAD
$PAD
Sh "2" R 1024 630 0 0 0
Dr 0 0 0
At SMD N 00888000
Ne 0 ""
Po -709 0
$EndPAD
$SHAPE3D
Na "smd/capacitors/c_elec_4x5_3.wrl"
Sc 1.000000 1.000000 1.000000
Of 0.000000 0.000000 0.000000
Ro 0.000000 0.000000 0.000000
$EndSHAPE3D
$EndMODULE  c_elec_4x5.3
$MODULE c_elec_4x5.8
Po 0 0 0 15 49F5A3F0 00000000 ~~
Li c_elec_4x5.8
Cd SMT capacitor, aluminium electrolytic, 4x5.8
Sc 00000000
AR
Op 0 0 0
T0 0 -1100 197 197 0 47 N V 21 N"c_elec_4x5.8"
T1 0 1100 197 197 0 47 N I 21 N"C***"
DS 650 0 350 0 50 21
DS 500 -150 500 150 50 21
DS 600 900 -900 900 50 21
DS 900 -600 900 600 50 21
DS 600 900 900 600 50 21
DS 600 -900 -900 -900 50 21
DS 600 -900 900 -600 50 21
DS -800 50 -800 -50 50 21
DS -750 -250 -750 250 50 21
DS -700 350 -700 -350 50 21
DS -650 450 -650 -450 50 21
DS -600 -500 -600 500 50 21
DS -550 550 -550 -550 50 21
DS -500 -600 -500 600 50 21
DS -450 -650 -450 650 50 21
DC 0 0 -800 0 50 21
DS -900 -900 -900 900 50 21
$PAD
Sh "1" R 1024 630 0 0 0
Dr 0 0 0
At SMD N 00888000
Ne 0 ""
Po 709 0
$EndPAD
$PAD
Sh "2" R 1024 630 0 0 0
Dr 0 0 0
At SMD N 00888000
Ne 0 ""
Po -709 0
$EndPAD
$SHAPE3D
Na "smd/capacitors/c_elec_4x5_8.wrl"
Sc 1.000000 1.000000 1.000000
Of 0.000000 0.000000 0.000000
Ro 0.000000 0.000000 0.000000
$EndSHAPE3D
$EndMODULE  c_elec_4x5.8
$MODULE c_elec_3x5.3
Po 0 0 0 15 49F5AB9E 00000000 ~~
Li c_elec_3x5.3
Cd SMT capacitor, aluminium electrolytic, 3x5.3
Sc 00000000
AR
Op 0 0 0
T0 0 -850 197 197 0 47 N V 21 N"c_elec_3x5.3"
T1 0 850 197 197 0 47 N I 21 N"C***"
DS -650 -650 -650 650 50 21
DS -650 650 350 650 50 21
DS 350 650 650 350 50 21
DS 650 350 650 -350 50 21
DS 650 -350 350 -650 50 21
DS 350 -650 -650 -650 50 21
DS -550 -200 -550 200 50 21
DS -500 -300 -500 300 50 21
DS -450 -400 -450 400 50 21
DS -400 -450 -400 450 50 21
DC 0 0 600 0 50 21
DS 450 0 150 0 50 21
DS 300 -150 300 150 50 21
$PAD
Sh "1" R 866 630 0 0 0
Dr 0 0 0
At SMD N 00888000
Ne 0 ""
Po 591 0
$EndPAD
$PAD
Sh "2" R 866 630 0 0 0
Dr 0 0 0
At SMD N 00888000
Ne 0 ""
Po -591 0
$EndPAD
$SHAPE3D
Na "smd/capacitors/c_elec_3x5_3.wrl"
Sc 1.000000 1.000000 1.000000
Of 0.000000 0.000000 0.000000
Ro 0.000000 0.000000 0.000000
$EndSHAPE3D
$EndMODULE  c_elec_3x5.3
$MODULE c_elec_5x4.5
Po 0 0 0 15 49F5AF52 00000000 ~~
Li c_elec_5x4.5
Cd SMT capacitor, aluminium electrolytic, 5x4.5
Sc 00000000
AR
Op 0 0 0
T0 0 -1250 197 197 0 47 N V 21 N"c_elec_5x4.5"
T1 0 1250 197 197 0 47 N I 21 N"C***"
DS -900 -250 -900 300 50 21
DS -850 -350 -850 350 50 21
DS -800 -500 -800 500 50 21
DS -750 550 -750 -550 50 21
DS -700 -600 -700 600 50 21
DS -650 650 -650 -650 50 21
DS -600 -700 -600 700 50 21
DC 0 0 -950 0 50 21
DS -1050 -1050 750 -1050 50 21
DS 750 -1050 1050 -750 50 21
DS 1050 -750 1050 750 50 21
DS 1050 750 750 1050 50 21
DS 750 1050 -1050 1050 50 21
DS -1050 1050 -1050 -1050 50 21
DS 850 0 550 0 50 21
DS 700 -150 700 150 50 21
$PAD
Sh "1" R 1181 630 0 0 0
Dr 0 0 0
At SMD N 00888000
Ne 0 ""
Po 866 0
$EndPAD
$PAD
Sh "2" R 1181 630 0 0 0
Dr 0 0 0
At SMD N 00888000
Ne 0 ""
Po -866 0
$EndPAD
$SHAPE3D
Na "smd/capacitors/c_elec_5x4_5.wrl"
Sc 1.000000 1.000000 1.000000
Of 0.000000 0.000000 0.000000
Ro 0.000000 0.000000 0.000000
$EndSHAPE3D
$EndMODULE  c_elec_5x4.5
$MODULE c_elec_5x5.3
Po 0 0 0 15 49F5AF5C 00000000 ~~
Li c_elec_5x5.3
Cd SMT capacitor, aluminium electrolytic, 5x5.3
Sc 00000000
AR
Op 0 0 0
T0 0 -1250 197 197 0 47 N V 21 N"c_elec_5x5.3"
T1 0 1250 197 197 0 47 N I 21 N"C***"
DS -900 -250 -900 300 50 21
DS -850 -350 -850 350 50 21
DS -800 -500 -800 500 50 21
DS -750 550 -750 -550 50 21
DS -700 -600 -700 600 50 21
DS -650 650 -650 -650 50 21
DS -600 -700 -600 700 50 21
DC 0 0 -950 0 50 21
DS -1050 -1050 750 -1050 50 21
DS 750 -1050 1050 -750 50 21
DS 1050 -750 1050 750 50 21
DS 1050 750 750 1050 50 21
DS 750 1050 -1050 1050 50 21
DS -1050 1050 -1050 -1050 50 21
DS 850 0 550 0 50 21
DS 700 -150 700 150 50 21
$PAD
Sh "1" R 1181 630 0 0 0
Dr 0 0 0
At SMD N 00888000
Ne 0 ""
Po 866 0
$EndPAD
$PAD
Sh "2" R 1181 630 0 0 0
Dr 0 0 0
At SMD N 00888000
Ne 0 ""
Po -866 0
$EndPAD
$SHAPE3D
Na "smd/capacitors/c_elec_5x5_3.wrl"
Sc 1.000000 1.000000 1.000000
Of 0.000000 0.000000 0.000000
Ro 0.000000 0.000000 0.000000
$EndSHAPE3D
$EndMODULE  c_elec_5x5.3
$MODULE c_elec_5x5.7
Po 0 0 0 15 49F5AF70 00000000 ~~
Li c_elec_5x5.7
Cd SMT capacitor, aluminium electrolytic, 5x5.7
Sc 00000000
AR
Op 0 0 0
T0 0 -1250 197 197 0 47 N V 21 N"c_elec_5x5.7"
T1 0 1250 197 197 0 47 N I 21 N"C***"
DS -900 -250 -900 300 50 21
DS -850 -350 -850 350 50 21
DS -800 -500 -800 500 50 21
DS -750 550 -750 -550 50 21
DS -700 -600 -700 600 50 21
DS -650 650 -650 -650 50 21
DS -600 -700 -600 700 50 21
DC 0 0 -950 0 50 21
DS -1050 -1050 750 -1050 50 21
DS 750 -1050 1050 -750 50 21
DS 1050 -750 1050 750 50 21
DS 1050 750 750 1050 50 21
DS 750 1050 -1050 1050 50 21
DS -1050 1050 -1050 -1050 50 21
DS 850 0 550 0 50 21
DS 700 -150 700 150 50 21
$PAD
Sh "1" R 1181 630 0 0 0
Dr 0 0 0
At SMD N 00888000
Ne 0 ""
Po 866 0
$EndPAD
$PAD
Sh "2" R 1181 630 0 0 0
Dr 0 0 0
At SMD N 00888000
Ne 0 ""
Po -866 0
$EndPAD
$SHAPE3D
Na "smd/capacitors/c_elec_5x5_7.wrl"
Sc 1.000000 1.000000 1.000000
Of 0.000000 0.000000 0.000000
Ro 0.000000 0.000000 0.000000
$EndSHAPE3D
$EndMODULE  c_elec_5x5.7
$MODULE c_elec_5x5.8
Po 0 0 0 15 49F5AF88 00000000 ~~
Li c_elec_5x5.8
Cd SMT capacitor, aluminium electrolytic, 5x5.8
Sc 00000000
AR
Op 0 0 0
T0 0 -1250 197 197 0 47 N V 21 N"c_elec_5x5.8"
T1 0 1250 197 197 0 47 N I 21 N"C***"
DS -900 -250 -900 300 50 21
DS -850 -350 -850 350 50 21
DS -800 -500 -800 500 50 21
DS -750 550 -750 -550 50 21
DS -700 -600 -700 600 50 21
DS -650 650 -650 -650 50 21
DS -600 -700 -600 700 50 21
DC 0 0 -950 0 50 21
DS -1050 -1050 750 -1050 50 21
DS 750 -1050 1050 -750 50 21
DS 1050 -750 1050 750 50 21
DS 1050 750 750 1050 50 21
DS 750 1050 -1050 1050 50 21
DS -1050 1050 -1050 -1050 50 21
DS 850 0 550 0 50 21
DS 700 -150 700 150 50 21
$PAD
Sh "1" R 1181 630 0 0 0
Dr 0 0 0
At SMD N 00888000
Ne 0 ""
Po 866 0
$EndPAD
$PAD
Sh "2" R 1181 630 0 0 0
Dr 0 0 0
At SMD N 00888000
Ne 0 ""
Po -866 0
$EndPAD
$SHAPE3D
Na "smd/capacitors/c_elec_5x5_8.wrl"
Sc 1.000000 1.000000 1.000000
Of 0.000000 0.000000 0.000000
Ro 0.000000 0.000000 0.000000
$EndSHAPE3D
$EndMODULE  c_elec_5x5.8
$MODULE c_elec_6.3x4.5
Po 0 0 0 15 49F5C062 00000000 ~~
Li c_elec_6.3x4.5
Cd SMT capacitor, aluminium electrolytic, 6.3x4.5
Sc 00000000
AR
Op 0 0 0
T0 0 -1550 197 197 0 47 N V 21 N"c_elec_6.3x4.5"
T1 0 1500 197 197 0 47 N I 21 N"C***"
DS -1150 -300 -1150 300 50 21
DS -1100 450 -1100 -450 50 21
DS -1050 -550 -1050 550 50 21
DS -1000 650 -1000 -650 50 21
DS -950 -700 -950 700 50 21
DC 0 0 -1200 0 50 21
DS -1300 -1300 -1300 1300 50 21
DS -1300 1300 1000 1300 50 21
DS 1000 1300 1300 1000 50 21
DS 1300 1000 1300 -1000 50 21
DS 1300 -1000 1000 -1300 50 21
DS 1000 -1300 -1300 -1300 50 21
DS 850 0 550 0 50 21
DS 700 -150 700 150 50 21
$PAD
Sh "1" R 1417 630 0 0 0
Dr 0 0 0
At SMD N 00888000
Ne 0 ""
Po 1083 0
$EndPAD
$PAD
Sh "2" R 1417 630 0 0 0
Dr 0 0 0
At SMD N 00888000
Ne 0 ""
Po -1083 0
$EndPAD
$SHAPE3D
Na "smd/capacitors/c_elec_6_3x4_5.wrl"
Sc 1.000000 1.000000 1.000000
Of 0.000000 0.000000 0.000000
Ro 0.000000 0.000000 0.000000
$EndSHAPE3D
$EndMODULE  c_elec_6.3x4.5
$MODULE c_elec_6.3x5.3
Po 0 0 0 15 49F5C06F 00000000 ~~
Li c_elec_6.3x5.3
Cd SMT capacitor, aluminium electrolytic, 6.3x5.3
Sc 00000000
AR
Op 0 0 0
T0 0 -1550 197 197 0 47 N V 21 N"c_elec_6.3x5.3"
T1 0 1500 197 197 0 47 N I 21 N"C***"
DS -1150 -300 -1150 300 50 21
DS -1100 450 -1100 -450 50 21
DS -1050 -550 -1050 550 50 21
DS -1000 650 -1000 -650 50 21
DS -950 -700 -950 700 50 21
DC 0 0 -1200 0 50 21
DS -1300 -1300 -1300 1300 50 21
DS -1300 1300 1000 1300 50 21
DS 1000 1300 1300 1000 50 21
DS 1300 1000 1300 -1000 50 21
DS 1300 -1000 1000 -1300 50 21
DS 1000 -1300 -1300 -1300 50 21
DS 850 0 550 0 50 21
DS 700 -150 700 150 50 21
$PAD
Sh "1" R 1417 630 0 0 0
Dr 0 0 0
At SMD N 00888000
Ne 0 ""
Po 1083 0
$EndPAD
$PAD
Sh "2" R 1417 630 0 0 0
Dr 0 0 0
At SMD N 00888000
Ne 0 ""
Po -1083 0
$EndPAD
$SHAPE3D
Na "smd/capacitors/c_elec_6_3x5_3.wrl"
Sc 1.000000 1.000000 1.000000
Of 0.000000 0.000000 0.000000
Ro 0.000000 0.000000 0.000000
$EndSHAPE3D
$EndMODULE  c_elec_6.3x5.3
$MODULE c_elec_6.3x5.7
Po 0 0 0 15 49F5C08A 00000000 ~~
Li c_elec_6.3x5.7
Cd SMT capacitor, aluminium electrolytic, 6.3x5.7
Sc 00000000
AR
Op 0 0 0
T0 0 -1550 197 197 0 47 N V 21 N"c_elec_6.3x5.7"
T1 0 1500 197 197 0 47 N I 21 N"C***"
DS -1150 -300 -1150 300 50 21
DS -1100 450 -1100 -450 50 21
DS -1050 -550 -1050 550 50 21
DS -1000 650 -1000 -650 50 21
DS -950 -700 -950 700 50 21
DC 0 0 -1200 0 50 21
DS -1300 -1300 -1300 1300 50 21
DS -1300 1300 1000 1300 50 21
DS 1000 1300 1300 1000 50 21
DS 1300 1000 1300 -1000 50 21
DS 1300 -1000 1000 -1300 50 21
DS 1000 -1300 -1300 -1300 50 21
DS 850 0 550 0 50 21
DS 700 -150 700 150 50 21
$PAD
Sh "1" R 1417 630 0 0 0
Dr 0 0 0
At SMD N 00888000
Ne 0 ""
Po 1083 0
$EndPAD
$PAD
Sh "2" R 1417 630 0 0 0
Dr 0 0 0
At SMD N 00888000
Ne 0 ""
Po -1083 0
$EndPAD
$SHAPE3D
Na "smd/capacitors/c_elec_6_3x5_7.wrl"
Sc 1.000000 1.000000 1.000000
Of 0.000000 0.000000 0.000000
Ro 0.000000 0.000000 0.000000
$EndSHAPE3D
$EndMODULE  c_elec_6.3x5.7
$MODULE c_elec_6.3x5.8
Po 0 0 0 15 49F5C09D 00000000 ~~
Li c_elec_6.3x5.8
Cd SMT capacitor, aluminium electrolytic, 6.3x5.8
Sc 00000000
AR
Op 0 0 0
T0 0 -1550 197 197 0 47 N V 21 N"c_elec_6.3x5.8"
T1 0 1500 197 197 0 47 N I 21 N"C***"
DS -1150 -300 -1150 300 50 21
DS -1100 450 -1100 -450 50 21
DS -1050 -550 -1050 550 50 21
DS -1000 650 -1000 -650 50 21
DS -950 -700 -950 700 50 21
DC 0 0 -1200 0 50 21
DS -1300 -1300 -1300 1300 50 21
DS -1300 1300 1000 1300 50 21
DS 1000 1300 1300 1000 50 21
DS 1300 1000 1300 -1000 50 21
DS 1300 -1000 1000 -1300 50 21
DS 1000 -1300 -1300 -1300 50 21
DS 850 0 550 0 50 21
DS 700 -150 700 150 50 21
$PAD
Sh "1" R 1417 630 0 0 0
Dr 0 0 0
At SMD N 00888000
Ne 0 ""
Po 1083 0
$EndPAD
$PAD
Sh "2" R 1417 630 0 0 0
Dr 0 0 0
At SMD N 00888000
Ne 0 ""
Po -1083 0
$EndPAD
$SHAPE3D
Na "smd/capacitors/c_elec_6_3x5_8.wrl"
Sc 1.000000 1.000000 1.000000
Of 0.000000 0.000000 0.000000
Ro 0.000000 0.000000 0.000000
$EndSHAPE3D
$EndMODULE  c_elec_6.3x5.8
$MODULE c_elec_6.3x7.7
Po 0 0 0 15 49F5C0C2 00000000 ~~
Li c_elec_6.3x7.7
Cd SMT capacitor, aluminium electrolytic, 6.3x7.7
Sc 00000000
AR
Op 0 0 0
T0 0 -1550 197 197 0 47 N V 21 N"c_elec_6.3x7.7"
T1 0 1500 197 197 0 47 N I 21 N"C***"
DS -1150 -300 -1150 300 50 21
DS -1100 450 -1100 -450 50 21
DS -1050 -550 -1050 550 50 21
DS -1000 650 -1000 -650 50 21
DS -950 -700 -950 700 50 21
DC 0 0 -1200 0 50 21
DS -1300 -1300 -1300 1300 50 21
DS -1300 1300 1000 1300 50 21
DS 1000 1300 1300 1000 50 21
DS 1300 1000 1300 -1000 50 21
DS 1300 -1000 1000 -1300 50 21
DS 1000 -1300 -1300 -1300 50 21
DS 850 0 550 0 50 21
DS 700 -150 700 150 50 21
$PAD
Sh "1" R 1417 630 0 0 0
Dr 0 0 0
At SMD N 00888000
Ne 0 ""
Po 1083 0
$EndPAD
$PAD
Sh "2" R 1417 630 0 0 0
Dr 0 0 0
At SMD N 00888000
Ne 0 ""
Po -1083 0
$EndPAD
$SHAPE3D
Na "smd/capacitors/c_elec_6_3x7_7.wrl"
Sc 1.000000 1.000000 1.000000
Of 0.000000 0.000000 0.000000
Ro 0.000000 0.000000 0.000000
$EndSHAPE3D
$EndMODULE  c_elec_6.3x7.7
$MODULE c_elec_8x6.5
Po 0 0 0 15 49F5C611 00000000 ~~
Li c_elec_8x6.5
Cd SMT capacitor, aluminium electrolytic, 8x6.5
Sc 00000000
AR
Op 0 0 0
T0 0 -1900 197 197 0 47 N V 21 N"c_elec_8x6.5"
T1 0 1900 197 197 0 47 N I 21 N"C***"
DS -1500 -400 -1500 400 50 21
DS -1450 550 -1450 -550 50 21
DS -1400 -650 -1400 650 50 21
DS -1350 750 -1350 -750 50 21
DS -1300 800 -1300 -800 50 21
DS -1250 -900 -1250 900 50 21
DC 0 0 1550 0 50 21
DS -1650 -1650 -1650 1650 50 21
DS -1650 1650 1350 1650 50 21
DS 1350 1650 1650 1350 50 21
DS 1650 1350 1650 -1350 50 21
DS 1650 -1350 1350 -1650 50 21
DS 1350 -1650 -1650 -1650 50 21
DS 1450 0 1150 0 50 21
DS 1300 -150 1300 150 50 21
$PAD
Sh "1" R 1575 630 0 0 0
Dr 0 0 0
At SMD N 00888000
Ne 0 ""
Po 1201 0
$EndPAD
$PAD
Sh "2" R 1575 630 0 0 0
Dr 0 0 0
At SMD N 00888000
Ne 0 ""
Po -1201 0
$EndPAD
$SHAPE3D
Na "smd/capacitors/c_elec_8x6_5.wrl"
Sc 1.000000 1.000000 1.000000
Of 0.000000 0.000000 0.000000
Ro 0.000000 0.000000 0.000000
$EndSHAPE3D
$EndMODULE  c_elec_8x6.5
$MODULE c_elec_8x6.7
Po 0 0 0 15 49F5C643 00000000 ~~
Li c_elec_8x6.7
Cd SMT capacitor, aluminium electrolytic, 8x6.7
Sc 00000000
AR
Op 0 0 0
T0 0 -1900 197 197 0 47 N V 21 N"c_elec_8x6.7"
T1 0 1900 197 197 0 47 N I 21 N"C***"
DS -1500 -400 -1500 400 50 21
DS -1450 550 -1450 -550 50 21
DS -1400 -650 -1400 650 50 21
DS -1350 750 -1350 -750 50 21
DS -1300 800 -1300 -800 50 21
DS -1250 -900 -1250 900 50 21
DC 0 0 1550 0 50 21
DS -1650 -1650 -1650 1650 50 21
DS -1650 1650 1350 1650 50 21
DS 1350 1650 1650 1350 50 21
DS 1650 1350 1650 -1350 50 21
DS 1650 -1350 1350 -1650 50 21
DS 1350 -1650 -1650 -1650 50 21
DS 1450 0 1150 0 50 21
DS 1300 -150 1300 150 50 21
$PAD
Sh "1" R 1575 630 0 0 0
Dr 0 0 0
At SMD N 00888000
Ne 0 ""
Po 1201 0
$EndPAD
$PAD
Sh "2" R 1575 630 0 0 0
Dr 0 0 0
At SMD N 00888000
Ne 0 ""
Po -1201 0
$EndPAD
$SHAPE3D
Na "smd/capacitors/c_elec_8x6_7.wrl"
Sc 1.000000 1.000000 1.000000
Of 0.000000 0.000000 0.000000
Ro 0.000000 0.000000 0.000000
$EndSHAPE3D
$EndMODULE  c_elec_8x6.7
$MODULE c_elec_8x10
Po 0 0 0 15 49F5C68A 00000000 ~~
Li c_elec_8x10
Cd SMT capacitor, aluminium electrolytic, 8x10
Sc 00000000
AR
Op 0 0 0
T0 0 -1900 197 197 0 47 N V 21 N"c_elec_8x10"
T1 0 1900 197 197 0 47 N I 21 N"C***"
DS -1500 -400 -1500 400 50 21
DS -1450 550 -1450 -550 50 21
DS -1400 -650 -1400 650 50 21
DS -1350 750 -1350 -750 50 21
DS -1300 800 -1300 -800 50 21
DS -1250 -900 -1250 900 50 21
DC 0 0 1550 0 50 21
DS -1650 -1650 -1650 1650 50 21
DS -1650 1650 1350 1650 50 21
DS 1350 1650 1650 1350 50 21
DS 1650 1350 1650 -1350 50 21
DS 1650 -1350 1350 -1650 50 21
DS 1350 -1650 -1650 -1650 50 21
DS 1450 0 1150 0 50 21
DS 1300 -150 1300 150 50 21
$PAD
Sh "1" R 1378 945 0 0 0
Dr 0 0 0
At SMD N 00888000
Ne 0 ""
Po 1280 0
$EndPAD
$PAD
Sh "2" R 1378 945 0 0 0
Dr 0 0 0
At SMD N 00888000
Ne 0 ""
Po -1280 0
$EndPAD
$SHAPE3D
Na "smd/capacitors/c_elec_8x10.wrl"
Sc 1.000000 1.000000 1.000000
Of 0.000000 0.000000 0.000000
Ro 0.000000 0.000000 0.000000
$EndSHAPE3D
$EndMODULE  c_elec_8x10
$MODULE c_elec_8x10.5
Po 0 0 0 15 49F5C6A3 00000000 ~~
Li c_elec_8x10.5
Cd SMT capacitor, aluminium electrolytic, 8x10.5
Sc 00000000
AR
Op 0 0 0
T0 0 -1900 197 197 0 47 N V 21 N"c_elec_8x10.5"
T1 0 1900 197 197 0 47 N I 21 N"C***"
DS -1500 -400 -1500 400 50 21
DS -1450 550 -1450 -550 50 21
DS -1400 -650 -1400 650 50 21
DS -1350 750 -1350 -750 50 21
DS -1300 800 -1300 -800 50 21
DS -1250 -900 -1250 900 50 21
DC 0 0 1550 0 50 21
DS -1650 -1650 -1650 1650 50 21
DS -1650 1650 1350 1650 50 21
DS 1350 1650 1650 1350 50 21
DS 1650 1350 1650 -1350 50 21
DS 1650 -1350 1350 -1650 50 21
DS 1350 -1650 -1650 -1650 50 21
DS 1450 0 1150 0 50 21
DS 1300 -150 1300 150 50 21
$PAD
Sh "1" R 1378 945 0 0 0
Dr 0 0 0
At SMD N 00888000
Ne 0 ""
Po 1280 0
$EndPAD
$PAD
Sh "2" R 1378 945 0 0 0
Dr 0 0 0
At SMD N 00888000
Ne 0 ""
Po -1280 0
$EndPAD
$SHAPE3D
Na "smd/capacitors/c_elec_8x10_5.wrl"
Sc 1.000000 1.000000 1.000000
Of 0.000000 0.000000 0.000000
Ro 0.000000 0.000000 0.000000
$EndSHAPE3D
$EndMODULE  c_elec_8x10.5
$MODULE c_elec_10x10.5
Po 0 0 0 15 49F5D1F6 00000000 ~~
Li c_elec_10x10.5
Cd SMT capacitor, aluminium electrolytic, 10x10.5
Sc 00000000
AR
Op 0 0 0
T0 0 -2300 197 197 0 47 N V 21 N"c_elec_10x10.5"
T1 0 2300 197 197 0 47 N I 21 N"C***"
DS -1900 400 -1900 -400 50 21
DS -1850 -550 -1850 600 50 21
DS -1800 700 -1800 -700 50 21
DS -1750 -850 -1750 850 50 21
DS -1700 950 -1700 -950 50 21
DS -1650 -1000 -1650 1000 50 21
DC 0 0 1950 0 50 21
DS -2050 -2050 -2050 2050 50 21
DS -2050 2050 1750 2050 50 21
DS 1750 2050 2050 1750 50 21
DS 2050 1750 2050 -1750 50 21
DS 2050 -1750 1750 -2050 50 21
DS 1750 -2050 -2050 -2050 50 21
DS 1800 0 1500 0 50 21
DS 1650 -150 1650 150 50 21
$PAD
Sh "1" R 1575 945 0 0 0
Dr 0 0 0
At SMD N 00888000
Ne 0 ""
Po 1575 0
$EndPAD
$PAD
Sh "2" R 1575 945 0 0 0
Dr 0 0 0
At SMD N 00888000
Ne 0 ""
Po -1575 0
$EndPAD
$SHAPE3D
Na "smd/capacitors/c_elec_10x10_5.wrl"
Sc 1.000000 1.000000 1.000000
Of 0.000000 0.000000 0.000000
Ro 0.000000 0.000000 0.000000
$EndSHAPE3D
$EndMODULE  c_elec_10x10.5
$MODULE c_elec_10x10
Po 0 0 0 15 49F5D23B 00000000 ~~
Li c_elec_10x10
Cd SMT capacitor, aluminium electrolytic, 10x10
Sc 00000000
AR
Op 0 0 0
T0 0 -2300 197 197 0 47 N V 21 N"c_elec_10x10"
T1 0 2300 197 197 0 47 N I 21 N"C***"
DS -1900 400 -1900 -400 50 21
DS -1850 -550 -1850 600 50 21
DS -1800 700 -1800 -700 50 21
DS -1750 -850 -1750 850 50 21
DS -1700 950 -1700 -950 50 21
DS -1650 -1000 -1650 1000 50 21
DC 0 0 1950 0 50 21
DS -2050 -2050 -2050 2050 50 21
DS -2050 2050 1750 2050 50 21
DS 1750 2050 2050 1750 50 21
DS 2050 1750 2050 -1750 50 21
DS 2050 -1750 1750 -2050 50 21
DS 1750 -2050 -2050 -2050 50 21
DS 1800 0 1500 0 50 21
DS 1650 -150 1650 150 50 21
$PAD
Sh "1" R 1575 945 0 0 0
Dr 0 0 0
At SMD N 00888000
Ne 0 ""
Po 1575 0
$EndPAD
$PAD
Sh "2" R 1575 945 0 0 0
Dr 0 0 0
At SMD N 00888000
Ne 0 ""
Po -1575 0
$EndPAD
$SHAPE3D
Na "smd/capacitors/c_elec_10x10.wrl"
Sc 1.000000 1.000000 1.000000
Of 0.000000 0.000000 0.000000
Ro 0.000000 0.000000 0.000000
$EndSHAPE3D
$EndMODULE  c_elec_10x10
$MODULE c_elec_10x7.7
Po 0 0 0 15 49F5D21A 00000000 ~~
Li c_elec_10x7.7
Cd SMT capacitor, aluminium electrolytic, 10x7.7
Sc 00000000
AR
Op 0 0 0
T0 0 -2300 197 197 0 47 N V 21 N"c_elec_10x7.7"
T1 0 2300 197 197 0 47 N I 21 N"C***"
DS -1900 400 -1900 -400 50 21
DS -1850 -550 -1850 600 50 21
DS -1800 700 -1800 -700 50 21
DS -1750 -850 -1750 850 50 21
DS -1700 950 -1700 -950 50 21
DS -1650 -1000 -1650 1000 50 21
DC 0 0 1950 0 50 21
DS -2050 -2050 -2050 2050 50 21
DS -2050 2050 1750 2050 50 21
DS 1750 2050 2050 1750 50 21
DS 2050 1750 2050 -1750 50 21
DS 2050 -1750 1750 -2050 50 21
DS 1750 -2050 -2050 -2050 50 21
DS 1800 0 1500 0 50 21
DS 1650 -150 1650 150 50 21
$PAD
Sh "1" R 1575 945 0 0 0
Dr 0 0 0
At SMD N 00888000
Ne 0 ""
Po 1575 0
$EndPAD
$PAD
Sh "2" R 1575 945 0 0 0
Dr 0 0 0
At SMD N 00888000
Ne 0 ""
Po -1575 0
$EndPAD
$SHAPE3D
Na "smd/capacitors/c_elec_10x7_7.wrl"
Sc 1.000000 1.000000 1.000000
Of 0.000000 0.000000 0.000000
Ro 0.000000 0.000000 0.000000
$EndSHAPE3D
$EndMODULE  c_elec_10x7.7
$MODULE c_tant_X
Po 0 0 0 15 4D5D9149 00000000 ~~
Li c_tant_X
Cd SMT capacitor, tantalum size X
Sc 00000000
AR
Op 0 0 0
T0 0 -1075 197 197 0 47 N V 21 N"c_tant_X"
T1 0 1075 197 197 0 47 N I 21 N"C***"
DS 1000 -850 1000 850 50 21
DS -1450 -850 -1450 850 50 21
DS -1450 850 1450 850 50 21
DS 1450 850 1450 -850 50 21
DS 1450 -850 -1450 -850 50 21
$PAD
Sh "1" R 1004 1063 0 0 0
Dr 0 0 0
At SMD N 00888000
Ne 0 ""
Po 1181 0
$EndPAD
$PAD
Sh "2" R 1004 1496 0 0 0
Dr 0 0 0
At SMD N 00888000
Ne 0 ""
Po -1181 0
$EndPAD
$SHAPE3D
Na "smd/capacitors/c_tant_X.wrl"
Sc 1.000000 1.000000 1.000000
Of 0.000000 0.000000 0.000000
Ro 0.000000 0.000000 0.000000
$EndSHAPE3D
$EndMODULE  c_tant_X
$MODULE c_tant_V
Po 0 0 0 15 4D5D915C 00000000 ~~
Li c_tant_V
Cd SMT capacitor, tantalum size V
Sc 00000000
AR
Op 0 0 0
T0 0 -1075 197 197 0 47 N V 21 N"c_tant_V"
T1 0 1075 197 197 0 47 N I 21 N"C***"
DS 1000 -850 1000 850 50 21
DS -1450 -850 -1450 850 50 21
DS -1450 850 1450 850 50 21
DS 1450 850 1450 -850 50 21
DS 1450 -850 -1450 -850 50 21
$PAD
Sh "1" R 1004 1063 0 0 0
Dr 0 0 0
At SMD N 00888000
Ne 0 ""
Po 1181 0
$EndPAD
$PAD
Sh "2" R 1004 1496 0 0 0
Dr 0 0 0
At SMD N 00888000
Ne 0 ""
Po -1181 0
$EndPAD
$SHAPE3D
Na "smd/capacitors/c_tant_V.wrl"
Sc 1.000000 1.000000 1.000000
Of 0.000000 0.000000 0.000000
Ro 0.000000 0.000000 0.000000
$EndSHAPE3D
$EndMODULE  c_tant_V
$MODULE c_tant_U
Po 0 0 0 15 4D5D916B 00000000 ~~
Li c_tant_U
Cd SMT capacitor, tantalum size U
Sc 00000000
AR
Op 0 0 0
T0 0 -850 197 197 0 47 N V 21 N"c_tant_U"
T1 0 825 197 197 0 47 N I 21 N"C***"
DS 825 -625 825 625 50 21
DS -1200 -625 -1200 625 50 21
DS -1200 625 1200 625 50 21
DS 1200 625 1200 -625 50 21
DS 1200 -625 -1200 -625 50 21
$PAD
Sh "1" R 1004 984 0 0 0
Dr 0 0 0
At SMD N 00888000
Ne 0 ""
Po 994 0
$EndPAD
$PAD
Sh "2" R 1004 984 0 0 0
Dr 0 0 0
At SMD N 00888000
Ne 0 ""
Po -994 0
$EndPAD
$SHAPE3D
Na "smd/capacitors/c_tant_U.wrl"
Sc 1.000000 1.000000 1.000000
Of 0.000000 0.000000 0.000000
Ro 0.000000 0.000000 0.000000
$EndSHAPE3D
$EndMODULE  c_tant_U
$MODULE c_tant_T
Po 0 0 0 15 4D5D9177 00000000 ~~
Li c_tant_T
Cd SMT capacitor, tantalum size T
Sc 00000000
AR
Op 0 0 0
T0 0 -775 197 197 0 47 N V 21 N"c_tant_T"
T1 0 775 197 197 0 47 N I 21 N"C***"
DS 475 -550 475 550 50 21
DS 700 -550 -700 -550 50 21
DS -700 -550 -700 550 50 21
DS -700 550 700 550 50 21
DS 700 550 700 -550 50 21
$PAD
Sh "1" R 768 984 0 0 0
Dr 0 0 0
At SMD N 00888000
Ne 0 ""
Po 600 0
$EndPAD
$PAD
Sh "2" R 768 984 0 0 0
Dr 0 0 0
At SMD N 00888000
Ne 0 ""
Po -600 0
$EndPAD
$SHAPE3D
Na "smd/capacitors/c_tant_T.wrl"
Sc 1.000000 1.000000 1.000000
Of 0.000000 0.000000 0.000000
Ro 0.000000 0.000000 0.000000
$EndSHAPE3D
$EndMODULE  c_tant_T
$MODULE c_tant_S
Po 0 0 0 15 4D5D9184 00000000 ~~
Li c_tant_S
Cd SMT capacitor, tantalum size S
Sc 00000000
AR
Op 0 0 0
T0 10 -510 197 197 0 47 N V 21 N"c_tant_S"
T1 0 500 197 197 0 47 N I 21 N"C***"
DS 450 320 450 -320 50 21
DS -630 -320 -630 320 50 21
DS -630 320 630 320 50 21
DS 630 320 630 -320 50 21
DS 630 -320 -630 -320 50 21
$PAD
Sh "1" R 768 591 0 0 0
Dr 0 0 0
At SMD N 00888000
Ne 0 ""
Po 541 0
$EndPAD
$PAD
Sh "2" R 768 591 0 0 0
Dr 0 0 0
At SMD N 00888000
Ne 0 ""
Po -541 0
$EndPAD
$SHAPE3D
Na "smd/capacitors/c_tant_S.wrl"
Sc 1.000000 1.000000 1.000000
Of 0.000000 0.000000 0.000000
Ro 0.000000 0.000000 0.000000
$EndSHAPE3D
$EndMODULE  c_tant_S
$MODULE c_tant_R
Po 0 0 0 15 4D5D9192 00000000 ~~
Li c_tant_R
Cd SMT capacitor, tantalum size R
Sc 00000000
AR
Op 0 0 0
T0 10 -510 197 197 0 47 N V 21 N"c_tant_R"
T1 0 500 197 197 0 47 N I 21 N"C***"
DS 250 -250 250 250 50 21
DS -400 -250 -400 250 50 21
DS -400 250 400 250 50 21
DS 400 250 400 -250 50 21
DS 400 -250 -400 -250 50 21
$PAD
Sh "1" R 610 709 0 0 0
Dr 0 0 0
At SMD N 00888000
Ne 0 ""
Po 463 0
$EndPAD
$PAD
Sh "2" R 610 709 0 0 0
Dr 0 0 0
At SMD N 00888000
Ne 0 ""
Po -463 0
$EndPAD
$SHAPE3D
Na "smd/capacitors/c_tant_R.wrl"
Sc 1.000000 1.000000 1.000000
Of 0.000000 0.000000 0.000000
Ro 0.000000 0.000000 0.000000
$EndSHAPE3D
$EndMODULE  c_tant_R
$MODULE c_tant_E
Po 0 0 0 15 4D5D91A1 00000000 ~~
Li c_tant_E
Cd SMT capacitor, tantalum size E
Sc 00000000
AR
Op 0 0 0
T0 0 -1400 197 197 0 47 N V 21 N"c_tant_E"
T1 0 1400 197 197 0 47 N I 21 N"C***"
DS 1450 -1175 1450 1175 50 21
DS 1000 1175 1000 -1175 50 21
DS -1450 -1175 -1450 1175 50 21
DS -1450 1175 1450 1175 50 21
DS 1450 -1175 -1450 -1175 50 21
$PAD
Sh "1" R 1004 1732 0 0 0
Dr 0 0 0
At SMD N 00888000
Ne 0 ""
Po 1181 0
$EndPAD
$PAD
Sh "2" R 1004 1732 0 0 0
Dr 0 0 0
At SMD N 00888000
Ne 0 ""
Po -1181 0
$EndPAD
$SHAPE3D
Na "smd/capacitors/c_tant_E.wrl"
Sc 1.000000 1.000000 1.000000
Of 0.000000 0.000000 0.000000
Ro 0.000000 0.000000 0.000000
$EndSHAPE3D
$EndMODULE  c_tant_E
$MODULE c_tant_D
Po 0 0 0 15 4D5D91AD 00000000 ~~
Li c_tant_D
Cd SMT capacitor, tantalum size D
Sc 00000000
AR
Op 0 0 0
T0 0 -1075 197 197 0 47 N V 21 N"c_tant_D"
T1 0 1075 197 197 0 47 N I 21 N"C***"
DS 1000 -850 1000 850 50 21
DS -1450 -850 -1450 850 50 21
DS -1450 850 1450 850 50 21
DS 1450 850 1450 -850 50 21
DS 1450 -850 -1450 -850 50 21
$PAD
Sh "1" R 1004 1063 0 0 0
Dr 0 0 0
At SMD N 00888000
Ne 0 ""
Po 1181 0
$EndPAD
$PAD
Sh "2" R 1004 1496 0 0 0
Dr 0 0 0
At SMD N 00888000
Ne 0 ""
Po -1181 0
$EndPAD
$SHAPE3D
Na "smd/capacitors/c_tant_D.wrl"
Sc 1.000000 1.000000 1.000000
Of 0.000000 0.000000 0.000000
Ro 0.000000 0.000000 0.000000
$EndSHAPE3D
$EndMODULE  c_tant_D
$MODULE c_tant_C
Po 0 0 0 15 4D5D91B9 00000000 ~~
Li c_tant_C
Cd SMT capacitor, tantalum size C
Sc 00000000
AR
Op 0 0 0
T0 0 -850 197 197 0 47 N V 21 N"c_tant_C"
T1 0 825 197 197 0 47 N I 21 N"C***"
DS 825 -625 825 625 50 21
DS -1200 -625 -1200 625 50 21
DS -1200 625 1200 625 50 21
DS 1200 625 1200 -625 50 21
DS 1200 -625 -1200 -625 50 21
$PAD
Sh "1" R 1004 984 0 0 0
Dr 0 0 0
At SMD N 00888000
Ne 0 ""
Po 994 0
$EndPAD
$PAD
Sh "2" R 1004 984 0 0 0
Dr 0 0 0
At SMD N 00888000
Ne 0 ""
Po -994 0
$EndPAD
$SHAPE3D
Na "smd/capacitors/c_tant_C.wrl"
Sc 1.000000 1.000000 1.000000
Of 0.000000 0.000000 0.000000
Ro 0.000000 0.000000 0.000000
$EndSHAPE3D
$EndMODULE  c_tant_C
$MODULE c_tant_B
Po 0 0 0 15 4D5D91C5 00000000 ~~
Li c_tant_B
Cd SMT capacitor, tantalum size B
Sc 00000000
AR
Op 0 0 0
T0 0 -775 197 197 0 47 N V 21 N"c_tant_B"
T1 0 775 197 197 0 47 N I 21 N"C***"
DS 475 -550 475 550 50 21
DS 700 -550 -700 -550 50 21
DS -700 -550 -700 550 50 21
DS -700 550 700 550 50 21
DS 700 550 700 -550 50 21
$PAD
Sh "1" R 768 984 0 0 0
Dr 0 0 0
At SMD N 00888000
Ne 0 ""
Po 600 0
$EndPAD
$PAD
Sh "2" R 768 984 0 0 0
Dr 0 0 0
At SMD N 00888000
Ne 0 ""
Po -600 0
$EndPAD
$SHAPE3D
Na "smd/capacitors/c_tant_B.wrl"
Sc 1.000000 1.000000 1.000000
Of 0.000000 0.000000 0.000000
Ro 0.000000 0.000000 0.000000
$EndSHAPE3D
$EndMODULE  c_tant_B
$MODULE c_tant_A
Po 0 0 0 15 4D5D91D2 00000000 ~~
Li c_tant_A
Cd SMT capacitor, tantalum size A
Sc 00000000
AR
Op 0 0 0
T0 10 -510 197 197 0 47 N V 21 N"c_tant_A"
T1 0 500 197 197 0 47 N I 21 N"C***"
DS 450 320 450 -320 50 21
DS -630 -320 -630 320 50 21
DS -630 320 630 320 50 21
DS 630 320 630 -320 50 21
DS 630 -320 -630 -320 50 21
$PAD
Sh "1" R 768 591 0 0 0
Dr 0 0 0
At SMD N 00888000
Ne 0 ""
Po 541 0
$EndPAD
$PAD
Sh "2" R 768 591 0 0 0
Dr 0 0 0
At SMD N 00888000
Ne 0 ""
Po -541 0
$EndPAD
$SHAPE3D
Na "smd/capacitors/c_tant_A.wrl"
Sc 1.000000 1.000000 1.000000
Of 0.000000 0.000000 0.000000
Ro 0.000000 0.000000 0.000000
$EndSHAPE3D
$EndMODULE  c_tant_A
$EndLIBRARY
