PCBNEW-LibModule-V1  ven 05 mar 2010 11:03:42 CET
$INDEX
CPA_5x11MM
CPA_6x11MM
CPA_8x21MM
CPA_13x31MM
CPA_16x31MM
CPA_16x40MM
CP_5x6mm
CP_5x11mm
CP_8x13mm
CP_8x21mm
CP_10x13mm
CP_10x16mm
CP_10x21mm
CP_10x25mm
CP_13x21mm
CP_13x25mm
CP_16x25mm
CP_22x41mm
CP_26x31mm
CP_26x45mm
CP_30x51mm
CP_35x51mm
cnp_18x8mm
cnp_3mm_disc
cnp_7x2mm
cnp_7x4.5mm
cnp_7x6mm
cnp_13x4mm
cnp_18x5mm
cnp_18x6mm
cnp_6mm_disc
cnp_7.5mm_disc
cnp_12mm_disc
$EndINDEX
$MODULE cnp_3mm_disc
Po 0 0 0 15 4B90D4BE 00000000 ~~
Li cnp_3mm_disc
Cd Small ceramic capacitor
Kw C
Sc 00000000
AR
Op 0 0 0
T0 0 -1500 400 400 0 80 N V 21 N"cnp_3mm_disc"
T1 0 -900 400 400 0 80 N I 21 N"V***"
DS -980 -500 1000 -500 120 21
DS 1000 -500 1000 500 120 21
DS 1000 500 -1000 500 120 21
DS -1000 500 -1000 -500 120 21
DS -1000 -250 -750 -500 120 21
$PAD
Sh "1" C 591 591 0 0 0
Dr 315 0 0
At STD N 00E0FFFF
Ne 0 ""
Po -500 0
$EndPAD
$PAD
Sh "2" C 591 591 0 0 0
Dr 315 0 0
At STD N 00E0FFFF
Ne 0 ""
Po 500 0
$EndPAD
$SHAPE3D
Na "discret/Capacitor/cnp_3mm_disc.wrl"
Sc 1.000000 1.000000 1.000000
Of 0.000000 0.000000 0.000000
Ro 0.000000 0.000000 0.000000
$EndSHAPE3D
$EndMODULE  cnp_3mm_disc
$MODULE cnp_6mm_disc
Po 0 0 0 15 4B90D4CA 00000000 ~~
Li cnp_6mm_disc
Cd 6mm disc ceramic capacitor
Kw C
Sc 00000000
AR
Op 0 0 0
T0 0 -1500 400 400 0 80 N V 21 N"cnp_6mm_disc"
T1 0 -900 400 400 0 80 N I 21 N"V***"
DS -1200 -350 -1200 350 98 21
DS -1200 350 1200 350 98 21
DS 1200 350 1200 -350 98 21
DS 1200 -350 -1200 -350 98 21
$PAD
Sh "1" C 591 591 0 0 0
Dr 315 0 0
At STD N 00E0FFFF
Ne 0 ""
Po -1000 0
$EndPAD
$PAD
Sh "2" C 591 591 0 0 0
Dr 315 0 0
At STD N 00E0FFFF
Ne 0 ""
Po 1000 0
$EndPAD
$SHAPE3D
Na "discret/Capacitor/cnp_6mm_disc.wrl"
Sc 1.000000 1.000000 1.000000
Of 0.000000 0.000000 0.000000
Ro 0.000000 0.000000 0.000000
$EndSHAPE3D
$EndMODULE  cnp_6mm_disc
$MODULE cnp_7.5mm_disc
Po 0 0 0 15 4B90D4D3 00000000 ~~
Li cnp_7.5mm_disc
Cd 7.5mm disc ceramic capacitor
Kw C
Sc 00000000
AR
Op 0 0 0
T0 0 -1500 400 400 0 80 N V 21 N"cnp_7.5mm_disc"
T1 0 -900 400 400 0 80 N I 21 N"V***"
DS -1400 -400 -1400 400 98 21
DS -1400 400 1400 400 98 21
DS 1400 400 1400 -400 98 21
DS 1400 -400 -1400 -400 98 21
$PAD
Sh "1" C 591 591 0 0 0
Dr 315 0 0
At STD N 00E0FFFF
Ne 0 ""
Po -1000 0
$EndPAD
$PAD
Sh "2" C 591 591 0 0 0
Dr 315 0 0
At STD N 00E0FFFF
Ne 0 ""
Po 1000 0
$EndPAD
$SHAPE3D
Na "discret/Capacitor/cnp_7.5mm_disc.wrl"
Sc 1.000000 1.000000 1.000000
Of 0.000000 0.000000 0.000000
Ro 0.000000 0.000000 0.000000
$EndSHAPE3D
$EndMODULE  cnp_7.5mm_disc
$MODULE cnp_7x2mm
Po 0 0 0 15 4B90D4E6 00000000 ~~
Li cnp_7x2mm
Cd Capacitor non pol, 7x2,5mm
Sc 00000000
AR
Op 0 0 0
T0 0 -1200 600 600 0 120 N V 21 N"cnp_7x2mm"
T1 0 1100 600 600 0 120 N V 21 N"VAL**"
DS -1500 -500 1500 -500 100 21
DS 1500 -500 1500 500 100 21
DS 1500 500 -1500 500 100 21
DS -1500 500 -1500 -500 100 21
$PAD
Sh "1" C 787 787 0 0 0
Dr 315 0 0
At STD N 00E0FFFF
Ne 0 ""
Po -1000 0
$EndPAD
$PAD
Sh "2" C 787 787 0 0 0
Dr 315 0 0
At STD N 00E0FFFF
Ne 0 ""
Po 1000 0
$EndPAD
$SHAPE3D
Na "discret/Capacitor/cnp_7x2mm.wrl"
Sc 1.000000 1.000000 1.000000
Of 0.000000 0.000000 0.000000
Ro 0.000000 0.000000 0.000000
$EndSHAPE3D
$EndMODULE  cnp_7x2mm
$MODULE cnp_7x4.5mm
Po 0 0 0 15 4B90D4F0 00000000 ~~
Li cnp_7x4.5mm
Cd Capacitor non pol, 7x4,5mm
Sc 00000000
AR
Op 0 0 0
T0 0 -1600 600 600 0 120 N V 21 N"cnp_7x4.5mm"
T1 0 1400 600 600 0 120 N V 21 N"VAL**"
DS 1500 880 1500 -880 98 21
DS -1500 880 -1500 -880 98 21
DS -1500 -880 1500 -880 100 21
DS 1500 880 -1500 880 100 21
$PAD
Sh "1" C 787 787 0 0 0
Dr 315 0 0
At STD N 00E0FFFF
Ne 0 ""
Po -1000 0
$EndPAD
$PAD
Sh "2" C 787 787 0 0 0
Dr 315 0 0
At STD N 00E0FFFF
Ne 0 ""
Po 1000 0
$EndPAD
$SHAPE3D
Na "discret/Capacitor/cnp_7x4.5mm.wrl"
Sc 1.000000 1.000000 1.000000
Of 0.000000 0.000000 0.000000
Ro 0.000000 0.000000 0.000000
$EndSHAPE3D
$EndMODULE  cnp_7x4.5mm
$MODULE cnp_7x6mm
Po 0 0 0 15 4B90D4F8 00000000 ~~
Li cnp_7x6mm
Cd Capacitor non pol, 7x6mm
Sc 00000000
AR
Op 0 0 0
T0 0 -1850 600 600 0 120 N V 21 N"cnp_7x6mm"
T1 0 1650 600 600 0 120 N V 21 N"VAL**"
DS 1500 -1180 1500 1180 98 21
DS -1500 1180 -1500 -1180 98 21
DS -1500 -1180 1500 -1180 100 21
DS 1500 1180 -1500 1180 100 21
$PAD
Sh "1" C 787 787 0 0 0
Dr 315 0 0
At STD N 00E0FFFF
Ne 0 ""
Po -1000 0
$EndPAD
$PAD
Sh "2" C 787 787 0 0 0
Dr 315 0 0
At STD N 00E0FFFF
Ne 0 ""
Po 1000 0
$EndPAD
$SHAPE3D
Na "discret/Capacitor/cnp_7x6mm.wrl"
Sc 1.000000 1.000000 1.000000
Of 0.000000 0.000000 0.000000
Ro 0.000000 0.000000 0.000000
$EndSHAPE3D
$EndMODULE  cnp_7x6mm
$MODULE cnp_12mm_disc
Po 0 0 0 15 4B90D50C 00000000 ~~
Li cnp_12mm_disc
Cd 12mm disc ceramic capacitor
Kw C
Sc 00000000
AR
Op 0 0 0
T0 0 -1650 400 400 0 80 N V 21 N"cnp_12mm_disc"
T1 0 -950 400 400 0 80 N I 21 N"V***"
DS -2400 -650 -2400 650 98 21
DS -2400 650 2400 650 98 21
DS 2400 650 2400 -650 98 21
DS 2400 -650 -2400 -650 98 21
$PAD
Sh "1" C 591 591 0 0 0
Dr 315 0 0
At STD N 00E0FFFF
Ne 0 ""
Po -1500 0
$EndPAD
$PAD
Sh "2" C 591 591 0 0 0
Dr 315 0 0
At STD N 00E0FFFF
Ne 0 ""
Po 1500 0
$EndPAD
$SHAPE3D
Na "discret/Capacitor/cnp_12mm_disc.wrl"
Sc 1.000000 1.000000 1.000000
Of 0.000000 0.000000 0.000000
Ro 0.000000 0.000000 0.000000
$EndSHAPE3D
$EndMODULE  cnp_12mm_disc
$MODULE cnp_13x4mm
Po 0 0 0 15 4B90D521 00000000 ~~
Li cnp_13x4mm
Cd Capacitor non pol, 13x4mm
Sc 00000000
AR
Op 0 0 0
T0 0 -1500 600 600 0 120 N V 21 N"cnp_13x4mm"
T1 0 1300 600 600 0 120 N V 21 N"VAL**"
DS 2600 780 -2600 780 98 21
DS -2600 -820 2600 -820 98 21
DS 2600 780 2600 -820 98 21
DS -2600 -820 -2600 780 98 21
$PAD
Sh "1" C 787 787 0 0 0
Dr 315 0 0
At STD N 00E0FFFF
Ne 0 ""
Po -2000 0
$EndPAD
$PAD
Sh "2" C 787 787 0 0 0
Dr 315 0 0
At STD N 00E0FFFF
Ne 0 ""
Po 2000 0
$EndPAD
$SHAPE3D
Na "discret/Capacitor/cnp_13x4mm.wrl"
Sc 1.000000 1.000000 1.000000
Of 0.000000 0.000000 0.000000
Ro 0.000000 0.000000 0.000000
$EndSHAPE3D
$EndMODULE  cnp_13x4mm
$MODULE cnp_18x5mm
Po 0 0 0 15 4B90D52B 00000000 ~~
Li cnp_18x5mm
Cd Capacitor non pol, 18x5mm
Sc 00000000
AR
Op 0 0 0
T0 0 -1700 600 600 0 120 N V 21 N"cnp_18x5mm"
T1 0 1500 600 600 0 120 N V 21 N"VAL**"
DS -3550 -1000 -3550 1000 98 21
DS -3550 1000 3550 1000 98 21
DS 3550 1000 3550 -1000 98 21
DS 3550 -1000 -3550 -1000 98 21
$PAD
Sh "1" C 787 787 0 0 0
Dr 315 0 0
At STD N 00E0FFFF
Ne 0 ""
Po -3000 0
$EndPAD
$PAD
Sh "2" C 787 787 0 0 0
Dr 315 0 0
At STD N 00E0FFFF
Ne 0 ""
Po 3000 0
$EndPAD
$SHAPE3D
Na "discret/Capacitor/cnp_18x5mm.wrl"
Sc 1.000000 1.000000 1.000000
Of 0.000000 0.000000 0.000000
Ro 0.000000 0.000000 0.000000
$EndSHAPE3D
$EndMODULE  cnp_18x5mm
$MODULE cnp_18x6mm
Po 0 0 0 15 4B90D545 00000000 ~~
Li cnp_18x6mm
Cd Capacitor non pol, 18x6mm
Sc 00000000
AR
Op 0 0 0
T0 0 -1900 600 600 0 120 N V 21 N"cnp_18x6mm"
T1 0 1700 600 600 0 120 N V 21 N"VAL**"
DS 3550 -1200 3550 1200 98 21
DS -3550 -1200 -3550 1200 98 21
DS -3550 1200 3550 1200 98 21
DS 3550 -1200 -3550 -1200 98 21
$PAD
Sh "1" C 787 787 0 0 0
Dr 315 0 0
At STD N 00E0FFFF
Ne 0 ""
Po -3000 0
$EndPAD
$PAD
Sh "2" C 787 787 0 0 0
Dr 315 0 0
At STD N 00E0FFFF
Ne 0 ""
Po 3000 0
$EndPAD
$SHAPE3D
Na "discret/Capacitor/cnp_18x6mm.wrl"
Sc 1.000000 1.000000 1.000000
Of 0.000000 0.000000 0.000000
Ro 0.000000 0.000000 0.000000
$EndSHAPE3D
$EndMODULE  cnp_18x6mm
$MODULE cnp_18x8mm
Po 0 0 0 15 4B90D558 00000000 ~~
Li cnp_18x8mm
Cd cap non pol, 18x8mm
Sc 00000000
AR
Op 0 0 0
T0 0 2300 600 600 0 120 N V 21 N"cnp_18x8mm"
T1 0 -2300 600 600 0 120 N V 21 N"VAL**"
DS -3600 -1700 3600 -1700 100 21
DS 3600 -1700 3600 1700 100 21
DS 3600 1700 -3600 1700 100 21
DS -3600 1700 -3600 -1700 100 21
$PAD
Sh "1" C 984 984 0 0 0
Dr 394 0 0
At STD N 00E0FFFF
Ne 0 ""
Po 3000 0
$EndPAD
$PAD
Sh "2" C 984 984 0 0 0
Dr 394 0 0
At STD N 00E0FFFF
Ne 0 ""
Po -3000 0
$EndPAD
$SHAPE3D
Na "discret/Capacitor/cnp_18x8mm.wrl"
Sc 1.000000 1.000000 1.000000
Of 0.000000 0.000000 0.000000
Ro 0.000000 0.000000 0.000000
$EndSHAPE3D
$EndMODULE  cnp_18x8mm
$MODULE CP_35x51mm
Po 0 0 0 15 4B90D572 00000000 ~~
Li CP_35x51mm
Cd Capacitor, pol, cyl 35x51mm
Sc 00000000
AR
Op 0 0 0
T0 0 -500 600 600 0 120 N V 21 N"CP_35x51mm"
T1 0 500 600 600 0 120 N V 21 N"C**"
DS 2500 -6400 -2500 -6400 100 21
DS -2500 -6400 -2100 -6500 100 21
DS -2100 -6500 2300 -6500 100 21
DS 2300 -6500 1900 -6600 100 21
DS 1900 -6600 -1900 -6600 100 21
DS -1900 -6600 -2000 -6500 100 21
DS -2000 -6500 -1500 -6700 100 21
DS -1500 -6700 1400 -6700 100 21
DS 1400 -6700 1700 -6600 100 21
DS 1700 -6600 1100 -6800 100 21
DS 1100 -6800 -900 -6800 100 21
DS -900 -6800 -1200 -6700 100 21
DC 0 0 6900 200 100 21
DS 1250 -6050 1600 -6050 100 21
$PAD
Sh "1" R 1181 1181 0 0 0
Dr 591 0 0
At STD N 00E0FFFF
Ne 0 ""
Po 0 2000
$EndPAD
$PAD
Sh "2" C 1181 1181 0 0 0
Dr 591 0 0
At STD N 00E0FFFF
Ne 0 ""
Po 0 -2000
$EndPAD
$SHAPE3D
Na "discret/Capacitor/cp_35x51mm.wrl"
Sc 1.000000 1.000000 1.000000
Of 0.000000 0.000000 0.000000
Ro 0.000000 0.000000 0.000000
$EndSHAPE3D
$EndMODULE  CP_35x51mm
$MODULE CP_30x51mm
Po 0 0 0 15 4B90D589 00000000 ~~
Li CP_30x51mm
Cd Capacitor, pol, cyl 30x51mm
Sc 00000000
AR
Op 0 0 0
T0 0 -500 600 600 0 120 N V 21 N"CP_30x51mm"
T1 0 500 600 600 0 120 N V 21 N"C**"
DS -2500 -5300 -2400 -5300 100 21
DS -2400 -5300 -2300 -5400 100 21
DS -2300 -5400 -2200 -5400 100 21
DS -2200 -5400 -2000 -5500 100 21
DS -2000 -5500 -1400 -5700 100 21
DS -1400 -5700 -1000 -5800 100 21
DS -1000 -5800 1000 -5800 100 21
DS 1000 -5800 1600 -5600 100 21
DS 1600 -5600 1700 -5600 100 21
DS 1700 -5600 2200 -5400 100 21
DS 2200 -5400 2400 -5300 100 21
DS 2400 -5300 2500 -5300 100 21
DC 0 0 5900 0 100 21
DS -1000 -5700 -900 -5800 100 21
DS -900 -5800 900 -5800 100 21
DS 900 -5800 1000 -5700 100 21
DS 1400 -5600 1300 -5700 100 21
DS 1300 -5700 -1300 -5700 100 21
DS -1300 -5700 -1400 -5600 100 21
DS -1800 -5500 -1600 -5600 100 21
DS -1600 -5600 1600 -5600 100 21
DS 1600 -5600 1700 -5500 100 21
DS 2000 -5400 1900 -5500 100 21
DS 1900 -5500 -1900 -5500 100 21
DS -1900 -5500 -2200 -5300 100 21
DS -2100 -5400 2200 -5400 100 21
DS 2400 -5300 -2400 -5300 100 21
DS 1250 -4750 1600 -4750 100 21
$PAD
Sh "1" R 1181 1181 0 0 0
Dr 591 0 0
At STD N 00E0FFFF
Ne 0 ""
Po 0 2000
$EndPAD
$PAD
Sh "2" C 1181 1181 0 0 0
Dr 591 0 0
At STD N 00E0FFFF
Ne 0 ""
Po 0 -2000
$EndPAD
$SHAPE3D
Na "discret/Capacitor/cp_30x51mm.wrl"
Sc 1.000000 1.000000 1.000000
Of 0.000000 0.000000 0.000000
Ro 0.000000 0.000000 0.000000
$EndSHAPE3D
$EndMODULE  CP_30x51mm
$MODULE CP_26x45mm
Po 0 0 0 15 4B90D5A6 00000000 ~~
Li CP_26x45mm
Cd Capacitor, pol, cyl 26x45mm
Sc 00000000
AR
Op 0 0 0
T0 0 -500 600 600 0 120 N V 21 N"CP_26x45mm"
T1 0 500 600 600 0 120 N V 21 N"C**"
DS -1000 -4900 -900 -5000 100 21
DS -900 -5000 900 -5000 100 21
DS 900 -5000 1000 -4900 100 21
DS 1400 -4800 1300 -4900 100 21
DS 1300 -4900 -1300 -4900 100 21
DS -1300 -4900 -1400 -4800 100 21
DS -1800 -4700 -1600 -4800 100 21
DS -1600 -4800 1600 -4800 100 21
DS 1600 -4800 1700 -4700 100 21
DS 2000 -4600 1900 -4700 100 21
DS 1900 -4700 -1900 -4700 100 21
DS -1900 -4700 -2200 -4500 100 21
DS -2100 -4600 2200 -4600 100 21
DS 2400 -4500 -2400 -4500 100 21
DC 0 0 -5100 -100 100 21
DS 1250 -3950 1600 -3950 100 21
$PAD
Sh "1" R 1181 1181 0 0 0
Dr 394 0 0
At STD N 00E0FFFF
Ne 0 ""
Po 0 2000
$EndPAD
$PAD
Sh "2" C 1181 1181 0 0 0
Dr 394 0 0
At STD N 00E0FFFF
Ne 0 ""
Po 0 -2000
$EndPAD
$SHAPE3D
Na "discret/Capacitor/cp_26x45mm.wrl"
Sc 1.000000 1.000000 1.000000
Of 0.000000 0.000000 0.000000
Ro 0.000000 0.000000 0.000000
$EndSHAPE3D
$EndMODULE  CP_26x45mm
$MODULE CP_26x31mm
Po 0 0 0 15 4B90D5B6 00000000 ~~
Li CP_26x31mm
Cd Capacitor, pol, cyl 26x31mm
Sc 00000000
AR
Op 0 0 0
T0 0 -500 600 600 0 120 N V 21 N"CP_26x31mm"
T1 0 500 600 600 0 120 N V 21 N"C**"
DS -1000 -4900 -900 -5000 100 21
DS -900 -5000 900 -5000 100 21
DS 900 -5000 1000 -4900 100 21
DS 1400 -4800 1300 -4900 100 21
DS 1300 -4900 -1300 -4900 100 21
DS -1300 -4900 -1400 -4800 100 21
DS -1800 -4700 -1600 -4800 100 21
DS -1600 -4800 1600 -4800 100 21
DS 1600 -4800 1700 -4700 100 21
DS 2000 -4600 1900 -4700 100 21
DS 1900 -4700 -1900 -4700 100 21
DS -1900 -4700 -2200 -4500 100 21
DS -2100 -4600 2200 -4600 100 21
DS 2400 -4500 -2400 -4500 100 21
DC 0 0 -5100 -100 100 21
DS 1250 -3950 1600 -3950 100 21
$PAD
Sh "1" R 1181 1181 0 0 0
Dr 394 0 0
At STD N 00E0FFFF
Ne 0 ""
Po 0 2000
$EndPAD
$PAD
Sh "2" C 1181 1181 0 0 0
Dr 394 0 0
At STD N 00E0FFFF
Ne 0 ""
Po 0 -2000
$EndPAD
$SHAPE3D
Na "discret/Capacitor/cp_26x31mm.wrl"
Sc 1.000000 1.000000 1.000000
Of 0.000000 0.000000 0.000000
Ro 0.000000 0.000000 0.000000
$EndSHAPE3D
$EndMODULE  CP_26x31mm
$MODULE CP_22x41mm
Po 0 0 0 15 4B90D5C5 00000000 ~~
Li CP_22x41mm
Cd Capacitor, pol, cyl 22x41mm
Sc 00000000
AR
Op 0 0 0
T0 200 -4800 600 600 0 120 N V 21 N"CP_22x41mm"
T1 0 5000 600 600 0 120 N V 21 N"C**"
DS 2000 -3800 -2000 -3800 100 21
DS -2000 -3800 -1700 -3900 100 21
DS -1700 -3900 1800 -3900 100 21
DS 1800 -3900 1500 -4000 100 21
DS 1500 -4000 -1500 -4000 100 21
DS -1500 -4000 -1600 -3900 100 21
DS -1600 -3900 -1200 -4100 100 21
DS -1200 -4100 1200 -4100 100 21
DS 1200 -4100 1300 -4000 100 21
DS 1300 -4000 800 -4200 100 21
DS 800 -4200 -800 -4200 100 21
DS -800 -4200 -900 -4100 100 21
DC 0 0 4300 -100 100 21
DS 1050 -3450 1400 -3450 100 21
$PAD
Sh "1" R 1181 1181 0 0 0
Dr 394 0 0
At STD N 00E0FFFF
Ne 0 ""
Po 0 2000
$EndPAD
$PAD
Sh "2" C 1181 1181 0 0 0
Dr 394 0 0
At STD N 00E0FFFF
Ne 0 ""
Po 0 -2000
$EndPAD
$SHAPE3D
Na "discret/Capacitor/cp_22x41mm.wrl"
Sc 1.000000 1.000000 1.000000
Of 0.000000 0.000000 0.000000
Ro 0.000000 0.000000 0.000000
$EndSHAPE3D
$EndMODULE  CP_22x41mm
$MODULE CP_16x25mm
Po 0 0 0 15 4B90D5DB 00000000 ~~
Li CP_16x25mm
Cd Capacitor, pol, cyl 16x25mm
Sc 00000000
AR
Op 0 0 0
T0 0 -4000 600 600 0 120 N V 21 N"CP_16x25mm"
T1 0 4000 600 600 0 120 N V 21 N"C**"
DS -1350 -2800 -500 -3050 100 21
DS 1300 -2800 850 -2950 100 21
DC 0 0 3150 0 100 21
DS -800 -2950 800 -2950 100 21
DS 1150 -2850 -1100 -2850 100 21
DS -1100 -2850 -750 -2850 100 21
DS 550 -3100 -500 -3100 100 21
DS -850 -3000 850 -3000 100 21
DS 1100 -2900 -1100 -2900 100 21
DS -1100 -2900 -1050 -2900 100 21
DS 1400 -2800 -1400 -2800 100 21
DS 550 -2550 900 -2550 100 21
$PAD
Sh "1" R 787 787 0 0 0
Dr 315 0 0
At STD N 00E0FFFF
Ne 0 ""
Po 0 1500
$EndPAD
$PAD
Sh "2" C 787 787 0 0 0
Dr 315 0 0
At STD N 00E0FFFF
Ne 0 ""
Po 0 -1500
$EndPAD
$SHAPE3D
Na "discret/Capacitor/cp_16x25mm.wrl"
Sc 1.000000 1.000000 1.000000
Of 0.000000 0.000000 0.000000
Ro 0.000000 0.000000 0.000000
$EndSHAPE3D
$EndMODULE  CP_16x25mm
$MODULE CP_13x25mm
Po 0 0 0 15 4B90D5ED 00000000 ~~
Li CP_13x25mm
Cd Capacitor, pol, cyl 13x25mm
Sc 00000000
AR
Op 0 0 0
T0 -500 -3500 600 600 0 120 N V 21 N"CP_13x25mm"
T1 0 3500 600 600 0 120 N V 21 N"C**"
DS -800 -2350 800 -2350 100 21
DS 1150 -2250 -1100 -2250 100 21
DS -1100 -2250 -750 -2250 100 21
DS 550 -2500 -500 -2500 100 21
DS -850 -2400 850 -2400 100 21
DS 1100 -2300 -1100 -2300 100 21
DS -1100 -2300 -1050 -2300 100 21
DS 1400 -2200 -1400 -2200 100 21
DS -1400 -2200 -350 -2550 100 21
DS -350 -2550 350 -2550 100 21
DS 350 -2550 1350 -2200 100 21
DS 1350 -2200 1200 -2250 100 21
DC 0 0 -2600 0 100 21
DS 550 -1950 900 -1950 100 21
$PAD
Sh "1" R 787 787 0 0 0
Dr 315 0 0
At STD N 00E0FFFF
Ne 0 ""
Po 10 1000
$EndPAD
$PAD
Sh "2" C 787 787 0 0 0
Dr 315 0 0
At STD N 00E0FFFF
Ne 0 ""
Po 0 -1000
$EndPAD
$SHAPE3D
Na "discret/Capacitor/cp_13x25mm.wrl"
Sc 1.000000 1.000000 1.000000
Of 0.000000 0.000000 0.000000
Ro 0.000000 0.000000 0.000000
$EndSHAPE3D
$EndMODULE  CP_13x25mm
$MODULE CP_13x21mm
Po 0 0 0 15 4B90D5FE 00000000 ~~
Li CP_13x21mm
Cd Capacitor, pol, cyl 13x21mm
Sc 00000000
AR
Op 0 0 0
T0 -500 -3500 600 600 0 120 N V 21 N"CP_13x21mm"
T1 0 3500 600 600 0 120 N V 21 N"C**"
DS -800 -2350 800 -2350 100 21
DS 1150 -2250 -1100 -2250 100 21
DS -1100 -2250 -750 -2250 100 21
DS 550 -2500 -500 -2500 100 21
DS -850 -2400 850 -2400 100 21
DS 1100 -2300 -1100 -2300 100 21
DS -1100 -2300 -1050 -2300 100 21
DS 1400 -2200 -1400 -2200 100 21
DS -1400 -2200 -350 -2550 100 21
DS -350 -2550 350 -2550 100 21
DS 350 -2550 1350 -2200 100 21
DS 1350 -2200 1200 -2250 100 21
DC 0 0 -2600 0 100 21
DS 550 -1950 900 -1950 100 21
$PAD
Sh "1" R 787 787 0 0 0
Dr 315 0 0
At STD N 00E0FFFF
Ne 0 ""
Po 10 1000
$EndPAD
$PAD
Sh "2" C 787 787 0 0 0
Dr 315 0 0
At STD N 00E0FFFF
Ne 0 ""
Po 0 -1000
$EndPAD
$SHAPE3D
Na "discret/Capacitor/cp_13x21mm.wrl"
Sc 1.000000 1.000000 1.000000
Of 0.000000 0.000000 0.000000
Ro 0.000000 0.000000 0.000000
$EndSHAPE3D
$EndMODULE  CP_13x21mm
$MODULE CP_10x25mm
Po 0 0 0 15 4B90D610 00000000 ~~
Li CP_10x25mm
Cd Capacitor, pol, cyl 10x25mm
Sc 00000000
AR
Op 0 0 0
T0 0 -2500 600 600 0 120 N V 21 N"CP_10x25mm"
T1 0 2500 600 600 0 120 N V 21 N"C**"
DS -950 -1750 950 -1750 100 21
DS 450 -1900 -450 -1900 100 21
DC 0 0 2000 150 100 21
DS 800 -1750 -800 -1750 100 21
DS -800 -1750 -650 -1800 100 21
DS -650 -1800 650 -1800 100 21
DS 650 -1800 800 -1750 100 21
DS 350 -1550 700 -1550 100 21
DS 400 -1950 -400 -1950 100 21
DS -400 -1900 400 -1900 100 21
DS -600 -1850 600 -1850 100 21
$PAD
Sh "1" R 787 787 0 0 0
Dr 315 0 0
At STD N 00E0FFFF
Ne 0 ""
Po 0 1000
$EndPAD
$PAD
Sh "2" C 787 787 0 0 0
Dr 315 0 0
At STD N 00E0FFFF
Ne 0 ""
Po 0 -1000
$EndPAD
$SHAPE3D
Na "discret/Capacitor/cp_10x25mm.wrl"
Sc 1.000000 1.000000 1.000000
Of 0.000000 0.000000 0.000000
Ro 0.000000 0.000000 0.000000
$EndSHAPE3D
$EndMODULE  CP_10x25mm
$MODULE CP_10x21mm
Po 0 0 0 15 4B90D628 00000000 ~~
Li CP_10x21mm
Cd Capacitor, pol, cyl 10x21mm
Sc 00000000
AR
Op 0 0 0
T0 0 -2500 600 600 0 120 N V 21 N"CP_10x21mm"
T1 0 2500 600 600 0 120 N V 21 N"C**"
DS -950 -1750 950 -1750 100 21
DS 450 -1900 -450 -1900 100 21
DC 0 0 2000 150 100 21
DS 800 -1750 -800 -1750 100 21
DS -800 -1750 -650 -1800 100 21
DS -650 -1800 650 -1800 100 21
DS 650 -1800 800 -1750 100 21
DS 350 -1550 700 -1550 100 21
DS 400 -1950 -400 -1950 100 21
DS -400 -1900 400 -1900 100 21
DS -600 -1850 600 -1850 100 21
$PAD
Sh "1" R 787 787 0 0 0
Dr 315 0 0
At STD N 00E0FFFF
Ne 0 ""
Po 0 1000
$EndPAD
$PAD
Sh "2" C 787 787 0 0 0
Dr 315 0 0
At STD N 00E0FFFF
Ne 0 ""
Po 0 -1000
$EndPAD
$SHAPE3D
Na "discret/Capacitor/cp_10x21mm.wrl"
Sc 1.000000 1.000000 1.000000
Of 0.000000 0.000000 0.000000
Ro 0.000000 0.000000 0.000000
$EndSHAPE3D
$EndMODULE  CP_10x21mm
$MODULE CP_10x16mm
Po 0 0 0 15 4B90D637 00000000 ~~
Li CP_10x16mm
Cd Capacitor, pol, cyl 10x16mm
Sc 00000000
AR
Op 0 0 0
T0 0 -2500 600 600 0 120 N V 21 N"CP_10x16mm"
T1 0 2500 600 600 0 120 N V 21 N"C**"
DS -950 -1750 950 -1750 100 21
DS 450 -1900 -450 -1900 100 21
DC 0 0 2000 150 100 21
DS 800 -1750 -800 -1750 100 21
DS -800 -1750 -650 -1800 100 21
DS -650 -1800 650 -1800 100 21
DS 650 -1800 800 -1750 100 21
DS 350 -1550 700 -1550 100 21
DS 400 -1950 -400 -1950 100 21
DS -400 -1900 400 -1900 100 21
DS -600 -1850 600 -1850 100 21
$PAD
Sh "1" R 787 787 0 0 0
Dr 315 0 0
At STD N 00E0FFFF
Ne 0 ""
Po 0 1000
$EndPAD
$PAD
Sh "2" C 787 787 0 0 0
Dr 315 0 0
At STD N 00E0FFFF
Ne 0 ""
Po 0 -1000
$EndPAD
$SHAPE3D
Na "discret/Capacitor/cp_10x16mm.wrl"
Sc 1.000000 1.000000 1.000000
Of 0.000000 0.000000 0.000000
Ro 0.000000 0.000000 0.000000
$EndSHAPE3D
$EndMODULE  CP_10x16mm
$MODULE CP_10x13mm
Po 0 0 0 15 4B90D649 00000000 ~~
Li CP_10x13mm
Cd Capacitor, pol, cyl 10x13mm
Sc 00000000
AR
Op 0 0 0
T0 0 -2500 600 600 0 120 N V 21 N"CP_10x13mm"
T1 0 2500 600 600 0 120 N V 21 N"C**"
DS -950 -1750 950 -1750 100 21
DS 450 -1900 -450 -1900 100 21
DC 0 0 2000 150 100 21
DS 800 -1750 -800 -1750 100 21
DS -800 -1750 -650 -1800 100 21
DS -650 -1800 650 -1800 100 21
DS 650 -1800 800 -1750 100 21
DS 350 -1550 700 -1550 100 21
DS 400 -1950 -400 -1950 100 21
DS -400 -1900 400 -1900 100 21
DS -600 -1850 600 -1850 100 21
$PAD
Sh "1" R 787 787 0 0 0
Dr 315 0 0
At STD N 00E0FFFF
Ne 0 ""
Po 0 1000
$EndPAD
$PAD
Sh "2" C 787 787 0 0 0
Dr 315 0 0
At STD N 00E0FFFF
Ne 0 ""
Po 0 -1000
$EndPAD
$SHAPE3D
Na "discret/Capacitor/cp_10x13mm.wrl"
Sc 1.000000 1.000000 1.000000
Of 0.000000 0.000000 0.000000
Ro 0.000000 0.000000 0.000000
$EndSHAPE3D
$EndMODULE  CP_10x13mm
$MODULE CP_8x21mm
Po 0 0 0 15 4B90D656 00000000 ~~
Li CP_8x21mm
Cd Capacitor, pol, cyl 8x21mm
Sc 00000000
AR
Op 0 0 0
T0 0 -2000 600 600 0 120 N V 21 N"CP_8x21mm"
T1 0 2000 600 600 0 120 N V 21 N"C**"
DS 800 -1350 -800 -1350 100 21
DS -800 -1350 -650 -1400 100 21
DS -650 -1400 650 -1400 100 21
DS 650 -1400 800 -1350 100 21
DC 0 0 -1600 50 100 21
DS 350 -1150 700 -1150 100 21
DS 400 -1550 -400 -1550 100 21
DS -400 -1500 400 -1500 100 21
DS -600 -1450 600 -1450 100 21
$PAD
Sh "1" R 787 787 0 0 0
Dr 315 0 0
At STD N 00E0FFFF
Ne 0 ""
Po 0 750
$EndPAD
$PAD
Sh "2" C 787 787 0 0 0
Dr 315 0 0
At STD N 00E0FFFF
Ne 0 ""
Po 0 -750
$EndPAD
$SHAPE3D
Na "discret/Capacitor/cp_8x21mm.wrl"
Sc 1.000000 1.000000 1.000000
Of 0.000000 0.000000 0.000000
Ro 0.000000 0.000000 0.000000
$EndSHAPE3D
$EndMODULE  CP_8x21mm
$MODULE CP_8x13mm
Po 0 0 0 15 4B90D664 00000000 ~~
Li CP_8x13mm
Cd Capacitor, pol, cyl 8x13mm
Sc 00000000
AR
Op 0 0 0
T0 0 -2000 600 600 0 120 N V 21 N"CP_8x13mm"
T1 0 2000 600 600 0 120 N V 21 N"C**"
DS 800 -1350 -800 -1350 100 21
DS -800 -1350 -650 -1400 100 21
DS -650 -1400 650 -1400 100 21
DS 650 -1400 800 -1350 100 21
DC 0 0 -1600 50 100 21
DS 350 -1150 700 -1150 100 21
DS 400 -1550 -400 -1550 100 21
DS -400 -1500 400 -1500 100 21
DS -600 -1450 600 -1450 100 21
$PAD
Sh "1" R 787 787 0 0 0
Dr 315 0 0
At STD N 00E0FFFF
Ne 0 ""
Po 0 750
$EndPAD
$PAD
Sh "2" C 787 787 0 0 0
Dr 315 0 0
At STD N 00E0FFFF
Ne 0 ""
Po 0 -750
$EndPAD
$SHAPE3D
Na "discret/Capacitor/cp_8x13mm.wrl"
Sc 1.000000 1.000000 1.000000
Of 0.000000 0.000000 0.000000
Ro 0.000000 0.000000 0.000000
$EndSHAPE3D
$EndMODULE  CP_8x13mm
$MODULE CP_5x11mm
Po 0 0 0 15 4B90D672 00000000 ~~
Li CP_5x11mm
Cd Capacitor, pol, cyl 5x11mm
Sc 00000000
AR
Op 0 0 0
T0 0 -1500 600 600 0 120 N V 21 N"CP_5x11mm"
T1 0 1500 600 600 0 120 N V 21 N"C**"
DS 350 -500 700 -500 100 21
DS 400 -900 -400 -900 100 21
DS -400 -900 -400 -850 100 21
DS -400 -850 400 -850 100 21
DS -600 -800 600 -800 100 21
DC 0 0 -1000 0 100 21
$PAD
Sh "1" R 787 787 0 0 0
Dr 315 0 0
At STD N 00E0FFFF
Ne 0 ""
Po 0 500
$EndPAD
$PAD
Sh "2" C 787 787 0 0 0
Dr 315 0 0
At STD N 00E0FFFF
Ne 0 ""
Po 0 -500
$EndPAD
$SHAPE3D
Na "discret/Capacitor/cp_5x11mm.wrl"
Sc 1.000000 1.000000 1.000000
Of 0.000000 0.000000 0.000000
Ro 0.000000 0.000000 0.000000
$EndSHAPE3D
$EndMODULE  CP_5x11mm
$MODULE CP_5x6mm
Po 0 0 0 15 4B90D681 00000000 ~~
Li CP_5x6mm
Cd Capacitor, pol, cyl 5x6mm
Sc 00000000
AR
Op 0 0 0
T0 0 -1500 600 600 0 120 N V 21 N"CP_5x6mm"
T1 0 1500 600 600 0 120 N V 21 N"C**"
DS 350 -500 700 -500 100 21
DS 400 -900 -400 -900 100 21
DS -400 -900 -400 -850 100 21
DS -400 -850 400 -850 100 21
DS -600 -800 600 -800 100 21
DC 0 0 -1000 0 100 21
$PAD
Sh "1" R 787 787 0 0 0
Dr 315 0 0
At STD N 00E0FFFF
Ne 0 ""
Po 0 500
$EndPAD
$PAD
Sh "2" C 787 787 0 0 0
Dr 315 0 0
At STD N 00E0FFFF
Ne 0 ""
Po 0 -500
$EndPAD
$SHAPE3D
Na "discret/Capacitor/cp_5x6mm.wrl"
Sc 1.000000 1.000000 1.000000
Of 0.000000 0.000000 0.000000
Ro 0.000000 0.000000 0.000000
$EndSHAPE3D
$EndMODULE  CP_5x6mm
$MODULE CPA_16x40MM
Po 0 0 0 15 4B90D69B 00000000 ~~
Li CPA_16x40MM
Cd capacitor pol, axial 16x40mm
Sc 00000000
AR
Op 0 0 0
T0 0 -3800 600 600 0 120 N V 21 N"CPA_16x40MM"
T1 0 3700 600 600 0 120 N V 21 N"VAL**"
DS 5900 3200 -8100 3200 120 21
DS 8100 3200 6200 3200 120 21
DS 5900 -3200 -8100 -3200 120 21
DS 8100 -3200 6200 -3200 120 21
DS 8100 3200 8100 -3200 120 21
DS -7800 -3200 -7800 3200 120 21
DS -8100 3200 -8100 -3200 120 21
DS 6200 3200 6200 2800 120 21
DS 6200 2800 5900 2800 120 21
DS 5900 2800 5900 3200 120 21
DS 5900 -3200 5900 -2800 120 21
DS 5900 -2800 6200 -2800 120 21
DS 6200 -2800 6200 -3200 120 21
DS 8100 0 9500 0 120 21
DS -8100 0 -9500 0 120 21
DS -7500 0 -6800 0 120 21
DS 7800 0 7200 0 120 21
DS 7500 300 7500 -300 120 21
$PAD
Sh "1" C 1181 1181 0 0 0
Dr 394 0 0
At STD N 00E0FFFF
Ne 0 ""
Po 9500 0
$EndPAD
$PAD
Sh "2" C 1181 1181 0 0 0
Dr 394 0 0
At STD N 00E0FFFF
Ne 0 ""
Po -9500 0
$EndPAD
$SHAPE3D
Na "discret/Capacitor/cpa_16x40mm.wrl"
Sc 1.000000 1.000000 1.000000
Of 0.000000 0.000000 0.000000
Ro 0.000000 0.000000 0.000000
$EndSHAPE3D
$EndMODULE  CPA_16x40MM
$MODULE CPA_16x31MM
Po 0 0 0 15 4B90D6B0 00000000 ~~
Li CPA_16x31MM
Cd capacitor pol, axial 16x31mm
Sc 00000000
AR
Op 0 0 0
T0 0 -3800 600 600 0 120 N V 21 N"CPA_16x31MM"
T1 0 3700 600 600 0 120 N V 21 N"VAL**"
DS 6000 3200 6000 -3200 120 21
DS -5700 -3200 -5700 3200 120 21
DS -6000 3200 -6000 -3200 120 21
DS 6000 3200 4500 3200 120 21
DS 4500 3200 4500 2800 120 21
DS 4500 2800 4200 2800 120 21
DS 4200 2800 4200 3200 120 21
DS 4200 3200 -6000 3200 120 21
DS -6000 -3200 4200 -3200 120 21
DS 4200 -3200 4200 -2800 120 21
DS 4200 -2800 4500 -2800 120 21
DS 4500 -2800 4500 -3200 120 21
DS 4500 -3200 6000 -3200 120 21
DS 6100 0 7500 0 120 21
DS -6100 0 -7500 0 120 21
DS -5400 0 -4700 0 120 21
DS 5800 0 5200 0 120 21
DS 5500 300 5500 -300 120 21
$PAD
Sh "1" C 1181 1181 0 0 0
Dr 394 0 0
At STD N 00E0FFFF
Ne 0 ""
Po 7500 0
$EndPAD
$PAD
Sh "2" C 1181 1181 0 0 0
Dr 394 0 0
At STD N 00E0FFFF
Ne 0 ""
Po -7500 0
$EndPAD
$SHAPE3D
Na "discret/Capacitor/cpa_16x31mm.wrl"
Sc 1.000000 1.000000 1.000000
Of 0.000000 0.000000 0.000000
Ro 0.000000 0.000000 0.000000
$EndSHAPE3D
$EndMODULE  CPA_16x31MM
$MODULE CPA_13x31MM
Po 0 0 0 15 4B90D6C3 00000000 ~~
Li CPA_13x31MM
Cd capacitor pol, axial 13x31mm
Sc 00000000
AR
Op 0 0 0
T0 0 -3200 600 600 0 120 N V 21 N"CPA_13x31MM"
T1 0 3100 600 600 0 120 N V 21 N"VAL**"
DS 6000 2600 4500 2600 120 21
DS 4500 2600 4500 2200 120 21
DS 4500 2200 4200 2200 120 21
DS 4200 2200 4200 2600 120 21
DS 4200 2600 -6000 2600 120 21
DS -6000 -2600 4200 -2600 120 21
DS 4200 -2600 4200 -2200 120 21
DS 4200 -2200 4500 -2200 120 21
DS 4500 -2200 4500 -2600 120 21
DS 4500 -2600 6000 -2600 120 21
DS 6000 -2600 6000 2600 120 21
DS -5700 2600 -5700 -2600 120 21
DS -6000 -2600 -6000 2600 120 21
DS 6100 0 7500 0 120 21
DS -6100 0 -7500 0 120 21
DS -5400 0 -4700 0 120 21
DS 5800 0 5200 0 120 21
DS 5500 300 5500 -300 120 21
$PAD
Sh "1" C 1181 1181 0 0 0
Dr 394 0 0
At STD N 00E0FFFF
Ne 0 ""
Po 7500 0
$EndPAD
$PAD
Sh "2" C 1181 1181 0 0 0
Dr 394 0 0
At STD N 00E0FFFF
Ne 0 ""
Po -7500 0
$EndPAD
$SHAPE3D
Na "discret/Capacitor/cpa_13x31mm.wrl"
Sc 1.000000 1.000000 1.000000
Of 0.000000 0.000000 0.000000
Ro 0.000000 0.000000 0.000000
$EndSHAPE3D
$EndMODULE  CPA_13x31MM
$MODULE CPA_8x21MM
Po 0 0 0 15 4B90D6DE 00000000 ~~
Li CPA_8x21MM
Cd capacitor pol, axial 8x21mm
Sc 00000000
AR
Op 0 0 0
T0 0 -2100 600 600 0 120 N V 21 N"CPA_8x21MM"
T1 0 2500 600 600 0 120 N V 21 N"VAL**"
DS 4100 0 5500 0 120 21
DS -4100 0 -5500 0 120 21
DS -4100 1600 2700 1600 120 21
DS 2700 1600 2700 1300 120 21
DS 2700 1300 2900 1300 120 21
DS 2900 1300 2900 1600 120 21
DS 2900 1600 4100 1600 120 21
DS 4100 -1600 2900 -1600 120 21
DS 2900 -1600 2900 -1300 120 21
DS 2900 -1300 2700 -1300 120 21
DS 2700 -1300 2700 -1600 120 21
DS 2700 -1600 -4100 -1600 120 21
DS 4100 -1600 4100 1600 120 21
DS -4100 1600 -4100 -1600 120 21
DS -3800 -1600 -3800 1600 120 21
DS -3600 0 -2900 0 120 21
DS 3900 0 3300 0 120 21
DS 3600 300 3600 -300 120 21
$PAD
Sh "1" C 787 787 0 0 0
Dr 315 0 0
At STD N 00E0FFFF
Ne 0 ""
Po 5500 0
$EndPAD
$PAD
Sh "2" C 787 787 0 0 0
Dr 315 0 0
At STD N 00E0FFFF
Ne 0 ""
Po -5500 0
$EndPAD
$SHAPE3D
Na "discret/Capacitor/cpa_8x21mm.wrl"
Sc 1.000000 1.000000 1.000000
Of 0.000000 0.000000 0.000000
Ro 0.000000 0.000000 0.000000
$EndSHAPE3D
$EndMODULE  CPA_8x21MM
$MODULE CPA_6x11MM
Po 0 0 0 15 4B90D6EC 00000000 ~~
Li CPA_6x11MM
Cd capacitor pol, axial 6x11mm
Sc 00000000
AR
Op 0 0 0
T0 0 -2000 600 600 0 120 N V 21 N"CPA_6x11MM"
T1 0 2500 600 600 0 120 N V 21 N"VAL**"
DS 2200 -1200 2200 1200 120 21
DS -2200 -1200 -2200 1200 120 21
DS -1900 -1200 -1900 1200 120 21
DS -1700 0 -1000 0 120 21
DS 2000 0 1400 0 120 21
DS 1700 300 1700 -300 120 21
DS -2200 0 -3500 0 120 21
DS 3500 0 2200 0 120 21
DS 2200 1200 1500 1200 120 21
DS 1500 1200 1500 900 120 21
DS 1500 900 1300 900 120 21
DS 1300 900 1300 1200 120 21
DS 1300 1200 -2200 1200 120 21
DS 1300 -1200 1300 -900 120 21
DS 1300 -900 1500 -900 120 21
DS 1500 -900 1500 -1200 120 21
DS 1500 -1200 2200 -1200 120 21
DS 1300 -1200 -2200 -1200 120 21
$PAD
Sh "1" C 787 787 0 0 0
Dr 315 0 0
At STD N 00E0FFFF
Ne 0 ""
Po 3500 0
$EndPAD
$PAD
Sh "2" C 787 787 0 0 0
Dr 315 0 0
At STD N 00E0FFFF
Ne 0 ""
Po -3500 0
$EndPAD
$SHAPE3D
Na "discret/Capacitor/cpa_6x11mm.wrl"
Sc 1.000000 1.000000 1.000000
Of 0.000000 0.000000 0.000000
Ro 0.000000 0.000000 0.000000
$EndSHAPE3D
$EndMODULE  CPA_6x11MM
$MODULE CPA_5x11MM
Po 0 0 0 15 4B90D6FB 00000000 ~~
Li CPA_5x11MM
Cd capacitor pol, axial 5x11mm
Sc 00000000
AR
Op 0 0 0
T0 0 -2000 600 600 0 120 N V 21 N"CPA_5x11MM"
T1 0 2500 600 600 0 120 N V 21 N"VAL**"
DS -1700 0 -1000 0 120 21
DS 2000 0 1400 0 120 21
DS 1700 300 1700 -300 120 21
DS -2200 0 -3500 0 120 21
DS 3500 0 2200 0 120 21
DS 2200 1000 1500 1000 120 21
DS 1500 1000 1500 700 120 21
DS 1500 700 1300 700 120 21
DS 1300 700 1300 1000 120 21
DS 1300 1000 -2200 1000 120 21
DS 1300 -1000 1300 -700 120 21
DS 1300 -700 1500 -700 120 21
DS 1500 -700 1500 -1000 120 21
DS 1500 -1000 2200 -1000 120 21
DS 1300 -1000 -2200 -1000 120 21
DS -1900 -1000 -1900 1000 120 21
DS 2200 -1000 2200 1000 120 21
DS -2200 1000 -2200 -1000 120 21
$PAD
Sh "1" C 787 787 0 0 0
Dr 315 0 0
At STD N 00E0FFFF
Ne 0 ""
Po 3500 0
$EndPAD
$PAD
Sh "2" C 787 787 0 0 0
Dr 315 0 0
At STD N 00E0FFFF
Ne 0 ""
Po -3500 0
$EndPAD
$SHAPE3D
Na "discret/Capacitor/cpa_5x11mm.wrl"
Sc 1.000000 1.000000 1.000000
Of 0.000000 0.000000 0.000000
Ro 0.000000 0.000000 0.000000
$EndSHAPE3D
$EndMODULE  CPA_5x11MM
$EndLIBRARY
