PCBNEW-LibModule-V1  07/09/2012 11:17:37
# encoding utf-8
Units deci-mils
$INDEX
MOLEX_53047-0210_2PIN_VERT
MOLEX_53047-0310_3PIN_VERT
MOLEX_53047-0410_4PIN_VERT
MOLEX_53047-0510_5PIN_VERT
MOLEX_53047-0610_6PIN_VERT
MOLEX_53047-0710_7PIN_VERT
MOLEX_53047-0810_8PIN_VERT
MOLEX_53047-0910_9PIN_VERT
$EndINDEX
$MODULE MOLEX_53047-0210_2PIN_VERT
Po 0 0 0 15 5049BA2E 00000000 ~~
Li MOLEX_53047-0210_2PIN_VERT
Sc 0
AR
Op 0 0 0
T0 -20 -1102 350 350 0 60 N V 21 N "REF*"
T1 0 709 350 350 0 63 N V 21 N "MOLEX_53047-0210_2PIN_VERT"
DS -768 39 -532 39 31 21
DS -532 39 -532 394 31 21
DS -768 -512 -532 -512 31 21
DS -532 -512 -532 -866 31 21
DS 531 -512 531 -866 31 21
DS 767 -512 531 -512 31 21
DS 767 39 531 39 31 21
DS 531 39 531 394 31 21
DS -768 -866 -768 394 31 21
DS 768 -866 768 394 31 21
DS 886 -866 886 394 31 21
DS -886 -866 -886 394 31 21
DS 886 -866 -886 -866 31 21
DS -886 394 886 394 31 21
DS -508 -868 -258 -618 31 21
DS -258 -618 -8 -868 31 21
$PAD
Sh "1" O 320 500 0 0 0
Dr 240 0 0
At STD N 00E0FFFF
Ne 0 ""
Po -246 0
$EndPAD
$PAD
Sh "2" O 320 500 0 0 0
Dr 240 0 0
At STD N 00E0FFFF
Ne 0 ""
Po 246 0
$EndPAD
$SHAPE3D
Na "Connectors/conn_df13/df13-2p-125dsa.wrl"
Sc 1 1 1
Of 0 0 0
Ro 0 0 0
$EndSHAPE3D
$EndMODULE MOLEX_53047-0210_2PIN_VERT
$MODULE MOLEX_53047-0310_3PIN_VERT
Po 0 0 0 15 5049BB9B 00000000 ~~
Li MOLEX_53047-0310_3PIN_VERT
Sc 0
AR
Op 0 0 0
T0 -30 -561 350 350 0 60 N V 21 N "Ref**"
T1 0 709 350 350 0 63 N V 21 N "MOLEX_53047-0310_3PIN_VERT"
DS -1014 39 -778 39 31 21
DS -778 39 -778 394 31 21
DS -1014 -512 -778 -512 31 21
DS -778 -512 -778 -866 31 21
DS 778 -512 778 -866 31 21
DS 1014 -512 778 -512 31 21
DS 1014 39 778 39 31 21
DS 778 39 778 394 31 21
DS -1014 -866 -1014 394 31 21
DS 1014 -866 1014 394 31 21
DS 1132 -866 1132 394 31 21
DS -1132 -866 -1132 394 31 21
DS 1132 -866 -1132 -866 31 21
DS -1132 394 1132 394 31 21
DS -754 -868 -504 -618 31 21
DS -504 -618 -254 -868 31 21
$PAD
Sh "1" O 320 500 0 0 0
Dr 240 0 0
At STD N 00E0FFFF
Ne 0 ""
Po -492 0
$EndPAD
$PAD
Sh "2" O 320 500 0 0 0
Dr 240 0 0
At STD N 00E0FFFF
Ne 0 ""
Po 0 0
$EndPAD
$PAD
Sh "3" O 320 500 0 0 0
Dr 240 0 0
At STD N 00E0FFFF
Ne 0 ""
Po 492 0
$EndPAD
$SHAPE3D
Na "Connectors/conn_df13/df13-3p-125dsa.wrl"
Sc 1 1 1
Of 0 0 0
Ro 0 0 0
$EndSHAPE3D
$EndMODULE MOLEX_53047-0310_3PIN_VERT
$MODULE MOLEX_53047-0410_4PIN_VERT
Po 0 0 0 15 5049BA0B 00000000 ~~
Li MOLEX_53047-0410_4PIN_VERT
Sc 0
AR
Op 0 0 0
T0 197 -551 350 350 0 60 N V 21 N "REF*"
T1 0 709 350 350 0 63 N V 21 N "MOLEX_53047-0410_4PIN_VERT"
DS -1260 39 -1024 39 31 21
DS -1024 39 -1024 394 31 21
DS -1260 -512 -1024 -512 31 21
DS -1024 -512 -1024 -866 31 21
DS 1024 -512 1024 -866 31 21
DS 1260 -512 1024 -512 31 21
DS 1260 39 1024 39 31 21
DS 1024 39 1024 394 31 21
DS 1024 394 1378 394 31 21
DS 1024 -866 1378 -866 31 21
DS -1024 -866 -1378 -866 31 21
DS -1024 394 -1378 394 31 21
DS -1260 -866 -1260 394 31 21
DS 1260 -866 1260 394 31 21
DS 1378 -866 1378 394 31 21
DS -1378 -866 -1378 394 31 21
DS 1024 -866 -1024 -866 31 21
DS -1024 394 1024 394 31 21
DS -1000 -868 -750 -618 31 21
DS -750 -618 -500 -868 31 21
$PAD
Sh "1" O 320 500 0 0 0
Dr 240 0 0
At STD N 00E0FFFF
Ne 0 ""
Po -738 0
$EndPAD
$PAD
Sh "2" O 320 500 0 0 0
Dr 240 0 0
At STD N 00E0FFFF
Ne 0 ""
Po -246 0
$EndPAD
$PAD
Sh "3" O 320 500 0 0 0
Dr 240 0 0
At STD N 00E0FFFF
Ne 0 ""
Po 246 0
$EndPAD
$PAD
Sh "4" O 320 500 0 0 0
Dr 240 0 0
At STD N 00E0FFFF
Ne 0 ""
Po 738 0
$EndPAD
$SHAPE3D
Na "Connectors/conn_df13/df13-4p-125dsa.wrl"
Sc 1 1 1
Of 0 0 0
Ro 0 0 180
$EndSHAPE3D
$EndMODULE MOLEX_53047-0410_4PIN_VERT
$MODULE MOLEX_53047-0510_5PIN_VERT
Po 0 0 0 15 5049B80B 00000000 ~~
Li MOLEX_53047-0510_5PIN_VERT
Sc 0
AR
Op 0 0 0
T0 187 -650 350 350 0 60 N V 21 N "Ref**"
T1 0 800 350 350 0 60 N V 21 N "MOLEX_53047-0510_5PIN_VERT"
DS 1270 502 1270 39 47 21
DS 1270 39 1506 39 47 21
DS 1506 -551 1270 -551 47 21
DS 1270 -551 1270 -994 47 21
DS -1270 -1004 -1270 -551 47 21
DS -1270 -551 -1506 -551 47 21
DS -1270 39 -1506 39 47 21
DS -1270 39 -1270 502 47 21
DS -1506 -994 -1506 502 47 21
DS 1506 -1004 1506 502 47 21
DS -1624 -1000 -1624 500 47 21
DS -1624 500 1624 500 47 21
DS 1628 500 1628 -1000 47 21
DS 1624 -1000 -1624 -1000 47 21
DS -1191 -997 -941 -747 47 21
DS -941 -746 -691 -996 47 21
$PAD
Sh "1" O 320 500 0 0 0
Dr 240 0 0
At STD N 00E0FFFF
Ne 0 ""
Po -984 0
$EndPAD
$PAD
Sh "2" O 320 500 0 0 0
Dr 240 0 0
At STD N 00E0FFFF
Ne 0 ""
Po -492 0
$EndPAD
$PAD
Sh "3" O 320 500 0 0 0
Dr 240 0 0
At STD N 00E0FFFF
Ne 0 ""
Po 0 0
$EndPAD
$PAD
Sh "4" O 320 500 0 0 0
Dr 240 0 0
At STD N 00E0FFFF
Ne 0 ""
Po 492 0
$EndPAD
$PAD
Sh "5" O 320 500 0 0 0
Dr 240 0 0
At STD N 00E0FFFF
Ne 0 ""
Po 984 0
$EndPAD
$SHAPE3D
Na "Connectors/conn_df13/df13-5p-125dsa.wrl"
Sc 1 1 1
Of 0 0 0
Ro 0 0 180
$EndSHAPE3D
$EndMODULE MOLEX_53047-0510_5PIN_VERT
$MODULE MOLEX_53047-0610_6PIN_VERT
Po 0 0 0 15 5049B044 00000000 ~~
Li MOLEX_53047-0610_6PIN_VERT
Sc 0
AR
Op 0 0 0
T0 0 -541 435 400 0 60 N V 21 N "Ref**"
T1 10 886 400 400 0 60 N V 21 N "MOLEX_53047-0610_6PIN_VERT"
DS -1752 39 -1516 39 31 21
DS -1516 39 -1516 394 31 21
DS -1752 -512 -1516 -512 31 21
DS -1516 -512 -1516 -866 31 21
DS 1751 -512 1515 -512 31 21
DS 1516 -512 1516 -866 31 21
DS 1752 39 1516 39 31 21
DS 1516 39 1516 394 31 21
DS 1752 -866 1752 394 31 21
DS -1752 -866 -1752 394 31 21
DS -1516 -866 -1870 -866 31 21
DS -1870 -866 -1870 394 31 21
DS -1870 394 -1516 394 31 21
DS 1870 -866 1870 394 31 21
DS -1458 -850 -1208 -600 31 21
DS -1208 -600 -958 -850 31 21
DS -1516 394 1870 394 31 21
DS 1870 -866 -1516 -866 31 21
$PAD
Sh "1" O 320 500 0 0 0
Dr 240 0 0
At STD N 00E0FFFF
Ne 0 ""
Po -1230 0
$EndPAD
$PAD
Sh "2" O 320 500 0 0 0
Dr 240 0 0
At STD N 00E0FFFF
Ne 0 ""
Po -738 0
$EndPAD
$PAD
Sh "3" O 320 500 0 0 0
Dr 240 0 0
At STD N 00E0FFFF
Ne 0 ""
Po -246 0
$EndPAD
$PAD
Sh "4" O 320 500 0 0 0
Dr 240 0 0
At STD N 00E0FFFF
Ne 0 ""
Po 246 0
$EndPAD
$PAD
Sh "5" O 320 500 0 0 0
Dr 240 0 0
At STD N 00E0FFFF
Ne 0 ""
Po 738 0
$EndPAD
$PAD
Sh "6" O 320 500 0 0 0
Dr 240 0 0
At STD N 00E0FFFF
Ne 0 ""
Po 1230 0
$EndPAD
$SHAPE3D
Na "Connectors/conn_df13/df13-6p-125dsa.wrl"
Sc 1 1 1
Of 0 0 0
Ro 0 0 0
$EndSHAPE3D
$EndMODULE MOLEX_53047-0610_6PIN_VERT
$MODULE MOLEX_53047-0710_7PIN_VERT
Po 0 0 0 15 5049AF8A 00000000 ~~
Li MOLEX_53047-0710_7PIN_VERT
Sc 0
AR
Op 0 0 0
T0 0 -541 435 400 0 60 N V 21 N "Ref**"
T1 10 886 400 400 0 60 N V 21 N "MOLEX_53047-0710_7PIN_VERT"
DS -1998 39 -1762 39 31 21
DS -1762 39 -1762 394 31 21
DS -1998 -512 -1762 -512 31 21
DS -1762 -512 -1762 -866 31 21
DS 1998 -512 1762 -512 31 21
DS 1762 -512 1762 -866 31 21
DS 1998 39 1762 39 31 21
DS 1762 39 1762 394 31 21
DS 1998 -866 1998 394 31 21
DS -1998 -866 -1998 394 31 21
DS -1762 -866 -2116 -866 31 21
DS -2116 -866 -2116 394 31 21
DS -2116 394 -1762 394 31 21
DS 2116 -866 2116 394 31 21
DS -1704 -850 -1454 -600 31 21
DS -1454 -600 -1204 -850 31 21
DS -1762 394 2116 394 31 21
DS 2116 -866 -1762 -866 31 21
$PAD
Sh "1" O 320 500 0 0 0
Dr 240 0 0
At STD N 00E0FFFF
Ne 0 ""
Po -1476 0
$EndPAD
$PAD
Sh "2" O 320 500 0 0 0
Dr 240 0 0
At STD N 00E0FFFF
Ne 0 ""
Po -984 0
$EndPAD
$PAD
Sh "3" O 320 500 0 0 0
Dr 240 0 0
At STD N 00E0FFFF
Ne 0 ""
Po -492 0
$EndPAD
$PAD
Sh "4" O 320 500 0 0 0
Dr 240 0 0
At STD N 00E0FFFF
Ne 0 ""
Po 0 0
$EndPAD
$PAD
Sh "5" O 320 500 0 0 0
Dr 240 0 0
At STD N 00E0FFFF
Ne 0 ""
Po 492 0
$EndPAD
$PAD
Sh "6" O 320 500 0 0 0
Dr 240 0 0
At STD N 00E0FFFF
Ne 0 ""
Po 984 0
$EndPAD
$PAD
Sh "7" O 320 500 0 0 0
Dr 240 0 0
At STD N 00E0FFFF
Ne 0 ""
Po 1476 0
$EndPAD
$SHAPE3D
Na "Connectors/conn_df13/df13-7p-125dsa.wrl"
Sc 1 1 1
Of 0 0 0
Ro 0 0 0
$EndSHAPE3D
$EndMODULE MOLEX_53047-0710_7PIN_VERT
$MODULE MOLEX_53047-0810_8PIN_VERT
Po 0 0 0 15 504101EC 00000000 ~~
Li MOLEX_53047-0810_8PIN_VERT
Sc 0
AR
Op 0 0 0
T0 0 -500 435 400 0 60 N V 21 N "Ref**"
T1 0 900 400 400 0 60 N V 21 N "MOLEX_53047-0610_8PIN_VERT"
DS -2244 39 -2008 39 31 21
DS -2008 39 -2008 394 31 21
DS -2244 -512 -2008 -512 31 21
DS -2008 -512 -2008 -866 31 21
DS 2244 -512 2008 -512 31 21
DS 2008 -512 2008 -866 31 21
DS 2244 39 2008 39 31 21
DS 2008 39 2008 394 31 21
DS 2244 -866 2244 394 31 21
DS -2244 -866 -2244 394 31 21
DS -2008 -866 -2362 -866 31 21
DS -2362 -866 -2362 394 31 21
DS -2362 394 -2008 394 31 21
DS 2008 -866 2362 -866 31 21
DS 2362 -866 2362 394 31 21
DS 2362 394 2008 394 31 21
DS -1950 -850 -1700 -600 31 21
DS -1700 -600 -1450 -850 31 21
DS -2008 394 2008 394 31 21
DS 2008 -866 -2008 -866 31 21
$PAD
Sh "1" O 320 500 0 0 0
Dr 240 0 0
At STD N 00E0FFFF
Ne 0 ""
Po -1722 0
$EndPAD
$PAD
Sh "2" O 320 500 0 0 0
Dr 240 0 0
At STD N 00E0FFFF
Ne 0 ""
Po -1230 0
$EndPAD
$PAD
Sh "3" O 320 500 0 0 0
Dr 240 0 0
At STD N 00E0FFFF
Ne 0 ""
Po -738 0
$EndPAD
$PAD
Sh "4" O 320 500 0 0 0
Dr 240 0 0
At STD N 00E0FFFF
Ne 0 ""
Po -246 0
$EndPAD
$PAD
Sh "5" O 320 500 0 0 0
Dr 240 0 0
At STD N 00E0FFFF
Ne 0 ""
Po 246 0
$EndPAD
$PAD
Sh "6" O 320 500 0 0 0
Dr 240 0 0
At STD N 00E0FFFF
Ne 0 ""
Po 738 0
$EndPAD
$PAD
Sh "7" O 320 500 0 0 0
Dr 240 0 0
At STD N 00E0FFFF
Ne 0 ""
Po 1230 0
$EndPAD
$PAD
Sh "8" O 320 500 0 0 0
Dr 240 0 0
At STD N 00E0FFFF
Ne 0 ""
Po 1722 0
$EndPAD
$SHAPE3D
Na "Connectors/conn_df13/df13-8p-125dsa.wrl"
Sc 1 1 1
Of 0 0 0
Ro 0 0 180
$EndSHAPE3D
$EndMODULE MOLEX_53047-0810_8PIN_VERT
$MODULE MOLEX_53047-0910_9PIN_VERT
Po 0 0 0 15 5040FE09 00000000 ~~
Li MOLEX_53047-0910_9PIN_VERT
Sc 0
AR
Op 0 0 0
T0 0 -500 400 400 0 60 N V 21 N "Ref**"
T1 0 850 350 400 0 60 N V 21 N "MOLEX_53047-0910_9PIN_VERT"
DS -2244 39 -2244 394 31 21
DS 2244 39 2244 394 31 21
DS -2244 -512 -2244 -866 31 21
DS -2244 39 -2441 39 31 21
DS -2441 -512 -2244 -512 31 21
DS -2441 -866 -2441 394 31 21
DS 2244 -512 2244 -866 31 21
DS 2441 39 2244 39 31 21
DS 2244 -512 2441 -512 31 21
DS 2441 -866 2441 394 31 21
DS 2244 -866 2559 -866 31 21
DS 2559 -866 2559 394 31 21
DS 2559 394 2244 394 31 21
DS -2244 -866 -2559 -866 31 21
DS -2559 -866 -2559 394 31 21
DS -2559 394 -2244 394 31 21
DS -2200 -850 -1950 -600 31 21
DS -1950 -600 -1700 -850 31 21
DS -2250 394 2250 394 31 21
DS 2250 -866 -2250 -866 31 21
$PAD
Sh "1" O 320 500 0 0 0
Dr 240 0 0
At STD N 00E0FFFF
Ne 0 ""
Po -1969 0
$EndPAD
$PAD
Sh "2" O 320 500 0 0 0
Dr 240 0 0
At STD N 00E0FFFF
Ne 0 ""
Po -1476 0
$EndPAD
$PAD
Sh "3" O 320 500 0 0 0
Dr 240 0 0
At STD N 00E0FFFF
Ne 0 ""
Po -984 0
$EndPAD
$PAD
Sh "4" O 320 500 0 0 0
Dr 240 0 0
At STD N 00E0FFFF
Ne 0 ""
Po -492 0
$EndPAD
$PAD
Sh "5" O 320 500 0 0 0
Dr 240 0 0
At STD N 00E0FFFF
Ne 0 ""
Po 0 0
$EndPAD
$PAD
Sh "6" O 320 500 0 0 0
Dr 240 0 0
At STD N 00E0FFFF
Ne 0 ""
Po 492 0
$EndPAD
$PAD
Sh "7" O 320 500 0 0 0
Dr 240 0 0
At STD N 00E0FFFF
Ne 0 ""
Po 984 0
$EndPAD
$PAD
Sh "8" O 320 500 0 0 0
Dr 240 0 0
At STD N 00E0FFFF
Ne 0 ""
Po 1476 0
$EndPAD
$PAD
Sh "9" O 320 500 0 0 0
Dr 240 0 0
At STD N 00E0FFFF
Ne 0 ""
Po 1969 0
$EndPAD
$SHAPE3D
Na "Connectors/conn_df13/df13-9p-125dsa.wrl"
Sc 1 1 1
Of 0 0 0
Ro 0 0 180
$EndSHAPE3D
$EndMODULE MOLEX_53047-0910_9PIN_VERT
$EndLIBRARY
