PCBNEW-LibModule-V1  Di 12 Jun 2012 17:08:41 CEST
# encoding utf-8
$INDEX
Crystal_FOX-FE_SMD_RevA_09Aug2010
Crystal_HC35-U_RevA_09Aug2010
Crystal_HC48-U_Vertical_RevA_09Aug2010
Crystal_HC49-SD_SMD_RevA_09Aug2010
Crystal_HC49-U_Horizontal_Typ1_RevA_09Aug2010
Crystal_HC49-U_Horizontal_Typ2_RevA_09Aug2010
Crystal_HC49-U_Vertical_3Pin_RevA_09Aug2010
Crystal_HC49-U_Vertical_RevA_09Aug2010
Crystal_HC50-U_Vertical_RevA_09Aug2010
Crystal_HC51-U_Vertical_RevA_09Aug2010
Crystal_HC52-U_Vertical_3Pin_RevA_09Aug2010
Crystal_HC52-U_Vertical_RevA_09Aug2010
Crystal_Round_Horizontal_2mm_RevA_25Apr2012
Crystal_Round_Horizontal_3mm_BigPad_RevA_25Apr2012
Crystal_Round_Horizontal_3mm_RevA_25Apr2012
Crystal_Round_Vertical_2mm_RevA_25Apr2012
Crystal_Round_Vertical_3mm_BigPad_RevA_25Apr2012
Crystal_Round_Vertical_3mm_RevA_25Apr2012
Crystal_SMD_0603_2Pads_obsolete_RevA_09Aug2010
Crystal_SMD_0603_4Pads_RevA_09Aug2010
$EndINDEX
$MODULE Crystal_Round_Horizontal_2mm_RevA_25Apr2012
Po 0 0 0 15 4F986D86 00000000 ~~
Li Crystal_Round_Horizontal_2mm_RevA_25Apr2012
Cd Crystal, Quarz, Rundgehaeuse, round, horizontal, liegend, Uhrenquarz, Diam. 2mm,
Kw Crystal, Quarz, Rundgehaeuse, round, horizontal, liegend, Uhrenquarz, Diam. 2mm,
Sc 00000000
AR Crystal_HC52-U_Vertical_RevA_09Aug2010
Op 0 0 0
T0 -79 -3307 600 600 0 120 N V 21 N "XT"
T1 0 1500 600 600 0 120 N I 21 N "Crystal_Round_Horizontal_2mm_RevA_25Apr2012"
DS -118 -492 -157 -374 150 21
DS 118 -492 157 -374 150 21
DS 354 -492 354 -2480 150 21
DS 354 -2480 -354 -2480 150 21
DS -354 -2480 -354 -492 150 21
DS 354 -492 -354 -492 150 21
$PAD
Sh "1" C 394 394 0 0 0
Dr 236 0 0
At STD N 00E0FFFF
Ne 0 ""
Po -295 0
$EndPAD
$PAD
Sh "2" C 394 394 0 0 0
Dr 236 0 0
At STD N 00E0FFFF
Ne 0 ""
Po 295 0
$EndPAD
$EndMODULE  Crystal_Round_Horizontal_2mm_RevA_25Apr2012
$MODULE Crystal_Round_Vertical_3mm_RevA_25Apr2012
Po 0 0 0 15 4F987045 00000000 ~~
Li Crystal_Round_Vertical_3mm_RevA_25Apr2012
Cd Crystal, Quarz, Rundgehaeuse, round, vertical, stehend, Uhrenquarz, Diam. 3mm,
Kw Crystal, Quarz, Rundgehaeuse, round, vertical, stehend, Uhrenquarz, Diam. 3mm,
Sc 00000000
AR Crystal_HC52-U_Vertical_RevA_09Aug2010
Op 0 0 0
T0 0 -1500 600 600 0 120 N V 21 N "XT"
T1 0 1500 600 600 0 120 N I 21 N "Crystal_Round_Vertical_3mm_RevA_25Apr2012"
DS 512 354 413 453 150 21
DS 413 453 276 551 150 21
DS 276 551 59 610 150 21
DS 59 610 -98 610 150 21
DS -98 610 -295 531 150 21
DS -295 531 -453 394 150 21
DS 512 -335 453 -413 150 21
DS 453 -413 335 -512 150 21
DS 335 -512 157 -591 150 21
DS 157 -591 -20 -610 150 21
DS -20 -610 -217 -571 150 21
DS -217 -571 -354 -492 150 21
DS -354 -492 -492 -354 150 21
$PAD
Sh "1" C 394 394 0 0 0
Dr 236 0 0
At STD N 00E0FFFF
Ne 0 ""
Po -295 0
$EndPAD
$PAD
Sh "2" C 394 394 0 0 0
Dr 236 0 0
At STD N 00E0FFFF
Ne 0 ""
Po 295 0
$EndPAD
$EndMODULE  Crystal_Round_Vertical_3mm_RevA_25Apr2012
$MODULE Crystal_Round_Vertical_2mm_RevA_25Apr2012
Po 0 0 0 15 4F98712B 00000000 ~~
Li Crystal_Round_Vertical_2mm_RevA_25Apr2012
Cd Crystal, Quarz, Rundgehaeuse, round, NC26LF, vertical, stehend, Uhrenquarz, Diam. 2mm,
Kw Crystal, Quarz, Rundgehaeuse, round, NC26LF, vertical, stehend, Uhrenquarz, Diam. 2mm,
Sc 00000000
AR Crystal_HC52-U_Vertical_RevA_09Aug2010
Op 0 0 0
T0 0 -1500 600 600 0 120 N V 21 N "XT"
T1 0 1500 600 600 0 120 N I 21 N "Crystal_Round_Vertical_2mm_RevA_25Apr2012"
DS 177 354 138 374 150 21
DS 138 374 59 394 150 21
DS 59 394 -20 394 150 21
DS -20 394 -118 374 150 21
DS -118 374 -157 354 150 21
DS 157 -354 98 -394 150 21
DS 98 -394 20 -394 150 21
DS 20 -394 -59 -394 150 21
DS -59 -394 -118 -374 150 21
DS -118 -374 -157 -354 150 21
$PAD
Sh "1" C 394 394 0 0 0
Dr 236 0 0
At STD N 00E0FFFF
Ne 0 ""
Po -295 0
$EndPAD
$PAD
Sh "2" C 394 394 0 0 0
Dr 236 0 0
At STD N 00E0FFFF
Ne 0 ""
Po 295 0
$EndPAD
$EndMODULE  Crystal_Round_Vertical_2mm_RevA_25Apr2012
$MODULE Crystal_Round_Horizontal_3mm_RevA_25Apr2012
Po 0 0 0 15 4F987235 00000000 ~~
Li Crystal_Round_Horizontal_3mm_RevA_25Apr2012
Cd Crystal, Quarz, Rundgehaeuse, round, horizontal, liegend, Uhrenquarz, Diam. 3mm,
Kw Crystal, Quarz, Rundgehaeuse, round, horizontal, liegend, Uhrenquarz, Diam. 3mm,
Sc 00000000
AR Crystal_HC52-U_Vertical_RevA_09Aug2010
Op 0 0 0
T0 98 -4665 600 600 0 120 N V 21 N "XT"
T1 -98 1083 600 600 0 120 N I 21 N "Crystal_Round_Horizontal_3mm_RevA_25Apr2012"
DS 630 -492 630 -3878 150 21
DS 630 -3878 -630 -3878 150 21
DS -630 -3878 -630 -492 150 21
DS -335 -492 -630 -492 150 21
DS 354 -492 630 -492 150 21
DS -118 -492 -157 -374 150 21
DS 118 -492 157 -374 150 21
DS 354 -492 -354 -492 150 21
$PAD
Sh "1" C 394 394 0 0 0
Dr 236 0 0
At STD N 00E0FFFF
Ne 0 ""
Po -295 0
$EndPAD
$PAD
Sh "2" C 394 394 0 0 0
Dr 236 0 0
At STD N 00E0FFFF
Ne 0 ""
Po 295 0
$EndPAD
$EndMODULE  Crystal_Round_Horizontal_3mm_RevA_25Apr2012
$MODULE Crystal_Round_Vertical_3mm_BigPad_RevA_25Apr2012
Po 0 0 0 15 4F987363 00000000 ~~
Li Crystal_Round_Vertical_3mm_BigPad_RevA_25Apr2012
Cd Crystal, Quarz, Rundgehaeuse, round, vertical, stehend, Uhrenquarz, Diam. 3mm, big pad,
Kw Crystal, Quarz, Rundgehaeuse, round, vertical, stehend, Uhrenquarz, Diam. 3mm, big pad,
Sc 00000000
AR Crystal_HC52-U_Vertical_RevA_09Aug2010
Op 0 0 0
T0 0 -1500 600 600 0 120 N V 21 N "XT"
T1 0 1500 600 600 0 120 N I 21 N "Crystal_Round_Vertical_3mm_BigPad_RevA_25Apr2012"
DS 413 453 472 394 150 21
DS -354 -492 -453 -394 150 21
DS 413 453 276 551 150 21
DS 276 551 59 610 150 21
DS 59 610 -98 610 150 21
DS -98 610 -295 531 150 21
DS -295 531 -453 394 150 21
DS 453 -413 335 -512 150 21
DS 335 -512 157 -591 150 21
DS 157 -591 -20 -610 150 21
DS -20 -610 -217 -571 150 21
DS -217 -571 -354 -492 150 21
$PAD
Sh "1" O 591 394 0 0 0
Dr 236 -118 0
At STD N 00E0FFFF
Ne 0 ""
Po -295 0
$EndPAD
$PAD
Sh "2" O 591 394 0 0 0
Dr 236 118 0
At STD N 00E0FFFF
Ne 0 ""
Po 295 0
$EndPAD
$EndMODULE  Crystal_Round_Vertical_3mm_BigPad_RevA_25Apr2012
$MODULE Crystal_Round_Horizontal_3mm_BigPad_RevA_25Apr2012
Po 0 0 0 15 4F98748C 00000000 ~~
Li Crystal_Round_Horizontal_3mm_BigPad_RevA_25Apr2012
Cd Crystal, Quarz, Rundgehaeuse, round, horizontal, liegend, Uhrenquarz, Diam. 3mm, big pad,
Kw Crystal, Quarz, Rundgehaeuse, round, horizontal, liegend, Uhrenquarz, Diam. 3mm, big pad,
Sc 00000000
AR Crystal_HC52-U_Vertical_RevA_09Aug2010
Op 0 0 0
T0 98 -4665 600 600 0 120 N V 21 N "XT"
T1 -98 1083 600 600 0 120 N I 21 N "Crystal_Round_Horizontal_3mm_BigPad_RevA_25Apr2012"
DS 630 -492 630 -3878 150 21
DS 630 -3878 -630 -3878 150 21
DS -630 -3878 -630 -492 150 21
DS -335 -492 -630 -492 150 21
DS 354 -492 630 -492 150 21
DS -118 -492 -157 -374 150 21
DS 118 -492 157 -374 150 21
DS 354 -492 -354 -492 150 21
$PAD
Sh "1" O 591 394 0 0 450
Dr 236 -118 0
At STD N 00E0FFFF
Ne 0 ""
Po -295 0
$EndPAD
$PAD
Sh "2" O 591 394 0 0 -450
Dr 236 118 0
At STD N 00E0FFFF
Ne 0 ""
Po 295 0
$EndPAD
$EndMODULE  Crystal_Round_Horizontal_3mm_BigPad_RevA_25Apr2012
$MODULE Crystal_HC35-U_RevA_09Aug2010
Po 0 0 0 15 4C6036D7 00000000 ~~
Li Crystal_HC35-U_RevA_09Aug2010
Cd Crystal, Quarz, HC35/U,
Kw Crystal, Quarz, HC35/U,
Sc 00000000
AR
Op 0 0 0
T0 0 -500 600 600 0 120 N V 21 N "XT"
T1 39 2894 600 600 0 120 N I 21 N "Crystal_HC35-U_RevA_09Aug2010"
DS 1142 -1378 1339 -1614 150 21
DS 1339 -1614 1575 -1339 150 21
DS 1575 -1339 1378 -1181 150 21
DC 0 0 1811 0 150 21
$PAD
Sh "1" C 472 472 0 0 0
Dr 236 0 0
At STD N 00E0FFFF
Ne 0 ""
Po -984 0
$EndPAD
$PAD
Sh "2" C 472 472 0 0 0
Dr 236 0 0
At STD N 00E0FFFF
Ne 0 ""
Po 984 0
$EndPAD
$PAD
Sh "3" C 472 472 0 0 0
Dr 236 0 0
At STD N 00E0FFFF
Ne 0 ""
Po 0 984
$EndPAD
$EndMODULE  Crystal_HC35-U_RevA_09Aug2010
$MODULE Crystal_HC48-U_Vertical_RevA_09Aug2010
Po 0 0 0 15 4C6027A2 00000000 ~~
Li Crystal_HC48-U_Vertical_RevA_09Aug2010
Cd Crystal, Quarz, HC48/U, vertical, stehend,
Kw Crystal, Quarz, HC48/U, vertical, stehend,
Sc 00000000
AR
Op 0 0 0
T0 0 0 600 600 0 120 N V 21 N "XT"
T1 0 2500 600 600 0 120 N I 21 N "Crystal_HC48-U_Vertical_RevA_09Aug2010"
DS -2028 -1496 1988 -1516 150 21
DS 1988 -1516 2224 -1476 150 21
DS 2224 -1476 2559 -1378 150 21
DS 2559 -1378 2835 -1220 150 21
DS 2835 -1220 3169 -886 150 21
DS 3169 -886 3346 -551 150 21
DS 3346 -551 3425 -217 150 21
DS 3425 -217 3445 39 150 21
DS 3445 39 3346 531 150 21
DS 3346 531 3169 866 150 21
DS 3169 866 2933 1122 150 21
DS 2933 1122 2638 1319 150 21
DS 2638 1319 2224 1457 150 21
DS 2224 1457 1890 1496 150 21
DS 1890 1496 -1969 1496 150 21
DS -1969 1496 -2343 1437 150 21
DS -2343 1437 -2638 1319 150 21
DS -2638 1319 -2894 1161 150 21
DS -2894 1161 -3110 925 150 21
DS -3110 925 -3327 571 150 21
DS -3327 571 -3406 354 150 21
DS -3406 354 -3445 -79 150 21
DS -3445 -79 -3366 -492 150 21
DS -3366 -492 -3189 -846 150 21
DS -3189 -846 -2894 -1161 150 21
DS -2894 -1161 -2579 -1358 150 21
DS -2579 -1358 -2264 -1476 150 21
DS -2264 -1476 -2008 -1496 150 21
DS 2008 1791 -1909 1791 150 21
DS -1909 1791 -2185 1772 150 21
DS -2185 1772 -2559 1693 150 21
DS -2559 1693 -2854 1535 150 21
DS -2854 1535 -3150 1319 150 21
DS -3150 1319 -3425 1024 150 21
DS -3425 1024 -3622 610 150 21
DS -3622 610 -3720 256 150 21
DS -3720 256 -3760 0 150 21
DS -3760 0 -3720 -315 150 21
DS -3720 -315 -3583 -728 150 21
DS -3583 -728 -3386 -1063 150 21
DS -3386 -1063 -3209 -1280 150 21
DS -3209 -1280 -2933 -1496 150 21
DS -2933 -1496 -2598 -1673 150 21
DS -2598 -1673 -2283 -1752 150 21
DS -2283 -1752 -1988 -1791 150 21
DS -1988 -1791 2008 -1791 150 21
DS 2008 -1791 2382 -1752 150 21
DS 2382 -1752 2717 -1614 150 21
DS 2717 -1614 3071 -1398 150 21
DS 3071 -1398 3307 -1161 150 21
DS 3307 -1161 3622 -650 150 21
DS 3622 -650 3720 -256 150 21
DS 3720 -256 3740 98 150 21
DS 3740 98 3681 453 150 21
DS 3681 453 3583 728 150 21
DS 3583 728 3406 1024 150 21
DS 3406 1024 3150 1319 150 21
DS 3150 1319 2972 1476 150 21
DS 2972 1476 2657 1634 150 21
DS 2657 1634 2303 1752 150 21
DS 2303 1752 2008 1791 150 21
$PAD
Sh "1" C 984 984 0 0 0
Dr 591 0 0
At STD N 00E0FFFF
Ne 0 ""
Po -2421 0
$EndPAD
$PAD
Sh "2" C 984 984 0 0 0
Dr 591 0 0
At STD N 00E0FFFF
Ne 0 ""
Po 2421 0
$EndPAD
$EndMODULE  Crystal_HC48-U_Vertical_RevA_09Aug2010
$MODULE Crystal_HC49-U_Horizontal_Typ1_RevA_09Aug2010
Po 0 0 0 15 4C602D51 00000000 ~~
Li Crystal_HC49-U_Horizontal_Typ1_RevA_09Aug2010
Cd Crystal, Quarz, HC49/U, horizontal, liegend, Typ I,
Kw Crystal, Quarz, HC49/U, horizontal, liegend, Typ I,
Sc 00000000
AR
Op 0 0 0
T0 0 -3500 600 600 0 120 N V 21 N "XT"
T1 500 1000 600 600 0 120 N I 21 N "Crystal_HC49-U_Horizontal_Typ1_RevA_09Aug2010"
DS 945 -551 945 -984 150 21
DS -984 -551 -984 -984 150 21
DS -1969 -984 -1969 -6339 150 21
DS -1969 -6339 1969 -6339 150 21
DS 1969 -6339 1969 -984 150 21
DS -2165 -984 2165 -984 150 21
$PAD
Sh "1" C 591 591 0 0 0
Dr 315 0 0
At STD N 00E0FFFF
Ne 0 ""
Po -961 0
$EndPAD
$PAD
Sh "2" C 591 591 0 0 0
Dr 315 0 0
At STD N 00E0FFFF
Ne 0 ""
Po 961 0
$EndPAD
$EndMODULE  Crystal_HC49-U_Horizontal_Typ1_RevA_09Aug2010
$MODULE Crystal_HC49-U_Horizontal_Typ2_RevA_09Aug2010
Po 0 0 0 15 4C602FB1 00000000 ~~
Li Crystal_HC49-U_Horizontal_Typ2_RevA_09Aug2010
Cd Crystal, Quarz, HC49/U, horizontal, liegend, Typ II,
Kw Crystal, Quarz, HC49/U, horizontal, liegend, Typ II,
Sc 00000000
AR
Op 0 0 0
T0 0 -7500 600 600 0 120 N V 21 N "XT"
T1 500 1000 600 600 0 120 N I 21 N "Crystal_HC49-U_Horizontal_Typ2_RevA_09Aug2010"
DS 945 -551 945 -984 150 21
DS -984 -551 -984 -984 150 21
DS -1969 -984 -1969 -6339 150 21
DS -1969 -6339 1969 -6339 150 21
DS 1969 -6339 1969 -984 150 21
DS -2165 -984 2165 -984 150 21
$PAD
Sh "1" C 591 591 0 0 0
Dr 315 0 0
At STD N 00E0FFFF
Ne 0 ""
Po -961 0
$EndPAD
$PAD
Sh "2" C 591 591 0 0 0
Dr 315 0 0
At STD N 00E0FFFF
Ne 0 ""
Po 961 0
$EndPAD
$PAD
Sh "3" R 3937 5315 0 0 0
Dr 0 0 0
At SMD N 00888000
Ne 0 ""
Po 0 -3701
$EndPAD
$PAD
Sh "3" R 472 472 0 0 0
Dr 315 0 0
At STD N 00E0FFFF
Ne 0 ""
Po 2402 -3740
$EndPAD
$PAD
Sh "3" R 472 472 0 0 0
Dr 315 0 0
At STD N 00E0FFFF
Ne 0 ""
Po -2402 -3740
$EndPAD
$PAD
Sh "3" R 472 472 0 0 0
Dr 315 0 0
At STD N 00E0FFFF
Ne 0 ""
Po 0 -6811
$EndPAD
$EndMODULE  Crystal_HC49-U_Horizontal_Typ2_RevA_09Aug2010
$MODULE Crystal_HC49-U_Vertical_3Pin_RevA_09Aug2010
Po 0 0 0 15 4C603017 00000000 ~~
Li Crystal_HC49-U_Vertical_3Pin_RevA_09Aug2010
Cd Crystal, Quarz, HC49/U, vertical, stehend, 3 Pin,
Kw Crystal, Quarz, HC49/U, vertical, stehend, 3 Pin,
Sc 00000000
AR
Op 0 0 0
T0 0 -1500 600 600 0 120 N V 21 N "XT"
T1 0 1500 600 600 0 120 N I 21 N "Crystal_HC49-U_Vertical_3Pin_RevA_09Aug2010"
DS 1850 -394 1929 -236 150 21
DS 1929 -236 1969 0 150 21
DS 1969 0 1929 197 150 21
DS 1929 197 1772 472 150 21
DS 1772 472 1535 630 150 21
DS 1535 630 1299 709 150 21
DS 1299 709 -1299 709 150 21
DS -1299 709 -1575 630 150 21
DS -1575 630 -1732 512 150 21
DS -1732 512 -1890 315 150 21
DS -1890 315 -1969 79 150 21
DS -1969 79 -1969 -118 150 21
DS -1969 -118 -1890 -315 150 21
DS -1890 -315 -1693 -551 150 21
DS -1693 -551 -1496 -669 150 21
DS -1496 -669 -1299 -709 150 21
DS -1260 -709 1339 -709 150 21
DS 1339 -709 1496 -669 150 21
DS 1496 -669 1693 -551 150 21
DS 1693 -551 1890 -354 150 21
DS -1256 -917 -1437 -898 150 21
DS -1437 -898 -1594 -854 150 21
DS -1594 -854 -1764 -768 150 21
DS -1764 -768 -1878 -677 150 21
DS -1878 -677 -2008 -539 150 21
DS -2008 -539 -2122 -327 150 21
DS -2122 -327 -2173 -91 150 21
DS -2173 -91 -2173 110 150 21
DS -2173 110 -2106 386 150 21
DS -2106 386 -1949 618 150 21
DS -1949 618 -1768 764 150 21
DS -1768 764 -1602 846 150 21
DS -1602 846 -1425 909 150 21
DS -1425 909 -1252 921 150 21
DS 1638 835 1787 748 150 21
DS 1787 748 1913 638 150 21
DS 1913 638 2012 508 150 21
DS 2012 508 2130 291 150 21
DS 2130 291 2173 106 150 21
DS 2173 106 2181 -75 150 21
DS 2181 -75 2146 -256 150 21
DS 2146 -256 2071 -433 150 21
DS 2071 -433 1929 -618 150 21
DS 1929 -618 1791 -744 150 21
DS 1791 -744 1638 -835 150 21
DS 1638 -835 1469 -890 150 21
DS 1469 -890 1295 -917 150 21
DS -1260 917 1280 917 150 21
DS 1280 917 1445 902 150 21
DS 1445 902 1638 835 150 21
DS -1260 -917 1280 -917 150 21
$PAD
Sh "1" C 591 591 0 0 0
Dr 315 0 0
At STD N 00E0FFFF
Ne 0 ""
Po -961 0
$EndPAD
$PAD
Sh "2" C 591 591 0 0 0
Dr 315 0 0
At STD N 00E0FFFF
Ne 0 ""
Po 961 0
$EndPAD
$PAD
Sh "3" C 591 591 0 0 0
Dr 315 0 0
At STD N 00E0FFFF
Ne 0 ""
Po 0 0
$EndPAD
$EndMODULE  Crystal_HC49-U_Vertical_3Pin_RevA_09Aug2010
$MODULE Crystal_HC49-U_Vertical_RevA_09Aug2010
Po 0 0 0 15 4C6023AD 00000000 ~~
Li Crystal_HC49-U_Vertical_RevA_09Aug2010
Cd Crystal, Quarz, HC49/U, vertical, stehend,
Kw Crystal, Quarz, HC49/U, vertical, stehend,
Sc 00000000
AR
Op 0 0 0
T0 0 -1500 600 600 0 120 N V 21 N "XT"
T1 0 1500 600 600 0 120 N I 21 N "Crystal_HC49-U_Vertical_RevA_09Aug2010"
DS 1850 -394 1929 -236 150 21
DS 1929 -236 1969 0 150 21
DS 1969 0 1929 197 150 21
DS 1929 197 1772 472 150 21
DS 1772 472 1535 630 150 21
DS 1535 630 1299 709 150 21
DS 1299 709 -1299 709 150 21
DS -1299 709 -1575 630 150 21
DS -1575 630 -1732 512 150 21
DS -1732 512 -1890 315 150 21
DS -1890 315 -1969 79 150 21
DS -1969 79 -1969 -118 150 21
DS -1969 -118 -1890 -315 150 21
DS -1890 -315 -1693 -551 150 21
DS -1693 -551 -1496 -669 150 21
DS -1496 -669 -1299 -709 150 21
DS -1260 -709 1339 -709 150 21
DS 1339 -709 1496 -669 150 21
DS 1496 -669 1693 -551 150 21
DS 1693 -551 1890 -354 150 21
DS -1256 -917 -1437 -898 150 21
DS -1437 -898 -1594 -854 150 21
DS -1594 -854 -1764 -768 150 21
DS -1764 -768 -1878 -677 150 21
DS -1878 -677 -2008 -539 150 21
DS -2008 -539 -2122 -327 150 21
DS -2122 -327 -2173 -91 150 21
DS -2173 -91 -2173 110 150 21
DS -2173 110 -2106 386 150 21
DS -2106 386 -1949 618 150 21
DS -1949 618 -1768 764 150 21
DS -1768 764 -1602 846 150 21
DS -1602 846 -1425 909 150 21
DS -1425 909 -1252 921 150 21
DS 1638 835 1787 748 150 21
DS 1787 748 1913 638 150 21
DS 1913 638 2012 508 150 21
DS 2012 508 2130 291 150 21
DS 2130 291 2173 106 150 21
DS 2173 106 2181 -75 150 21
DS 2181 -75 2146 -256 150 21
DS 2146 -256 2071 -433 150 21
DS 2071 -433 1929 -618 150 21
DS 1929 -618 1791 -744 150 21
DS 1791 -744 1638 -835 150 21
DS 1638 -835 1469 -890 150 21
DS 1469 -890 1295 -917 150 21
DS -1260 917 1280 917 150 21
DS 1280 917 1445 902 150 21
DS 1445 902 1638 835 150 21
DS -1260 -917 1280 -917 150 21
$PAD
Sh "1" C 591 591 0 0 0
Dr 315 0 0
At STD N 00E0FFFF
Ne 0 ""
Po -961 0
$EndPAD
$PAD
Sh "2" C 591 591 0 0 0
Dr 315 0 0
At STD N 00E0FFFF
Ne 0 ""
Po 961 0
$EndPAD
$EndMODULE  Crystal_HC49-U_Vertical_RevA_09Aug2010
$MODULE Crystal_HC50-U_Vertical_RevA_09Aug2010
Po 0 0 0 15 4C6031A6 00000000 ~~
Li Crystal_HC50-U_Vertical_RevA_09Aug2010
Cd Crystal, Quarz, HC50/U, vertical, stehend,
Kw Crystal, Quarz, HC50/U, vertical, stehend,
Sc 00000000
AR
Op 0 0 0
T0 0 -1500 600 600 0 120 N V 21 N "XT"
T1 0 1500 600 600 0 120 N I 21 N "Crystal_HC50-U_Vertical_RevA_09Aug2010"
DS 1850 -394 1929 -236 150 21
DS 1929 -236 1969 0 150 21
DS 1969 0 1929 197 150 21
DS 1929 197 1772 472 150 21
DS 1772 472 1535 630 150 21
DS 1535 630 1299 709 150 21
DS 1299 709 -1299 709 150 21
DS -1299 709 -1575 630 150 21
DS -1575 630 -1732 512 150 21
DS -1732 512 -1890 315 150 21
DS -1890 315 -1969 79 150 21
DS -1969 79 -1969 -118 150 21
DS -1969 -118 -1890 -315 150 21
DS -1890 -315 -1693 -551 150 21
DS -1693 -551 -1496 -669 150 21
DS -1496 -669 -1299 -709 150 21
DS -1260 -709 1339 -709 150 21
DS 1339 -709 1496 -669 150 21
DS 1496 -669 1693 -551 150 21
DS 1693 -551 1890 -354 150 21
DS -1256 -917 -1437 -898 150 21
DS -1437 -898 -1594 -854 150 21
DS -1594 -854 -1764 -768 150 21
DS -1764 -768 -1878 -677 150 21
DS -1878 -677 -2008 -539 150 21
DS -2008 -539 -2122 -327 150 21
DS -2122 -327 -2173 -91 150 21
DS -2173 -91 -2173 110 150 21
DS -2173 110 -2106 386 150 21
DS -2106 386 -1949 618 150 21
DS -1949 618 -1768 764 150 21
DS -1768 764 -1602 846 150 21
DS -1602 846 -1425 909 150 21
DS -1425 909 -1252 921 150 21
DS 1638 835 1787 748 150 21
DS 1787 748 1913 638 150 21
DS 1913 638 2012 508 150 21
DS 2012 508 2130 291 150 21
DS 2130 291 2173 106 150 21
DS 2173 106 2181 -75 150 21
DS 2181 -75 2146 -256 150 21
DS 2146 -256 2071 -433 150 21
DS 2071 -433 1929 -618 150 21
DS 1929 -618 1791 -744 150 21
DS 1791 -744 1638 -835 150 21
DS 1638 -835 1469 -890 150 21
DS 1469 -890 1295 -917 150 21
DS -1260 917 1280 917 150 21
DS 1280 917 1445 902 150 21
DS 1445 902 1638 835 150 21
DS -1260 -917 1280 -917 150 21
$PAD
Sh "1" O 787 984 0 0 0
Dr 472 0 0
At STD N 00E0FFFF
Ne 0 ""
Po -961 0
$EndPAD
$PAD
Sh "2" O 787 984 0 0 0
Dr 472 0 0
At STD N 00E0FFFF
Ne 0 ""
Po 961 0
$EndPAD
$EndMODULE  Crystal_HC50-U_Vertical_RevA_09Aug2010
$MODULE Crystal_HC51-U_Vertical_RevA_09Aug2010
Po 0 0 0 15 4C6034F5 00000000 ~~
Li Crystal_HC51-U_Vertical_RevA_09Aug2010
Cd Crystal, Quarz, HC51/U, vertical, stehend,
Kw Crystal, Quarz, HC51/U, vertical, stehend,
Sc 00000000
AR
Op 0 0 0
T0 0 0 600 600 0 120 N V 21 N "XT"
T1 0 2500 600 600 0 120 N I 21 N "Crystal_HC51-U_Vertical_RevA_09Aug2010"
DS -2028 -1496 1988 -1516 150 21
DS 1988 -1516 2224 -1476 150 21
DS 2224 -1476 2559 -1378 150 21
DS 2559 -1378 2835 -1220 150 21
DS 2835 -1220 3169 -886 150 21
DS 3169 -886 3346 -551 150 21
DS 3346 -551 3425 -217 150 21
DS 3425 -217 3445 39 150 21
DS 3445 39 3346 531 150 21
DS 3346 531 3169 866 150 21
DS 3169 866 2933 1122 150 21
DS 2933 1122 2638 1319 150 21
DS 2638 1319 2224 1457 150 21
DS 2224 1457 1890 1496 150 21
DS 1890 1496 -1969 1496 150 21
DS -1969 1496 -2343 1437 150 21
DS -2343 1437 -2638 1319 150 21
DS -2638 1319 -2894 1161 150 21
DS -2894 1161 -3110 925 150 21
DS -3110 925 -3327 571 150 21
DS -3327 571 -3406 354 150 21
DS -3406 354 -3445 -79 150 21
DS -3445 -79 -3366 -492 150 21
DS -3366 -492 -3189 -846 150 21
DS -3189 -846 -2894 -1161 150 21
DS -2894 -1161 -2579 -1358 150 21
DS -2579 -1358 -2264 -1476 150 21
DS -2264 -1476 -2008 -1496 150 21
DS 2008 1791 -1909 1791 150 21
DS -1909 1791 -2185 1772 150 21
DS -2185 1772 -2559 1693 150 21
DS -2559 1693 -2854 1535 150 21
DS -2854 1535 -3150 1319 150 21
DS -3150 1319 -3425 1024 150 21
DS -3425 1024 -3622 610 150 21
DS -3622 610 -3720 256 150 21
DS -3720 256 -3760 0 150 21
DS -3760 0 -3720 -315 150 21
DS -3720 -315 -3583 -728 150 21
DS -3583 -728 -3386 -1063 150 21
DS -3386 -1063 -3209 -1280 150 21
DS -3209 -1280 -2933 -1496 150 21
DS -2933 -1496 -2598 -1673 150 21
DS -2598 -1673 -2283 -1752 150 21
DS -2283 -1752 -1988 -1791 150 21
DS -1988 -1791 2008 -1791 150 21
DS 2008 -1791 2382 -1752 150 21
DS 2382 -1752 2717 -1614 150 21
DS 2717 -1614 3071 -1398 150 21
DS 3071 -1398 3307 -1161 150 21
DS 3307 -1161 3622 -650 150 21
DS 3622 -650 3720 -256 150 21
DS 3720 -256 3740 98 150 21
DS 3740 98 3681 453 150 21
DS 3681 453 3583 728 150 21
DS 3583 728 3406 1024 150 21
DS 3406 1024 3150 1319 150 21
DS 3150 1319 2972 1476 150 21
DS 2972 1476 2657 1634 150 21
DS 2657 1634 2303 1752 150 21
DS 2303 1752 2008 1791 150 21
$PAD
Sh "1" C 787 787 0 0 0
Dr 394 0 0
At STD N 00E0FFFF
Ne 0 ""
Po -2421 0
$EndPAD
$PAD
Sh "2" C 787 787 0 0 0
Dr 394 0 0
At STD N 00E0FFFF
Ne 0 ""
Po 2421 0
$EndPAD
$EndMODULE  Crystal_HC51-U_Vertical_RevA_09Aug2010
$MODULE Crystal_HC52-U_Vertical_3Pin_RevA_09Aug2010
Po 0 0 0 15 4C603875 00000000 ~~
Li Crystal_HC52-U_Vertical_3Pin_RevA_09Aug2010
Cd Crystal, Quarz, HC52/U, vertical, stehend, 3 Pin,
Kw Crystal, Quarz, HC52/U, vertical, stehend, 3 Pin,
Sc 00000000
AR
Op 0 0 0
T0 0 -1500 600 600 0 120 N V 21 N "XT"
T1 0 1500 600 600 0 120 N I 21 N "Crystal_HC52-U_Vertical_3Pin_RevA_09Aug2010"
DS 575 -469 -591 -469 150 21
DS 874 654 -949 654 150 21
DS -669 480 571 480 150 21
DS 941 -453 1106 -421 150 21
DS 1106 -421 1217 -350 150 21
DS 1217 -350 1319 -217 150 21
DS 1319 -217 1370 -87 150 21
DS 1370 -87 1382 8 150 21
DS 1382 8 1346 161 150 21
DS 1346 161 1283 276 150 21
DS 1283 276 1177 378 150 21
DS 1177 378 1039 445 150 21
DS 1039 445 846 457 150 21
DS -949 453 -1106 413 150 21
DS -1106 413 -1236 331 150 21
DS -1236 331 -1323 213 150 21
DS -1323 213 -1374 83 150 21
DS -1374 83 -1374 -67 150 21
DS -1374 -67 -1323 -213 150 21
DS -1323 -213 -1232 -335 150 21
DS -1232 -335 -1130 -413 150 21
DS -1130 -413 -1000 -445 150 21
DS -1000 -445 -917 -453 150 21
DS -941 -650 917 -650 150 21
DS 917 -650 1051 -634 150 21
DS 1051 -634 1197 -587 150 21
DS 1197 -587 1370 -469 150 21
DS 1370 -469 1520 -260 150 21
DS 1520 -260 1571 -43 150 21
DS 1571 -43 1559 114 150 21
DS 1559 114 1484 327 150 21
DS 1484 327 1295 531 150 21
DS 1295 531 1094 630 150 21
DS 1094 630 882 650 150 21
DS -953 646 -1142 606 150 21
DS -1142 606 -1276 551 150 21
DS -1276 551 -1386 453 150 21
DS -1386 453 -1472 343 150 21
DS -1472 343 -1543 181 150 21
DS -1543 181 -1571 28 150 21
DS -1571 28 -1563 -165 150 21
DS -1563 -165 -1488 -323 150 21
DS -1488 -323 -1366 -469 150 21
DS -1366 -469 -1228 -571 150 21
DS -1228 -571 -1094 -622 150 21
DS -1094 -622 -937 -650 150 21
$PAD
Sh "1" C 551 551 0 0 0
Dr 315 0 0
At STD N 00E0FFFF
Ne 0 ""
Po -748 0
$EndPAD
$PAD
Sh "2" C 551 551 0 0 0
Dr 315 0 0
At STD N 00E0FFFF
Ne 0 ""
Po 748 0
$EndPAD
$PAD
Sh "3" C 551 551 0 0 0
Dr 315 0 0
At STD N 00E0FFFF
Ne 0 ""
Po 0 0
$EndPAD
$EndMODULE  Crystal_HC52-U_Vertical_3Pin_RevA_09Aug2010
$MODULE Crystal_HC52-U_Vertical_RevA_09Aug2010
Po 0 0 0 15 4C602A1E 00000000 ~~
Li Crystal_HC52-U_Vertical_RevA_09Aug2010
Cd Crystal, Quarz, HC52/U, vertical, stehend,
Kw Crystal, Quarz, HC52/U, vertical, stehend,
Sc 00000000
AR
Op 0 0 0
T0 0 -1500 600 600 0 120 N V 21 N "XT"
T1 0 1500 600 600 0 120 N I 21 N "Crystal_HC52-U_Vertical_RevA_09Aug2010"
DS 575 -469 -591 -469 150 21
DS 874 654 -949 654 150 21
DS -669 480 571 480 150 21
DS 941 -453 1106 -421 150 21
DS 1106 -421 1217 -350 150 21
DS 1217 -350 1319 -217 150 21
DS 1319 -217 1370 -87 150 21
DS 1370 -87 1382 8 150 21
DS 1382 8 1346 161 150 21
DS 1346 161 1283 276 150 21
DS 1283 276 1177 378 150 21
DS 1177 378 1039 445 150 21
DS 1039 445 846 457 150 21
DS -949 453 -1106 413 150 21
DS -1106 413 -1236 331 150 21
DS -1236 331 -1323 213 150 21
DS -1323 213 -1374 83 150 21
DS -1374 83 -1374 -67 150 21
DS -1374 -67 -1323 -213 150 21
DS -1323 -213 -1232 -335 150 21
DS -1232 -335 -1130 -413 150 21
DS -1130 -413 -1000 -445 150 21
DS -1000 -445 -917 -453 150 21
DS -941 -650 917 -650 150 21
DS 917 -650 1051 -634 150 21
DS 1051 -634 1197 -587 150 21
DS 1197 -587 1370 -469 150 21
DS 1370 -469 1520 -260 150 21
DS 1520 -260 1571 -43 150 21
DS 1571 -43 1559 114 150 21
DS 1559 114 1484 327 150 21
DS 1484 327 1295 531 150 21
DS 1295 531 1094 630 150 21
DS 1094 630 882 650 150 21
DS -953 646 -1142 606 150 21
DS -1142 606 -1276 551 150 21
DS -1276 551 -1386 453 150 21
DS -1386 453 -1472 343 150 21
DS -1472 343 -1543 181 150 21
DS -1543 181 -1571 28 150 21
DS -1571 28 -1563 -165 150 21
DS -1563 -165 -1488 -323 150 21
DS -1488 -323 -1366 -469 150 21
DS -1366 -469 -1228 -571 150 21
DS -1228 -571 -1094 -622 150 21
DS -1094 -622 -937 -650 150 21
$PAD
Sh "1" C 591 591 0 0 0
Dr 315 0 0
At STD N 00E0FFFF
Ne 0 ""
Po -748 0
$EndPAD
$PAD
Sh "2" C 591 591 0 0 0
Dr 315 0 0
At STD N 00E0FFFF
Ne 0 ""
Po 748 0
$EndPAD
$EndMODULE  Crystal_HC52-U_Vertical_RevA_09Aug2010
$MODULE Crystal_FOX-FE_SMD_RevA_09Aug2010
Po 0 0 0 15 4FD75A77 00000000 ~~
Li Crystal_FOX-FE_SMD_RevA_09Aug2010
Cd Crystal, Quarz, FE, SMD, Vendor Fox,
Kw Crystal, Quarz, FE, SMD, Vendor Fox,
Sc 00000000
AR
Op 0 0 0
At SMD
T0 0 -1500 600 600 0 120 N V 21 N "XT"
T1 500 2000 600 600 0 120 N I 21 N "Crystal_FOX-FE_SMD_RevA_09Aug2010"
DC 0 0 315 0 150 17
DC 0 0 197 0 150 17
DC 0 0 59 -20 150 17
DS -1476 984 -1476 669 150 21
DS -1476 -984 -1476 -669 150 21
DS 1476 -984 1476 -669 150 21
DS 1476 984 1476 669 150 21
DS -1476 984 1476 984 150 21
DS 1476 -984 -1476 -984 150 21
$PAD
Sh "1" R 866 945 0 0 0
Dr 0 0 0
At SMD N 00888000
Ne 0 ""
Po -1240 0
$EndPAD
$PAD
Sh "2" R 866 945 0 0 0
Dr 0 0 0
At SMD N 00888000
Ne 0 ""
Po 1240 0
$EndPAD
$EndMODULE  Crystal_FOX-FE_SMD_RevA_09Aug2010
$MODULE Crystal_HC49-SD_SMD_RevA_09Aug2010
Po 0 0 0 15 4FD75AD9 00000000 ~~
Li Crystal_HC49-SD_SMD_RevA_09Aug2010
Cd Crystal, Quarz, HC49-SD, SMD,
Kw Crystal, Quarz, HC49-SD, SMD,
Sc 00000000
AR
Op 0 0 0
At SMD
T0 0 -2000 600 600 0 120 N V 21 N "XT"
T1 1000 2000 600 600 0 120 N I 21 N "Crystal_HC49-SD_SMD_RevA_09Aug2010"
DC 0 0 335 0 150 17
DC 0 0 197 0 150 17
DC 0 0 59 20 150 17
DS -2303 984 2303 984 150 21
DS 2303 -984 -2303 -984 150 21
DS 2303 984 2303 650 150 21
DS 2303 -984 2303 -650 150 21
DS -2303 984 -2303 650 150 21
DS -2303 -984 -2303 -650 150 21
$PAD
Sh "1" R 2205 827 0 0 0
Dr 0 0 0
At SMD N 00888000
Ne 0 ""
Po -1909 0
$EndPAD
$PAD
Sh "2" R 2205 827 0 0 0
Dr 0 0 0
At SMD N 00888000
Ne 0 ""
Po 1909 0
$EndPAD
$EndMODULE  Crystal_HC49-SD_SMD_RevA_09Aug2010
$MODULE Crystal_SMD_0603_2Pads_obsolete_RevA_09Aug2010
Po 0 0 0 15 4FD75B2C 00000000 ~~
Li Crystal_SMD_0603_2Pads_obsolete_RevA_09Aug2010
Cd Crystal, Quarz, SMD, 0603, 2 Pads, Obsolete!, NOT for new designs!,
Kw Crystal, Quarz, SMD, 0603, 2 Pads, Obsolete!, NOT for new designs!,
Sc 00000000
AR
Op 0 0 0
At SMD
T0 0 -1500 600 600 0 120 N V 21 N "XT"
T1 0 1500 600 600 0 120 N I 21 N "Crystal_SMD_0603_2Pads_obsolete_RevA_09Aug2010"
DC 0 0 20 0 150 17
DC 0 0 217 0 150 17
DC 0 0 79 0 150 17
DS 1220 728 -1220 728 150 21
DS -1220 -728 1220 -728 150 21
$PAD
Sh "1" R 630 945 0 0 0
Dr 0 0 0
At SMD N 00888000
Ne 0 ""
Po -886 0
$EndPAD
$PAD
Sh "2" R 630 945 0 0 0
Dr 0 0 0
At SMD N 00888000
Ne 0 ""
Po 886 0
$EndPAD
$EndMODULE  Crystal_SMD_0603_2Pads_obsolete_RevA_09Aug2010
$MODULE Crystal_SMD_0603_4Pads_RevA_09Aug2010
Po 0 0 0 15 4FD75B75 00000000 ~~
Li Crystal_SMD_0603_4Pads_RevA_09Aug2010
Cd Crystal, Quarz, SMD, 0603, 4 Pads,
Kw Crystal, Quarz, SMD, 0603, 4 Pads,
Sc 00000000
AR 
Op 0 0 0
At SMD 
T0 0 -1500 600 600 0 120 N V 21 N "XT"
T1 0 1500 600 600 0 120 N I 21 N "Crystal_SMD_0603_4Pads_RevA_09Aug2010"
DC 0 0 197 0 150 17
DC 0 0 59 0 150 17
DC -197 374 -157 413 150 21
DS 276 728 -276 728 150 21
DS -276 -728 276 -728 150 21
$PAD
Sh "1" R 709 551 0 0 0
Dr 0 0 0
At SMD N 00888000
Ne 0 ""
Po -866 472
$EndPAD
$PAD
Sh "2" R 709 551 0 0 0
Dr 0 0 0
At SMD N 00888000
Ne 0 ""
Po 866 472
$EndPAD
$PAD
Sh "3" R 709 551 0 0 0
Dr 0 0 0
At SMD N 00888000
Ne 0 ""
Po 866 -472
$EndPAD
$PAD
Sh "4" R 709 551 0 0 0
Dr 0 0 0
At SMD N 00888000
Ne 0 ""
Po -866 -472
$EndPAD
$EndMODULE  Crystal_SMD_0603_4Pads_RevA_09Aug2010
$EndLIBRARY
