PCBNEW-LibModule-V1  Sa 01 Jun 2013 08:56:37 CEST
# encoding utf-8
Units mm
$INDEX
D
D-Pak_TO252AA_RevA_31May2013
DD-PAK_TO263_DualDiode_RevA_06Sep2012
DD-PAK_TO263_DualDiode_ThermalVias_RevA_31May2013
DD-PAK_TO263_SingleDiode_RevA_06Sep2012
DD-PAK_TO263_SingleDiode_ThermalVias_RevA_31May2013
Diode-MELF_Handsoldering_RevA_27July2010
Diode-MELF_Standard_RevA_27July2010
Diode-MiniMELF_Handsoldering_RevA_27July2010
Diode-MiniMELF_Standard_RevA_27July2010
Diode-SMA_Handsoldering_RevA_27July2010
Diode-SMA_Standard_RevA_26July2010
Diode-SMB_Handsoldering_RevA_27July2010
Diode-SMB_Standard_RevA_26July2010
Diode-SMC_Handsoldering_RevA_27July2010
Diode-SMC_Standard_RevA_26July2010
Diode-Universal-MELF-RM10_Handsoldering_RevA_27July2010
Diode-Universal-SMA-SMB_Handsoldering_RevA_27July2010
Diode-Universal-SMB-SMC_Handsoldering_RevA_27July2010
Diode-Universal-SMC-RM10_Handsoldering_RevA_27July2010
Diode_SOT23_Handsoldering_RevA_03Aug2010
Diode_SOT23_RevA_03Aug2010
$EndINDEX
$MODULE D
Po 0 0 0 15 51A9293A 00000000 ~~
Li D
Sc 0
AR 
Op 0 0 0
T0 -0.7 -15.65 1.524 1.524 0 0.3048 N V 21 N "D"
T1 -0.45 16.5 1.524 1.524 0 0.3048 N V 21 N "D-Pak_RevA_31May2013"
$PAD
Sh "2" R 1.65 3.81 0 0 0
Dr 0 0 0
At SMD N 00888000
Ne 0 ""
Po 3.05 2.45
$EndPAD
$PAD
Sh "1" R 7.87 8.51 0 0 0
Dr 0 0 0
At SMD N 00888000
Ne 0 ""
Po -0.1 -5.1
$EndPAD
$PAD
Sh "2" R 1.65 3.81 0 0 0
Dr 0 0 0
At SMD N 00888000
Ne 0 ""
Po -3.2 2.4
$EndPAD
$EndMODULE D
$MODULE D-Pak_TO252AA_RevA_31May2013
Po 0 0 0 15 51A99AF3 00000000 ~~
Li D-Pak_TO252AA_RevA_31May2013
Cd D-Pak, TO252AA, Diode
Kw D-Pak, TO252AA, Diode
Sc 0
AR 
Op 0 0 0
T0 -0.7 -15.65 1.524 1.524 0 0.3048 N V 21 N "D"
T1 -0.45 16.5 1.524 1.524 0 0.3048 N I 21 N "D-Pak_TO252AA_RevA_31May2013"
$PAD
Sh "3" R 1.55 2.78 0 0 0
Dr 0 0 0
At SMD N 00888000
Ne 0 ""
Po 2.18 4.3
$EndPAD
$PAD
Sh "4" R 6.74 6.73 0 0 0
Dr 0 0 0
At SMD N 00888000
Ne 0 ""
Po 0 -2.335
$EndPAD
$PAD
Sh "1" R 1.55 2.78 0 0 0
Dr 0 0 0
At SMD N 00888000
Ne 0 ""
Po -2.18 4.3
$EndPAD
$SHAPE3D
Na "D-PAK_TO252AA_Faktor03937_RevA_06Sep2012.wrl"
Sc 0.3937 0.3937 0.3937
Of 0 0 0
Ro 0 0 0
$EndSHAPE3D
$EndMODULE D-Pak_TO252AA_RevA_31May2013
$MODULE DD-PAK_TO263_DualDiode_RevA_06Sep2012
Po 0 0 0 15 504906B6 00000000 ~~
Li DD-PAK_TO263_DualDiode_RevA_06Sep2012
Cd DD-PAK, TO263, Dual Diode,
Kw DD-PAK, TO263, Dual Diode,
Sc 0
AR DD-PAK_TO263_Single_RevA_06Sep2012
Op 0 0 0
At SMD
T0 -0.20066 -9.4488 1.27 1.27 0 0.254 N V 21 N "D"
T1 0.50038 9.75106 1.27 1.27 0 0.254 N I 21 N "DD-PAK_TO263_DualDiode_RevA_06Sep2012"
DS -2.49936 -3.50012 0 -3.50012 0.3048 21
DS -4.0005 -1.00076 -1.00076 -1.00076 0.3048 21
DS -2.5019 -2.49936 -4.0005 -1.00076 0.3048 21
DS -1.00076 -1.00076 -2.5019 -2.49936 0.3048 21
DS -4.0005 -2.49936 -1.00076 -2.49936 0.3048 21
DS -2.5019 -2.49936 -2.5019 -3.50012 0.3048 21
DS -2.5019 -1.00076 -2.5019 0 0.3048 21
DS 2.49936 -1.00076 2.49936 0 0.3048 21
DS 2.49936 -2.49936 2.49936 -3.50012 0.3048 21
DS 2.49936 -3.50012 0 -3.50012 0.3048 21
DS 0 -3.50012 0 -4.0005 0.3048 21
DS 1.00076 -2.49936 4.0005 -2.49936 0.3048 21
DS 4.0005 -1.00076 2.49936 -2.49936 0.3048 21
DS 2.49936 -2.49936 1.00076 -1.00076 0.3048 21
DS 1.00076 -1.00076 4.0005 -1.00076 0.3048 21
DS 4.0005 1.99898 5.99948 1.99898 0.3048 21
DS 5.99948 1.99898 5.99948 -7.00024 0.3048 21
DS -5.99948 -7.00024 -5.99948 1.99898 0.3048 21
DS -5.99948 1.99898 -4.0005 1.99898 0.3048 21
$PAD
Sh "2" R 10.40892 3.50012 0 0 0
Dr 0 0 0
At SMD N 00888000
Ne 0 ""
Po 0 -6.25094
$EndPAD
$PAD
Sh "1" R 1.09982 7.0104 0 0 0
Dr 0 0 0
At SMD N 00888000
Ne 0 ""
Po -2.54 4.43992
$EndPAD
$PAD
Sh "3" R 1.09982 7.0104 0 0 0
Dr 0 0 0
At SMD N 00888000
Ne 0 ""
Po 2.54 4.43992
$EndPAD
$PAD
Sh "~" O 5.00126 1.99898 0 0 0
Dr 0 0 0
At SMD N 00020000
Ne 0 ""
Po 0 -1.99898
$EndPAD
$SHAPE3D
Na "DD-PAK_TO263AB_Faktor03937_RevA_06Sep2012.wrl"
Sc 0.3937 0.3937 0.3937
Of 0 0.075 0
Ro 0 0 0
$EndSHAPE3D
$EndMODULE DD-PAK_TO263_DualDiode_RevA_06Sep2012
$MODULE DD-PAK_TO263_DualDiode_ThermalVias_RevA_31May2013
Po 0 0 0 15 51A8FF24 00000000 ~~
Li DD-PAK_TO263_DualDiode_ThermalVias_RevA_31May2013
Cd DD-PAK, TO263, Dual Diode, Thermal Vias,
Kw DD-PAK, TO263, Dual Diode, Thermal Vias,
Sc 0
AR DD-PAK_TO263_Single_RevA_06Sep2012
Op 0 0 0
At SMD
T0 -0.05 -9.85 1.27 1.27 0 0.254 N V 21 N "D"
T1 0.50038 9.75106 1.27 1.27 0 0.254 N I 21 N "DD-PAK_TO263_DualDiode_ThermalVias_RevA_31May2013"
DS -5.5 -8.25 5.5 -8.25 0.45 23
DS 5.5 -8.25 5.5 -4.25 0.45 23
DS 5.5 -4.25 -5.5 -4.25 0.45 23
DS -5.5 -4.25 -5.5 -8.25 0.45 23
DC 4 -4.75 4.1 -4.75 0.215 23
DC 3 -4.75 3.1 -4.75 0.215 23
DC 5 -4.75 5.1 -4.75 0.215 23
DC -2 -4.75 -1.9 -4.75 0.215 23
DC -3 -4.75 -2.9 -4.75 0.215 23
DC -5 -4.75 -4.9 -4.75 0.215 23
DC -4 -4.75 -3.9 -4.75 0.215 23
DC 0 -4.75 0.1 -4.75 0.215 23
DC -1 -4.75 -0.9 -4.75 0.215 23
DC 1 -4.75 1.1 -4.75 0.215 23
DC 2 -7.75 2.1 -7.75 0.215 23
DC 1 -7.75 1.1 -7.75 0.215 23
DC 3 -7.75 3.1 -7.75 0.215 23
DC 4 -7.75 4.1 -7.75 0.215 23
DC 1 -6.75 1.1 -6.75 0.215 23
DC 0 -6.75 0.1 -6.75 0.215 23
DC -2 -6.75 -1.9 -6.75 0.215 23
DC -1 -6.75 -0.9 -6.75 0.215 23
DC 4 -5.75 4.1 -5.75 0.215 23
DC 3 -5.75 3.1 -5.75 0.215 23
DC 5 -5.75 5.1 -5.75 0.215 23
DC 2 -4.75 2.1 -4.75 0.215 23
DC -2 -5.75 -1.9 -5.75 0.215 23
DC -3 -5.75 -2.9 -5.75 0.215 23
DC -5 -5.75 -4.9 -5.75 0.215 23
DC -4 -5.75 -3.9 -5.75 0.215 23
DC 3 -6.75 3.1 -6.75 0.215 23
DC 2 -6.75 2.1 -6.75 0.215 23
DC 4 -6.75 4.1 -6.75 0.215 23
DC 5 -6.75 5.1 -6.75 0.215 23
DC 2 -5.75 2.1 -5.75 0.215 23
DC 1 -5.75 1.1 -5.75 0.215 23
DC -1 -5.75 -0.9 -5.75 0.215 23
DC 0 -5.75 0.1 -5.75 0.215 23
DC -5 -6.75 -4.9 -6.75 0.215 23
DC 5 -7.75 5.1 -7.75 0.215 23
DC -4 -6.75 -3.9 -6.75 0.215 23
DC -3 -6.75 -2.9 -6.75 0.215 23
DC 0 -7.75 0.1 -7.75 0.215 23
DC -1 -7.75 -0.9 -7.75 0.215 23
DC -3 -7.75 -2.9 -7.75 0.215 23
DC -2 -7.75 -1.9 -7.75 0.215 23
DC -4 -7.75 -3.9 -7.75 0.215 23
DC -5 -7.75 -4.9 -7.75 0.215 23
DS -5.25 -5.25 5.25 -5.25 0.45 23
DS -5.25 -5.25 5.25 -5.25 0.45 19
DS -5.25 -6.25 5.25 -6.25 0.45 23
DS -5.25 -6.25 5.25 -6.25 0.45 19
DS -5.25 -7.25 5.25 -7.25 0.45 23
DS -5.25 -7.25 5.25 -7.25 0.45 19
DS 4.5 -8.05 4.5 -4.5 0.45 23
DS 4.5 -8.05 4.5 -4.5 0.45 19
DS 3.5 -8.05 3.5 -4.5 0.45 23
DS 3.5 -8.05 3.5 -4.5 0.45 19
DS 2.5 -8.05 2.5 -4.5 0.45 23
DS 2.5 -8.05 2.5 -4.5 0.45 19
DS 1.5 -8.05 1.5 -4.5 0.45 23
DS 1.5 -8.05 1.5 -4.5 0.45 19
DS 0.5 -8.05 0.5 -4.5 0.45 23
DS 0.5 -8.05 0.5 -4.5 0.45 19
DS -0.5 -8.05 -0.5 -4.5 0.45 23
DS -0.5 -8.05 -0.5 -4.5 0.45 19
DS -1.5 -8.05 -1.5 -4.5 0.45 23
DS -1.5 -8.05 -1.5 -4.5 0.45 19
DS -2.5 -8.05 -2.5 -4.5 0.45 23
DS -2.5 -8.05 -2.5 -4.5 0.45 19
DS -3.5 -8.05 -3.5 -4.5 0.45 23
DS -3.5 -8.05 -3.5 -4.5 0.45 19
DS -4.5 -8.05 -4.5 -4.5 0.45 23
DS -4.5 -8.05 -4.5 -4.5 0.45 19
DS -2.49936 -3.50012 0 -3.50012 0.3048 21
DS -4.0005 -1.00076 -1.00076 -1.00076 0.3048 21
DS -2.5019 -2.49936 -4.0005 -1.00076 0.3048 21
DS -1.00076 -1.00076 -2.5019 -2.49936 0.3048 21
DS -4.0005 -2.49936 -1.00076 -2.49936 0.3048 21
DS -2.5019 -2.49936 -2.5019 -3.50012 0.3048 21
DS -2.5019 -1.00076 -2.5019 0 0.3048 21
DS 2.49936 -1.00076 2.49936 0 0.3048 21
DS 2.49936 -2.49936 2.49936 -3.50012 0.3048 21
DS 2.49936 -3.50012 0 -3.50012 0.3048 21
DS 0 -3.50012 0 -4.0005 0.3048 21
DS 1.00076 -2.49936 4.0005 -2.49936 0.3048 21
DS 4.0005 -1.00076 2.49936 -2.49936 0.3048 21
DS 2.49936 -2.49936 1.00076 -1.00076 0.3048 21
DS 1.00076 -1.00076 4.0005 -1.00076 0.3048 21
DS 4.0005 1.99898 5.99948 1.99898 0.3048 21
DS 5.99948 1.99898 5.99948 -7.00024 0.3048 21
DS -5.99948 -7.00024 -5.99948 1.99898 0.3048 21
DS -5.99948 1.99898 -4.0005 1.99898 0.3048 21
$PAD
Sh "2" R 1 1 0 0 0
Dr 0.4 0 0
At STD N 0040FFFF
Ne 0 ""
Po -5 -7.75
$EndPAD
$PAD
Sh "2" R 1 1 0 0 0
Dr 0.4 0 0
At STD N 0040FFFF
Ne 0 ""
Po -4 -7.75
$EndPAD
$PAD
Sh "2" R 1 1 0 0 0
Dr 0.4 0 0
At STD N 0040FFFF
Ne 0 ""
Po -4 -6.75
$EndPAD
$PAD
Sh "2" R 1 1 0 0 0
Dr 0.4 0 0
At STD N 0040FFFF
Ne 0 ""
Po -5 -6.75
$EndPAD
$PAD
Sh "2" R 1 1 0 0 0
Dr 0.4 0 0
At STD N 0040FFFF
Ne 0 ""
Po -3 -6.75
$EndPAD
$PAD
Sh "2" R 1 1 0 0 0
Dr 0.4 0 0
At STD N 0040FFFF
Ne 0 ""
Po -2 -6.75
$EndPAD
$PAD
Sh "2" R 1 1 0 0 0
Dr 0.4 0 0
At STD N 0040FFFF
Ne 0 ""
Po -2 -7.75
$EndPAD
$PAD
Sh "2" R 1 1 0 0 0
Dr 0.4 0 0
At STD N 0040FFFF
Ne 0 ""
Po -3 -7.75
$EndPAD
$PAD
Sh "2" R 1 1 0 0 0
Dr 0.4 0 0
At STD N 0040FFFF
Ne 0 ""
Po 1 -7.75
$EndPAD
$PAD
Sh "2" R 1 1 0 0 0
Dr 0.4 0 0
At STD N 0040FFFF
Ne 0 ""
Po 2 -7.75
$EndPAD
$PAD
Sh "2" R 1 1 0 0 0
Dr 0.4 0 0
At STD N 0040FFFF
Ne 0 ""
Po 2 -6.75
$EndPAD
$PAD
Sh "2" R 1 1 0 0 0
Dr 0.4 0 0
At STD N 0040FFFF
Ne 0 ""
Po 1 -6.75
$EndPAD
$PAD
Sh "2" R 1 1 0 0 0
Dr 0.4 0 0
At STD N 0040FFFF
Ne 0 ""
Po -1 -6.75
$EndPAD
$PAD
Sh "2" R 1 1 0 0 0
Dr 0.4 0 0
At STD N 0040FFFF
Ne 0 ""
Po 0 -6.75
$EndPAD
$PAD
Sh "2" R 1 1 0 0 0
Dr 0.4 0 0
At STD N 0040FFFF
Ne 0 ""
Po 0 -7.75
$EndPAD
$PAD
Sh "2" R 1 1 0 0 0
Dr 0.4 0 0
At STD N 0040FFFF
Ne 0 ""
Po -1 -7.75
$EndPAD
$PAD
Sh "2" R 1 1 0 0 0
Dr 0.4 0 0
At STD N 0040FFFF
Ne 0 ""
Po 3 -7.75
$EndPAD
$PAD
Sh "2" R 1 1 0 0 0
Dr 0.4 0 0
At STD N 0040FFFF
Ne 0 ""
Po 3 -6.75
$EndPAD
$PAD
Sh "2" R 1 1 0 0 0
Dr 0.4 0 0
At STD N 0040FFFF
Ne 0 ""
Po 4 -6.75
$EndPAD
$PAD
Sh "2" R 1 1 0 0 0
Dr 0.4 0 0
At STD N 0040FFFF
Ne 0 ""
Po 5 -6.75
$EndPAD
$PAD
Sh "2" R 1 1 0 0 0
Dr 0.4 0 0
At STD N 0040FFFF
Ne 0 ""
Po 5 -7.75
$EndPAD
$PAD
Sh "2" R 1 1 0 0 0
Dr 0.4 0 0
At STD N 0040FFFF
Ne 0 ""
Po 4 -7.75
$EndPAD
$PAD
Sh "2" R 1 1 0 0 0
Dr 0.4 0 0
At STD N 0040FFFF
Ne 0 ""
Po 4 -5.75
$EndPAD
$PAD
Sh "2" R 1 1 0 0 0
Dr 0.4 0 0
At STD N 0040FFFF
Ne 0 ""
Po 5 -5.75
$EndPAD
$PAD
Sh "2" R 1 1 0 0 0
Dr 0.4 0 0
At STD N 0040FFFF
Ne 0 ""
Po 5 -4.75
$EndPAD
$PAD
Sh "2" R 1 1 0 0 0
Dr 0.4 0 0
At STD N 0040FFFF
Ne 0 ""
Po 4 -4.75
$EndPAD
$PAD
Sh "2" R 1 1 0 0 0
Dr 0.4 0 0
At STD N 0040FFFF
Ne 0 ""
Po 3 -4.75
$EndPAD
$PAD
Sh "2" R 1 1 0 0 0
Dr 0.4 0 0
At STD N 0040FFFF
Ne 0 ""
Po 3 -5.75
$EndPAD
$PAD
Sh "2" R 1 1 0 0 0
Dr 0.4 0 0
At STD N 0040FFFF
Ne 0 ""
Po -1 -5.75
$EndPAD
$PAD
Sh "2" R 1 1 0 0 0
Dr 0.4 0 0
At STD N 0040FFFF
Ne 0 ""
Po 0 -5.75
$EndPAD
$PAD
Sh "2" R 1 1 0 0 0
Dr 0.4 0 0
At STD N 0040FFFF
Ne 0 ""
Po 0 -4.75
$EndPAD
$PAD
Sh "2" R 1 1 0 0 0
Dr 0.4 0 0
At STD N 0040FFFF
Ne 0 ""
Po -1 -4.75
$EndPAD
$PAD
Sh "2" R 1 1 0 0 0
Dr 0.4 0 0
At STD N 0040FFFF
Ne 0 ""
Po 1 -4.75
$EndPAD
$PAD
Sh "2" R 1 1 0 0 0
Dr 0.4 0 0
At STD N 0040FFFF
Ne 0 ""
Po 2 -4.75
$EndPAD
$PAD
Sh "2" R 1 1 0 0 0
Dr 0.4 0 0
At STD N 0040FFFF
Ne 0 ""
Po 2 -5.75
$EndPAD
$PAD
Sh "2" R 1 1 0 0 0
Dr 0.4 0 0
At STD N 0040FFFF
Ne 0 ""
Po 1 -5.75
$EndPAD
$PAD
Sh "2" R 1 1 0 0 0
Dr 0.4 0 0
At STD N 0040FFFF
Ne 0 ""
Po -3 -5.75
$EndPAD
$PAD
Sh "2" R 1 1 0 0 0
Dr 0.4 0 0
At STD N 0040FFFF
Ne 0 ""
Po -2 -5.75
$EndPAD
$PAD
Sh "2" R 1 1 0 0 0
Dr 0.4 0 0
At STD N 0040FFFF
Ne 0 ""
Po -2 -4.75
$EndPAD
$PAD
Sh "2" R 1 1 0 0 0
Dr 0.4 0 0
At STD N 0040FFFF
Ne 0 ""
Po -3 -4.75
$EndPAD
$PAD
Sh "2" R 1 1 0 0 0
Dr 0.4 0 0
At STD N 0040FFFF
Ne 0 ""
Po -5 -4.75
$EndPAD
$PAD
Sh "2" R 1 1 0 0 0
Dr 0.4 0 0
At STD N 0040FFFF
Ne 0 ""
Po -4 -4.75
$EndPAD
$PAD
Sh "2" R 1 1 0 0 0
Dr 0.4 0 0
At STD N 0040FFFF
Ne 0 ""
Po -4 -5.75
$EndPAD
$PAD
Sh "2" R 1 1 0 0 0
Dr 0.4 0 0
At STD N 0040FFFF
Ne 0 ""
Po -5 -5.75
$EndPAD
$PAD
Sh "1" R 1.09982 7.0104 0 0 0
Dr 0 0 0
At SMD N 00888000
Ne 0 ""
Po -2.54 4.43992
$EndPAD
$PAD
Sh "3" R 1.09982 7.0104 0 0 0
Dr 0 0 0
At SMD N 00888000
Ne 0 ""
Po 2.54 4.43992
$EndPAD
$PAD
Sh "~" O 5.00126 1.99898 0 0 0
Dr 0 0 0
At SMD N 00020000
Ne 0 ""
Po 0 -1.99898
$EndPAD
$SHAPE3D
Na "DD-PAK_TO263AB_Faktor03937_RevA_06Sep2012.wrl"
Sc 0.3937 0.3937 0.3937
Of 0 0.075 0
Ro 0 0 0
$EndSHAPE3D
$EndMODULE DD-PAK_TO263_DualDiode_ThermalVias_RevA_31May2013
$MODULE DD-PAK_TO263_SingleDiode_RevA_06Sep2012
Po 0 0 0 15 50490752 00000000 ~~
Li DD-PAK_TO263_SingleDiode_RevA_06Sep2012
Cd DD-PAK, TO263, Single Diode,
Kw DD-PAK, TO263, Single Diode,
Sc 0
AR DD-PAK_TO263_Single_RevA_06Sep2012
Op 0 0 0
At SMD
T0 -0.20066 -9.4488 1.27 1.27 0 0.254 N V 21 N "D"
T1 0.50038 9.75106 1.27 1.27 0 0.254 N I 21 N "DD-PAK_TO263_SingleDiode_RevA_06Sep2012"
DS 2.49936 -1.00076 2.49936 0 0.3048 21
DS 2.49936 -2.49936 2.49936 -3.50012 0.3048 21
DS 2.49936 -3.50012 0 -3.50012 0.3048 21
DS 0 -3.50012 0 -4.0005 0.3048 21
DS 1.00076 -2.49936 4.0005 -2.49936 0.3048 21
DS 4.0005 -1.00076 2.49936 -2.49936 0.3048 21
DS 2.49936 -2.49936 1.00076 -1.00076 0.3048 21
DS 1.00076 -1.00076 4.0005 -1.00076 0.3048 21
DS 4.0005 1.99898 5.99948 1.99898 0.3048 21
DS 5.99948 1.99898 5.99948 -7.00024 0.3048 21
DS -5.99948 -7.00024 -5.99948 1.99898 0.3048 21
DS -5.99948 1.99898 -4.0005 1.99898 0.3048 21
$PAD
Sh "2" R 10.40892 3.50012 0 0 0
Dr 0 0 0
At SMD N 00888000
Ne 0 ""
Po 0 -6.25094
$EndPAD
$PAD
Sh "1" R 1.09982 7.0104 0 0 0
Dr 0 0 0
At SMD N 00888000
Ne 0 ""
Po -2.54 4.43992
$EndPAD
$PAD
Sh "3" R 1.09982 7.0104 0 0 0
Dr 0 0 0
At SMD N 00888000
Ne 0 ""
Po 2.54 4.43992
$EndPAD
$PAD
Sh "~" O 5.00126 1.99898 0 0 0
Dr 0 0 0
At SMD N 00020000
Ne 0 ""
Po 0 -1.50114
$EndPAD
$SHAPE3D
Na "DD-PAK_TO263AB_Faktor03937_RevA_06Sep2012.wrl"
Sc 0.3937 0.3937 0.3937
Of 0 0.075 0
Ro 0 0 0
$EndSHAPE3D
$EndMODULE DD-PAK_TO263_SingleDiode_RevA_06Sep2012
$MODULE DD-PAK_TO263_SingleDiode_ThermalVias_RevA_31May2013
Po 0 0 0 15 51A902EF 00000000 ~~
Li DD-PAK_TO263_SingleDiode_ThermalVias_RevA_31May2013
Cd DD-PAK, TO263, Single Diode, Thermal Vias,
Kw DD-PAK, TO263, Single Diode, Thermal Vias,
Sc 0
AR DD-PAK_TO263_Single_RevA_06Sep2012
Op 0 0 0
At SMD
T0 -0.05 -9.85 1.27 1.27 0 0.254 N V 21 N "D"
T1 0.50038 9.75106 1.27 1.27 0 0.254 N I 21 N "DD-PAK_TO263_SingleDiode_ThermalVias_RevA_31May2013"
DS -5.5 -8.25 5.5 -8.25 0.45 23
DS 5.5 -8.25 5.5 -4.25 0.45 23
DS 5.5 -4.25 -5.5 -4.25 0.45 23
DS -5.5 -4.25 -5.5 -8.25 0.45 23
DC 4 -4.75 4.1 -4.75 0.215 23
DC 3 -4.75 3.1 -4.75 0.215 23
DC 5 -4.75 5.1 -4.75 0.215 23
DC -2 -4.75 -1.9 -4.75 0.215 23
DC -3 -4.75 -2.9 -4.75 0.215 23
DC -5 -4.75 -4.9 -4.75 0.215 23
DC -4 -4.75 -3.9 -4.75 0.215 23
DC 0 -4.75 0.1 -4.75 0.215 23
DC -1 -4.75 -0.9 -4.75 0.215 23
DC 1 -4.75 1.1 -4.75 0.215 23
DC 2 -7.75 2.1 -7.75 0.215 23
DC 1 -7.75 1.1 -7.75 0.215 23
DC 3 -7.75 3.1 -7.75 0.215 23
DC 4 -7.75 4.1 -7.75 0.215 23
DC 1 -6.75 1.1 -6.75 0.215 23
DC 0 -6.75 0.1 -6.75 0.215 23
DC -2 -6.75 -1.9 -6.75 0.215 23
DC -1 -6.75 -0.9 -6.75 0.215 23
DC 4 -5.75 4.1 -5.75 0.215 23
DC 3 -5.75 3.1 -5.75 0.215 23
DC 5 -5.75 5.1 -5.75 0.215 23
DC 2 -4.75 2.1 -4.75 0.215 23
DC -2 -5.75 -1.9 -5.75 0.215 23
DC -3 -5.75 -2.9 -5.75 0.215 23
DC -5 -5.75 -4.9 -5.75 0.215 23
DC -4 -5.75 -3.9 -5.75 0.215 23
DC 3 -6.75 3.1 -6.75 0.215 23
DC 2 -6.75 2.1 -6.75 0.215 23
DC 4 -6.75 4.1 -6.75 0.215 23
DC 5 -6.75 5.1 -6.75 0.215 23
DC 2 -5.75 2.1 -5.75 0.215 23
DC 1 -5.75 1.1 -5.75 0.215 23
DC -1 -5.75 -0.9 -5.75 0.215 23
DC 0 -5.75 0.1 -5.75 0.215 23
DC -5 -6.75 -4.9 -6.75 0.215 23
DC 5 -7.75 5.1 -7.75 0.215 23
DC -4 -6.75 -3.9 -6.75 0.215 23
DC -3 -6.75 -2.9 -6.75 0.215 23
DC 0 -7.75 0.1 -7.75 0.215 23
DC -1 -7.75 -0.9 -7.75 0.215 23
DC -3 -7.75 -2.9 -7.75 0.215 23
DC -2 -7.75 -1.9 -7.75 0.215 23
DC -4 -7.75 -3.9 -7.75 0.215 23
DC -5 -7.75 -4.9 -7.75 0.215 23
DS -5.25 -5.25 5.25 -5.25 0.45 23
DS -5.25 -5.25 5.25 -5.25 0.45 19
DS -5.25 -6.25 5.25 -6.25 0.45 23
DS -5.25 -6.25 5.25 -6.25 0.45 19
DS -5.25 -7.25 5.25 -7.25 0.45 23
DS -5.25 -7.25 5.25 -7.25 0.45 19
DS 4.5 -8.05 4.5 -4.5 0.45 23
DS 4.5 -8.05 4.5 -4.5 0.45 19
DS 3.5 -8.05 3.5 -4.5 0.45 23
DS 3.5 -8.05 3.5 -4.5 0.45 19
DS 2.5 -8.05 2.5 -4.5 0.45 23
DS 2.5 -8.05 2.5 -4.5 0.45 19
DS 1.5 -8.05 1.5 -4.5 0.45 23
DS 1.5 -8.05 1.5 -4.5 0.45 19
DS 0.5 -8.05 0.5 -4.5 0.45 23
DS 0.5 -8.05 0.5 -4.5 0.45 19
DS -0.5 -8.05 -0.5 -4.5 0.45 23
DS -0.5 -8.05 -0.5 -4.5 0.45 19
DS -1.5 -8.05 -1.5 -4.5 0.45 23
DS -1.5 -8.05 -1.5 -4.5 0.45 19
DS -2.5 -8.05 -2.5 -4.5 0.45 23
DS -2.5 -8.05 -2.5 -4.5 0.45 19
DS -3.5 -8.05 -3.5 -4.5 0.45 23
DS -3.5 -8.05 -3.5 -4.5 0.45 19
DS -4.5 -8.05 -4.5 -4.5 0.45 23
DS -4.5 -8.05 -4.5 -4.5 0.45 19
DS 2.49936 -1.00076 2.49936 0 0.3048 21
DS 2.49936 -2.49936 2.49936 -3.50012 0.3048 21
DS 2.49936 -3.50012 0 -3.50012 0.3048 21
DS 0 -3.50012 0 -4.0005 0.3048 21
DS 1.00076 -2.49936 4.0005 -2.49936 0.3048 21
DS 4.0005 -1.00076 2.49936 -2.49936 0.3048 21
DS 2.49936 -2.49936 1.00076 -1.00076 0.3048 21
DS 1.00076 -1.00076 4.0005 -1.00076 0.3048 21
DS 4.0005 1.99898 5.99948 1.99898 0.3048 21
DS 5.99948 1.99898 5.99948 -7.00024 0.3048 21
DS -5.99948 -7.00024 -5.99948 1.99898 0.3048 21
DS -5.99948 1.99898 -4.0005 1.99898 0.3048 21
$PAD
Sh "2" R 1 1 0 0 0
Dr 0.4 0 0
At STD N 0040FFFF
Ne 0 ""
Po -5 -7.75
$EndPAD
$PAD
Sh "2" R 1 1 0 0 0
Dr 0.4 0 0
At STD N 0040FFFF
Ne 0 ""
Po -4 -7.75
$EndPAD
$PAD
Sh "2" R 1 1 0 0 0
Dr 0.4 0 0
At STD N 0040FFFF
Ne 0 ""
Po -4 -6.75
$EndPAD
$PAD
Sh "2" R 1 1 0 0 0
Dr 0.4 0 0
At STD N 0040FFFF
Ne 0 ""
Po -5 -6.75
$EndPAD
$PAD
Sh "2" R 1 1 0 0 0
Dr 0.4 0 0
At STD N 0040FFFF
Ne 0 ""
Po -3 -6.75
$EndPAD
$PAD
Sh "2" R 1 1 0 0 0
Dr 0.4 0 0
At STD N 0040FFFF
Ne 0 ""
Po -2 -6.75
$EndPAD
$PAD
Sh "2" R 1 1 0 0 0
Dr 0.4 0 0
At STD N 0040FFFF
Ne 0 ""
Po -2 -7.75
$EndPAD
$PAD
Sh "2" R 1 1 0 0 0
Dr 0.4 0 0
At STD N 0040FFFF
Ne 0 ""
Po -3 -7.75
$EndPAD
$PAD
Sh "2" R 1 1 0 0 0
Dr 0.4 0 0
At STD N 0040FFFF
Ne 0 ""
Po 1 -7.75
$EndPAD
$PAD
Sh "2" R 1 1 0 0 0
Dr 0.4 0 0
At STD N 0040FFFF
Ne 0 ""
Po 2 -7.75
$EndPAD
$PAD
Sh "2" R 1 1 0 0 0
Dr 0.4 0 0
At STD N 0040FFFF
Ne 0 ""
Po 2 -6.75
$EndPAD
$PAD
Sh "2" R 1 1 0 0 0
Dr 0.4 0 0
At STD N 0040FFFF
Ne 0 ""
Po 1 -6.75
$EndPAD
$PAD
Sh "2" R 1 1 0 0 0
Dr 0.4 0 0
At STD N 0040FFFF
Ne 0 ""
Po -1 -6.75
$EndPAD
$PAD
Sh "2" R 1 1 0 0 0
Dr 0.4 0 0
At STD N 0040FFFF
Ne 0 ""
Po 0 -6.75
$EndPAD
$PAD
Sh "2" R 1 1 0 0 0
Dr 0.4 0 0
At STD N 0040FFFF
Ne 0 ""
Po 0 -7.75
$EndPAD
$PAD
Sh "2" R 1 1 0 0 0
Dr 0.4 0 0
At STD N 0040FFFF
Ne 0 ""
Po -1 -7.75
$EndPAD
$PAD
Sh "2" R 1 1 0 0 0
Dr 0.4 0 0
At STD N 0040FFFF
Ne 0 ""
Po 3 -7.75
$EndPAD
$PAD
Sh "2" R 1 1 0 0 0
Dr 0.4 0 0
At STD N 0040FFFF
Ne 0 ""
Po 3 -6.75
$EndPAD
$PAD
Sh "2" R 1 1 0 0 0
Dr 0.4 0 0
At STD N 0040FFFF
Ne 0 ""
Po 4 -6.75
$EndPAD
$PAD
Sh "2" R 1 1 0 0 0
Dr 0.4 0 0
At STD N 0040FFFF
Ne 0 ""
Po 5 -6.75
$EndPAD
$PAD
Sh "2" R 1 1 0 0 0
Dr 0.4 0 0
At STD N 0040FFFF
Ne 0 ""
Po 5 -7.75
$EndPAD
$PAD
Sh "2" R 1 1 0 0 0
Dr 0.4 0 0
At STD N 0040FFFF
Ne 0 ""
Po 4 -7.75
$EndPAD
$PAD
Sh "2" R 1 1 0 0 0
Dr 0.4 0 0
At STD N 0040FFFF
Ne 0 ""
Po 4 -5.75
$EndPAD
$PAD
Sh "2" R 1 1 0 0 0
Dr 0.4 0 0
At STD N 0040FFFF
Ne 0 ""
Po 5 -5.75
$EndPAD
$PAD
Sh "2" R 1 1 0 0 0
Dr 0.4 0 0
At STD N 0040FFFF
Ne 0 ""
Po 5 -4.75
$EndPAD
$PAD
Sh "2" R 1 1 0 0 0
Dr 0.4 0 0
At STD N 0040FFFF
Ne 0 ""
Po 4 -4.75
$EndPAD
$PAD
Sh "2" R 1 1 0 0 0
Dr 0.4 0 0
At STD N 0040FFFF
Ne 0 ""
Po 3 -4.75
$EndPAD
$PAD
Sh "2" R 1 1 0 0 0
Dr 0.4 0 0
At STD N 0040FFFF
Ne 0 ""
Po 3 -5.75
$EndPAD
$PAD
Sh "2" R 1 1 0 0 0
Dr 0.4 0 0
At STD N 0040FFFF
Ne 0 ""
Po -1 -5.75
$EndPAD
$PAD
Sh "2" R 1 1 0 0 0
Dr 0.4 0 0
At STD N 0040FFFF
Ne 0 ""
Po 0 -5.75
$EndPAD
$PAD
Sh "2" R 1 1 0 0 0
Dr 0.4 0 0
At STD N 0040FFFF
Ne 0 ""
Po 0 -4.75
$EndPAD
$PAD
Sh "2" R 1 1 0 0 0
Dr 0.4 0 0
At STD N 0040FFFF
Ne 0 ""
Po -1 -4.75
$EndPAD
$PAD
Sh "2" R 1 1 0 0 0
Dr 0.4 0 0
At STD N 0040FFFF
Ne 0 ""
Po 1 -4.75
$EndPAD
$PAD
Sh "2" R 1 1 0 0 0
Dr 0.4 0 0
At STD N 0040FFFF
Ne 0 ""
Po 2 -4.75
$EndPAD
$PAD
Sh "2" R 1 1 0 0 0
Dr 0.4 0 0
At STD N 0040FFFF
Ne 0 ""
Po 2 -5.75
$EndPAD
$PAD
Sh "2" R 1 1 0 0 0
Dr 0.4 0 0
At STD N 0040FFFF
Ne 0 ""
Po 1 -5.75
$EndPAD
$PAD
Sh "2" R 1 1 0 0 0
Dr 0.4 0 0
At STD N 0040FFFF
Ne 0 ""
Po -3 -5.75
$EndPAD
$PAD
Sh "2" R 1 1 0 0 0
Dr 0.4 0 0
At STD N 0040FFFF
Ne 0 ""
Po -2 -5.75
$EndPAD
$PAD
Sh "2" R 1 1 0 0 0
Dr 0.4 0 0
At STD N 0040FFFF
Ne 0 ""
Po -2 -4.75
$EndPAD
$PAD
Sh "2" R 1 1 0 0 0
Dr 0.4 0 0
At STD N 0040FFFF
Ne 0 ""
Po -3 -4.75
$EndPAD
$PAD
Sh "2" R 1 1 0 0 0
Dr 0.4 0 0
At STD N 0040FFFF
Ne 0 ""
Po -5 -4.75
$EndPAD
$PAD
Sh "2" R 1 1 0 0 0
Dr 0.4 0 0
At STD N 0040FFFF
Ne 0 ""
Po -4 -4.75
$EndPAD
$PAD
Sh "2" R 1 1 0 0 0
Dr 0.4 0 0
At STD N 0040FFFF
Ne 0 ""
Po -4 -5.75
$EndPAD
$PAD
Sh "2" R 1 1 0 0 0
Dr 0.4 0 0
At STD N 0040FFFF
Ne 0 ""
Po -5 -5.75
$EndPAD
$PAD
Sh "1" R 1.09982 7.0104 0 0 0
Dr 0 0 0
At SMD N 00888000
Ne 0 ""
Po -2.54 4.43992
$EndPAD
$PAD
Sh "3" R 1.09982 7.0104 0 0 0
Dr 0 0 0
At SMD N 00888000
Ne 0 ""
Po 2.54 4.43992
$EndPAD
$PAD
Sh "~" O 5.00126 1.99898 0 0 0
Dr 0 0 0
At SMD N 00020000
Ne 0 ""
Po 0 -1.99898
$EndPAD
$SHAPE3D
Na "DD-PAK_TO263AB_Faktor03937_RevA_06Sep2012.wrl"
Sc 0.3937 0.3937 0.3937
Of 0 0.075 0
Ro 0 0 0
$EndSHAPE3D
$EndMODULE DD-PAK_TO263_SingleDiode_ThermalVias_RevA_31May2013
$MODULE Diode-MELF_Handsoldering_RevA_27July2010
Po 0 0 0 15 5048B7C5 00000000 ~~
Li Diode-MELF_Handsoldering_RevA_27July2010
Cd Diode MELF Handsoldering
Kw Diode MELF Handsoldering
Sc 0
AR Diode-MELF_Handsoldering_RevA_27July2010
Op 0 0 0
At SMD
T0 0 -2.54 1.524 1.524 0 0.3048 N V 21 N "D"
T1 0 3.81 1.524 1.524 0 0.3048 N I 21 N "Diode-MELF_Handsoldering_RevA_27July2010"
DS -0.39878 0 -1.09982 0 0.381 21
DS 0.55118 0 1.09982 0 0.381 21
DS 0.55118 0 0.55118 0.8001 0.381 21
DS 0.55118 0 0.55118 -0.8001 0.381 21
DS 0.55118 0 -0.39878 -0.8001 0.381 21
DS -0.39878 -0.8001 -0.39878 0.8001 0.381 21
DS -0.39878 0.8001 0.55118 0 0.381 21
T2 -2.55016 2.04978 0.50038 0.50038 0 0.09906 N V 21 N "A"
T2 2.3495 2.14884 0.50038 0.50038 0 0.09906 N V 21 N "K"
DS -1.09982 -1.24968 -1.19888 -1.24968 0.381 21
DS -1.09982 1.24968 -1.19888 1.24968 0.381 21
DS 1.19888 -1.24968 -1.15062 -1.24968 0.381 21
DS 1.19888 1.24968 -1.04902 1.24968 0.381 21
$PAD
Sh "1" R 3.50012 2.70002 0 0 0
Dr 0 0 0
At SMD N 00888000
Ne 0 ""
Po -3.40106 0
$EndPAD
$PAD
Sh "2" R 3.50012 2.70002 0 0 0
Dr 0 0 0
At SMD N 00888000
Ne 0 ""
Po 3.40106 0
$EndPAD
$SHAPE3D
Na "MELF_Faktor03937_RevA_06Sep2012.wrl"
Sc 0.3937 0.3937 0.3937
Of 0 0 0
Ro 0 0 0
$EndSHAPE3D
$EndMODULE Diode-MELF_Handsoldering_RevA_27July2010
$MODULE Diode-MELF_Standard_RevA_27July2010
Po 0 0 0 15 5048C40B 00000000 ~~
Li Diode-MELF_Standard_RevA_27July2010
Cd Diode, MELF, Standard,
Kw Diode, MELF, Standard,
Sc 0
AR Diode-MELF_Standard_RevA_27July2010
Op 0 0 0
At SMD
T0 0 -2.54 1.524 1.524 0 0.3048 N V 21 N "D"
T1 0 3.81 1.524 1.524 0 0.3048 N I 21 N "Diode-MELF_Standard_RevA_27July2010"
DS 1.15062 0 0.20066 -1.24968 0.381 21
DS 0.20066 -1.24968 0.20066 1.24968 0.381 21
DS 0.20066 1.24968 1.19888 0 0.381 21
DS 1.19888 -1.24968 1.19888 1.24968 0.381 21
T2 -2.55016 2.04978 0.50038 0.50038 0 0.09906 N V 21 N "A"
T2 2.3495 2.14884 0.50038 0.50038 0 0.09906 N V 21 N "K"
DC 0 0 0.8001 0.29972 0.381 17
DC 0 0 0 0.55118 0.381 17
DC 0 0 0 0.20066 0.381 17
DS -1.09982 -1.24968 -1.19888 -1.24968 0.381 21
DS -1.09982 1.24968 -1.19888 1.24968 0.381 21
DS 1.19888 -1.24968 -1.15062 -1.24968 0.381 21
DS 1.19888 1.24968 -1.04902 1.24968 0.381 21
$PAD
Sh "1" R 1.50114 2.70002 0 0 0
Dr 0 0 0
At SMD N 00888000
Ne 0 ""
Po -2.4003 0
$EndPAD
$PAD
Sh "2" R 1.50114 2.70002 0 0 0
Dr 0 0 0
At SMD N 00888000
Ne 0 ""
Po 2.4003 0
$EndPAD
$SHAPE3D
Na "MELF_Faktor03937_RevA_06Sep2012.wrl"
Sc 0.3937 0.3937 0.3937
Of 0 0 0
Ro 0 0 0
$EndSHAPE3D
$EndMODULE Diode-MELF_Standard_RevA_27July2010
$MODULE Diode-MiniMELF_Handsoldering_RevA_27July2010
Po 0 0 0 15 5048BF51 00000000 ~~
Li Diode-MiniMELF_Handsoldering_RevA_27July2010
Cd Diode Mini-MELF Handsoldering
Kw Diode Mini-MELF Handsoldering
Sc 0
AR 
Op 0 0 0
At SMD
T0 0 -2.54 1.524 1.524 0 0.3048 N V 21 N "D"
T1 0 3.81 1.524 1.524 0 0.3048 N I 21 N "Diode-MiniMELF_Handsoldering_RevA_27July2010"
DS 0.44958 0 0.59944 0 0.381 21
DS -0.39878 0 -0.59944 0 0.381 21
DS 0.44958 0 0.44958 0.7493 0.381 21
DS 0.44958 0 0.44958 -0.70104 0.381 21
DS 0.44958 0 -0.39878 -0.70104 0.381 21
DS -0.39878 -0.70104 -0.39878 0.70104 0.381 21
DS -0.39878 0.70104 0.44958 0 0.381 21
T2 -1.80086 1.5494 0.50038 0.50038 0 0.09906 N V 21 N "A"
T2 1.80086 1.5494 0.50038 0.50038 0 0.09906 N V 21 N "K"
$PAD
Sh "1" R 3.29946 1.69926 0 0 0
Dr 0 0 0
At SMD N 00888000
Ne 0 ""
Po -2.75082 0
$EndPAD
$PAD
Sh "2" R 3.29946 1.69926 0 0 0
Dr 0 0 0
At SMD N 00888000
Ne 0 ""
Po 2.75082 0
$EndPAD
$SHAPE3D
Na "MiniMELF_DO213AA_Faktor03937_RevA_06Sep2012.wrl"
Sc 0.3937 0.3937 0.3937
Of 0 0 0
Ro 0 0 0
$EndSHAPE3D
$EndMODULE Diode-MiniMELF_Handsoldering_RevA_27July2010
$MODULE Diode-MiniMELF_Standard_RevA_27July2010
Po 0 0 0 15 5048B7D9 00000000 ~~
Li Diode-MiniMELF_Standard_RevA_27July2010
Cd Diode Mini-MELF Standard
Kw Diode Mini-MELF Standard
Sc 0
AR 
Op 0 0 0
At SMD
T0 0 -2.54 1.524 1.524 0 0.3048 N V 21 N "D"
T1 0 3.81 1.524 1.524 0 0.3048 N I 21 N "Diode-MiniMELF_Standard_RevA_27July2010"
DS 0.65024 0.0508 -0.35052 -1.00076 0.381 21
DS -0.35052 -1.00076 -0.35052 1.00076 0.381 21
DS -0.35052 1.00076 0.65024 0 0.381 21
DS 0.65024 -1.04902 0.65024 1.04902 0.381 21
T2 -1.80086 1.5494 0.50038 0.50038 0 0.09906 N V 21 N "A"
T2 1.80086 1.5494 0.50038 0.50038 0 0.09906 N V 21 N "K"
DC 0 0 0 0.55118 0.381 17
DC 0 0 0 0.20066 0.381 17
$PAD
Sh "1" R 1.30048 1.69926 0 0 0
Dr 0 0 0
At SMD N 00888000
Ne 0 ""
Po -1.75006 0
$EndPAD
$PAD
Sh "2" R 1.30048 1.69926 0 0 0
Dr 0 0 0
At SMD N 00888000
Ne 0 ""
Po 1.75006 0
$EndPAD
$SHAPE3D
Na "MiniMELF_DO213AA_Faktor03937_RevA_06Sep2012.wrl"
Sc 0.3937 0.3937 0.3937
Of 0 0 0
Ro 0 0 0
$EndSHAPE3D
$EndMODULE Diode-MiniMELF_Standard_RevA_27July2010
$MODULE Diode-SMA_Handsoldering_RevA_27July2010
Po 0 0 0 15 5048C428 00000000 ~~
Li Diode-SMA_Handsoldering_RevA_27July2010
Cd Diode SMA Handsoldering
Kw Diode SMA Handsoldering
Sc 0
AR 
Op 0 0 0
At SMD
T0 0 -3.81 1.524 1.524 0 0.3048 N V 21 N "D"
T1 0 3.81 1.524 1.524 0 0.3048 N I 21 N "Diode-SMA_Handsoldering_RevA_27July2010"
DS 0.20066 -0.65024 0.20066 0.65024 0.381 21
DS 0.20066 0 -0.20066 0.24892 0.381 21
DS 0.20066 0 -0.20066 -0.29972 0.381 21
T2 -3.29946 1.6002 0.50038 0.50038 0 0.09906 N V 21 N "A"
T2 2.99974 1.69926 0.50038 0.50038 0 0.09906 N V 21 N "K"
DS 1.80086 1.75006 1.80086 1.39954 0.381 21
DS 1.80086 -1.75006 1.80086 -1.39954 0.381 21
DS 2.25044 1.75006 2.25044 1.39954 0.381 21
DS -2.25044 1.75006 -2.25044 1.39954 0.381 21
DS -2.25044 -1.75006 -2.25044 -1.39954 0.381 21
DS 2.25044 -1.75006 2.25044 -1.39954 0.381 21
DS -2.25044 1.75006 2.25044 1.75006 0.381 21
DS -2.25044 -1.75006 2.25044 -1.75006 0.381 21
$PAD
Sh "1" R 3.50012 1.80086 0 0 0
Dr 0 0 0
At SMD N 00888000
Ne 0 ""
Po -2.49936 0
$EndPAD
$PAD
Sh "2" R 3.50012 1.80086 0 0 0
Dr 0 0 0
At SMD N 00888000
Ne 0 ""
Po 2.49936 0
$EndPAD
$SHAPE3D
Na "SMA_Faktor03937_RevA_06Sep2012.wrl"
Sc 0.3937 0.3937 0.3937
Of 0 0 0
Ro 0 0 0
$EndSHAPE3D
$EndMODULE Diode-SMA_Handsoldering_RevA_27July2010
$MODULE Diode-SMA_Standard_RevA_26July2010
Po 0 0 0 15 5048C43C 00000000 ~~
Li Diode-SMA_Standard_RevA_26July2010
Cd Diode SMA
Kw Diode SMA
Sc 0
AR 
Op 0 0 0
At SMD
T0 0 -3.81 1.524 1.524 0 0.3048 N V 21 N "D"
T1 0 3.81 1.524 1.524 0 0.3048 N I 21 N "Diode-SMA_Standard_RevA_26July2010"
T2 -3.29946 1.6002 0.50038 0.50038 0 0.09906 N V 21 N "A"
T2 2.99974 1.69926 0.50038 0.50038 0 0.09906 N V 21 N "K"
DC 0 0 0.20066 -0.0508 0.381 17
DS 1.80086 1.75006 1.80086 1.39954 0.381 21
DS 1.80086 -1.75006 1.80086 -1.39954 0.381 21
DS 2.25044 1.75006 2.25044 1.39954 0.381 21
DS -2.25044 1.75006 -2.25044 1.39954 0.381 21
DS -2.25044 -1.75006 -2.25044 -1.39954 0.381 21
DS 2.25044 -1.75006 2.25044 -1.39954 0.381 21
DS -2.25044 1.75006 2.25044 1.75006 0.381 21
DS -2.25044 -1.75006 2.25044 -1.75006 0.381 21
$PAD
Sh "1" R 2.49936 1.80086 0 0 0
Dr 0 0 0
At SMD N 00888000
Ne 0 ""
Po -1.99898 0
$EndPAD
$PAD
Sh "2" R 2.49936 1.80086 0 0 0
Dr 0 0 0
At SMD N 00888000
Ne 0 ""
Po 1.99898 0
$EndPAD
$SHAPE3D
Na "SMA_Faktor03937_RevA_06Sep2012.wrl"
Sc 0.3937 0.3937 0.3937
Of 0 0 0
Ro 0 0 0
$EndSHAPE3D
$EndMODULE Diode-SMA_Standard_RevA_26July2010
$MODULE Diode-SMB_Handsoldering_RevA_27July2010
Po 0 0 0 15 5048C455 00000000 ~~
Li Diode-SMB_Handsoldering_RevA_27July2010
Cd Diode SMB Handsoldering
Kw Diode SMB Handsoldering
Sc 0
AR 
Op 0 0 0
At SMD
T0 0 -3.81 1.524 1.524 0 0.3048 N V 21 N "D"
T1 0 3.81 1.524 1.524 0 0.3048 N I 21 N "Diode-SMB_Handsoldering_RevA_27July2010"
DS 0.44958 0 -0.39878 -1.00076 0.381 21
DS -0.39878 -1.00076 -0.39878 1.00076 0.381 21
DS -0.39878 1.00076 0.44958 0 0.381 21
DS 0.44958 0 0.44958 1.00076 0.381 21
DS 0.44958 0 0.44958 -1.00076 0.381 21
T2 -3.2004 1.95072 0.50038 0.50038 0 0.09906 N V 21 N "A"
T2 2.99974 1.95072 0.50038 0.50038 0 0.09906 N V 21 N "K"
DS -2.30124 1.75006 -2.30124 1.6002 0.381 21
DS 1.95072 1.75006 1.95072 1.651 0.381 21
DS 2.30124 1.75006 2.30124 1.651 0.381 21
DS -2.30124 -1.75006 -2.30124 -1.651 0.381 21
DS 1.95072 -1.75006 1.95072 -1.651 0.381 21
DS 2.30124 -1.75006 2.30124 -1.651 0.381 21
DS 1.95072 1.99898 1.95072 1.80086 0.381 21
DS 1.95072 -1.99898 1.95072 -1.80086 0.381 21
DS 2.29616 1.99644 2.29616 1.79832 0.381 21
DS -2.30632 1.99644 2.29616 1.99644 0.381 21
DS -2.30632 1.99644 -2.30632 1.79832 0.381 21
DS -2.30124 -1.99898 -2.30124 -1.80086 0.381 21
DS -2.30124 -1.99898 2.30124 -1.99898 0.381 21
DS 2.30124 -1.99898 2.30124 -1.80086 0.381 21
$PAD
Sh "1" R 3.50012 2.30124 0 0 0
Dr 0 0 0
At SMD N 00888000
Ne 0 ""
Po -2.70002 0
$EndPAD
$PAD
Sh "2" R 3.50012 2.30124 0 0 0
Dr 0 0 0
At SMD N 00888000
Ne 0 ""
Po 2.70002 0
$EndPAD
$SHAPE3D
Na "SMB_Faktor03937_RevA_06Sep2012.wrl"
Sc 0.3937 0.3937 0.3937
Of 0 0 0
Ro 0 0 0
$EndSHAPE3D
$EndMODULE Diode-SMB_Handsoldering_RevA_27July2010
$MODULE Diode-SMB_Standard_RevA_26July2010
Po 0 0 0 15 5048C463 00000000 ~~
Li Diode-SMB_Standard_RevA_26July2010
Cd Diode SMB Standard
Kw Diode SMB Standard
Sc 0
AR 
Op 0 0 0
At SMD
T0 0 -3.81 1.524 1.524 0 0.3048 N V 21 N "D"
T1 0 3.81 1.524 1.524 0 0.3048 N I 21 N "Diode-SMB_Standard_RevA_26July2010"
T2 -3.2004 1.95072 0.50038 0.50038 0 0.09906 N V 21 N "A"
T2 2.99974 1.95072 0.50038 0.50038 0 0.09906 N V 21 N "K"
DS -2.30124 1.75006 -2.30124 1.6002 0.381 21
DS 1.95072 1.75006 1.95072 1.651 0.381 21
DS 2.30124 1.75006 2.30124 1.651 0.381 21
DS -2.30124 -1.75006 -2.30124 -1.651 0.381 21
DS 1.95072 -1.75006 1.95072 -1.651 0.381 21
DS 2.30124 -1.75006 2.30124 -1.651 0.381 21
DC 0 0 0.44958 0.09906 0.381 17
DC 0 0 0.20066 0.09906 0.381 17
DS 1.95072 1.99898 1.95072 1.80086 0.381 21
DS 1.95072 -1.99898 1.95072 -1.80086 0.381 21
DS 2.29616 1.99644 2.29616 1.79832 0.381 21
DS -2.30632 1.99644 2.29616 1.99644 0.381 21
DS -2.30632 1.99644 -2.30632 1.79832 0.381 21
DS -2.30124 -1.99898 -2.30124 -1.80086 0.381 21
DS -2.30124 -1.99898 2.30124 -1.99898 0.381 21
DS 2.30124 -1.99898 2.30124 -1.80086 0.381 21
$PAD
Sh "1" R 2.49936 2.30124 0 0 0
Dr 0 0 0
At SMD N 00888000
Ne 0 ""
Po -2.14884 0
$EndPAD
$PAD
Sh "2" R 2.49936 2.30124 0 0 0
Dr 0 0 0
At SMD N 00888000
Ne 0 ""
Po 2.14884 0
$EndPAD
$SHAPE3D
Na "SMB_Faktor03937_RevA_06Sep2012.wrl"
Sc 0.3937 0.3937 0.3937
Of 0 0 0
Ro 0 0 0
$EndSHAPE3D
$EndMODULE Diode-SMB_Standard_RevA_26July2010
$MODULE Diode-SMC_Handsoldering_RevA_27July2010
Po 0 0 0 15 5048C488 00000000 ~~
Li Diode-SMC_Handsoldering_RevA_27July2010
Cd Diode SMC Handsoldering
Kw Diode SMC Handsoldering
Sc 0
AR 
Op 0 0 0
At SMD
T0 0 -5.08 1.524 1.524 0 0.3048 N V 21 N "D"
T1 0 5.08 1.524 1.524 0 0.3048 N I 21 N "Diode-SMC_Handsoldering_RevA_27July2010"
DC 0 0 0.8509 0.0508 0.381 17
DC 0 0 0.50038 0.0508 0.381 17
DC 0 0 0.14986 0.0508 0.381 17
DS 0.69596 2.19964 1.59766 2.19964 0.381 21
DS -0.60198 2.19964 -1.6002 2.19964 0.381 21
DS 3.05054 3.40106 3.05054 2.19964 0.381 21
DS 3.05054 -3.40106 3.05054 -2.19964 0.381 21
DS 3.59918 3.40106 3.59918 2.19964 0.381 21
DS 3.59918 -3.40106 3.59918 -2.19964 0.381 21
DS -3.59918 3.40106 -3.59918 2.14884 0.381 21
DS -3.59918 -3.40106 -3.59918 -2.14884 0.381 21
DS 0.69596 1.39954 0.69596 2.99974 0.381 21
DS -0.45212 2.94894 -0.45212 1.39954 0.381 21
DS 0.6985 2.19964 -0.45212 2.94894 0.381 21
DS 0.69596 2.19964 -0.45466 1.39954 0.381 21
DS -3.59918 3.40106 3.59918 3.40106 0.381 21
DS -3.59918 -3.40106 3.59918 -3.40106 0.381 21
$PAD
Sh "1" R 3.29946 4.50088 0 0 900
Dr 0 0 0
At SMD N 00888000
Ne 0 ""
Po -4.39928 0
$EndPAD
$PAD
Sh "2" R 3.29946 4.49834 0 0 900
Dr 0 0 0
At SMD N 00888000
Ne 0 ""
Po 4.39928 0
$EndPAD
$SHAPE3D
Na "SMC_Faktor03937_RevA_06Sep2012.wrl"
Sc 0.3937 0.3937 0.3937
Of 0 0 0
Ro 0 0 0
$EndSHAPE3D
$EndMODULE Diode-SMC_Handsoldering_RevA_27July2010
$MODULE Diode-SMC_Standard_RevA_26July2010
Po 0 0 0 15 5048C476 00000000 ~~
Li Diode-SMC_Standard_RevA_26July2010
Cd Diode SMC Standard
Kw Diode SMC Standard
Sc 0
AR 
Op 0 0 0
At SMD
T0 0 -5.08 1.524 1.524 0 0.3048 N V 21 N "D"
T1 0 5.08 1.524 1.524 0 0.3048 N I 21 N "Diode-SMC_Standard_RevA_26July2010"
DC 0 0 0.7493 0.35052 0.381 17
DC 0 0 0.44958 0.20066 0.381 17
DC 0 0 0.14986 0.14986 0.381 17
DS 0.59944 -1.99898 1.50114 -1.99898 0.381 21
DS -0.55118 -1.99898 -1.5494 -1.99898 0.381 21
DS 3.05054 3.40106 3.05054 2.19964 0.381 21
DS 3.05054 -3.40106 3.05054 -2.19964 0.381 21
DS 3.59918 3.40106 3.59918 2.19964 0.381 21
DS 3.59918 -3.40106 3.59918 -2.19964 0.381 21
DS -3.59918 3.40106 -3.59918 2.14884 0.381 21
DS -3.59918 -3.40106 -3.59918 -2.14884 0.381 21
DS 0.59944 -2.79908 0.59944 -1.19888 0.381 21
DS -0.55118 -1.24968 -0.55118 -2.79908 0.381 21
DS 0.59944 -1.99898 -0.55118 -1.24968 0.381 21
DS 0.59944 -1.99898 -0.55118 -2.79908 0.381 21
DS -3.59918 3.40106 3.59918 3.40106 0.381 21
DS -3.59918 -3.40106 3.59918 -3.40106 0.381 21
$PAD
Sh "1" R 3.29946 2.49936 0 0 900
Dr 0 0 0
At SMD N 00888000
Ne 0 ""
Po -3.40106 0
$EndPAD
$PAD
Sh "2" R 3.29946 2.49936 0 0 900
Dr 0 0 0
At SMD N 00888000
Ne 0 ""
Po 3.40106 0
$EndPAD
$SHAPE3D
Na "SMC_Faktor03937_RevA_06Sep2012.wrl"
Sc 0.3937 0.3937 0.3937
Of 0 0 0
Ro 0 0 0
$EndSHAPE3D
$EndMODULE Diode-SMC_Standard_RevA_26July2010
$MODULE Diode-Universal-MELF-RM10_Handsoldering_RevA_27July2010
Po 0 0 0 15 5048C4A8 00000000 ~~
Li Diode-Universal-MELF-RM10_Handsoldering_RevA_27July2010
Cd Diode, Universal, MELF, RM10, Handsoldering, SMD, Thruhole,
Kw Diode, Universal, MELF, RM10, Handsoldering, SMD, Thruhole,
Sc 0
AR 
Op 0 0 0
At SMD
T0 0 -2.54 1.524 1.524 0 0.3048 N V 21 N "D"
T1 0 3.81 1.524 1.524 0 0.3048 N I 21 N "Diode-Universal-MELF-RM10_Handsoldering_RevA_27July2010"
DS -0.39878 0 -1.09982 0 0.381 21
DS 0.55118 0 1.09982 0 0.381 21
DS 0.55118 0 0.55118 0.8001 0.381 21
DS 0.55118 0 0.55118 -0.8001 0.381 21
DS 0.55118 0 -0.39878 -0.8001 0.381 21
DS -0.39878 -0.8001 -0.39878 0.8001 0.381 21
DS -0.39878 0.8001 0.55118 0 0.381 21
T2 -2.55016 2.04978 0.50038 0.50038 0 0.09906 N V 21 N "A"
T2 2.3495 2.14884 0.50038 0.50038 0 0.09906 N V 21 N "K"
DS -1.09982 -1.24968 -1.19888 -1.24968 0.381 21
DS -1.09982 1.24968 -1.19888 1.24968 0.381 21
DS 1.19888 -1.24968 -1.15062 -1.24968 0.381 21
DS 1.19888 1.24968 -1.04902 1.24968 0.381 21
$PAD
Sh "1" R 4.49834 2.70002 0 0 0
Dr 1.19888 1.09982 0
At STD N 00E0FFFF
Ne 0 ""
Po -5.00126 0
$EndPAD
$PAD
Sh "2" R 4.49834 2.70002 0 0 1800
Dr 1.19888 1.09982 0
At STD N 00E0FFFF
Ne 0 ""
Po 5.00126 0
$EndPAD
$EndMODULE Diode-Universal-MELF-RM10_Handsoldering_RevA_27July2010
$MODULE Diode-Universal-SMA-SMB_Handsoldering_RevA_27July2010
Po 0 0 0 15 5048C4D5 00000000 ~~
Li Diode-Universal-SMA-SMB_Handsoldering_RevA_27July2010
Cd Diode, Universal, SMA, SMB, Handsoldering,
Kw Diode, Universal, SMA, SMB, Handsoldering,
Sc 0
AR 
Op 0 0 0
At SMD
T0 0 -3.81 1.524 1.524 0 0.3048 N V 21 N "D"
T1 0 3.81 1.524 1.524 0 0.3048 N I 21 N "Diode-Universal-SMA-SMB_Handsoldering_RevA_27July2010"
DS 0.44958 0 -0.50038 -0.70104 0.381 21
DS -0.50038 -0.70104 -0.50038 0.70104 0.381 21
DS -0.50038 0.70104 0.44958 0 0.381 21
DS 0.44958 -0.70104 0.44958 0.70104 0.381 21
DS -2.25044 1.39954 -2.25044 1.24968 0.381 21
DS -2.25044 -1.39954 -2.25044 -1.24968 0.381 21
DS 1.80086 1.39954 1.80086 1.19888 0.381 21
DS 2.25044 1.34874 2.25044 1.24968 0.381 21
DS 1.80086 -1.34874 1.80086 -1.19888 0.381 21
DS 2.25044 -1.39954 2.25044 -1.24968 0.381 21
T2 -3.29946 1.6002 0.50038 0.50038 0 0.09906 N V 21 N "A"
T2 2.99974 1.69926 0.50038 0.50038 0 0.09906 N V 21 N "K"
DS 1.80086 1.75006 1.80086 1.39954 0.381 21
DS 1.80086 -1.75006 1.80086 -1.39954 0.381 21
DS 2.25044 1.75006 2.25044 1.39954 0.381 21
DS -2.25044 1.75006 -2.25044 1.39954 0.381 21
DS -2.25044 -1.75006 -2.25044 -1.39954 0.381 21
DS 2.25044 -1.75006 2.25044 -1.39954 0.381 21
DS -2.25044 1.75006 2.25044 1.75006 0.381 21
DS -2.25044 -1.75006 2.25044 -1.75006 0.381 21
$PAD
Sh "1" T 3.60172 1.69926 0.59944 0 0
Dr 0 0 0
At SMD N 00888000
Ne 0 ""
Po -2.90068 0
$EndPAD
$PAD
Sh "2" T 3.60172 1.69926 0.59944 0 1800
Dr 0 0 0
At SMD N 00888000
Ne 0 ""
Po 2.90068 0
$EndPAD
$EndMODULE Diode-Universal-SMA-SMB_Handsoldering_RevA_27July2010
$MODULE Diode-Universal-SMB-SMC_Handsoldering_RevA_27July2010
Po 0 0 0 15 5048C4EC 00000000 ~~
Li Diode-Universal-SMB-SMC_Handsoldering_RevA_27July2010
Cd Diode, Universal, SMB, SMC, Handsoldering,
Kw Diode, Universal, SMB, SMC, Handsoldering,
Sc 0
AR 
Op 0 0 0
At SMD
T0 0 -3.81 1.524 1.524 0 0.3048 N V 21 N "D"
T1 0 3.81 1.524 1.524 0 0.3048 N I 21 N "Diode-Universal-SMB-SMC_Handsoldering_RevA_27July2010"
DS 0.44958 0 -0.39878 -1.00076 0.381 21
DS -0.39878 -1.00076 -0.39878 1.00076 0.381 21
DS -0.39878 1.00076 0.44958 0 0.381 21
DS 0.44958 0 0.44958 1.00076 0.381 21
DS 0.44958 0 0.44958 -1.00076 0.381 21
T2 -3.2004 1.95072 0.50038 0.50038 0 0.09906 N V 21 N "A"
T2 2.99974 1.95072 0.50038 0.50038 0 0.09906 N V 21 N "K"
DS -2.30124 1.75006 -2.30124 1.6002 0.381 21
DS 1.95072 1.75006 1.95072 1.651 0.381 21
DS 2.30124 1.75006 2.30124 1.651 0.381 21
DS -2.30124 -1.75006 -2.30124 -1.651 0.381 21
DS 1.95072 -1.75006 1.95072 -1.651 0.381 21
DS 2.30124 -1.75006 2.30124 -1.651 0.381 21
DS 1.95072 1.99898 1.95072 1.80086 0.381 21
DS 1.95072 -1.99898 1.95072 -1.80086 0.381 21
DS 2.29616 1.99644 2.29616 1.79832 0.381 21
DS -2.30632 1.99644 2.29616 1.99644 0.381 21
DS -2.30632 1.99644 -2.30632 1.79832 0.381 21
DS -2.30124 -1.99898 -2.30124 -1.80086 0.381 21
DS -2.30124 -1.99898 2.30124 -1.99898 0.381 21
DS 2.30124 -1.99898 2.30124 -1.80086 0.381 21
$PAD
Sh "1" T 4.30022 2.60096 1.00076 0 0
Dr 0 0 0
At SMD N 00888000
Ne 0 ""
Po -3.2004 0
$EndPAD
$PAD
Sh "2" T 4.30022 2.60096 1.00076 0 1800
Dr 0 0 0
At SMD N 00888000
Ne 0 ""
Po 3.2004 0
$EndPAD
$EndMODULE Diode-Universal-SMB-SMC_Handsoldering_RevA_27July2010
$MODULE Diode-Universal-SMC-RM10_Handsoldering_RevA_27July2010
Po 0 0 0 15 5048C4FD 00000000 ~~
Li Diode-Universal-SMC-RM10_Handsoldering_RevA_27July2010
Cd Diode, Universal, SMC, RM10, Handsoldering, SMD, Thruhole,
Kw Diode, Universal, SMC, RM10, Handsoldering, SMD, Thruhole,
Sc 0
AR 
Op 0 0 0
At SMD
T0 0 -5.08 1.524 1.524 0 0.3048 N V 21 N "D"
T1 0 5.08 1.524 1.524 0 0.3048 N I 21 N "Diode-Universal-SMC-RM10_Handsoldering_RevA_27July2010"
DC 0 0 0.8001 -0.09906 0.381 17
DC 0 0 0.50038 0 0.381 17
DC 0 0 0.14986 0 0.381 17
DS 0.6477 0 1.5494 0 0.381 21
DS -0.50292 0 -1.50114 0 0.381 21
DS 3.05054 3.40106 3.05054 2.19964 0.381 21
DS 3.05054 -3.40106 3.05054 -2.19964 0.381 21
DS 3.59918 3.40106 3.59918 2.19964 0.381 21
DS 3.59918 -3.40106 3.59918 -2.19964 0.381 21
DS -3.59918 3.40106 -3.59918 2.14884 0.381 21
DS -3.59918 -3.40106 -3.59918 -2.14884 0.381 21
DS 0.6477 -0.8001 0.6477 0.8001 0.381 21
DS -0.50292 0.7493 -0.50292 -0.8001 0.381 21
DS 0.6477 0 -0.50292 0.7493 0.381 21
DS 0.6477 0 -0.50292 -0.8001 0.381 21
DS -3.59918 3.40106 3.59918 3.40106 0.381 21
DS -3.59918 -3.40106 3.59918 -3.40106 0.381 21
$PAD
Sh "1" R 4.50088 3.29946 0 0 0
Dr 1.19888 0.59944 0
At STD N 00E0FFFF
Ne 0 ""
Po -5.00126 0
$EndPAD
$PAD
Sh "2" R 4.50088 3.29946 0 0 1800
Dr 1.19888 0.59944 0
At STD N 00E0FFFF
Ne 0 ""
Po 5.00126 0
$EndPAD
$EndMODULE Diode-Universal-SMC-RM10_Handsoldering_RevA_27July2010
$MODULE Diode_SOT23_Handsoldering_RevA_03Aug2010
Po 0 0 0 15 5048C513 00000000 ~~
Li Diode_SOT23_Handsoldering_RevA_03Aug2010
Cd Diode, SOT23, Handsoldering, RevA, 03Aug2010,
Kw Diode, SOT23, Handsoldering, RevA, 03Aug2010,
Sc 0
AR 
Op 0 0 0
At SMD
T0 0 -3.81 1.524 1.524 0 0.3048 N V 21 N "D"
T1 0 3.81 1.524 1.524 0 0.3048 N I 21 N "Diode_SOT23_Handsoldering_RevA_03Aug2010"
DS -1.09982 0.0508 -1.09982 -0.65024 0.381 21
DS -1.09982 -0.65024 -0.8509 -0.65024 0.381 21
DS 0.89916 -0.65024 1.09982 -0.65024 0.381 21
DS 1.09982 -0.65024 1.09982 0.0508 0.381 21
$PAD
Sh "1" R 0.8001 1.80086 0 0 0
Dr 0 0 0
At SMD N 00888000
Ne 0 ""
Po -0.70104 1.50114
$EndPAD
$PAD
Sh "2" R 0.8001 1.80086 0 0 0
Dr 0 0 0
At SMD N 00888000
Ne 0 ""
Po 0.70104 1.50114
$EndPAD
$PAD
Sh "3" R 0.8001 1.80086 0 0 0
Dr 0 0 0
At SMD N 00888000
Ne 0 ""
Po 0 -1.50114
$EndPAD
$EndMODULE Diode_SOT23_Handsoldering_RevA_03Aug2010
$MODULE Diode_SOT23_RevA_03Aug2010
Po 0 0 0 15 5048C525 00000000 ~~
Li Diode_SOT23_RevA_03Aug2010
Cd SOT23, Standard, Diode,
Kw SOT23, Standard, Diode,
Sc 0
AR 
Op 0 0 0
At SMD
T0 0 -3.81 1.524 1.524 0 0.3048 N V 21 N "D"
T1 0 3.81 1.524 1.524 0 0.3048 N I 21 N "Diode_SOT23_RevA_03Aug2010"
DS 0.89916 -0.65024 0.8509 -0.65024 0.381 21
DS -1.09982 0.0508 -1.09982 -0.65024 0.381 21
DS -1.09982 -0.65024 -0.8509 -0.65024 0.381 21
DS 0.89916 -0.65024 1.09982 -0.65024 0.381 21
DS 1.09982 -0.65024 1.09982 0.0508 0.381 21
$PAD
Sh "1" R 0.8001 0.8001 0 0 0
Dr 0 0 0
At SMD N 00888000
Ne 0 ""
Po -0.70104 1.00076
$EndPAD
$PAD
Sh "2" R 0.8001 0.8001 0 0 0
Dr 0 0 0
At SMD N 00888000
Ne 0 ""
Po 0.70104 1.00076
$EndPAD
$PAD
Sh "3" R 0.8001 0.8001 0 0 0
Dr 0 0 0
At SMD N 00888000
Ne 0 ""
Po 0 -0.99822
$EndPAD
$EndMODULE Diode_SOT23_RevA_03Aug2010
$EndLIBRARY
