PCBNEW-LibModule-V1  Mi 05 Sep 2012 19:30:08 CEST
# encoding utf-8
$INDEX
Diode_DO-201AD_Horizontal_RM15
Diode_DO-35_SOD27_Horizontal_RM10
Diode_DO-41_SOD81_Horizontal_RM10
Diode_DO-41_SOD81_Vertical_AnodeUp
Diode_DO-41_SOD81_Vertical_KathodeUp
Diode_LED_3mm_round_vertical
Diode_LED_5mm_round_vertical
Diode_P600_Horizontal
Diode_P600_Vertical_AnodeUp
Diode_P600_Vertical_KathodeUp
Diode_TO-220_Dual_CommonCathode_Horizontal
Diode_TO-220_Dual_CommonCathode_Horizontal_LargePads
Diode_TO-220_Dual_CommonCathode_Vertical
Diode_TO-220_Horizontal
Diode_TO-220_Horizontal_LargePads
Diode_TO-220_Vertical
Diode_TO-247_DiodeDual_CommonCathode_Vertical
Diode_TO-247_Dual_CommonCathode_Horizontal
Diode_TO-247_Dual_CommonCathode_Horizontal_LargePads
Diode_TO-247_Dual_CommonCathode_Vertical
Diode_TO-247_Horizontal
Diode_TO-247_Horizontal_MountFromLS
Diode_TO-247_Horizontal_largePads
Diode_TO-247_Vertical
$EndINDEX
$MODULE Diode_DO-35_SOD27_Horizontal_RM10
Po 0 0 0 15 4BAE10BA 00000000 ~~
Li Diode_DO-35_SOD27_Horizontal_RM10
Cd Diode, DO-35,  SOD27, Horizontal, RM 10mm
Kw Diode, DO-35, SOD27, Horizontal, RM 10mm, 1N4148,
Sc 00000000
AR
Op 0 0 0
T0 0 1000 600 400 0 100 N V 21 N"D"
T1 -400 -1400 600 400 0 100 N I 21 N"Diode_DO-35_SOD27_Horizontal_RM10mm"
DS -900 0 -1450 0 150 21
DS 850 0 1450 0 150 21
DS 700 -300 700 300 100 21
DS 800 -300 800 300 100 21
DS 900 0 900 300 100 21
DS 900 300 -900 300 100 21
DS -900 300 -900 -300 100 21
DS -900 -300 900 -300 100 21
DS 900 -300 900 0 100 21
$PAD
Sh "1" C 669 669 0 0 0
Dr 276 0 0
At STD N 00E0FFFF
Ne 0 ""
Po -2000 0
$EndPAD
$PAD
Sh "2" R 669 669 0 0 0
Dr 276 0 0
At STD N 00E0FFFF
Ne 0 ""
Po 2000 0
$EndPAD
$SHAPE3D
Na "discret/diode.wrl"
Sc 0.400000 0.400000 0.400000
Of 0.000000 0.000000 0.000000
Ro 0.000000 0.000000 0.000000
$EndSHAPE3D
$EndMODULE  Diode_DO-35_SOD27_Horizontal_RM10
$MODULE Diode_DO-41_SOD81_Horizontal_RM10
Po 0 0 0 15 4BAE1119 00000000 ~~
Li Diode_DO-41_SOD81_Horizontal_RM10
Cd Diode, DO-41, SOD81, Horizontal, RM 10mm,
Kw Diode, DO-41, SOD81, Horizontal, RM 10mm, 1N4007, SB140,
Sc 00000000
AR
Op 0 0 0
T0 0 1000 600 400 0 100 N V 21 N"D"
T1 -400 -1400 600 400 0 100 N I 21 N"Diode_DO-41_SOD81_Horizontal_RM10"
DS -1000 0 -1400 0 150 21
DS 900 0 1400 0 150 21
DS 800 -500 800 500 100 21
DS 700 -500 700 500 100 21
DS 600 -500 600 500 100 21
DS 900 -500 900 500 100 21
DS 500 -500 1000 500 100 21
DS 1000 -500 500 500 100 21
DS 500 -500 500 500 100 21
DS 750 -500 750 500 100 21
DS 1000 500 1000 -500 100 21
DS 1000 -500 -1000 -500 100 21
DS -1000 -500 -1000 500 100 21
DS -1000 500 1000 500 100 21
$PAD
Sh "1" C 787 787 0 0 0
Dr 500 0 0
At STD N 00E0FFFF
Ne 0 ""
Po -2000 0
$EndPAD
$PAD
Sh "2" R 787 787 0 0 0
Dr 394 0 0
At STD N 00E0FFFF
Ne 0 ""
Po 2000 0
$EndPAD
$EndMODULE  Diode_DO-41_SOD81_Horizontal_RM10
$MODULE Diode_DO-41_SOD81_Vertical_AnodeUp
Po 0 0 0 15 4BAE1243 00000000 ~~
Li Diode_DO-41_SOD81_Vertical_AnodeUp
Cd Diode, DO-41, SOD81, Vertical, Anode Up,
Kw Diode, DO-41, SOD81, Vertical, Anode Up, 1N4007, SB140,
Sc 00000000
AR
Op 0 0 0
T0 0 1250 600 400 0 100 N V 21 N"D"
T1 -2100 -1000 600 400 0 100 N I 21 N"Diode_DO-41_SOD81_Vertical_AnodeUp"
T2 1100 650 276 276 0 69 N V 21 N"A"
DS 600 0 900 400 100 21
DS 600 0 900 -400 100 21
DS 600 -400 600 400 100 21
DS 900 -400 900 400 100 21
$PAD
Sh "1" C 787 787 0 0 0
Dr 500 0 0
At STD N 00E0FFFF
Ne 0 ""
Po 1500 0
$EndPAD
$PAD
Sh "2" R 787 787 0 0 0
Dr 394 0 0
At STD N 00E0FFFF
Ne 0 ""
Po 0 0
$EndPAD
$EndMODULE  Diode_DO-41_SOD81_Vertical_AnodeUp
$MODULE Diode_DO-201AD_Horizontal_RM15
Po 0 0 0 15 4B5F2C6D 00000000 ~~
Li Diode_DO-201AD_Horizontal_RM15
Cd Diode DO-201AD Horizontal
Kw Diode DO-201AD Horizontal SB320 SB340 SB360
Sc 00000000
AR
Op 0 0 0
T0 -100 2000 600 400 0 100 N V 21 N"D"
T1 200 -1900 600 400 0 100 N I 21 N"Diode_DO-201AD_Horizontal_RM15"
DS -1800 0 -2400 0 100 21
DS 1800 0 2400 0 100 21
DS 1400 -1100 1400 1100 100 21
DS 1500 -1100 1500 1100 100 21
DS 1600 -1100 1600 1100 100 21
DS 1800 1100 1800 -1100 100 21
DS 1800 -1100 -1800 -1100 100 21
DS -1800 -1100 -1800 1100 100 21
DS -1800 1100 1800 1100 100 21
$PAD
Sh "1" C 1000 1000 0 0 0
Dr 591 0 0
At STD N 00E0FFFF
Ne 0 ""
Po -3000 0
$EndPAD
$PAD
Sh "2" R 1000 1000 0 0 0
Dr 591 0 0
At STD N 00E0FFFF
Ne 0 ""
Po 3000 0
$EndPAD
$EndMODULE  Diode_DO-201AD_Horizontal_RM15
$MODULE Diode_LED_3mm_round_vertical
Po 0 0 0 15 4BBB3369 00000000 ~~
Li Diode_LED_3mm_round_vertical
Cd Leuchtdiode, LED, 3mm, round, rund,  vertical,
Kw Leuchtdiode, LED,  3mm, round, rund,  vertical,
Sc 00000000
AR
Op 0 0 0
T0 0 2500 600 400 0 100 N V 21 N"D"
T1 0 -2000 600 400 0 100 N I 21 N"Diode_LED_3mm_round_vertical"
T2 -1000 550 276 276 0 69 N V 21 N"A"
DS -250 550 -100 600 150 21
DS -100 600 50 600 150 21
DS 50 600 250 550 150 21
DS -250 -550 -100 -600 150 21
DS -100 -600 50 -600 150 21
DS 50 -600 250 -550 150 21
T2 -900 -600 276 276 0 69 N V 21 N"+"
$PAD
Sh "1" C 787 787 0 0 900
Dr 394 0 0
At STD N 00E0FFFF
Ne 0 ""
Po -500 0
$EndPAD
$PAD
Sh "2" R 669 669 0 0 0
Dr 394 0 0
At STD N 00E0FFFF
Ne 0 ""
Po 500 0
$EndPAD
$SHAPE3D
Na "discret/diode.wrl"
Sc 0.400000 0.400000 0.400000
Of 0.000000 0.000000 0.000000
Ro 0.000000 0.000000 0.000000
$EndSHAPE3D
$EndMODULE  Diode_LED_3mm_round_vertical
$MODULE Diode_LED_5mm_round_vertical
Po 0 0 0 15 4BBB3386 00000000 ~~
Li Diode_LED_5mm_round_vertical
Cd Leuchtdiode, LED,  5mm, round, rund,  vertical,
Kw Leuchtdiode, LED,  5mm, round, rund,  vertical,
Sc 00000000
AR
Op 0 0 0
T0 0 2500 600 400 0 100 N V 21 N"D"
T1 0 -2000 600 400 0 100 N I 21 N"Diode_LED_5mm_round_vertical"
T2 -1250 750 276 276 0 69 N V 21 N"A"
T2 -1300 -300 276 276 0 69 N V 21 N"+"
DS -1000 750 -1000 300 150 21
DS -1000 -850 -1000 -300 150 21
DS -850 500 -750 650 150 21
DS -750 650 -600 800 150 21
DS -600 800 -400 900 150 21
DS -400 900 -100 1000 150 21
DS -100 1000 50 1000 150 21
DS 50 1000 300 950 150 21
DS 300 950 600 800 150 21
DS 600 800 700 700 150 21
DS 700 700 850 550 150 21
DS 550 -850 700 -700 150 21
DS 700 -700 800 -600 150 21
DS 800 -600 850 -550 150 21
DS -850 -500 -800 -600 150 21
DS -800 -600 -650 -750 150 21
DS -650 -750 -450 -900 150 21
DS -450 -900 -300 -950 150 21
DS -300 -950 -100 -1000 150 21
DS -100 -1000 50 -1000 150 21
DS 50 -1000 300 -950 150 21
DS 300 -950 550 -850 150 21
DS -1000 750 -850 900 150 21
DS -950 -850 -800 -950 150 21
DS -800 -950 -600 -1100 150 21
DS -600 -1100 -350 -1200 150 21
DS -350 -1200 -100 -1250 150 21
DS -100 -1250 100 -1250 150 21
DS 100 -1250 350 -1200 150 21
DS 350 -1200 600 -1100 150 21
DS 600 -1100 800 -950 150 21
DS 800 -950 1000 -750 150 21
DS 1000 -750 1150 -500 150 21
DS 1150 -500 1200 -350 150 21
DS 1200 -350 1250 -100 150 21
DS 1250 -100 1250 150 150 21
DS 1250 150 1200 350 150 21
DS 1200 350 1100 600 150 21
DS 1100 600 950 800 150 21
DS 950 800 750 1000 150 21
DS 750 1000 600 1100 150 21
DS 600 1100 350 1200 150 21
DS 350 1200 100 1250 150 21
DS 100 1250 -150 1250 150 21
DS -150 1250 -400 1200 150 21
DS -400 1200 -700 1050 150 21
DS -700 1050 -850 900 150 21
$PAD
Sh "1" C 787 787 0 0 900
Dr 394 0 0
At STD N 00E0FFFF
Ne 0 ""
Po -500 0
$EndPAD
$PAD
Sh "2" R 669 669 0 0 0
Dr 394 0 0
At STD N 00E0FFFF
Ne 0 ""
Po 500 0
$EndPAD
$SHAPE3D
Na "discret/diode.wrl"
Sc 0.400000 0.400000 0.400000
Of 0.000000 0.000000 0.000000
Ro 0.000000 0.000000 0.000000
$EndSHAPE3D
$EndMODULE  Diode_LED_5mm_round_vertical
$MODULE Diode_P600_Horizontal
Po 0 0 0 15 4BAE1012 00000000 ~~
Li Diode_P600_Horizontal
Cd Diode, P600, horizontal,
Kw Diode, P600, horizontal,
Sc 00000000
AR
Op 0 0 0
T0 0 3750 600 400 0 100 N V 21 N"D"
T1 250 -3750 600 400 0 100 N I 21 N"Diode_P600_Horizontal"
DS -2000 0 -3100 0 150 21
DS 2000 50 3000 50 150 21
DS -2000 2000 2000 2000 100 21
DS -2000 -2000 2000 -2000 100 21
DS 1250 -2000 1250 2000 100 21
DS 1500 -2000 1500 2000 100 21
DS 1750 -2000 1750 2000 100 21
DS -2000 -2000 -2000 2000 100 21
DS 2000 -2000 2000 2000 100 21
$PAD
Sh "1" C 1394 1394 0 0 0
Dr 630 0 0
At STD N 00E0FFFF
Ne 0 ""
Po -4000 0
$EndPAD
$PAD
Sh "2" R 1394 1394 0 0 0
Dr 630 0 0
At STD N 00E0FFFF
Ne 0 ""
Po 4000 0
$EndPAD
$EndMODULE  Diode_P600_Horizontal
$MODULE Diode_P600_Vertical_AnodeUp
Po 0 0 0 15 4BAE0FB9 00000000 ~~
Li Diode_P600_Vertical_AnodeUp
Cd Diode, P600, vertical, Anode up,
Kw Diode, P600, vertical, Anode up,
Sc 00000000
AR
Op 0 0 0
T0 0 2750 600 400 0 100 N V 21 N"D"
T1 250 -2750 600 400 0 100 N I 21 N"Diode_P600_Vertical_AnodeUp"
DS 900 0 2100 0 150 21
DS 1250 0 1750 0 100 21
DS 1500 -250 1500 250 100 21
DS 1250 0 1750 500 100 21
DS 1250 0 1750 -500 100 21
DS 1250 -500 1250 500 100 21
DS 1750 -500 1750 500 100 21
DC 0 0 2000 0 100 21
$PAD
Sh "1" C 1394 1394 0 0 0
Dr 630 0 0
At STD N 00E0FFFF
Ne 0 ""
Po 3000 0
$EndPAD
$PAD
Sh "2" R 1394 1394 0 0 0
Dr 630 0 0
At STD N 00E0FFFF
Ne 0 ""
Po 0 0
$EndPAD
$EndMODULE  Diode_P600_Vertical_AnodeUp
$MODULE Diode_DO-41_SOD81_Vertical_KathodeUp
Po 0 0 0 15 4BAE12BF 00000000 ~~
Li Diode_DO-41_SOD81_Vertical_KathodeUp
Cd Diode, DO-41, SOD81, Vertica,l Anode Up,
Kw Diode, DO-41, SOD81, Vertical, Anode Up, 1N4007, SB140,
Sc 00000000
AR
Op 0 0 0
T0 0 1250 600 400 0 100 N V 21 N"D"
T1 1000 -1500 600 400 0 100 N I 21 N"Diode_DO-41_SOD81_Vertical_KathodeUp"
DC 0 0 550 250 150 21
DS 600 -400 600 400 100 21
DS 900 0 600 400 100 21
DS 600 -400 900 0 100 21
DS 900 -400 900 400 100 21
$PAD
Sh "1" C 787 787 0 0 0
Dr 500 0 0
At STD N 00E0FFFF
Ne 0 ""
Po 0 0
$EndPAD
$PAD
Sh "2" R 787 787 0 0 0
Dr 394 0 0
At STD N 00E0FFFF
Ne 0 ""
Po 1500 0
$EndPAD
$EndMODULE  Diode_DO-41_SOD81_Vertical_KathodeUp
$MODULE Diode_TO-247_Dual_CommonCathode_Horizontal
Po 0 0 0 15 4BF58DC2 00000000 ~~
Li Diode_TO-247_Dual_CommonCathode_Horizontal
Cd TO-247, Diode, Dual, Common Cathode, Horizontal,
Kw TO-247, Diode, Dual, Common Cathode, Horizontal,
Sc 00000000
AR
Op 0 0 0
T0 157 -5787 600 600 0 120 N V 21 N"D"
T1 -500 2000 600 600 0 120 N I 21 N"Diode_TO-247_Dual_CommonCathode_Horizontal"
DS 1142 -3898 2205 -3898 150 21
DS 2205 -3898 2205 -2362 150 21
DS -1102 -3898 -2165 -3898 150 21
DS -2165 -3898 -2165 -2362 150 21
DS 0 -3898 0 -2283 150 21
DS 591 -3898 -551 -3898 150 21
DS -551 -3898 -1102 -4409 150 21
DS -1102 -4409 -1102 -3346 150 21
DS -1102 -3346 -551 -3898 150 21
DS 591 -3898 1102 -4409 150 21
DS 1102 -4409 1102 -3346 150 21
DS 1102 -3346 591 -3898 150 21
DS -551 -4409 -551 -3346 150 21
DS 591 -4409 591 -3346 150 21
DS -2200 -1100 -2200 -2000 150 21
DS 0 -1100 0 -2000 150 21
DS 2200 -1100 2200 -2000 150 21
DC 0 -7700 700 -7700 150 21
DS 3200 -10100 3200 -2000 150 21
DS -3200 -10100 3200 -10100 150 21
DS -3200 -2000 -3200 -10100 150 21
DS 3200 -2000 -3200 -2000 150 21
$PAD
Sh "2" R 1772 984 0 0 900
Dr 591 0 0
At STD N 00E0FFFF
Ne 0 ""
Po 0 0
$EndPAD
$PAD
Sh "1" O 1772 984 0 0 900
Dr 591 0 0
At STD N 00E0FFFF
Ne 0 ""
Po -2200 0
$EndPAD
$PAD
Sh "3" O 1772 984 0 0 900
Dr 591 0 0
At STD N 00E0FFFF
Ne 0 ""
Po 2200 0
$EndPAD
$PAD
Sh "9" C 1575 1575 0 0 0
Dr 1575 0 0
At STD N 00000001
Ne 0 ""
Po 25 -7705
$EndPAD
$EndMODULE  Diode_TO-247_Dual_CommonCathode_Horizontal
$MODULE Diode_TO-247_Dual_CommonCathode_Horizontal_LargePads
Po 0 0 0 15 4BF58DEF 00000000 ~~
Li Diode_TO-247_Dual_CommonCathode_Horizontal_LargePads
Cd TO-247, Diode, Dual, Common Cathode, Horizontal, Large Pads,
Kw TO-247, Diode, Dual, Common Cathode, Horizontal, Large Pads,
Sc 00000000
AR
Op 0 0 0
T0 0 -5866 600 600 0 120 N V 21 N"D"
T1 500 2100 600 600 0 120 N I 21 N"Diode_TO-247_Diode_CommonCathode_Horizontal_LargePads"
DS -1181 -3976 -2205 -3976 150 21
DS -2205 -3976 -2205 -2244 150 21
DS 1142 -3976 2205 -3976 150 21
DS 2205 -3976 2205 -2244 150 21
DS 0 -3976 0 -2244 150 21
DS -669 -3976 -1181 -4488 150 21
DS -1181 -4488 -1181 -3465 150 21
DS -1181 -3465 -669 -3976 150 21
DS 630 -3976 1142 -4488 150 21
DS 1142 -4488 1142 -3465 150 21
DS 1142 -3465 630 -3976 150 21
DS -669 -3976 630 -3976 150 21
DS -669 -4488 -669 -3465 150 21
DS 630 -4488 630 -3465 150 21
DS -2200 -1300 -2200 -2000 150 21
DS 0 -1300 0 -2000 150 21
DS 2200 -1300 2200 -2000 150 21
DC 0 -7700 700 -7700 150 21
DS 3200 -10100 3200 -2000 150 21
DS -3200 -10100 3200 -10100 150 21
DS -3200 -2000 -3200 -10100 150 21
DS 3200 -2000 -3200 -2000 150 21
$PAD
Sh "2" R 2166 1378 0 0 900
Dr 591 0 0
At STD N 00E0FFFF
Ne 0 ""
Po 0 0
$EndPAD
$PAD
Sh "1" O 2166 1378 0 0 900
Dr 591 0 0
At STD N 00E0FFFF
Ne 0 ""
Po -2200 0
$EndPAD
$PAD
Sh "3" O 2166 1378 0 0 900
Dr 591 0 0
At STD N 00E0FFFF
Ne 0 ""
Po 2200 0
$EndPAD
$PAD
Sh "9" C 1575 1575 0 0 0
Dr 1575 0 0
At STD N 00200001
Ne 0 ""
Po 0 -7700
$EndPAD
$EndMODULE  Diode_TO-247_Dual_CommonCathode_Horizontal_LargePads
$MODULE Diode_TO-247_DiodeDual_CommonCathode_Vertical
Po 0 0 0 15 4BF58E46 00000000 ~~
Li Diode_TO-247_DiodeDual_CommonCathode_Vertical
Cd TO-247, Diode, Dual, Common Cathode, Vertical,
Kw TO-247, Diode, Dual, Common Cathode, Vertical,
Sc 00000000
AR
Op 0 0 0
T0 500 -2000 600 600 0 120 N V 21 N"D"
T1 -400 3200 600 600 0 120 N I 21 N"Diode_TO-247_Dual_CommonCathode_Vertical"
DS 3200 1100 3200 -1100 150 21
DS 3200 -1100 -3200 -1100 150 21
DS -3200 -1100 -3200 1100 150 21
DS -3200 1100 3200 1100 150 21
$PAD
Sh "2" R 1772 984 0 0 900
Dr 591 0 0
At STD N 00E0FFFF
Ne 0 ""
Po 0 0
$EndPAD
$PAD
Sh "1" O 1772 984 0 0 900
Dr 591 0 0
At STD N 00E0FFFF
Ne 0 ""
Po -2200 0
$EndPAD
$PAD
Sh "3" O 1772 984 0 0 900
Dr 591 0 0
At STD N 00E0FFFF
Ne 0 ""
Po 2200 0
$EndPAD
$EndMODULE  Diode_TO-247_DiodeDual_CommonCathode_Vertical
$MODULE Diode_TO-247_Dual_CommonCathode_Vertical
Po 0 0 0 15 4BF58E46 00000000 ~~
Li Diode_TO-247_Dual_CommonCathode_Vertical
Cd TO-247, Diode, Dual, Common Cathode, Vertical,
Kw TO-247, Diode, Dual, Common Cathode, Vertical,
Sc 00000000
AR
Op 0 0 0
T0 500 -2000 600 600 0 120 N V 21 N"D"
T1 -400 3200 600 600 0 120 N I 21 N"Diode_TO-247_Dual_CommonCathode_Vertical"
DS 3200 1100 3200 -1100 150 21
DS 3200 -1100 -3200 -1100 150 21
DS -3200 -1100 -3200 1100 150 21
DS -3200 1100 3200 1100 150 21
$PAD
Sh "2" R 1772 984 0 0 900
Dr 591 0 0
At STD N 00E0FFFF
Ne 0 ""
Po 0 0
$EndPAD
$PAD
Sh "1" O 1772 984 0 0 900
Dr 591 0 0
At STD N 00E0FFFF
Ne 0 ""
Po -2200 0
$EndPAD
$PAD
Sh "3" O 1772 984 0 0 900
Dr 591 0 0
At STD N 00E0FFFF
Ne 0 ""
Po 2200 0
$EndPAD
$EndMODULE  Diode_TO-247_Dual_CommonCathode_Vertical
$MODULE Diode_TO-247_Horizontal
Po 0 0 0 15 4BF58EA2 00000000 ~~
Li Diode_TO-247_Horizontal
Cd Diode, TO-247, TO-218, TOP-3 , horizontal, 1=Anode,  2= Kathode,
Kw Diode, TO-247, TO-218, TOP-3 , horizontal, 1=Anode,  2= Kathode,
Sc 00000000
AR
Op 0 0 0
T0 -400 -10800 600 600 0 120 N V 21 N"D"
T1 -500 2000 600 600 0 120 N V 21 N"Diode_TO-247_Horizontal"
T2 2800 -1400 600 600 0 120 N V 21 N"A"
DS 600 -3200 2200 -3200 150 21
DS 2200 -3200 2200 -2000 150 21
DS -2200 -2000 -2200 -3200 150 21
DS -2200 -3200 -400 -3200 150 21
DS -400 -3200 600 -4000 150 21
DS 600 -4000 600 -2400 150 21
DS 600 -2400 -400 -3200 150 21
DS -500 -4000 -500 -2500 150 21
DS -2200 -1100 -2200 -2000 150 21
DS 2200 -1100 2200 -2000 150 21
T2 160 -5790 600 600 0 120 N V 21 N"TO-247"
DC 0 -7700 700 -7700 150 21
DS 3200 -10100 3200 -2000 150 21
DS -3200 -10100 3200 -10100 150 21
DS -3200 -2000 -3200 -10100 150 21
DS 3200 -2000 -3200 -2000 150 21
$PAD
Sh "2" R 1772 984 0 0 900
Dr 591 0 0
At STD N 00E0FFFF
Ne 0 ""
Po -2200 0
$EndPAD
$PAD
Sh "1" O 1772 984 0 0 900
Dr 591 0 0
At STD N 00E0FFFF
Ne 0 ""
Po 2200 0
$EndPAD
$PAD
Sh "9" C 1575 1575 0 0 0
Dr 1575 0 0
At STD N 00000001
Ne 0 ""
Po 25 -7705
$EndPAD
$EndMODULE  Diode_TO-247_Horizontal
$MODULE Diode_TO-247_Horizontal_largePads
Po 0 0 0 15 4BF58EC2 00000000 ~~
Li Diode_TO-247_Horizontal_largePads
Cd Diode, TO-247, TO-218, TOP-3 , horizontal,  large Pads, 1=Anode,  2= Kathode,
Kw Diode, TO-247, TO-218, TOP-3 , horizontal,  large Pads, 1=Anode,  2= Kathode,
Sc 00000000
AR
Op 0 0 0
T0 -400 -10800 600 600 0 120 N V 21 N"D"
T1 500 2100 600 600 0 120 N I 21 N"Diode_TO-247_Horizontal_LargePads"
T2 3000 -1400 600 600 0 120 N V 21 N"A"
DS -600 -3200 -2200 -3200 150 21
DS -2200 -3200 -2200 -2000 150 21
DS 400 -3200 2200 -3200 150 21
DS 2200 -3200 2200 -2000 150 21
DS -600 -3200 400 -3800 150 21
DS 400 -3800 400 -2600 150 21
DS 400 -2600 -600 -3200 150 21
DS -600 -3800 -600 -2600 150 21
DS -2200 -1300 -2200 -2000 150 21
DS 2200 -1300 2200 -2000 150 21
T2 160 -5790 600 600 0 120 N V 21 N"TO-247"
DC 0 -7700 700 -7700 150 21
DS 3200 -10100 3200 -2000 150 21
DS -3200 -10100 3200 -10100 150 21
DS -3200 -2000 -3200 -10100 150 21
DS 3200 -2000 -3200 -2000 150 21
$PAD
Sh "2" R 2166 1378 0 0 900
Dr 591 0 0
At STD N 00E0FFFF
Ne 0 ""
Po -2200 0
$EndPAD
$PAD
Sh "1" O 2166 1378 0 0 900
Dr 591 0 0
At STD N 00E0FFFF
Ne 0 ""
Po 2200 0
$EndPAD
$PAD
Sh "9" C 1575 1575 0 0 0
Dr 1575 0 0
At STD N 00200001
Ne 0 ""
Po 0 -7700
$EndPAD
$EndMODULE  Diode_TO-247_Horizontal_largePads
$MODULE Diode_TO-247_Horizontal_MountFromLS
Po 0 0 0 15 4BF58EF0 00000000 ~~
Li Diode_TO-247_Horizontal_MountFromLS
Cd Diode, TO-247, TO-218, TOP-3, horizontal,  mounted from  LS, 1=Anode,  2= Kathode,
Kw Diode, TO-247, TO-218, TOP-3, horizontal,  mounted from  LS, 1=Anode,  2= Kathode,
Sc 00000000
AR
Op 0 0 0
T0 -400 -10800 600 600 0 120 N V 21 N"D"
T1 500 2100 600 600 0 120 N I 21 N"Diode_TO-24_Horizontal_LS-mounted"
T2 -1800 -1400 600 600 0 120 N V 21 N"A"
DS -400 -3400 -2200 -3400 150 21
DS -2200 -3400 -2200 -2000 150 21
DS 400 -3400 2200 -3400 150 21
DS 2200 -3400 2200 -2000 150 21
DS 400 -3400 -400 -4000 150 21
DS -400 -4000 -400 -2800 150 21
DS -400 -2800 400 -3400 150 21
DS 400 -4000 400 -2800 150 21
T2 200 -9000 197 197 0 12 N V 21 N"Mount from LS!"
DS -3200 -2300 -3200 -2000 150 21
DS -3200 -3100 -3200 -2700 150 21
DS -3200 -2700 -3200 -2800 150 21
DS -3200 -4100 -3200 -3600 150 21
DS -3200 -3600 -3200 -3500 150 21
DS -3200 -5100 -3200 -4600 150 21
DS -3200 -6100 -3200 -5600 150 21
DS -3200 -7100 -3200 -6600 150 21
DS -3200 -8100 -3200 -7600 150 21
DS -3200 -9100 -3200 -8600 150 21
DS -3200 -10100 -3200 -9600 150 21
DS 3200 -2500 3200 -2100 150 21
DS 3200 -3500 3200 -3000 150 21
DS 3200 -3000 3200 -2900 150 21
DS 3200 -4500 3200 -4000 150 21
DS 3200 -5700 3200 -5100 150 21
DS 3200 -6900 3200 -6300 150 21
DS 3200 -8200 3200 -7500 150 21
DS 3200 -9200 3200 -8700 150 21
DS 3200 -10100 3200 -9700 150 21
DS 3200 -9700 3200 -9600 150 21
DS 2900 -10100 3200 -10100 150 21
DS 2300 -10100 2600 -10100 150 21
DS 1300 -10100 1800 -10100 150 21
DS 300 -10100 900 -10100 150 21
DS -600 -10100 -100 -10100 150 21
DS -1500 -10100 -1000 -10100 150 21
DS -2400 -10100 -1900 -10100 150 21
DS -3200 -10100 -2800 -10100 150 21
DS 2400 -2000 1800 -2000 150 21
DS 1800 -2000 1900 -2000 150 21
DS 3200 -2000 2900 -2000 150 21
DS 2900 -2000 2800 -2000 150 21
DS 700 -2000 1200 -2000 150 21
DS -300 -2000 200 -2000 150 21
DS -1300 -2000 -700 -2000 150 21
DS -2400 -2000 -1900 -2000 150 21
DS -1900 -2000 -1800 -2000 150 21
DS -1800 -2000 -1700 -2000 150 21
DS -3200 -2000 -2900 -2000 150 21
DS -2900 -2000 -2800 -2000 150 21
DS -2200 -1100 -2200 -2000 150 21
DS 2200 -1100 2200 -2000 150 21
T2 160 -5790 600 600 0 120 N V 21 N"TO-247"
DC 0 -7700 700 -7700 150 21
$PAD
Sh "1" O 1772 984 0 0 900
Dr 591 0 0
At STD N 00E0FFFF
Ne 0 ""
Po -2200 0
$EndPAD
$PAD
Sh "2" R 1772 984 0 0 900
Dr 591 0 0
At STD N 00E0FFFF
Ne 0 ""
Po 2200 0
$EndPAD
$PAD
Sh "9" C 1575 1575 0 0 0
Dr 1575 0 0
At STD N 00200001
Ne 0 ""
Po 0 -7725
$EndPAD
$EndMODULE  Diode_TO-247_Horizontal_MountFromLS
$MODULE Diode_P600_Vertical_KathodeUp
Po 0 0 0 15 4BAE0F80 00000000 ~~
Li Diode_P600_Vertical_KathodeUp
Cd Diode, P600, Vertical, Kathode up,
Kw Diode, P600, vertical, Kathode up,
Sc 00000000
AR
Op 0 0 0
T0 0 2750 600 400 0 100 N V 21 N"D"
T1 250 -2750 600 400 0 100 N I 21 N"Diode_P600_Vertical_KathodeUp"
DS 1750 0 2050 0 150 21
DS 1250 0 950 0 150 21
DS 1750 0 1250 0 100 21
DS 1500 -250 1500 250 100 21
DS 1750 0 1250 -500 100 21
DS 1250 -500 1250 500 100 21
DS 1250 500 1750 0 100 21
DS 1750 -500 1750 500 100 21
DC 0 0 2000 0 100 21
$PAD
Sh "1" C 1394 1394 0 0 0
Dr 630 0 0
At STD N 00E0FFFF
Ne 0 ""
Po 0 0
$EndPAD
$PAD
Sh "2" R 1394 1394 0 0 0
Dr 630 0 0
At STD N 00E0FFFF
Ne 0 ""
Po 3000 0
$EndPAD
$EndMODULE  Diode_P600_Vertical_KathodeUp
$MODULE Diode_TO-247_Vertical
Po 0 0 0 15 4BF58F25 00000000 ~~
Li Diode_TO-247_Vertical
Cd TO-247, TO-218, TOP-3,  1=Anode,  2=Kathode, Vertical,
Kw TO-247, TO-218, TOP-3, Anode, Kathode, Vertical,
Sc 00000000
AR
Op 0 0 0
T0 0 -2000 600 600 0 120 N V 21 N"D"
T1 0 2000 600 600 0 120 N I 21 N"Diode_TO-247_Vertical"
T2 1000 600 600 600 0 120 N V 21 N"A"
DS -400 0 -1400 0 150 21
DS 400 0 1400 0 150 21
DS -400 0 400 -600 150 21
DS 400 -600 400 600 150 21
DS 400 600 -400 0 150 21
DS -400 -600 -400 600 150 21
DS 3200 1100 3200 -1100 150 21
DS 3200 -1100 -3200 -1100 150 21
DS -3200 -1100 -3200 1100 150 21
DS -3200 1100 3200 1100 150 21
$PAD
Sh "2" R 1772 984 0 0 900
Dr 591 0 0
At STD N 00E0FFFF
Ne 0 ""
Po -2200 0
$EndPAD
$PAD
Sh "1" O 1772 984 0 0 900
Dr 591 0 0
At STD N 00E0FFFF
Ne 0 ""
Po 2200 0
$EndPAD
$EndMODULE  Diode_TO-247_Vertical
$MODULE Diode_TO-220_Dual_CommonCathode_Horizontal
Po 0 0 0 15 4BF58CFE 00000000 ~~
Li Diode_TO-220_Dual_CommonCathode_Horizontal
Cd TO-220, Diode, Dual, Common Cathode,
Kw TO-220, Diode, Dual, Common Cathode,
Sc 00000000
AR Diode_TO-220_Dual_CommonCathode_Horizontal
Op 0 0 0
T0 100 -3600 600 600 0 120 N V 21 N "D"
T1 -400 3200 600 600 0 120 N I 21 N "Diode_TO-220_Dual_CommonCathode_Horizontal"
DS 12 -2583 12 -1693 150 21
DS -819 -2563 -1260 -2575 150 21
DS -1260 -2575 -1260 -1705 150 21
DS 921 -2575 1291 -2583 150 21
DS 1291 -2583 1291 -1705 150 21
DS -488 -2563 571 -2583 150 21
DS -480 -2583 -839 -2882 150 21
DS -839 -2882 -839 -2232 150 21
DS -839 -2232 -480 -2575 150 21
DS 571 -2634 909 -2902 150 21
DS 909 -2902 909 -2283 150 21
DS 909 -2283 591 -2563 150 21
DS -472 -2898 -472 -2260 150 21
DS 567 -2898 567 -2291 150 21
DC 0 -6600 700 -5900 150 21
DS -1000 -1450 -1000 -750 150 21
DS 0 -1450 0 -750 150 21
DS 1000 -1450 1000 -750 150 21
DS 2100 -4800 2100 -7950 150 21
DS 2100 -7950 -2100 -7950 150 21
DS -2100 -7950 -2100 -4800 150 21
DS 2100 -1450 2100 -4800 150 21
DS 2100 -4800 -2100 -4800 150 21
DS -2100 -4800 -2100 -1450 150 21
DS 0 -1450 -2100 -1450 150 21
DS 0 -1450 2100 -1450 150 21
$PAD
Sh "2" R 984 591 0 0 900
Dr 394 0 0
At STD N 00E0FFFF
Ne 0 ""
Po 0 0
$EndPAD
$PAD
Sh "1" O 984 591 0 0 900
Dr 394 0 0
At STD N 00E0FFFF
Ne 0 ""
Po -1000 0
$EndPAD
$PAD
Sh "3" O 984 591 0 0 900
Dr 394 0 0
At STD N 00E0FFFF
Ne 0 ""
Po 1000 0
$EndPAD
$PAD
Sh "9" C 1496 1496 0 0 900
Dr 1496 0 0
At STD N 00E0FFFF
Ne 0 ""
Po 0 -6600
$EndPAD
$SHAPE3D
Na "Dioden_ThroughHole_Wings3d_RevC_0xSep2012/TO220-Horizontal_RevB_Faktor03937_03Sep2012.wrl"
Sc 0.393700 0.393700 0.393700
Of 0.000000 0.000000 0.000000
Ro 0.000000 0.000000 0.000000
$EndSHAPE3D
$EndMODULE  Diode_TO-220_Dual_CommonCathode_Horizontal
$MODULE Diode_TO-220_Dual_CommonCathode_Horizontal_LargePads
Po 0 0 0 15 4BF58D1C 00000000 ~~
Li Diode_TO-220_Dual_CommonCathode_Horizontal_LargePads
Cd TO-220, Diode, Dual, Common Cathode, Horizontal, Large Pads,
Kw TO-220, Diode, Dual, Common Cathode, Horizontal, Large Pads,
Sc 00000000
AR
Op 0 0 0
T0 100 -3600 600 600 0 120 N V 21 N "D"
T1 -400 3200 600 600 0 120 N I 21 N "Diode_TO-220_Dual_CommonCathode_Horizontal_LargePads"
DS 0 -2520 0 -1654 150 21
DS -866 -2520 -1181 -2520 150 21
DS -1181 -2520 -1181 -1654 150 21
DS 906 -2520 1181 -2520 150 21
DS 1181 -2520 1181 -1654 150 21
DS -512 -2520 551 -2520 150 21
DS -512 -2559 -866 -2835 150 21
DS -866 -2835 -866 -2244 150 21
DS -866 -2244 -512 -2520 150 21
DS 512 -2559 866 -2835 150 21
DS 866 -2835 866 -2244 150 21
DS 866 -2244 512 -2559 150 21
DS -512 -2835 -512 -2244 150 21
DS 512 -2835 512 -2244 150 21
DS -1000 -1450 -1000 -900 150 21
DS 0 -1450 0 -900 150 21
DS 1000 -1450 1000 -900 150 21
DC 0 -6600 700 -5900 150 21
DS 2100 -4800 2100 -7950 150 21
DS 2100 -7950 -2100 -7950 150 21
DS -2100 -7950 -2100 -4800 150 21
DS 2100 -1450 2100 -4800 150 21
DS 2100 -4800 -2100 -4800 150 21
DS -2100 -4800 -2100 -1450 150 21
DS 0 -1450 -2100 -1450 150 21
DS 0 -1450 2100 -1450 150 21
$PAD
Sh "2" R 1378 669 0 0 900
Dr 394 0 0
At STD N 00E0FFFF
Ne 0 ""
Po 0 0
$EndPAD
$PAD
Sh "1" O 1378 669 0 0 900
Dr 394 0 0
At STD N 00E0FFFF
Ne 0 ""
Po -1000 0
$EndPAD
$PAD
Sh "3" O 1378 669 0 0 900
Dr 394 0 0
At STD N 00E0FFFF
Ne 0 ""
Po 1000 0
$EndPAD
$PAD
Sh "9" C 1496 1496 0 0 900
Dr 1496 0 0
At STD N 00E0FFFF
Ne 0 ""
Po 0 -6600
$EndPAD
$SHAPE3D
Na "Dioden_ThroughHole_Wings3d_RevC_0xSep2012/TO220-Horizontal_RevB_Faktor03937_03Sep2012.wrl"
Sc 0.393700 0.393700 0.393700
Of 0.000000 0.000000 0.000000
Ro 0.000000 0.000000 0.000000
$EndSHAPE3D
$EndMODULE  Diode_TO-220_Dual_CommonCathode_Horizontal_LargePads
$MODULE Diode_TO-220_Dual_CommonCathode_Vertical
Po 0 0 0 15 4BF58D2E 00000000 ~~
Li Diode_TO-220_Dual_CommonCathode_Vertical
Cd TO-220, Diode, Dual, Common Cathode,Vertical,
Kw TO-220, Diode, Dual, Common Cathode, Vertical,
Sc 00000000
AR
Op 0 0 0
T0 0 -2000 600 600 0 120 N V 21 N "D"
T1 0 1500 600 600 0 120 N I 21 N "Diode_TO-220_Dual_CommonCathode_Vertical"
DS -600 -1200 -600 -750 150 21
DS 600 -1200 600 -750 150 21
DS 2100 -750 2100 700 150 21
DS 2100 700 -2100 700 150 21
DS -2100 700 -2100 -750 150 21
DS 2100 -1200 2100 -750 150 21
DS 2100 -750 -2100 -750 150 21
DS -2100 -750 -2100 -1200 150 21
DS 0 -1200 -2100 -1200 150 21
DS 0 -1200 2100 -1200 150 21
$PAD
Sh "2" R 984 591 0 0 900
Dr 394 0 0
At STD N 00E0FFFF
Ne 0 ""
Po 0 0
$EndPAD
$PAD
Sh "1" O 984 591 0 0 900
Dr 394 0 0
At STD N 00E0FFFF
Ne 0 ""
Po -1000 0
$EndPAD
$PAD
Sh "3" O 984 591 0 0 900
Dr 394 0 0
At STD N 00E0FFFF
Ne 0 ""
Po 1000 0
$EndPAD
$SHAPE3D
Na "Dioden_ThroughHole_Wings3d_RevC_0xSep2012/TO220-vert_RevB_Faktor03937_03Sep2012.wrl"
Sc 0.393700 0.393700 0.393700
Of 0.000000 0.000000 0.000000
Ro 0.000000 0.000000 0.000000
$EndSHAPE3D
$EndMODULE  Diode_TO-220_Dual_CommonCathode_Vertical
$MODULE Diode_TO-220_Horizontal
Po 0 0 0 15 4BF58CD7 00000000 ~~
Li Diode_TO-220_Horizontal
Cd TO-220, Bipolar-BCE, Horizontal,
Kw TO-220, Bipolar-BCE, Horizontal,
Sc 00000000
AR
Op 0 0 0
T0 100 -3600 600 600 0 120 N V 21 N "D"
T1 -400 3200 600 600 0 120 N I 21 N "Diode_TO-220_Horizontal"
T2 1350 -1000 394 394 0 49 N V 21 N "A"
DS -250 -2400 -1000 -2400 150 21
DS -1000 -2400 -1000 -1450 150 21
DS 200 -2400 1000 -2400 150 21
DS 1000 -2400 1000 -1450 150 21
DS -250 -2400 200 -2750 150 21
DS 200 -2750 200 -2050 150 21
DS 200 -2050 -250 -2400 150 21
DS -250 -2750 -250 -2050 150 21
DC 0 -6600 700 -5900 150 21
DS -1000 -1450 -1000 -750 150 21
DS 1000 -1450 1000 -750 150 21
DS 2100 -4800 2100 -7950 150 21
DS 2100 -7950 -2100 -7950 150 21
DS -2100 -7950 -2100 -4800 150 21
DS 2100 -1450 2100 -4800 150 21
DS 2100 -4800 -2100 -4800 150 21
DS -2100 -4800 -2100 -1450 150 21
DS 0 -1450 -2100 -1450 150 21
DS 0 -1450 2100 -1450 150 21
$PAD
Sh "2" R 984 591 0 0 900
Dr 394 0 0
At STD N 00E0FFFF
Ne 0 ""
Po -1000 0
$EndPAD
$PAD
Sh "1" O 984 591 0 0 900
Dr 394 0 0
At STD N 00E0FFFF
Ne 0 ""
Po 1000 0
$EndPAD
$PAD
Sh "2" C 1496 1496 0 0 900
Dr 1496 0 0
At STD N 00E0FFFF
Ne 0 ""
Po 0 -6600
$EndPAD
$SHAPE3D
Na "Dioden_ThroughHole_Wings3d_RevC_0xSep2012/TO220AC-Horizontal_RevB_Faktor03937_03Sep2012.wrl"
Sc 0.393700 0.393700 0.393700
Of 0.000000 0.000000 0.000000
Ro 0.000000 0.000000 0.000000
$EndSHAPE3D
$EndMODULE  Diode_TO-220_Horizontal
$MODULE Diode_TO-220_Horizontal_LargePads
Po 0 0 0 15 4BF58D4F 00000000 ~~
Li Diode_TO-220_Horizontal_LargePads
Cd TO-220, Diode, Horizontal, Large Pads,
Kw TO-220, Diode, Horizontal, Large Pads,
Sc 00000000
AR
Op 0 0 0
T0 100 -3600 600 600 0 120 N V 21 N "D"
T1 -400 3200 600 600 0 120 N I 21 N "Diode_TO-220_Horizontal_LargePads"
T2 1400 -1050 394 394 0 99 N V 21 N "A"
DS -200 -2500 -1000 -2500 150 21
DS -1000 -2500 -1000 -1450 150 21
DS 350 -2500 1000 -2500 150 21
DS 1000 -2500 1000 -1450 150 21
DS -200 -2500 350 -2900 150 21
DS 350 -2900 350 -2100 150 21
DS 350 -2100 -200 -2500 150 21
DS -200 -2900 -200 -2100 150 21
DS -1000 -1450 -1000 -900 150 21
DS 1000 -1450 1000 -900 150 21
DC 0 -6600 700 -5900 150 21
DS 2100 -4800 2100 -7950 150 21
DS 2100 -7950 -2100 -7950 150 21
DS -2100 -7950 -2100 -4800 150 21
DS 2100 -1450 2100 -4800 150 21
DS 2100 -4800 -2100 -4800 150 21
DS -2100 -4800 -2100 -1450 150 21
DS 0 -1450 -2100 -1450 150 21
DS 0 -1450 2100 -1450 150 21
$PAD
Sh "2" R 1378 669 0 0 900
Dr 394 0 0
At STD N 00E0FFFF
Ne 0 ""
Po -1000 0
$EndPAD
$PAD
Sh "1" O 1378 669 0 0 900
Dr 394 0 0
At STD N 00E0FFFF
Ne 0 ""
Po 1000 0
$EndPAD
$PAD
Sh "2" C 1496 1496 0 0 900
Dr 1496 0 0
At STD N 00E0FFFF
Ne 0 ""
Po 0 -6600
$EndPAD
$SHAPE3D
Na "Dioden_ThroughHole_Wings3d_RevC_0xSep2012/TO220AC-Horizontal_RevB_Faktor03937_03Sep2012.wrl"
Sc 0.393700 0.393700 0.393700
Of 0.000000 0.000000 0.000000
Ro 0.000000 0.000000 0.000000
$EndSHAPE3D
$EndMODULE  Diode_TO-220_Horizontal_LargePads
$MODULE Diode_TO-220_Vertical
Po 0 0 0 15 4BF58D84 00000000 ~~
Li Diode_TO-220_Vertical
Cd TO-220, Diode, Vertical,
Kw TO-220, Diode, Vertical,
Sc 00000000
AR 
Op 0 0 0
T0 0 -2000 600 600 0 120 N V 21 N "D"
T1 0 1500 600 600 0 120 N I 21 N "Diode_TO-220_Vertical"
T2 1700 50 394 394 0 99 N V 21 N "A"
DS -150 0 -500 0 150 21
DS 200 0 500 0 150 21
DS -150 0 150 -400 150 21
DS 150 -400 150 350 150 21
DS 150 350 -150 0 150 21
DS -150 -400 -150 350 150 21
DS -600 -1200 -600 -750 150 21
DS 600 -1200 600 -750 150 21
DS 2100 -750 2100 700 150 21
DS 2100 700 -2100 700 150 21
DS -2100 700 -2100 -750 150 21
DS 2100 -1200 2100 -750 150 21
DS 2100 -750 -2100 -750 150 21
DS -2100 -750 -2100 -1200 150 21
DS 0 -1200 -2100 -1200 150 21
DS 0 -1200 2100 -1200 150 21
$PAD
Sh "2" R 984 591 0 0 900
Dr 394 0 0
At STD N 00E0FFFF
Ne 0 ""
Po -1000 0
$EndPAD
$PAD
Sh "1" O 984 591 0 0 900
Dr 394 0 0
At STD N 00E0FFFF
Ne 0 ""
Po 1000 0
$EndPAD
$SHAPE3D
Na "Dioden_ThroughHole_Wings3d_RevC_0xSep2012/TO220AC-vert_RevB_Faktor03937_03Sep2012.wrl"
Sc 0.393700 0.393700 0.393700
Of 0.000000 0.000000 0.000000
Ro 0.000000 0.000000 0.000000
$EndSHAPE3D
$EndMODULE  Diode_TO-220_Vertical
$EndLIBRARY
