PCBNEW-LibModule-V1  2013-05-05 13:03:50
# encoding utf-8
Units mm
$INDEX
AFF_2x7SEG-DIGIT_10mm
AG12864E
Dx04
ELD-426x
HDSP-48xx
HDSP-78xx
HY1602E
LCD_ALPHA
LTS-69xx
MAN3640A
RC1602A
WC1602A
$EndINDEX
$MODULE AFF_2x7SEG-DIGIT_10mm
Po 0 0 0 15 42971D9F 00000000 ~~
Li AFF_2x7SEG-DIGIT_10mm
Cd Afficheur 7 segments 10mm DIGIT
Kw AFFICHEUR
Sc 0
AR 
Op 0 0 0
T0 0 -11.43 1.778 1.143 0 0.3048 N V 21 N "AFF***"
T1 -1.27 11.43 1.778 1.016 0 0.3048 N V 21 N "2x7 SEG"
DS -6.35 -5.715 -1.905 -5.715 0.381 21
DS -2.54 -0.635 -1.27 -5.715 0.381 21
DS -8.255 -0.635 -6.985 -5.715 0.381 21
DS -8.89 5.715 -4.445 5.715 0.381 21
DS -8.255 0.635 -9.525 5.715 0.381 21
DS -2.54 0.635 -3.81 5.715 0.381 21
DC 8.89 5.08 9.525 5.08 0.381 21
DS 3.81 -5.715 8.255 -5.715 0.381 21
DS 1.27 5.715 5.715 5.715 0.381 21
DS 7.62 0.635 6.35 5.715 0.381 21
DS 0.635 5.715 1.905 0.635 0.381 21
DS 7.62 -0.635 8.89 -5.715 0.381 21
DS 1.905 -0.635 3.175 -5.715 0.381 21
DS 2.54 0 6.985 0 0.381 21
DS 1.27 -9.525 11.43 -9.525 0.381 21
DS 11.43 -9.525 11.43 9.525 0.381 21
DS 11.43 9.525 1.27 9.525 0.381 21
DS -7.366 0 -3.302 0 0.381 21
DC -1.27 5.08 -0.635 5.08 0.381 21
DS -10.16 -9.525 -11.43 -9.525 0.381 21
DS -11.43 -9.525 -11.43 9.525 0.381 21
DS -11.43 9.525 -10.16 9.525 0.381 21
DS 0 9.525 1.27 9.525 0.381 21
DS 1.27 -9.525 0 -9.525 0.381 21
DS -10.16 9.525 0 9.525 0.381 21
DS 0 -9.525 -10.16 -9.525 0.381 21
DS -7.493 0 -3.175 0 0.381 21
$PAD
Sh "1" R 2.032 2.032 0 0 0
Dr 0.9144 0 0
At STD N 00E0FFFF
Ne 0 ""
Po -8.89 7.62
$EndPAD
$PAD
Sh "2" C 2.032 2.032 0 0 0
Dr 0.9144 0 0
At STD N 00E0FFFF
Ne 0 ""
Po -6.35 7.62
$EndPAD
$PAD
Sh "3" C 2.032 2.032 0 0 0
Dr 0.9144 0 0
At STD N 00E0FFFF
Ne 0 ""
Po -3.81 7.62
$EndPAD
$PAD
Sh "4" C 2.032 2.032 0 0 0
Dr 0.9144 0 0
At STD N 00E0FFFF
Ne 0 ""
Po -1.27 7.62
$EndPAD
$PAD
Sh "13" C 2.032 2.032 0 0 0
Dr 0.9144 0 0
At STD N 00E0FFFF
Ne 0 ""
Po -1.27 -7.62
$EndPAD
$PAD
Sh "14" C 2.032 2.032 0 0 0
Dr 0.9144 0 0
At STD N 00E0FFFF
Ne 0 ""
Po -3.81 -7.62
$EndPAD
$PAD
Sh "15" C 2.032 2.032 0 0 0
Dr 0.9144 0 0
At STD N 00E0FFFF
Ne 0 ""
Po -6.35 -7.62
$EndPAD
$PAD
Sh "16" C 2.032 2.032 0 0 0
Dr 0.9144 0 0
At STD N 00E0FFFF
Ne 0 ""
Po -8.89 -7.62
$EndPAD
$PAD
Sh "5" C 2.032 2.032 0 0 0
Dr 0.9144 0 0
At STD N 00E0FFFF
Ne 0 ""
Po 1.27 7.62
$EndPAD
$PAD
Sh "6" C 2.032 2.032 0 0 0
Dr 0.9144 0 0
At STD N 00E0FFFF
Ne 0 ""
Po 3.81 7.62
$EndPAD
$PAD
Sh "7" C 2.032 2.032 0 0 0
Dr 0.9144 0 0
At STD N 00E0FFFF
Ne 0 ""
Po 6.35 7.62
$EndPAD
$PAD
Sh "8" C 2.032 2.032 0 0 0
Dr 0.9144 0 0
At STD N 00E0FFFF
Ne 0 ""
Po 8.89 7.62
$EndPAD
$PAD
Sh "12" C 2.032 2.032 0 0 0
Dr 0.9144 0 0
At STD N 00E0FFFF
Ne 0 ""
Po 1.27 -7.62
$EndPAD
$PAD
Sh "11" C 2.032 2.032 0 0 0
Dr 0.9144 0 0
At STD N 00E0FFFF
Ne 0 ""
Po 3.81 -7.62
$EndPAD
$PAD
Sh "10" C 2.032 2.032 0 0 0
Dr 0.9144 0 0
At STD N 00E0FFFF
Ne 0 ""
Po 6.35 -7.62
$EndPAD
$PAD
Sh "9" C 2.032 2.032 0 0 0
Dr 0.9144 0 0
At STD N 00E0FFFF
Ne 0 ""
Po 8.89 -7.62
$EndPAD
$EndMODULE AFF_2x7SEG-DIGIT_10mm
$MODULE AG12864E
Po 0 0 0 15 51863BC1 00000000 ~~
Li AG12864E
Kw AG12864, Graphics Display 128x64, Ampire
Sc 0
AR 
Op 0 0 0
T0 -4.95 -51.09 1 1 0 0.15 N V 21 N "AG12864E"
T1 24.14 -25.79 1 1 0 0.15 N I 21 N "VAL**"
DS 53.53 -41.1 -5.27 -41.1 0.15 21
DS 54.13 -9.2 54.13 -40.5 0.15 21
DS -5.27 -8.6 53.53 -8.6 0.15 21
DS -5.87 -40.5 -5.87 -9.21 0.15 21
DA 53.53 -9.2 54.13 -9.2 900 0.15 21
DA 53.53 -40.5 53.53 -41.1 900 0.15 21
DA -5.27 -40.5 -5.87 -40.5 900 0.15 21
DA -5.27 -9.2 -5.27 -8.6 900 0.15 21
DA 59.13 -49.7 58.63 -47.93 900 0.15 21
DA 59.13 -49.7 59.63 -47.93 900 0.15 21
DA 59.13 -49.7 60.9 -50.2 900 0.15 21
DA -10.87 -49.7 -10.37 -47.92 900 0.15 21
DA -10.86 -49.73 -11.36 -47.93 900 0.15 21
DA -10.87 -49.7 -9.09 -50.2 900 0.15 21
DC -10.87 0 -12.8 0 0.15 21
DC 59.13 0 61.06 0 0.15 21
DS -12.8 -3.8 -12.8 -45.9 0.15 21
DS 57 -2.5 -11.5 -2.5 0.15 21
DS 58.3 -45.2 58.3 -4.5 0.15 21
DS -11.5 -47.2 57 -47.2 0.15 21
DS 57 -2.5 57 -4.5 0.15 21
DS 57 -4.5 58.3 -4.5 0.15 21
DS 57 -47.2 57 -45.2 0.15 21
DS 57 -45.2 58.3 -45.2 0.15 21
DS -11.5 -47.2 -11.5 -45.9 0.15 21
DS -11.5 -45.9 -12.8 -45.9 0.15 21
DS -12.8 -3.8 -11.5 -3.8 0.15 21
DS -11.5 -3.8 -11.5 -2.5 0.15 21
DS 61.6 -50.2 60.9 -50.2 0.254 21
DS -9.1 -50.2 57.3 -50.2 0.254 21
DS -13.4 -50.2 -12.7 -50.2 0.254 21
DS -13.4 2.5 -13.4 -50.2 0.254 21
DS -13.4 2.5 61.6 2.4 0.254 21
DS 61.6 2.4 61.6 -50.2 0.254 21
$PAD
Sh "1" O 1.8 2.5 0 0 0
Dr 1.2 0 0
At STD N 00E0FFFF
Ne 0 ""
Po 0 0
$EndPAD
$PAD
Sh "2" O 1.8 2.5 0 0 0
Dr 1.2 0 0
At STD N 00E0FFFF
Ne 0 ""
Po 2.54 0
$EndPAD
$PAD
Sh "3" O 1.8 2.5 0 0 0
Dr 1.2 0 0
At STD N 00E0FFFF
Ne 0 ""
Po 5.08 0
$EndPAD
$PAD
Sh "4" O 1.8 2.5 0 0 0
Dr 1.2 0 0
At STD N 00E0FFFF
Ne 0 ""
Po 7.62 0
$EndPAD
$PAD
Sh "5" O 1.8 2.5 0 0 0
Dr 1.2 0 0
At STD N 00E0FFFF
Ne 0 ""
Po 10.16 0
$EndPAD
$PAD
Sh "6" O 1.8 2.5 0 0 0
Dr 1.2 0 0
At STD N 00E0FFFF
Ne 0 ""
Po 12.7 0
$EndPAD
$PAD
Sh "7" O 1.8 2.5 0 0 0
Dr 1.2 0 0
At STD N 00E0FFFF
Ne 0 ""
Po 15.24 0
$EndPAD
$PAD
Sh "8" O 1.8 2.5 0 0 0
Dr 1.2 0 0
At STD N 00E0FFFF
Ne 0 ""
Po 17.78 0
$EndPAD
$PAD
Sh "9" O 1.8 2.5 0 0 0
Dr 1.2 0 0
At STD N 00E0FFFF
Ne 0 ""
Po 20.32 0
$EndPAD
$PAD
Sh "10" O 1.8 2.5 0 0 0
Dr 1.2 0 0
At STD N 00E0FFFF
Ne 0 ""
Po 22.86 0
$EndPAD
$PAD
Sh "11" O 1.8 2.5 0 0 0
Dr 1.2 0 0
At STD N 00E0FFFF
Ne 0 ""
Po 25.4 0
$EndPAD
$PAD
Sh "12" O 1.8 2.5 0 0 0
Dr 1.2 0 0
At STD N 00E0FFFF
Ne 0 ""
Po 27.94 0
$EndPAD
$PAD
Sh "13" O 1.8 2.5 0 0 0
Dr 1.2 0 0
At STD N 00E0FFFF
Ne 0 ""
Po 30.48 0
$EndPAD
$PAD
Sh "14" O 1.8 2.5 0 0 0
Dr 1.2 0 0
At STD N 00E0FFFF
Ne 0 ""
Po 33.02 0
$EndPAD
$PAD
Sh "15" O 1.8 2.5 0 0 0
Dr 1.2 0 0
At STD N 00E0FFFF
Ne 0 ""
Po 35.56 0
$EndPAD
$PAD
Sh "16" O 1.8 2.5 0 0 0
Dr 1.2 0 0
At STD N 00E0FFFF
Ne 0 ""
Po 38.1 0
$EndPAD
$PAD
Sh "17" O 1.8 2.5 0 0 0
Dr 1.2 0 0
At STD N 00E0FFFF
Ne 0 ""
Po 40.64 0
$EndPAD
$PAD
Sh "18" O 1.8 2.5 0 0 0
Dr 1.2 0 0
At STD N 00E0FFFF
Ne 0 ""
Po 43.18 0
$EndPAD
$PAD
Sh "19" O 1.8 2.5 0 0 0
Dr 1.2 0 0
At STD N 00E0FFFF
Ne 0 ""
Po 45.72 0
$EndPAD
$PAD
Sh "20" O 1.8 2.5 0 0 0
Dr 1.2 0 0
At STD N 00E0FFFF
Ne 0 ""
Po 48.26 0
$EndPAD
$PAD
Sh "0" C 3.2 3.2 0 0 0
Dr 2.7 0 0
At STD N 00E0FFFF
Ne 0 ""
Po -10.87 0
$EndPAD
$PAD
Sh "0" C 3.2 3.2 0 0 0
Dr 2.7 0 0
At STD N 00E0FFFF
Ne 0 ""
Po 59.13 0
$EndPAD
$PAD
Sh "0" C 3.2 3.2 0 0 0
Dr 2.7 0 0
At STD N 00E0FFFF
Ne 0 ""
Po -10.87 -49.7
$EndPAD
$PAD
Sh "0" C 3.2 3.2 0 0 0
Dr 2.7 0 0
At STD N 00E0FFFF
Ne 0 ""
Po 59.13 -49.7
$EndPAD
$EndMODULE AG12864E
$MODULE Dx04
Po 0 0 0 15 43859080 00000000 ~~
Li Dx04
Cd 7 segments display
Kw DISPLAY
Sc 0
AR 
Op 0 0 0
T0 0 -11.43 1.778 1.143 0 0.3048 N V 21 N "AFF***"
T1 -1.27 11.43 1.778 1.016 0 0.3048 N V 21 N "Dx04"
DS -6.35 -5.715 -1.905 -5.715 0.381 21
DS -2.54 -0.635 -1.27 -5.715 0.381 21
DS -8.255 -0.635 -6.985 -5.715 0.381 21
DS -8.89 5.715 -4.445 5.715 0.381 21
DS -8.255 0.635 -9.525 5.715 0.381 21
DS -2.54 0.635 -3.81 5.715 0.381 21
DC 8.89 5.08 9.525 5.08 0.762 21
DS 3.81 -5.715 8.255 -5.715 0.381 21
DS 1.27 5.715 5.715 5.715 0.381 21
DS 7.62 0.635 6.35 5.715 0.381 21
DS 0.635 5.715 1.905 0.635 0.381 21
DS 7.62 -0.635 8.89 -5.715 0.381 21
DS 1.905 -0.635 3.175 -5.715 0.381 21
DS 2.54 0 6.985 0 0.381 21
DS 1.27 -9.525 11.43 -9.525 0.381 21
DS 11.43 -9.525 11.43 9.525 0.381 21
DS 11.43 9.525 1.27 9.525 0.381 21
DS -7.366 0 -3.302 0 0.381 21
DC -1.27 5.08 -0.635 5.08 0.762 21
DS -10.16 -9.525 -11.43 -9.525 0.381 21
DS -11.43 -9.525 -11.43 9.525 0.381 21
DS -11.43 9.525 -10.16 9.525 0.381 21
DS 0 9.525 1.27 9.525 0.381 21
DS 1.27 -9.525 0 -9.525 0.381 21
DS -10.16 9.525 0 9.525 0.381 21
DS 0 -9.525 -10.16 -9.525 0.381 21
DS -7.493 0 -3.175 0 0.381 21
$PAD
Sh "1" R 2.032 2.032 0 0 0
Dr 0.9144 0 0
At STD N 00E0FFFF
Ne 0 ""
Po -8.89 7.62
$EndPAD
$PAD
Sh "2" C 2.032 2.032 0 0 0
Dr 0.9144 0 0
At STD N 00E0FFFF
Ne 0 ""
Po -6.35 7.62
$EndPAD
$PAD
Sh "3" C 2.032 2.032 0 0 0
Dr 0.9144 0 0
At STD N 00E0FFFF
Ne 0 ""
Po -3.81 7.62
$EndPAD
$PAD
Sh "4" C 2.032 2.032 0 0 0
Dr 0.9144 0 0
At STD N 00E0FFFF
Ne 0 ""
Po -1.27 7.62
$EndPAD
$PAD
Sh "13" C 2.032 2.032 0 0 0
Dr 0.9144 0 0
At STD N 00E0FFFF
Ne 0 ""
Po -1.27 -7.62
$EndPAD
$PAD
Sh "14" C 2.032 2.032 0 0 0
Dr 0.9144 0 0
At STD N 00E0FFFF
Ne 0 ""
Po -3.81 -7.62
$EndPAD
$PAD
Sh "15" C 2.032 2.032 0 0 0
Dr 0.9144 0 0
At STD N 00E0FFFF
Ne 0 ""
Po -6.35 -7.62
$EndPAD
$PAD
Sh "16" C 2.032 2.032 0 0 0
Dr 0.9144 0 0
At STD N 00E0FFFF
Ne 0 ""
Po -8.89 -7.62
$EndPAD
$PAD
Sh "5" C 2.032 2.032 0 0 0
Dr 0.9144 0 0
At STD N 00E0FFFF
Ne 0 ""
Po 1.27 7.62
$EndPAD
$PAD
Sh "6" C 2.032 2.032 0 0 0
Dr 0.9144 0 0
At STD N 00E0FFFF
Ne 0 ""
Po 3.81 7.62
$EndPAD
$PAD
Sh "7" C 2.032 2.032 0 0 0
Dr 0.9144 0 0
At STD N 00E0FFFF
Ne 0 ""
Po 6.35 7.62
$EndPAD
$PAD
Sh "8" C 2.032 2.032 0 0 0
Dr 0.9144 0 0
At STD N 00E0FFFF
Ne 0 ""
Po 8.89 7.62
$EndPAD
$PAD
Sh "12" C 2.032 2.032 0 0 0
Dr 0.9144 0 0
At STD N 00E0FFFF
Ne 0 ""
Po 1.27 -7.62
$EndPAD
$PAD
Sh "11" C 2.032 2.032 0 0 0
Dr 0.9144 0 0
At STD N 00E0FFFF
Ne 0 ""
Po 3.81 -7.62
$EndPAD
$PAD
Sh "10" C 2.032 2.032 0 0 0
Dr 0.9144 0 0
At STD N 00E0FFFF
Ne 0 ""
Po 6.35 -7.62
$EndPAD
$PAD
Sh "9" C 2.032 2.032 0 0 0
Dr 0.9144 0 0
At STD N 00E0FFFF
Ne 0 ""
Po 8.89 -7.62
$EndPAD
$EndMODULE Dx04
$MODULE ELD-426x
Po 0 0 0 15 438590E5 00000000 ~~
Li ELD-426x
Cd 7 segments display
Kw DISPLAY
Sc 0
AR 
Op 0 0 0
T0 0 -9.652 1.778 1.143 0 0.3048 N V 21 N "U***"
T1 0 10.16 1.778 1.016 0 0.3048 N V 21 N "ELD-426x"
DS -10.16 8.128 -10.16 -8.128 0.3048 21
DS 10.16 -8.128 10.16 8.128 0.3048 21
DS -10.16 -8.128 10.16 -8.128 0.3048 21
DS -10.16 8.128 10.16 8.128 0.3048 21
DS -6.35 -5.715 -1.905 -5.715 0.381 21
DS -2.54 -0.635 -1.27 -5.715 0.381 21
DS -8.255 -0.635 -6.985 -5.715 0.381 21
DS -8.89 5.715 -4.445 5.715 0.381 21
DS -8.255 0.635 -9.525 5.715 0.381 21
DS -2.54 0.635 -3.81 5.715 0.381 21
DC 8.89 5.08 9.525 5.08 0.381 21
DS 3.81 -5.715 8.255 -5.715 0.381 21
DS 1.27 5.715 5.715 5.715 0.381 21
DS 7.62 0.635 6.35 5.715 0.381 21
DS 0.635 5.715 1.905 0.635 0.381 21
DS 7.62 -0.635 8.89 -5.715 0.381 21
DS 1.905 -0.635 3.175 -5.715 0.381 21
DS 2.54 0 6.985 0 0.381 21
DS -7.366 0 -3.302 0 0.381 21
DC -1.27 5.08 -0.635 5.08 0.381 21
DS -7.493 0 -3.175 0 0.381 21
$PAD
Sh "1" R 2.032 2.032 0 0 0
Dr 0.9144 0 0
At STD N 00E0FFFF
Ne 0 ""
Po -5.08 6.35
$EndPAD
$PAD
Sh "2" C 2.032 2.032 0 0 0
Dr 0.9144 0 0
At STD N 00E0FFFF
Ne 0 ""
Po -2.54 6.35
$EndPAD
$PAD
Sh "3" C 2.032 2.032 0 0 0
Dr 0.9144 0 0
At STD N 00E0FFFF
Ne 0 ""
Po 0 6.35
$EndPAD
$PAD
Sh "4" C 2.032 2.032 0 0 0
Dr 0.9144 0 0
At STD N 00E0FFFF
Ne 0 ""
Po 2.54 6.35
$EndPAD
$PAD
Sh "9" C 2.032 2.032 0 0 0
Dr 0.9144 0 0
At STD N 00E0FFFF
Ne 0 ""
Po -2.54 -6.35
$EndPAD
$PAD
Sh "10" C 2.032 2.032 0 0 0
Dr 0.9144 0 0
At STD N 00E0FFFF
Ne 0 ""
Po -5.08 -6.35
$EndPAD
$PAD
Sh "5" C 2.032 2.032 0 0 0
Dr 0.9144 0 0
At STD N 00E0FFFF
Ne 0 ""
Po 5.08 6.35
$EndPAD
$PAD
Sh "7" C 2.032 2.032 0 0 0
Dr 0.9144 0 0
At STD N 00E0FFFF
Ne 0 ""
Po 2.54 -6.35
$EndPAD
$PAD
Sh "6" C 2.032 2.032 0 0 0
Dr 0.9144 0 0
At STD N 00E0FFFF
Ne 0 ""
Po 5.08 -6.35
$EndPAD
$PAD
Sh "8" C 2.032 2.032 0 0 0
Dr 0.9144 0 0
At STD N 00E0FFFF
Ne 0 ""
Po 0 -6.35
$EndPAD
$EndMODULE ELD-426x
$MODULE HDSP-48xx
Po 0 0 0 15 429C5022 00000000 ~~
Li HDSP-48xx
Cd Barre 10 points
Kw BARGRAPH
Sc 0
AR 
Op 0 0 0
T0 0 -7.62 1.778 1.143 0 0.3048 N V 21 N "BAR***"
T1 0 7.112 1.778 1.016 0 0.3048 N V 21 N "HDSP-48xx"
DS 10.668 -2.54 12.192 -2.54 0.3048 21
DS 12.192 -2.54 12.192 2.032 0.3048 21
DS 12.192 2.032 10.668 2.032 0.3048 21
DS 10.668 2.032 10.668 -2.54 0.3048 21
DS 8.128 -2.54 9.652 -2.54 0.3048 21
DS 9.652 -2.54 9.652 2.032 0.3048 21
DS 9.652 2.032 8.128 2.032 0.3048 21
DS 8.128 2.032 8.128 -2.54 0.3048 21
DS 5.588 -2.54 7.112 -2.54 0.3048 21
DS 7.112 -2.54 7.112 2.032 0.3048 21
DS 7.112 2.032 5.588 2.032 0.3048 21
DS 5.588 2.032 5.588 -2.54 0.3048 21
DS 3.048 -2.54 4.572 -2.54 0.3048 21
DS 4.572 -2.54 4.572 2.032 0.3048 21
DS 4.572 2.032 3.048 2.032 0.3048 21
DS 3.048 2.032 3.048 -2.54 0.3048 21
DS 0.508 -2.54 2.032 -2.54 0.3048 21
DS 2.032 -2.54 2.032 2.032 0.3048 21
DS 2.032 2.032 0.508 2.032 0.3048 21
DS 0.508 2.032 0.508 -2.54 0.3048 21
DS -2.032 -2.54 -0.508 -2.54 0.3048 21
DS -0.508 -2.54 -0.508 2.032 0.3048 21
DS -0.508 2.032 -2.032 2.032 0.3048 21
DS -2.032 2.032 -2.032 -2.54 0.3048 21
DS -4.572 2.032 -3.048 2.032 0.3048 21
DS -3.048 2.032 -3.048 -2.54 0.3048 21
DS -3.048 -2.54 -4.572 -2.54 0.3048 21
DS -4.572 -2.54 -4.572 2.032 0.3048 21
DS -7.112 -2.54 -5.588 -2.54 0.3048 21
DS -5.588 -2.54 -5.588 2.032 0.3048 21
DS -5.588 2.032 -7.112 2.032 0.3048 21
DS -7.112 2.032 -7.112 -2.54 0.3048 21
DS -9.652 2.032 -9.652 -2.54 0.3048 21
DS -9.652 -2.54 -8.128 -2.54 0.3048 21
DS -8.128 -2.54 -8.128 2.032 0.3048 21
DS -8.128 2.032 -9.652 2.032 0.3048 21
DS -12.192 2.032 -12.192 -2.54 0.3048 21
DS -12.192 -2.54 -10.668 -2.54 0.3048 21
DS -10.668 -2.54 -10.668 2.032 0.3048 21
DS -10.668 2.032 -12.192 2.032 0.3048 21
DS 11.176 2.032 11.684 2.032 0.3048 21
DS 11.684 -2.54 11.176 -2.54 0.3048 21
DS 8.636 2.032 9.144 2.032 0.3048 21
DS 9.144 -2.54 8.636 -2.54 0.3048 21
DS 6.096 2.032 6.604 2.032 0.3048 21
DS 6.604 -2.54 6.096 -2.54 0.3048 21
DS 3.556 2.032 4.064 2.032 0.3048 21
DS 4.064 -2.54 3.556 -2.54 0.3048 21
DS 1.016 2.032 1.524 2.032 0.3048 21
DS 1.524 -2.54 1.016 -2.54 0.3048 21
DS -1.524 2.032 -1.016 2.032 0.3048 21
DS -1.016 -2.54 -1.524 -2.54 0.3048 21
DS -3.556 -2.54 -4.064 -2.54 0.3048 21
DS -4.064 2.032 -3.556 2.032 0.3048 21
DS -6.604 2.032 -6.096 2.032 0.3048 21
DS -6.096 -2.54 -6.604 -2.54 0.3048 21
DS -9.144 2.032 -8.636 2.032 0.3048 21
DS -8.636 -2.54 -9.144 -2.54 0.3048 21
DS -11.684 -2.54 -11.176 -2.54 0.3048 21
DS -11.176 2.032 -11.684 2.032 0.3048 21
DS 12.7 -5.08 12.7 5.08 0.3048 21
DS 12.7 5.08 -12.7 5.08 0.3048 21
DS -12.7 5.08 -12.7 -5.08 0.3048 21
DS -12.7 -5.08 12.7 -5.08 0.3048 21
$PAD
Sh "1" R 2.032 2.032 0 0 0
Dr 0.9144 0 0
At STD N 00E0FFFF
Ne 0 ""
Po -11.43 3.81
$EndPAD
$PAD
Sh "2" C 2.032 2.032 0 0 0
Dr 0.9144 0 0
At STD N 00E0FFFF
Ne 0 ""
Po -8.89 3.81
$EndPAD
$PAD
Sh "3" C 2.032 2.032 0 0 0
Dr 0.9144 0 0
At STD N 00E0FFFF
Ne 0 ""
Po -6.35 3.81
$EndPAD
$PAD
Sh "4" C 2.032 2.032 0 0 0
Dr 0.9144 0 0
At STD N 00E0FFFF
Ne 0 ""
Po -3.81 3.81
$EndPAD
$PAD
Sh "13" C 2.032 2.032 0 0 0
Dr 0.9144 0 0
At STD N 00E0FFFF
Ne 0 ""
Po 6.35 -3.81
$EndPAD
$PAD
Sh "14" C 2.032 2.032 0 0 0
Dr 0.9144 0 0
At STD N 00E0FFFF
Ne 0 ""
Po 3.81 -3.81
$EndPAD
$PAD
Sh "15" C 2.032 2.032 0 0 0
Dr 0.9144 0 0
At STD N 00E0FFFF
Ne 0 ""
Po 1.27 -3.81
$EndPAD
$PAD
Sh "16" C 2.032 2.032 0 0 0
Dr 0.9144 0 0
At STD N 00E0FFFF
Ne 0 ""
Po -1.27 -3.81
$EndPAD
$PAD
Sh "5" C 2.032 2.032 0 0 0
Dr 0.9144 0 0
At STD N 00E0FFFF
Ne 0 ""
Po -1.27 3.81
$EndPAD
$PAD
Sh "6" C 2.032 2.032 0 0 0
Dr 0.9144 0 0
At STD N 00E0FFFF
Ne 0 ""
Po 1.27 3.81
$EndPAD
$PAD
Sh "7" C 2.032 2.032 0 0 0
Dr 0.9144 0 0
At STD N 00E0FFFF
Ne 0 ""
Po 3.81 3.81
$EndPAD
$PAD
Sh "8" C 2.032 2.032 0 0 0
Dr 0.9144 0 0
At STD N 00E0FFFF
Ne 0 ""
Po 6.35 3.81
$EndPAD
$PAD
Sh "12" C 2.032 2.032 0 0 0
Dr 0.9144 0 0
At STD N 00E0FFFF
Ne 0 ""
Po 8.89 -3.81
$EndPAD
$PAD
Sh "11" C 2.032 2.032 0 0 0
Dr 0.9144 0 0
At STD N 00E0FFFF
Ne 0 ""
Po 11.43 -3.81
$EndPAD
$PAD
Sh "10" C 2.032 2.032 0 0 0
Dr 0.9144 0 0
At STD N 00E0FFFF
Ne 0 ""
Po 11.43 3.81
$EndPAD
$PAD
Sh "9" C 2.032 2.032 0 0 0
Dr 0.9144 0 0
At STD N 00E0FFFF
Ne 0 ""
Po 8.89 3.81
$EndPAD
$PAD
Sh "17" C 2.032 2.032 0 0 0
Dr 0.9144 0 0
At STD N 00E0FFFF
Ne 0 ""
Po -3.81 -3.81
$EndPAD
$PAD
Sh "18" C 2.032 2.032 0 0 0
Dr 0.9144 0 0
At STD N 00E0FFFF
Ne 0 ""
Po -6.35 -3.81
$EndPAD
$PAD
Sh "19" C 2.032 2.032 0 0 0
Dr 0.9144 0 0
At STD N 00E0FFFF
Ne 0 ""
Po -8.89 -3.81
$EndPAD
$PAD
Sh "20" C 2.032 2.032 0 0 0
Dr 0.9144 0 0
At STD N 00E0FFFF
Ne 0 ""
Po -11.43 -3.81
$EndPAD
$EndMODULE HDSP-48xx
$MODULE HDSP-78xx
Po 0 0 0 15 429C42C6 00000000 ~~
Li HDSP-78xx
Cd Afficheur 7 segments
Kw AFFICHEUR
Sc 0
AR 
Op 0 0 0
T0 0 -10.795 1.778 1.143 0 0.3048 N V 21 N "AFF***"
T1 0.635 10.795 1.778 1.016 0 0.3048 N V 21 N "HDSP-78xx"
DS -3.81 -5.08 -2.54 -6.35 0.3048 21
DC -2.413 -3.683 -2.159 -3.429 0.3048 21
DC 2.286 3.683 2.54 3.937 0.3048 21
DS -2.413 3.302 -1.778 0.508 0.3048 21
DS 0.889 3.302 1.524 0.508 0.3048 21
DS 1.651 -0.381 2.286 -3.302 0.3048 21
DS -1.651 -0.381 -1.016 -3.302 0.3048 21
DS -2.159 3.81 0.508 3.81 0.3048 21
DS -0.635 -3.81 2.032 -3.81 0.3048 21
DS -1.397 0 1.27 0 0.3048 21
DS -3.81 -5.842 -3.302 -6.35 0.3048 21
DS -3.81 -5.461 -2.921 -6.35 0.3048 21
DS 3.81 -6.35 -3.81 -6.35 0.3048 21
DS -3.81 -6.35 -3.81 6.35 0.3048 21
DS -3.81 6.35 3.81 6.35 0.3048 21
DS 3.81 6.35 3.81 -6.35 0.3048 21
$PAD
Sh "1" R 1.89992 1.89992 0 0 0
Dr 0.70104 0 0
At STD N 00E0FFFF
Ne 0 ""
Po -2.54 -5.08
$EndPAD
$PAD
Sh "2" C 1.89992 1.89992 0 0 0
Dr 0.70104 0 0
At STD N 00E0FFFF
Ne 0 ""
Po -2.54 -2.54
$EndPAD
$PAD
Sh "3" C 1.89992 1.89992 0 0 0
Dr 0.70104 0 0
At STD N 00E0FFFF
Ne 0 ""
Po -2.54 0
$EndPAD
$PAD
Sh "4" C 1.89992 1.89992 0 0 0
Dr 0.70104 0 0
At STD N 00E0FFFF
Ne 0 ""
Po -2.54 2.54
$EndPAD
$PAD
Sh "5" C 1.89992 1.89992 0 0 0
Dr 0.70104 0 0
At STD N 00E0FFFF
Ne 0 ""
Po -2.54 5.08
$EndPAD
$PAD
Sh "6" C 1.89992 1.89992 0 0 0
Dr 0.70104 0 0
At STD N 00E0FFFF
Ne 0 ""
Po 2.54 5.08
$EndPAD
$PAD
Sh "7" C 1.89992 1.89992 0 0 0
Dr 0.70104 0 0
At STD N 00E0FFFF
Ne 0 ""
Po 2.54 2.54
$EndPAD
$PAD
Sh "8" C 2.032 2.032 0 0 0
Dr 0.70104 0 0
At STD N 00E0FFFF
Ne 0 ""
Po 2.54 0
$EndPAD
$PAD
Sh "9" C 1.89992 1.89992 0 0 0
Dr 0.70104 0 0
At STD N 00E0FFFF
Ne 0 ""
Po 2.54 -2.54
$EndPAD
$PAD
Sh "10" C 1.89992 1.89992 0 0 0
Dr 0.70104 0 0
At STD N 00E0FFFF
Ne 0 ""
Po 2.54 -5.08
$EndPAD
$PAD
Sh "" C 1.397 1.397 0 0 0
Dr 0.8128 0 0
At STD N 00E0FFFF
Ne 0 ""
Po -2.54 -2.54
$EndPAD
$EndMODULE HDSP-78xx
$MODULE HY1602E
Po 0 0 0 15 51861519 00000000 ~~
Li HY1602E
Cd http://www.icbank.com/data/ICBShop/board/HY1602E.pdf
Kw LCD 16x2 Alphanumeric 16pin
Sc 0
AR WC1602A
Op 0 0 0
T0 -44.45 -43.18 1.524 1.524 0 0.3048 N V 21 N "HY1602E"
T1 12.7 -21.59 1.524 1.524 0 0.3048 N I 21 N "VAL**"
DC 69.40042 -1.00076 72.40016 -1.00076 0.381 21
DC 69.40042 -38.00094 72.40016 -37.80028 0.381 21
DC -45.60062 -1.00076 -42.60088 -1.00076 0.381 21
DC -45.60062 -38.00094 -42.60088 -38.00094 0.381 21
DC 69.40042 -16.49984 69.70014 -16.49984 0.381 21
DC 69.40042 -22.50186 69.70014 -22.50186 0.381 21
DC 69.40042 -13.40104 69.70014 -13.40104 0.381 21
DC 69.40042 -25.60066 69.70014 -25.60066 0.381 21
DS 68.39966 -24.50084 68.39966 -26.70048 0.381 21
DS 68.39966 -26.70048 70.39864 -26.70048 0.381 21
DS 70.39864 -26.70048 70.39864 -24.50084 0.381 21
DS 68.39966 -14.50086 68.39966 -12.30122 0.381 21
DS 68.39966 -12.30122 70.39864 -12.30122 0.381 21
DS 70.39864 -12.30122 70.39864 -14.50086 0.381 21
DS 64.3001 -24.50084 71.3994 -24.50084 0.381 21
DS 71.3994 -24.50084 71.3994 -14.50086 0.381 21
DS 71.3994 -14.50086 64.3001 -14.50086 0.381 21
DS -36.6014 -34.00044 60.89904 -34.00044 0.381 21
DS -37.59962 -9.99998 -37.59962 -32.99968 0.381 21
DS 60.89904 -9.00176 -36.6014 -9.00176 0.381 21
DS 61.8998 -32.99968 61.8998 -9.99998 0.381 21
DA -36.6014 -32.99968 -37.59962 -32.99968 900 0.381 21
DA -36.6014 -9.99998 -36.6014 -9.00176 900 0.381 21
DA 60.89904 -9.99998 61.8998 -9.99998 900 0.381 21
DA 60.89904 -32.99968 60.89904 -34.00044 900 0.381 21
DS -40.10152 -39.19982 64.3001 -39.19982 0.381 21
DS 64.3001 -39.19982 64.3001 -3.79984 0.381 21
DS 64.3001 -3.79984 -40.10152 -3.79984 0.381 21
DS -40.10152 -3.79984 -40.10152 -39.19982 0.381 21
DS -49.10074 2.49936 72.898 2.49936 0.381 21
DS 72.898 2.49936 72.898 -41.50106 0.381 21
DS 72.898 -41.50106 -49.10074 -41.50106 0.381 21
DS -49.10074 -41.50106 -49.10074 2.49936 0.381 21
$PAD
Sh "1" O 1.8 2.6 0 0 0
Dr 1.2 0 0
At STD N 00E0FFFF
Ne 0 ""
Po 0 0
$EndPAD
$PAD
Sh "2" O 1.8 2.6 0 0 0
Dr 1.2 0 0
At STD N 00E0FFFF
Ne 0 ""
Po -2.54 0
$EndPAD
$PAD
Sh "3" O 1.8 2.6 0 0 0
Dr 1.2 0 0
At STD N 00E0FFFF
Ne 0 ""
Po -5.08 0
$EndPAD
$PAD
Sh "4" O 1.8 2.6 0 0 0
Dr 1.2 0 0
At STD N 00E0FFFF
Ne 0 ""
Po -7.62 0
$EndPAD
$PAD
Sh "5" O 1.8 2.6 0 0 0
Dr 1.2 0 0
At STD N 00E0FFFF
Ne 0 ""
Po -10.16 0
$EndPAD
$PAD
Sh "6" O 1.8 2.6 0 0 0
Dr 1.2 0 0
At STD N 00E0FFFF
Ne 0 ""
Po -12.7 0
$EndPAD
$PAD
Sh "7" O 1.8 2.6 0 0 0
Dr 1.2 0 0
At STD N 00E0FFFF
Ne 0 ""
Po -15.24 0
$EndPAD
$PAD
Sh "8" O 1.8 2.6 0 0 0
Dr 1.2 0 0
At STD N 00E0FFFF
Ne 0 ""
Po -17.78 0
$EndPAD
$PAD
Sh "9" O 1.8 2.6 0 0 0
Dr 1.2 0 0
At STD N 00E0FFFF
Ne 0 ""
Po -20.32 0
$EndPAD
$PAD
Sh "10" O 1.8 2.6 0 0 0
Dr 1.2 0 0
At STD N 00E0FFFF
Ne 0 ""
Po -22.86 0
$EndPAD
$PAD
Sh "11" O 1.8 2.6 0 0 0
Dr 1.2 0 0
At STD N 00E0FFFF
Ne 0 ""
Po -25.4 0
$EndPAD
$PAD
Sh "12" O 1.8 2.6 0 0 0
Dr 1.2 0 0
At STD N 00E0FFFF
Ne 0 ""
Po -27.94 0
$EndPAD
$PAD
Sh "13" O 1.8 2.6 0 0 0
Dr 1.2 0 0
At STD N 00E0FFFF
Ne 0 ""
Po -30.48 0
$EndPAD
$PAD
Sh "14" O 1.8 2.6 0 0 0
Dr 1.2 0 0
At STD N 00E0FFFF
Ne 0 ""
Po -33.02 0
$EndPAD
$PAD
Sh "15" O 1.8 2.6 0 0 0
Dr 1.2 0 0
At STD N 00E0FFFF
Ne 0 ""
Po -35.56 0
$EndPAD
$PAD
Sh "16" O 1.8 2.6 0 0 0
Dr 1.2 0 0
At STD N 00E0FFFF
Ne 0 ""
Po -38.1 0
$EndPAD
$PAD
Sh "0" C 4 4 0 0 0
Dr 3.5 0 0
At STD N 00E0FFFF
Ne 0 ""
Po -45.60062 -38.00094
$EndPAD
$PAD
Sh "0" C 4 4 0 0 0
Dr 3.5 0 0
At STD N 00E0FFFF
Ne 0 ""
Po -45.60062 -1.00076
$EndPAD
$PAD
Sh "0" C 4 4 0 0 0
Dr 3.5 0 0
At STD N 00E0FFFF
Ne 0 ""
Po 69.40042 -38.00094
$EndPAD
$PAD
Sh "0" C 4 4 0 0 0
Dr 3.5 0 0
At STD N 00E0FFFF
Ne 0 ""
Po 69.40042 -1.00076
$EndPAD
$EndMODULE HY1602E
$MODULE LCD_ALPHA
Po 0 0 0 15 4DC7A306 00000000 ~~
Li LCD_ALPHA
Cd Connecteur 14 pins
Kw CONN DEV
Sc 0
AR 
Op 0 0 0
T0 33.02 0.635 1.778 1.778 0 0.3048 N V 21 N "LCD_ALPHA"
T1 33.655 13.335 1.778 1.778 0 0.3048 N V 21 N "Val**"
T2 -3.175 20.955 2.54 2.54 0 0.508 N V 21 N "LINE 2"
T2 -3.175 11.43 2.54 2.54 0 0.508 N V 21 N "LINE 1"
DS -15.24 5.08 45.72 5.08 0.381 21
DS 45.72 5.08 45.72 28.575 0.381 21
DS 45.72 28.575 -15.24 28.575 0.381 21
DS -15.24 28.575 -15.24 5.08 0.381 21
DS -25.4 -3.81 55.88 -3.81 0.381 21
DS 55.88 -3.81 55.88 36.195 0.381 21
DS 55.88 36.195 -25.4 36.195 0.381 21
DS -25.4 36.195 -25.4 -3.81 0.381 21
$PAD
Sh "1" R 1.651 2.159 0 0 0
Dr 1.016 0 0
At STD N 00E0FFFF
Ne 0 ""
Po -16.51 0
$EndPAD
$PAD
Sh "2" O 1.651 2.159 0 0 0
Dr 1.016 0 0
At STD N 00E0FFFF
Ne 0 ""
Po -13.97 0
$EndPAD
$PAD
Sh "3" O 1.651 2.159 0 0 0
Dr 1.016 0 0
At STD N 00E0FFFF
Ne 0 ""
Po -11.43 0
$EndPAD
$PAD
Sh "4" O 1.651 2.159 0 0 0
Dr 1.016 0 0
At STD N 00E0FFFF
Ne 0 ""
Po -8.89 0
$EndPAD
$PAD
Sh "5" O 1.651 2.159 0 0 0
Dr 1.016 0 0
At STD N 00E0FFFF
Ne 0 ""
Po -6.35 0
$EndPAD
$PAD
Sh "6" O 1.651 2.159 0 0 0
Dr 1.016 0 0
At STD N 00E0FFFF
Ne 0 ""
Po -3.81 0
$EndPAD
$PAD
Sh "7" O 1.651 2.159 0 0 0
Dr 1.016 0 0
At STD N 00E0FFFF
Ne 0 ""
Po -1.27 0
$EndPAD
$PAD
Sh "8" O 1.651 2.159 0 0 0
Dr 1.016 0 0
At STD N 00E0FFFF
Ne 0 ""
Po 1.27 0
$EndPAD
$PAD
Sh "9" O 1.651 2.159 0 0 0
Dr 1.016 0 0
At STD N 00E0FFFF
Ne 0 ""
Po 3.81 0
$EndPAD
$PAD
Sh "10" O 1.651 2.159 0 0 0
Dr 1.016 0 0
At STD N 00E0FFFF
Ne 0 ""
Po 6.35 0
$EndPAD
$PAD
Sh "11" O 1.651 2.159 0 0 0
Dr 1.016 0 0
At STD N 00E0FFFF
Ne 0 ""
Po 8.89 0
$EndPAD
$PAD
Sh "12" O 1.651 2.159 0 0 0
Dr 1.016 0 0
At STD N 00E0FFFF
Ne 0 ""
Po 11.43 0
$EndPAD
$PAD
Sh "13" O 1.651 2.159 0 0 0
Dr 1.016 0 0
At STD N 00E0FFFF
Ne 0 ""
Po 13.97 0
$EndPAD
$PAD
Sh "14" O 1.651 2.159 0 0 0
Dr 1.016 0 0
At STD N 00E0FFFF
Ne 0 ""
Po 16.51 0
$EndPAD
$PAD
Sh "" C 5.99948 5.99948 0 0 0
Dr 2.99974 0 0
At STD N 00E0FFFF
Ne 0 ""
Po -21.59 0
$EndPAD
$PAD
Sh "" C 5.99948 5.99948 0 0 0
Dr 2.99974 0 0
At STD N 00E0FFFF
Ne 0 ""
Po 52.07 0
$EndPAD
$PAD
Sh "" C 5.99948 5.99948 0 0 0
Dr 2.99974 0 0
At STD N 00E0FFFF
Ne 0 ""
Po -21.59 31.75
$EndPAD
$PAD
Sh "" C 5.99948 5.99948 0 0 0
Dr 2.99974 0 0
At STD N 00E0FFFF
Ne 0 ""
Po 52.07 31.75
$EndPAD
$EndMODULE LCD_ALPHA
$MODULE LTS-69xx
Po 0 0 0 15 4296FBB3 00000000 ~~
Li LTS-69xx
Cd Afficheur 7 segments
Kw AFFICHEUR
Sc 0
AR 
Op 0 0 0
T0 0 -10.795 1.778 1.143 0 0.3048 N V 21 N "AFF***"
T1 0.635 10.795 1.778 1.016 0 0.3048 N V 21 N "LTS-69xx"
DS 3.048 0.762 1.778 5.588 0.508 21
DS -3.81 5.588 0.508 5.588 0.508 21
DS -3.81 0.508 -5.08 5.588 0.508 21
DS -2.032 -5.588 -3.556 -0.508 0.508 21
DS -0.762 -5.588 3.048 -5.588 0.508 21
DS -2.286 0 1.778 0 0.508 21
DS 4.318 -5.334 3.302 -0.254 0.508 21
DC 4.445 5.715 5.08 5.715 0.508 21
DS -3.81 5.715 0.635 5.715 0.3048 21
DS -5.08 -9.525 -6.35 -9.525 0.3048 21
DS -6.35 -9.525 -6.35 9.525 0.3048 21
DS -6.35 9.525 -5.08 9.525 0.3048 21
DS 5.08 9.525 6.35 9.525 0.3048 21
DS 6.35 9.525 6.35 -9.525 0.3048 21
DS 6.35 -9.525 5.08 -9.525 0.3048 21
DS -5.08 9.525 5.08 9.525 0.3048 21
DS 5.08 -9.525 -5.08 -9.525 0.3048 21
DS -2.413 0 1.905 0 0.3048 21
DS 3.429 -0.508 4.318 -5.461 0.3048 21
DS -0.889 -5.588 3.048 -5.588 0.3048 21
DS -3.556 -0.635 -2.159 -5.588 0.3048 21
DS -3.81 0.508 -5.08 5.715 0.3048 21
$PAD
Sh "1" R 2.032 2.032 0 0 0
Dr 0.9144 0 0
At STD N 00E0FFFF
Ne 0 ""
Po -3.81 7.62
$EndPAD
$PAD
Sh "2" C 2.032 2.032 0 0 0
Dr 0.9144 0 0
At STD N 00E0FFFF
Ne 0 ""
Po -1.27 7.62
$EndPAD
$PAD
Sh "3" C 2.032 2.032 0 0 0
Dr 0.9144 0 0
At STD N 00E0FFFF
Ne 0 ""
Po 1.27 7.62
$EndPAD
$PAD
Sh "4" C 2.032 2.032 0 0 0
Dr 0.9144 0 0
At STD N 00E0FFFF
Ne 0 ""
Po 3.81 7.62
$EndPAD
$PAD
Sh "5" C 2.032 2.032 0 0 0
Dr 0.9144 0 0
At STD N 00E0FFFF
Ne 0 ""
Po 3.81 -7.62
$EndPAD
$PAD
Sh "6" C 2.032 2.032 0 0 0
Dr 0.9144 0 0
At STD N 00E0FFFF
Ne 0 ""
Po 1.27 -7.62
$EndPAD
$PAD
Sh "7" C 2.032 2.032 0 0 0
Dr 0.9144 0 0
At STD N 00E0FFFF
Ne 0 ""
Po -1.27 -7.62
$EndPAD
$PAD
Sh "8" C 2.032 2.032 0 0 0
Dr 0.9144 0 0
At STD N 00E0FFFF
Ne 0 ""
Po -3.81 -7.62
$EndPAD
$EndMODULE LTS-69xx
$MODULE MAN3640A
Po 0 0 0 15 43858E7F 00000000 ~~
Li MAN3640A
Cd Module for the MAN3640 7 segm display
Kw DIL
Sc 0
AR 
Op 0 0 0
T0 11.43 0 1.524 1.143 900 0.3048 N V 21 N "MAN3640A"
T1 -11.43 0 1.524 1.143 900 0.3048 N V 21 N "U***"
DS 0 2.032 -5.715 2.032 0.381 21
DS -5.715 2.032 -5.715 -2.032 0.381 21
DS -5.715 -2.032 5.715 -2.032 0.381 21
DS 5.715 -2.032 5.715 2.032 0.381 21
DS 5.715 2.032 0 2.032 0.381 21
DS 0 2.032 0 -2.032 0.381 21
DS 9.398 4.953 9.398 -4.953 0.381 21
DS 9.398 -4.953 -9.398 -4.953 0.381 21
DS -9.398 -4.953 -9.398 4.953 0.381 21
DS -9.398 4.953 9.398 4.953 0.381 21
$PAD
Sh "1" R 1.6764 1.6764 0 0 0
Dr 1.016 0 0
At STD N 00E0FFFF
Ne 0 ""
Po -7.62 3.81
$EndPAD
$PAD
Sh "2" C 1.6764 1.6764 0 0 0
Dr 1.016 0 0
At STD N 00E0FFFF
Ne 0 ""
Po -5.08 3.81
$EndPAD
$PAD
Sh "4" C 1.6764 1.6764 0 0 0
Dr 1.016 0 0
At STD N 00E0FFFF
Ne 0 ""
Po 0 3.81
$EndPAD
$PAD
Sh "6" C 1.6764 1.6764 0 0 0
Dr 1.016 0 0
At STD N 00E0FFFF
Ne 0 ""
Po 5.08 3.81
$EndPAD
$PAD
Sh "7" C 1.6764 1.6764 0 0 0
Dr 1.016 0 0
At STD N 00E0FFFF
Ne 0 ""
Po 7.62 3.81
$EndPAD
$PAD
Sh "8" C 1.6764 1.6764 0 0 0
Dr 1.016 0 0
At STD N 00E0FFFF
Ne 0 ""
Po 7.62 -3.81
$EndPAD
$PAD
Sh "9" C 1.6764 1.6764 0 0 0
Dr 1.016 0 0
At STD N 00E0FFFF
Ne 0 ""
Po 5.08 -3.81
$EndPAD
$PAD
Sh "12" C 1.6764 1.6764 0 0 0
Dr 1.016 0 0
At STD N 00E0FFFF
Ne 0 ""
Po -2.54 -3.81
$EndPAD
$PAD
Sh "13" C 1.6764 1.6764 0 0 0
Dr 1.016 0 0
At STD N 00E0FFFF
Ne 0 ""
Po -5.08 -3.81
$EndPAD
$PAD
Sh "14" C 1.6764 1.6764 0 0 0
Dr 1.016 0 0
At STD N 00E0FFFF
Ne 0 ""
Po -7.62 -3.81
$EndPAD
$SHAPE3D
Na "discret/led_displays/display7seg_red_dip14.wrl"
Sc 1 1 1
Of 0 0 0
Ro 0 0 90
$EndSHAPE3D
$EndMODULE MAN3640A
$MODULE RC1602A
Po 0 0 0 15 5186157C 00000000 ~~
Li RC1602A
Cd http://www.raystar-optronics.com/down.php?ProID=18
Kw LCD 16x2 Alphanumeric 16pin
Sc 0
AR RC1602A
Op 0 0 0
T0 -38.1 -43.18 1.524 1.524 0 0.3048 N V 21 N "RC1602A"
T1 0 -21.59 1.524 1.524 0 0.3048 N I 21 N "VAL**"
DS -34.2265 -14.60246 -34.2265 -28.60294 0.381 21
DS 30.77464 -13.60424 -33.22574 -13.60424 0.381 21
DS 31.77286 -28.60294 31.77286 -14.60246 0.381 21
DS -33.22574 -29.6037 30.77464 -29.6037 0.381 21
DA 30.77464 -28.60294 30.77464 -29.6037 900 0.381 21
DA 30.77464 -14.60246 31.77286 -14.60246 900 0.381 21
DA -33.22574 -14.60246 -33.22574 -13.60424 900 0.381 21
DA -33.22574 -28.60294 -34.2265 -28.60294 900 0.381 21
DS -36.82492 -34.20364 34.37382 -34.20364 0.381 21
DS 34.37382 -34.20364 34.37382 -9.0043 0.381 21
DS 34.37382 -9.0043 -36.82492 -9.0043 0.381 21
DS -36.82492 -9.0043 -36.82492 -34.20364 0.381 21
DC -40.72636 -37.5031 -38.22446 -37.5031 0.381 21
DC 38.27526 -37.5031 40.77462 -37.5031 0.381 21
DC 36.77412 -1.50368 39.27348 -1.50368 0.381 21
DC -39.22522 -1.50368 -36.72586 -1.50368 0.381 21
DS 40.77462 -41.5036 40.77462 2.49682 0.381 21
DS 40.77462 2.49682 -43.22572 2.49682 0.381 21
DS 40.77462 -41.5036 -43.22572 -41.5036 0.381 21
DS -43.22572 -41.5036 -43.22572 2.49682 0.381 21
$PAD
Sh "1" O 1.8 2.6 0 0 0
Dr 1.2 0 0
At STD N 00E0FFFF
Ne 0 ""
Po 0 0
$EndPAD
$PAD
Sh "2" O 1.8 2.6 0 0 0
Dr 1.2 0 0
At STD N 00E0FFFF
Ne 0 ""
Po -2.54 0
$EndPAD
$PAD
Sh "3" O 1.8 2.6 0 0 0
Dr 1.2 0 0
At STD N 00E0FFFF
Ne 0 ""
Po -5.08 0
$EndPAD
$PAD
Sh "4" O 1.8 2.6 0 0 0
Dr 1.2 0 0
At STD N 00E0FFFF
Ne 0 ""
Po -7.62 0
$EndPAD
$PAD
Sh "5" O 1.8 2.6 0 0 0
Dr 1.2 0 0
At STD N 00E0FFFF
Ne 0 ""
Po -10.16 0
$EndPAD
$PAD
Sh "6" O 1.8 2.6 0 0 0
Dr 1.2 0 0
At STD N 00E0FFFF
Ne 0 ""
Po -12.7 0
$EndPAD
$PAD
Sh "7" O 1.8 2.6 0 0 0
Dr 1.2 0 0
At STD N 00E0FFFF
Ne 0 ""
Po -15.24 0
$EndPAD
$PAD
Sh "8" O 1.8 2.6 0 0 0
Dr 1.2 0 0
At STD N 00E0FFFF
Ne 0 ""
Po -17.78 0
$EndPAD
$PAD
Sh "9" O 1.8 2.6 0 0 0
Dr 1.2 0 0
At STD N 00E0FFFF
Ne 0 ""
Po -20.32 0
$EndPAD
$PAD
Sh "10" O 1.8 2.6 0 0 0
Dr 1.2 0 0
At STD N 00E0FFFF
Ne 0 ""
Po -22.86 0
$EndPAD
$PAD
Sh "11" O 1.8 2.6 0 0 0
Dr 1.2 0 0
At STD N 00E0FFFF
Ne 0 ""
Po -25.4 0
$EndPAD
$PAD
Sh "12" O 1.8 2.6 0 0 0
Dr 1.2 0 0
At STD N 00E0FFFF
Ne 0 ""
Po -27.94 0
$EndPAD
$PAD
Sh "13" O 1.8 2.6 0 0 0
Dr 1.2 0 0
At STD N 00E0FFFF
Ne 0 ""
Po -30.48508 -0.00254
$EndPAD
$PAD
Sh "14" O 1.8 2.6 0 0 0
Dr 1.2 0 0
At STD N 00E0FFFF
Ne 0 ""
Po -33.02 0
$EndPAD
$PAD
Sh "15" O 1.8 2.6 0 0 0
Dr 1.2 0 0
At STD N 00E0FFFF
Ne 0 ""
Po 5.08 0
$EndPAD
$PAD
Sh "16" O 1.8 2.6 0 0 0
Dr 1.2 0 0
At STD N 00E0FFFF
Ne 0 ""
Po 2.53492 -0.00254
$EndPAD
$PAD
Sh "0" C 3.5 3.5 0 0 0
Dr 2.5 0 0
At STD N 00E0FFFF
Ne 0 ""
Po -39.22522 -1.50368
$EndPAD
$PAD
Sh "0" C 3.5 3.5 0 0 0
Dr 2.5 0 0
At STD N 00E0FFFF
Ne 0 ""
Po -40.72636 -37.5031
$EndPAD
$PAD
Sh "0" C 3.5 3.5 0 0 0
Dr 2.5 0 0
At STD N 00E0FFFF
Ne 0 ""
Po 38.27526 -37.5031
$EndPAD
$PAD
Sh "0" C 3.5 3.5 0 0 0
Dr 2.5 0 0
At STD N 00E0FFFF
Ne 0 ""
Po 36.77412 -1.50368
$EndPAD
$EndMODULE RC1602A
$MODULE WC1602A
Po 0 0 0 15 518615DC 00000000 ~~
Li WC1602A
Cd http://www.kamami.pl/dl/wc1602a0.pdf
Kw LCD 16x2 Alphanumeric 16pin
Sc 0
AR 
Op 0 0 0
T0 -2.99974 -3.59918 1.524 1.524 0 0.3048 N V 21 N "WC1602A"
T1 31.99892 15.49908 1.524 1.524 0 0.3048 N I 21 N "VAL**"
DS 0.20066 8.001 63.70066 8.001 0.381 21
DS -0.29972 22.49932 -0.29972 8.49884 0.381 21
DS 63.70066 22.9997 0.20066 22.9997 0.381 21
DS 64.20104 8.49884 64.20104 22.49932 0.381 21
DA 63.70066 8.49884 63.70066 8.001 900 0.381 21
DA 63.70066 22.49932 64.20104 22.49932 900 0.381 21
DA 0.20066 22.49932 0.20066 22.9997 900 0.381 21
DA 0.20066 8.49884 -0.29972 8.49884 900 0.381 21
DS -4.59994 2.90068 68.60032 2.90068 0.381 21
DS 68.60032 2.90068 68.60032 28.30068 0.381 21
DS 68.60032 28.30068 -4.59994 28.30068 0.381 21
DS -4.59994 28.30068 -4.59994 2.90068 0.381 21
DC 69.49948 0 71.99884 0 0.381 21
DC 69.49948 31.0007 71.99884 31.0007 0.381 21
DC -5.4991 31.0007 -8.001 31.0007 0.381 21
DC -5.4991 0 -2.99974 0 0.381 21
DS -8.001 -2.49936 71.99884 -2.49936 0.381 21
DS 71.99884 -2.49936 71.99884 33.50006 0.381 21
DS 71.99884 33.50006 -8.001 33.50006 0.381 21
DS -8.001 33.50006 -8.001 -2.49936 0.381 21
$PAD
Sh "1" O 1.8 2.6 0 0 0
Dr 1.2 0 0
At STD N 00E0FFFF
Ne 0 ""
Po 0 0
$EndPAD
$PAD
Sh "2" O 1.8 2.6 0 0 0
Dr 1.2 0 0
At STD N 00E0FFFF
Ne 0 ""
Po 2.54 0
$EndPAD
$PAD
Sh "3" O 1.8 2.6 0 0 0
Dr 1.2 0 0
At STD N 00E0FFFF
Ne 0 ""
Po 5.08 0
$EndPAD
$PAD
Sh "4" O 1.8 2.6 0 0 0
Dr 1.2 0 0
At STD N 00E0FFFF
Ne 0 ""
Po 7.62 0
$EndPAD
$PAD
Sh "5" O 1.8 2.6 0 0 0
Dr 1.2 0 0
At STD N 00E0FFFF
Ne 0 ""
Po 10.16 0
$EndPAD
$PAD
Sh "6" O 1.8 2.6 0 0 0
Dr 1.2 0 0
At STD N 00E0FFFF
Ne 0 ""
Po 12.7 0
$EndPAD
$PAD
Sh "7" O 1.8 2.6 0 0 0
Dr 1.2 0 0
At STD N 00E0FFFF
Ne 0 ""
Po 15.24 0
$EndPAD
$PAD
Sh "8" O 1.8 2.6 0 0 0
Dr 1.2 0 0
At STD N 00E0FFFF
Ne 0 ""
Po 17.78 0
$EndPAD
$PAD
Sh "9" O 1.8 2.6 0 0 0
Dr 1.2 0 0
At STD N 00E0FFFF
Ne 0 ""
Po 20.32 0
$EndPAD
$PAD
Sh "10" O 1.8 2.6 0 0 0
Dr 1.2 0 0
At STD N 00E0FFFF
Ne 0 ""
Po 22.86 0
$EndPAD
$PAD
Sh "11" O 1.8 2.6 0 0 0
Dr 1.2 0 0
At STD N 00E0FFFF
Ne 0 ""
Po 25.4 0
$EndPAD
$PAD
Sh "12" O 1.8 2.6 0 0 0
Dr 1.2 0 0
At STD N 00E0FFFF
Ne 0 ""
Po 27.94 0
$EndPAD
$PAD
Sh "13" O 1.8 2.6 0 0 0
Dr 1.2 0 0
At STD N 00E0FFFF
Ne 0 ""
Po 30.48 0
$EndPAD
$PAD
Sh "14" O 1.8 2.6 0 0 0
Dr 1.2 0 0
At STD N 00E0FFFF
Ne 0 ""
Po 33.02 0
$EndPAD
$PAD
Sh "15" O 1.8 2.6 0 0 0
Dr 1.2 0 0
At STD N 00E0FFFF
Ne 0 ""
Po 35.56 0
$EndPAD
$PAD
Sh "16" O 1.8 2.6 0 0 0
Dr 1.2 0 0
At STD N 00E0FFFF
Ne 0 ""
Po 38.1 0
$EndPAD
$PAD
Sh "0" C 3 3 0 0 0
Dr 2.5 0 0
At STD N 00E0FFFF
Ne 0 ""
Po -5.4991 0
$EndPAD
$PAD
Sh "0" C 3 3 0 0 0
Dr 2.5 0 0
At STD N 00E0FFFF
Ne 0 ""
Po -5.4991 31.0007
$EndPAD
$PAD
Sh "0" C 3 3 0 0 0
Dr 2.5 0 0
At STD N 00E0FFFF
Ne 0 ""
Po 69.49948 31.0007
$EndPAD
$PAD
Sh "0" C 3 3 0 0 0
Dr 2.5 0 0
At STD N 00E0FFFF
Ne 0 ""
Po 69.49948 0
$EndPAD
$EndMODULE WC1602A
$EndLIBRARY
