PCBNEW-LibModule-V1  Mi 02 Okt 2013 20:41:51 CEST
# encoding utf-8
Units mm
$INDEX
BladeFuse-CarType_RevA_02Oct2013
BladeFuse-Mini_RevA_02Oct2013
Fuse_SMD1206_HandSoldering_RevA_28Aug2012
Fuse_SMD1206_Reflow_RevA_28Aug2012
Fuse_SMD1206_Wave_RevA_28Aug2012
Fuse_TE5_Littlefuse-395Series_RevA_28Aug2012
Fuseholder5x20_Horizontal_closed_Bulgin_FX0457_RevA_Date28Aug2012
Fuseholder5x20_horiz_SemiClosed_Casing10x25mm_RevA_Date25Jul2010
Fuseholder5x20_horiz_open_inline_Type-I_RevC_Date24Feb2011
Fuseholder5x20_horiz_open_lateral_Type-II_RevC_Date24Feb2011
Fuseholder5x20_horiz_open_universal_Type-III_RevC_Date24Feb2011
Fuseholder5x20_vert_closed_Bulgin_FX0456_RevB_Date05Jul2010
Fuseholder6x32_Horiz_Open_Schurter0031-8002_RevB_Date05Jul2010
Fuseholder_Fuse_TR5_Littlefuse-No560_No460_RevA_28Aug2012
$EndINDEX
$MODULE BladeFuse-CarType_RevA_02Oct2013
Po 0 0 0 15 524C689C 00000000 ~~
Li BladeFuse-CarType_RevA_02Oct2013
Sc 0
AR 
Op 0 0 0
T0 -0.1 -5.2 1.524 1.524 0 0.3048 N V 21 N "F"
T1 -0.3 6.1 1.524 1.524 0 0.3048 N I 21 N "BladeFuse-CarType_RevA_02Oct2013"
DS 0.3 0 -0.3 0 0.381 21
DS -10 -3 10 -3 0.381 21
DS 10 -3 10 3 0.381 21
DS 10 3 -10 3 0.381 21
DS -10 3 -10 -3 0.381 21
DS -9.6 -2.5 9.6 -2.5 0.381 21
DS 9.6 -2.5 9.6 2.5 0.381 21
DS 9.6 2.5 -9.6 2.5 0.381 21
DS -9.6 2.5 -9.6 -2.5 0.381 21
$PAD
Sh "1" O 8 3.8 0 0 0
Dr 6 0 0 O 6 2
At STD N 00E0FFFF
Ne 0 ""
Po -4.65 0
$EndPAD
$PAD
Sh "2" O 8 3.8 0 0 0
Dr 6 0 0 O 6 2
At STD N 00E0FFFF
Ne 0 ""
Po 4.65 0
$EndPAD
$SHAPE3D
Na "FuseholdersAndfuses_Wings3D_RevA_02Oct2013/BladeFuse_CarType_Faktor03937_RevA_02Oct2013.wrl"
Sc 0.3937 0.3937 0.3937
Of 0 0 0
Ro 0 0 0
$EndSHAPE3D
$EndMODULE BladeFuse-CarType_RevA_02Oct2013
$MODULE BladeFuse-Mini_RevA_02Oct2013
Po 0 0 0 15 524C67E3 00000000 ~~
Li BladeFuse-Mini_RevA_02Oct2013
Sc 0
AR 
Op 0 0 0
T0 0.2 -4.7 1.524 1.524 0 0.3048 N V 21 N "F"
T1 0.2 4.7 1.524 1.524 0 0.3048 N I 21 N "BladeFuse-Mini_RevA_02Oct2013"
DS -0.75 0 0.85 0 0.381 21
DS 1.6 2 -1.6 2 0.381 21
DS -1.6 -2 1.6 -2 0.381 21
$PAD
Sh "1" O 5.5 3.8 0 0 0
Dr 3.5 0 0 O 3.5 2
At STD N 00E0FFFF
Ne 0 ""
Po -4 0
$EndPAD
$PAD
Sh "2" O 5.3 3.8 0 0 0
Dr 3.5 0 0 O 3.5 2
At STD N 00E0FFFF
Ne 0 ""
Po 4 0
$EndPAD
$SHAPE3D
Na "FuseholdersAndfuses_Wings3D_RevA_02Oct2013/BladeFuse_Mini_Faktor03937_RevA_02Oct2013.wrl"
Sc 0.3937 0.3937 0.3937
Of 0 0 0
Ro 0 0 0
$EndSHAPE3D
$EndMODULE BladeFuse-Mini_RevA_02Oct2013
$MODULE Fuse_SMD1206_HandSoldering_RevA_28Aug2012
Po 0 0 0 15 503CE334 00000000 ~~
Li Fuse_SMD1206_HandSoldering_RevA_28Aug2012
Cd Fuse, Sicherung, SMD1206, Littlefuse-Wickmann 433 Series, Hand Soldering,
Kw Fuse, Sicherung, SMD1206,  Littlefuse-Wickmann 433 Series, Hand Soldering,
Sc 0
AR 
Op 0 0 0
At SMD
T0 -0.0508 -2.19964 1.524 1.524 0 0.3048 N V 21 N "F"
T1 -0.14986 2.49936 1.524 1.524 0 0.3048 N I 21 N "Fuse_SMD1206_HandSoldering_RevA_28Aug2012"
$PAD
Sh "1" R 2.02946 2.65176 0 0 900
Dr 0 0 0
At SMD N 00888000
Ne 0 ""
Po -2.08534 0
$EndPAD
$PAD
Sh "2" R 2.02946 2.65176 0 0 900
Dr 0 0 0
At SMD N 00888000
Ne 0 ""
Po 2.08534 0
$EndPAD
$EndMODULE Fuse_SMD1206_HandSoldering_RevA_28Aug2012
$MODULE Fuse_SMD1206_Reflow_RevA_28Aug2012
Po 0 0 0 15 503CE25F 00000000 ~~
Li Fuse_SMD1206_Reflow_RevA_28Aug2012
Cd Fuse, Sicherung, SMD1206, Littlefuse-Wickmann, Reflow,
Kw Fuse, Sicherung, SMD1206,  Littlefuse-Wickmann, Reflow,
Sc 0
AR 
Op 0 0 0
At SMD
T0 -0.09906 -2.75082 1.524 1.524 0 0.3048 N V 21 N "F"
T1 -0.44958 3.2004 1.524 1.524 0 0.3048 N I 21 N "Fuse_SMD1206_Reflow_RevA_28Aug2012"
$PAD
Sh "1" R 2.02946 1.14046 0 0 900
Dr 0 0 0
At SMD N 00888000
Ne 0 ""
Po -1.20396 0
$EndPAD
$PAD
Sh "2" R 2.02946 1.14046 0 0 900
Dr 0 0 0
At SMD N 00888000
Ne 0 ""
Po 1.20396 0
$EndPAD
$EndMODULE Fuse_SMD1206_Reflow_RevA_28Aug2012
$MODULE Fuse_SMD1206_Wave_RevA_28Aug2012
Po 0 0 0 15 503CE282 00000000 ~~
Li Fuse_SMD1206_Wave_RevA_28Aug2012
Cd Fuse, Sicherung, SMD1206, Littlefuse-Wickmann 433 Series, Wave,
Kw Fuse, Sicherung, SMD1206,  Littlefuse-Wickmann 433 Series, Wave,
Sc 0
AR 
Op 0 0 0
At SMD
T0 -0.0508 -2.19964 1.524 1.524 0 0.3048 N V 21 N "F"
T1 -0.14986 2.49936 1.524 1.524 0 0.3048 N I 21 N "Fuse_SMD1206_Wave_RevA_28Aug2012"
$PAD
Sh "1" R 2.02946 1.651 0 0 900
Dr 0 0 0
At SMD N 00888000
Ne 0 ""
Po -1.58496 0
$EndPAD
$PAD
Sh "2" R 2.02946 1.651 0 0 900
Dr 0 0 0
At SMD N 00888000
Ne 0 ""
Po 1.58496 0
$EndPAD
$EndMODULE Fuse_SMD1206_Wave_RevA_28Aug2012
$MODULE Fuse_TE5_Littlefuse-395Series_RevA_28Aug2012
Po 0 0 0 15 503CDEC3 00000000 ~~
Li Fuse_TE5_Littlefuse-395Series_RevA_28Aug2012
Cd Fuse, TE5, Littlefuse/Wickmann, No. 460, No560,
Kw Fuse, TE5, Littlefuse/Wickmann, No. 460, No560,
Sc 0
AR Fuseholder_Fuse_TR5_Littlefuse-No560_No460_RevA_28Aug2012
Op 0 0 0
T0 0.09906 -3.40106 1.524 1.524 0 0.3048 N V 21 N "F"
T1 -0.20066 3.70078 1.524 1.524 0 0.3048 N I 21 N "Fuse_TE5_Littlefuse-395Series_RevA_28Aug2012"
DS -4.24942 1.99898 4.24942 1.99898 0.381 21
DS 4.24942 1.99898 4.24942 -1.99898 0.381 21
DS 4.24942 -1.99898 -4.24942 -1.99898 0.381 21
DS -4.24942 -1.99898 -4.24942 1.99898 0.381 21
$PAD
Sh "1" C 1.50114 1.50114 0 0 0
Dr 1.00076 0 0
At STD N 00E0FFFF
Ne 0 ""
Po -2.54 0
$EndPAD
$PAD
Sh "2" C 1.50114 1.50114 0 0 0
Dr 1.00076 0 0
At STD N 00E0FFFF
Ne 0 ""
Po 2.54 0.01016
$EndPAD
$EndMODULE Fuse_TE5_Littlefuse-395Series_RevA_28Aug2012
$MODULE Fuseholder5x20_Horizontal_closed_Bulgin_FX0457_RevA_Date28Aug2012
Po 0 0 0 15 503CE618 00000000 ~~
Li Fuseholder5x20_Horizontal_closed_Bulgin_FX0457_RevA_Date28Aug2012
Cd Fuseholder, 5x20, closed, horizontal, Bulgin, FX0457, Sicherungshalter,
Kw Fuseholder, 5x20, closed, horizontal, Bulgin, FX0457, Sicherungshalter,
Sc 0
AR 
Op 0 0 0
T0 0.2794 -8.2042 1.524 1.524 0 0.3048 N V 21 N "F"
T1 0 8.89 1.524 1.524 0 0.3048 N I 21 N "Fuseholder5x20_Horizontal_closed_Bulgin_FX0457_RevA_Date28Aug2012"
DS 27.70124 -0.8001 26.90114 -0.8001 0.381 21
DS 26.90114 -0.8001 26.90114 0.8001 0.381 21
DS 26.90114 0.8001 27.70124 0.8001 0.381 21
DS 19.70024 6.2992 19.70024 -6.2992 0.381 21
DS 27.70124 -6.2992 -7.39902 -6.2992 0.381 21
DS 27.70124 6.2992 27.70124 -6.2992 0.381 21
DS -7.39902 6.2992 27.70124 6.2992 0.381 21
DS -7.39902 6.2992 -7.39902 -6.2992 0.381 21
$PAD
Sh "2" C 2.99974 2.99974 0 0 0
Dr 1.34874 0 0
At STD N 00E0FFFF
Ne 0 ""
Po 5.08 0
$EndPAD
$PAD
Sh "1" C 2.99974 2.99974 0 0 0
Dr 1.34874 0 0
At STD N 00E0FFFF
Ne 0 ""
Po -5.08 0
$EndPAD
$EndMODULE Fuseholder5x20_Horizontal_closed_Bulgin_FX0457_RevA_Date28Aug2012
$MODULE Fuseholder5x20_horiz_SemiClosed_Casing10x25mm_RevA_Date25Jul2010
Po 0 0 0 15 4C320AB0 00000000 ~~
Li Fuseholder5x20_horiz_SemiClosed_Casing10x25mm_RevA_Date25Jul2010
Cd Fuseholder, 5x20, Semi closed, horizontal, Casing 10x25mm,
Kw Fuseholder, 5x20, Semi closed, horizontal, Casing 10x25mm, Sicherungshalter, halbgeschlossen,
Sc 0
AR 
Op 0 0 0
T0 0 -7.62 1.524 1.524 0 0.3048 N V 21 N "F"
T1 1.27 7.62 1.524 1.524 0 0.3048 N I 21 N "Fuseholder5x20_horiz_SemiClosed_Casing10x25mm_RevA_Date25Jul2010"
DS -5.99948 -2.49936 -5.99948 -5.00126 0.381 21
DS -5.99948 5.00126 -5.99948 2.49936 0.381 21
DS 5.99948 5.00126 5.99948 2.49936 0.381 21
DS 5.99948 -5.00126 5.99948 -2.49936 0.381 21
DS -4.50088 0 4.50088 0 0.381 21
DS -4.50088 -2.49936 -4.50088 2.49936 0.381 21
DS 4.50088 -2.49936 4.50088 2.49936 0.381 21
DS 9.99998 -1.89992 9.99998 -2.49936 0.381 21
DS -9.99998 1.89992 -9.99998 2.49936 0.381 21
DS -9.99998 2.49936 9.99998 2.49936 0.381 21
DS 9.99998 2.49936 9.99998 1.89992 0.381 21
DS 9.99998 -2.49936 -9.99998 -2.49936 0.381 21
DS -9.99998 -2.49936 -9.99998 -1.89992 0.381 21
DS 11.99896 -1.89992 11.99896 -5.00126 0.381 21
DS -11.99896 1.89992 -11.99896 5.00126 0.381 21
DS -11.99896 5.00126 11.99896 5.00126 0.381 21
DS 11.99896 5.00126 11.99896 1.89992 0.381 21
DS 11.99896 -5.00126 -11.99896 -5.00126 0.381 21
DS -11.99896 -5.00126 -11.99896 -1.89992 0.381 21
$PAD
Sh "2" O 2.49936 4.0005 0 0 2700
Dr 1.50114 0 0
At STD N 00E0FFFF
Ne 0 ""
Po 11.00074 0
$EndPAD
$PAD
Sh "1" O 2.49936 4.0005 0 0 2700
Dr 1.50114 0 0
At STD N 00E0FFFF
Ne 0 ""
Po -11.00074 0
$EndPAD
$EndMODULE Fuseholder5x20_horiz_SemiClosed_Casing10x25mm_RevA_Date25Jul2010
$MODULE Fuseholder5x20_horiz_open_inline_Type-I_RevC_Date24Feb2011
Po 0 0 0 15 4D66D34B 00000000 ~~
Li Fuseholder5x20_horiz_open_inline_Type-I_RevC_Date24Feb2011
Cd Fuseholder, 5x20, open, horizontal, Type-I, Inline,
Kw Fuseholder, 5x20, open, horizontal, Type-I, Inline, Sicherungshalter, offen,
Sc 0
AR 
Op 0 0 0
T0 0 -5.08 1.524 1.524 0 0.3048 N V 21 N "F"
T1 1.27 5.08 1.524 1.524 0 0.3048 N I 21 N "Fuseholder5x20_horiz_open_inline_Type-I_RevC_Date24Feb2011"
DS 3.2512 0 -3.2512 0 0.3048 21
DS 3.2512 -3.50012 3.2512 3.50012 0.3048 21
DS 11.99896 3.50012 3.2512 3.50012 0.3048 21
DS 11.99896 -3.50012 3.2512 -3.50012 0.3048 21
DS -10.74928 2.49936 -11.99896 2.49936 0.3048 21
DS -10.50036 -2.49936 -11.99896 -2.49936 0.3048 21
DS 1.50114 2.49936 -10.74928 2.49936 0.3048 21
DS 1.24968 -2.49936 -10.50036 -2.49936 0.3048 21
DS 11.99896 2.49936 1.50114 2.49936 0.3048 21
DS 11.99896 -2.49936 1.24968 -2.49936 0.3048 21
DS 11.99896 -2.49936 11.99896 2.49936 0.3048 21
DS 12.99972 -3.50012 11.99896 -3.50012 0.3048 21
DS 12.99972 -3.50012 12.99972 3.50012 0.3048 21
DS 12.99972 3.50012 11.99896 3.50012 0.3048 21
DS -11.99896 -2.49936 -11.99896 2.49936 0.3048 21
DS -3.2512 -3.50012 -12.99972 -3.50012 0.3048 21
DS -12.99972 -3.50012 -12.99972 3.50012 0.3048 21
DS -3.2512 3.50012 -12.99972 3.50012 0.3048 21
DS -3.2512 -3.50012 -3.2512 3.50012 0.3048 21
$PAD
Sh "2" C 2.3495 2.3495 0 0 0
Dr 1.34874 0 0
At STD N 00E0FFFF
Ne 0 ""
Po 5.00126 0
$EndPAD
$PAD
Sh "2" C 2.3495 2.3495 0 0 0
Dr 1.34874 0 0
At STD N 00E0FFFF
Ne 0 ""
Po 9.99998 0
$EndPAD
$PAD
Sh "1" C 2.3495 2.3495 0 0 0
Dr 1.34874 0 0
At STD N 00E0FFFF
Ne 0 ""
Po -5.00126 0
$EndPAD
$PAD
Sh "1" C 2.3495 2.3495 0 0 0
Dr 1.34874 0 0
At STD N 00E0FFFF
Ne 0 ""
Po -9.99998 0
$EndPAD
$EndMODULE Fuseholder5x20_horiz_open_inline_Type-I_RevC_Date24Feb2011
$MODULE Fuseholder5x20_horiz_open_lateral_Type-II_RevC_Date24Feb2011
Po 0 0 0 15 4D66D2DB 00000000 ~~
Li Fuseholder5x20_horiz_open_lateral_Type-II_RevC_Date24Feb2011
Cd Fuseholder, 5x20, open, horizontal, Type-II, lateral,
Kw Fuseholder, 5x20, open, horizontal, Type-II, lateral, Sicherungshalter, offen,
Sc 0
AR 
Op 0 0 0
T0 0 -5.08 1.524 1.524 0 0.3048 N V 21 N "F"
T1 -1.27 6.35 1.524 1.524 0 0.3048 N I 21 N "Fuseholder5x20_horiz_open_lateral_Type-II_RevC_Date24Feb2011"
DS 3.2512 0 -3.2512 0 0.3048 21
DS 12.86764 3.429 9.05764 3.429 0.381 21
DS 3.21564 3.429 6.26364 3.429 0.381 21
DS 5.715 2.54 8.382 2.54 0.381 21
DS 11.97864 2.54 9.31164 2.54 0.381 21
DS 3.21564 -2.54 6.00964 -2.54 0.381 21
DS 11.9761 -2.54 9.3091 -2.54 0.381 21
DS 12.86764 -3.429 9.18464 -3.429 0.381 21
DS 3.21564 -3.429 6.13664 -3.429 0.381 21
DS -12.86764 3.429 -9.18464 3.429 0.381 21
DS -3.34264 3.429 -6.13664 3.429 0.381 21
DS -5.88264 2.54 -6.00964 2.54 0.381 21
DS -5.88264 2.54 -3.34264 2.54 0.381 21
DS -12.10564 2.54 -9.31164 2.54 0.381 21
DS -12.86764 -3.429 -9.05764 -3.429 0.381 21
DS -3.34264 -3.429 -6.13664 -3.429 0.381 21
DS -3.34264 -2.54 -6.00964 -2.54 0.381 21
DS -12.10564 -2.54 -9.31164 -2.54 0.381 21
DS 12.86764 -3.429 12.86764 3.429 0.381 21
DS 3.21564 3.429 3.21564 2.54 0.381 21
DS 3.21564 -3.429 3.21564 -2.54 0.381 21
DS -12.86764 -3.429 -12.86764 3.429 0.381 21
DS -3.34264 3.429 -3.34264 2.54 0.381 21
DS -3.34264 -3.429 -3.34264 -2.413 0.381 21
DS 5.715 2.54 -5.969 2.54 0.381 21
DS -5.842 -2.54 5.715 -2.54 0.381 21
DS -3.34264 0 -3.34264 -2.54 0.381 21
DS -12.1031 -2.54 -12.1031 2.54 0.381 21
DS -3.34264 2.54 -3.34264 0 0.381 21
DS 3.21564 0 3.21564 -2.54 0.381 21
DS 11.9761 -2.54 11.9761 2.54 0.381 21
DS 3.21564 2.54 3.21564 0 0.381 21
$PAD
Sh "2" C 2.3495 2.3495 0 0 0
Dr 1.34874 0 0
At STD N 00E0FFFF
Ne 0 ""
Po 7.66064 -2.54
$EndPAD
$PAD
Sh "2" C 2.3495 2.3495 0 0 0
Dr 1.34874 0 0
At STD N 00E0FFFF
Ne 0 ""
Po 7.66064 2.54
$EndPAD
$PAD
Sh "1" C 2.3495 2.3495 0 0 0
Dr 1.34874 0 0
At STD N 00E0FFFF
Ne 0 ""
Po -7.66064 -2.54
$EndPAD
$PAD
Sh "1" C 2.3495 2.3495 0 0 0
Dr 1.34874 0 0
At STD N 00E0FFFF
Ne 0 ""
Po -7.66064 2.54
$EndPAD
$EndMODULE Fuseholder5x20_horiz_open_lateral_Type-II_RevC_Date24Feb2011
$MODULE Fuseholder5x20_horiz_open_universal_Type-III_RevC_Date24Feb2011
Po 0 0 0 15 4D66D433 00000000 ~~
Li Fuseholder5x20_horiz_open_universal_Type-III_RevC_Date24Feb2011
Cd Fuseholder, 5x20, open, horizontal, Type-III, universal, inline, lateral,
Kw Fuseholder, 5x20, open, horizontal, Type-III, universal, inline, lateral, Sicherungshalter, offen,
Sc 0
AR 
Op 0 0 0
T0 0 -5.08 1.524 1.524 0 0.3048 N V 21 N "F"
T1 2.54 6.35 1.524 1.524 0 0.3048 N I 21 N "Fuseholder5x20_horiz_open_universal_Type-III_RevC_Date24Feb2011"
DS -3.2512 0 3.2512 0 0.3048 21
DS -3.3401 3.429 -6.2611 3.429 0.381 21
DS -12.8651 3.429 -9.0551 3.429 0.381 21
DS -12.1031 2.54 -9.3091 2.54 0.381 21
DS -3.3401 2.54 -6.0071 2.54 0.381 21
DS -12.8651 -3.429 -9.0551 -3.429 0.381 21
DS -12.1031 -2.54 -9.3091 -2.54 0.381 21
DS -3.3401 -3.429 -6.2611 -3.429 0.381 21
DS -3.3401 -2.54 -6.0071 -2.54 0.381 21
DS 3.21564 -3.429 6.26364 -3.429 0.381 21
DS 3.21564 -2.54 6.00964 -2.54 0.381 21
DS 3.21564 2.54 6.00964 2.54 0.381 21
DS 3.21564 3.429 6.26364 3.429 0.381 21
DS 12.86764 3.429 9.05764 3.429 0.381 21
DS 11.97864 2.54 9.31164 2.54 0.381 21
DS 12.86764 -3.429 9.05764 -3.429 0.381 21
DS 11.97864 -2.54 9.31164 -2.54 0.381 21
DS 12.86764 -3.429 12.86764 3.429 0.381 21
DS 3.21564 3.429 3.21564 2.54 0.381 21
DS 3.21564 -3.429 3.21564 -2.54 0.381 21
DS -12.86764 -3.429 -12.86764 3.429 0.381 21
DS -3.34264 3.429 -3.34264 2.54 0.381 21
DS -3.34264 -3.429 -3.34264 -2.413 0.381 21
DS 5.715 2.54 -5.969 2.54 0.381 21
DS -5.842 -2.54 5.715 -2.54 0.381 21
DS -3.34264 0 -3.34264 -2.54 0.381 21
DS -12.10564 -2.54 -12.10564 2.54 0.381 21
DS -3.34264 2.54 -3.34264 0 0.381 21
DS 3.21564 0 3.21564 -2.54 0.381 21
DS 11.9761 -2.54 11.9761 2.54 0.381 21
DS 3.21564 2.54 3.21564 0 0.381 21
$PAD
Sh "2" C 2.3495 2.3495 0 0 0
Dr 1.34874 0 0
At STD N 00E0FFFF
Ne 0 ""
Po 5.12064 0
$EndPAD
$PAD
Sh "2" C 2.3495 2.3495 0 0 0
Dr 1.34874 0 0
At STD N 00E0FFFF
Ne 0 ""
Po 10.20064 0
$EndPAD
$PAD
Sh "1" C 2.3495 2.3495 0 0 0
Dr 1.34874 0 0
At STD N 00E0FFFF
Ne 0 ""
Po -5.1181 0
$EndPAD
$PAD
Sh "1" C 2.3495 2.3495 0 0 0
Dr 1.34874 0 0
At STD N 00E0FFFF
Ne 0 ""
Po -10.1981 0
$EndPAD
$PAD
Sh "2" C 2.3495 2.3495 0 0 0
Dr 1.34874 0 0
At STD N 00E0FFFF
Ne 0 ""
Po 7.66064 -2.54
$EndPAD
$PAD
Sh "2" C 2.3495 2.3495 0 0 0
Dr 1.34874 0 0
At STD N 00E0FFFF
Ne 0 ""
Po 7.66064 2.54
$EndPAD
$PAD
Sh "1" C 2.3495 2.3495 0 0 0
Dr 1.34874 0 0
At STD N 00E0FFFF
Ne 0 ""
Po -7.6581 -2.54
$EndPAD
$PAD
Sh "1" C 2.3495 2.3495 0 0 0
Dr 1.34874 0 0
At STD N 00E0FFFF
Ne 0 ""
Po -7.6581 2.54
$EndPAD
$EndMODULE Fuseholder5x20_horiz_open_universal_Type-III_RevC_Date24Feb2011
$MODULE Fuseholder5x20_vert_closed_Bulgin_FX0456_RevB_Date05Jul2010
Po 0 0 0 15 4BA25BD2 00000000 ~~
Li Fuseholder5x20_vert_closed_Bulgin_FX0456_RevB_Date05Jul2010
Cd Fuseholder, 5x20, closed, vertical, Bulgin, FX0456
Kw Fuseholder, 5x20, closed, vertical, Bulgin, FX0456, Sicherungshalter,
Sc 0
AR 
Op 0 0 0
T0 0.2794 -8.2042 1.524 1.524 0 0.3048 N V 21 N "F"
T1 0 8.89 1.524 1.524 0 0.3048 N I 21 N "Fuseholder5x20_vert_closed_Bulgin_FX0456_RevB_Date05Jul2010"
T2 3.302 2.667 1.524 1.524 0 0.3048 N V 21 N "S"
T2 -3.302 -2.286 1.524 1.524 0 0.3048 N V 21 N "F"
DS 2.794 -4.699 -2.032 5.08 0.381 21
DS 1.778 -5.207 -2.921 4.572 0.381 21
DS 5.08 -2.032 4.826 -2.667 0.381 21
DS 4.826 -2.667 4.318 -3.429 0.381 21
DS 4.318 -3.429 3.556 -4.191 0.381 21
DS 3.556 -4.191 2.667 -4.826 0.381 21
DS 2.667 -4.826 1.524 -5.334 0.381 21
DS 1.524 -5.334 0.762 -5.461 0.381 21
DS 0.762 -5.461 -1.016 -5.461 0.381 21
DS -1.016 -5.461 -1.778 -5.207 0.381 21
DS -1.778 -5.207 -2.413 -4.953 0.381 21
DS -2.413 -4.953 -3.302 -4.445 0.381 21
DS -3.302 -4.445 -4.064 -3.81 0.381 21
DS -4.064 -3.81 -4.572 -3.048 0.381 21
DS -4.572 -3.048 -5.207 -2.032 0.381 21
DS -5.08 2.159 -4.826 2.667 0.381 21
DS -4.826 2.667 -4.572 3.048 0.381 21
DS -4.572 3.048 -4.191 3.556 0.381 21
DS -4.191 3.556 -3.683 4.064 0.381 21
DS -3.683 4.064 -2.794 4.699 0.381 21
DS -2.794 4.699 -2.159 5.08 0.381 21
DS -2.159 5.08 -1.397 5.334 0.381 21
DS -1.397 5.334 -0.762 5.461 0.381 21
DS -0.762 5.461 -0.127 5.461 0.381 21
DS -0.127 5.461 0.381 5.461 0.381 21
DS 0.381 5.461 0.889 5.461 0.381 21
DS 0.889 5.461 1.27 5.334 0.381 21
DS 1.27 5.334 2.286 4.953 0.381 21
DS 2.286 4.953 2.921 4.572 0.381 21
DS 2.921 4.572 3.81 3.937 0.381 21
DS 3.81 3.937 4.572 3.048 0.381 21
DS 4.572 3.048 5.08 2.032 0.381 21
DS -6.35 -6.35 -6.35 -1.651 0.381 21
DS -6.35 6.35 -6.35 1.651 0.381 21
DS 6.35 6.35 6.35 1.524 0.381 21
DS 6.35 -6.35 6.35 -1.524 0.381 21
DS 6.35 -1.524 6.35 -1.651 0.381 21
DS 6.35 -6.35 -6.35 -6.35 0.381 21
DS -6.35 6.35 6.35 6.35 0.381 21
DC -5.0038 5.0038 -4.4958 6.0198 0.381 21
DC 5.0038 5.0038 5.5626 5.9944 0.381 21
DC -5.0038 -5.0038 -4.5974 -3.937 0.381 21
DC 5.0038 -5.0038 5.3848 -3.937 0.381 21
$PAD
Sh "2" C 2.99974 2.99974 0 0 0
Dr 1.34874 0 0
At STD N 00E0FFFF
Ne 0 ""
Po 5.08 0
$EndPAD
$PAD
Sh "1" C 2.99974 2.99974 0 0 0
Dr 1.34874 0 0
At STD N 00E0FFFF
Ne 0 ""
Po -5.08 0
$EndPAD
$PAD
Sh "3" C 2.19964 2.19964 0 0 0
Dr 2.19964 0 0
At STD N 0120FFFF
Ne 0 ""
Po 5.0038 -5.0038
$EndPAD
$PAD
Sh "3" C 2.19964 2.19964 0 0 0
Dr 2.19964 0 0
At STD N 0120FFFF
Ne 0 ""
Po -5.0038 -5.0038
$EndPAD
$PAD
Sh "3" C 2.19964 2.19964 0 0 0
Dr 2.19964 0 0
At STD N 0120FFFF
Ne 0 ""
Po -5.0038 5.0038
$EndPAD
$PAD
Sh "3" C 2.19964 2.19964 0 0 0
Dr 2.19964 0 0
At STD N 0120FFFF
Ne 0 ""
Po 5.0038 5.0038
$EndPAD
$EndMODULE Fuseholder5x20_vert_closed_Bulgin_FX0456_RevB_Date05Jul2010
$MODULE Fuseholder6x32_Horiz_Open_Schurter0031-8002_RevB_Date05Jul2010
Po 0 0 0 15 503CE846 00000000 ~~
Li Fuseholder6x32_Horiz_Open_Schurter0031-8002_RevB_Date05Jul2010
Cd Fuseholder, horizontal, open, 6x32, Schurter, 0031.8002,
Kw Fuseholder, horizontal, open, 6x32, Schurter, 0031.8002, Sicherungshalter,
Sc 0
AR 
Op 0 0 0
T0 0 -10.16 1.524 1.524 0 0.3048 N V 21 N "F"
T1 -1.27 11.43 1.524 1.524 0 0.3048 N I 21 N "Fuseholder6x32_Horizontal_Open_Schurter0031-8002_RevB_Date05Jul2010"
DS -21.844 2.54 -21.844 7.62 0.381 21
DS -21.844 -7.62 -21.844 -2.54 0.381 21
DS -21.844 -2.54 -20.32 -2.54 0.381 21
DS -20.32 2.54 -21.844 2.54 0.381 21
DS 21.844 2.54 21.844 7.62 0.381 21
DS 21.844 -7.62 21.844 -2.54 0.381 21
DS 21.844 -2.54 20.32 -2.54 0.381 21
DS 20.32 2.54 21.844 2.54 0.381 21
DS -21.844 -5.461 21.844 -5.461 0.381 21
DS 21.844 5.461 -21.844 5.461 0.381 21
DS 21.844 7.62 -21.844 7.62 0.381 21
DS -21.844 -7.62 21.844 -7.62 0.381 21
$PAD
Sh "" C 3.2512 3.2512 0 0 0
Dr 3.2512 0 0
At HOLE N 00E0FFFF
Ne 0 ""
Po 0 0
$EndPAD
$PAD
Sh "2" O 3.2512 5.99948 0 0 900
Dr 1.30048 0 0
At STD N 00E0FFFF
Ne 0 ""
Po 18.796 0
$EndPAD
$PAD
Sh "1" O 3.2512 5.99948 0 0 900
Dr 1.30048 0 0
At STD N 00E0FFFF
Ne 0 ""
Po -18.796 0
$EndPAD
$EndMODULE Fuseholder6x32_Horiz_Open_Schurter0031-8002_RevB_Date05Jul2010
$MODULE Fuseholder_Fuse_TR5_Littlefuse-No560_No460_RevA_28Aug2012
Po 0 0 0 15 503CDD96 00000000 ~~
Li Fuseholder_Fuse_TR5_Littlefuse-No560_No460_RevA_28Aug2012
Cd Fuse, Fuseholder, TR5, Littlefuse/Wickmann, No. 460, No560,
Kw Fuse, Fuseholder, TR5, Littlefuse/Wickmann, No. 460, No560,
Sc 0
AR Fuseholder_Fuse_TR5_Littlefuse-No560_No460_RevA_28Aug2012
Op 0 0 0
T0 -0.14986 -6.89102 1.524 1.524 0 0.3048 N V 21 N "F"
T1 -0.14986 7.4295 1.524 1.524 0 0.3048 N I 21 N "Fuseholder_Fuse_TR5_Littlefuse-No560_No460_RevA_28Aug2012"
DS 3.85064 2.78892 3.97002 2.93116 0.381 21
DS 3.97002 2.93116 4.05892 3.09118 0.381 21
DS 4.05892 3.09118 4.10972 3.3401 0.381 21
DS 4.10972 3.3401 4.07924 3.59918 0.381 21
DS 4.07924 3.59918 3.92938 3.8608 0.381 21
DS 3.92938 3.8608 3.71094 4.03098 0.381 21
DS 3.71094 4.03098 3.41884 4.10972 0.381 21
DS 3.41884 4.10972 3.12928 4.06908 0.381 21
DS 3.12928 4.06908 2.94894 3.99034 0.381 21
DS 2.94894 3.99034 2.8194 3.84048 0.381 21
DC 0 0.01016 4.7498 0.01016 0.381 21
$PAD
Sh "1" C 1.50114 1.50114 0 0 0
Dr 1.00076 0 0
At STD N 00E0FFFF
Ne 0 ""
Po -2.54 0
$EndPAD
$PAD
Sh "2" C 1.50114 1.50114 0 0 0
Dr 1.00076 0 0
At STD N 00E0FFFF
Ne 0 ""
Po 2.54 0.01016
$EndPAD
$EndMODULE Fuseholder_Fuse_TR5_Littlefuse-No560_No460_RevA_28Aug2012
$EndLIBRARY
