PCBNEW-LibModule-V1  Di 04 Jun 2013 21:33:45 CEST
# encoding utf-8
Units mm
$INDEX
Heatsink_35x26mm_1xFixation3mm_Fischer-SK486-35
Heatsink_38x38mm_SpringFixation
Heatsink_62x40mm_2xFixation3mm
Heatsink_Fischer_SK104-STC-STIC_35x13mm_2xDrill2.5mm
Heatsink_Fischer_SK104-STCB_35x13mm__2xDrill3.5mm_ScrewM3
Heatsink_SheetType_50x7mm_2Fixations
$EndINDEX
$MODULE Heatsink_35x26mm_1xFixation3mm_Fischer-SK486-35
Po 0 0 0 15 51AE40E1 00000000 ~~
Li Heatsink_35x26mm_1xFixation3mm_Fischer-SK486-35
Cd Heatsink, 35mm x 26mm, 1x Fixation 3mm, Fischer SK486-35
Kw Heatsink, 35mm x 26mm, 1x Fixation 3mm, Kuehlkoerper, Fischer SK486-35, Strangkuehlkoerper
Sc 0
AR 
Op 0 0 0
T0 15.875 -23.368 1.524 1.524 0 0.3048 N V 21 N "HS"
T1 16.51 2.794 1.524 1.524 0 0.3048 N I 21 N "Heatsink_35x26mm_1xFixation3mm_Fischer-SK486-35"
DS 0 0 35.052 0 0.381 21
DS 35.052 0 35.052 -26.035 0.381 21
DS 35.052 -26.035 0 -26.035 0.381 21
DS 0 -26.035 0 0 0.381 21
$PAD
Sh "1" C 6.49732 6.49732 0 0 0
Dr 3.0988 0 0
At STD N 00E0FFFF
Ne 0 ""
Po 26.035 -13.081
$EndPAD
$EndMODULE Heatsink_35x26mm_1xFixation3mm_Fischer-SK486-35
$MODULE Heatsink_38x38mm_SpringFixation
Po 0 0 0 15 51AE40F4 00000000 ~~
Li Heatsink_38x38mm_SpringFixation
Cd Heatsink, 38x38mm, Spring Fixation, diagonal,
Kw Heatsink, 38x38mm, Spring Fixation, diagonal, Kuehlkoerper, Federbefestigung,
Sc 0
AR 
Op 0 0 0
T0 20.32 -30.988 1.524 1.524 0 0.3048 N V 21 N "HS"
T1 17.272 5.08 1.524 1.524 0 0.3048 N I 21 N "Heatsink_38x38mm_SpringFixation"
DS 38.1 -20.32 43.688 -20.32 0.381 21
DS 43.688 -20.32 43.688 6.604 0.381 21
DS 41.656 16.764 38.1 16.764 0.381 21
DS 38.1 16.764 38.1 0 0.381 21
DS 0 -17.78 -5.588 -17.78 0.381 21
DS -5.588 -17.78 -5.588 -44.704 0.381 21
DS -3.556 -54.864 0 -54.864 0.381 21
DS 0 -54.864 0 -38.1 0.381 21
DS -7.62 -44.704 -3.556 -44.704 0.381 21
DS -3.556 -44.704 -3.556 -54.864 0.381 21
DS -3.556 -54.864 -7.62 -54.864 0.381 21
DS -7.62 -54.864 -7.62 -44.704 0.381 21
DS 41.656 6.604 41.656 16.764 0.381 21
DS 45.72 6.604 45.72 16.764 0.381 21
DS 45.72 16.764 41.656 16.764 0.381 21
DS 45.72 6.604 41.656 6.604 0.381 21
DS 0 0 38.1 0 0.381 21
DS 38.1 0 38.1 -38.1 0.381 21
DS 38.1 -38.1 0 -38.1 0.381 21
DS 0 -38.1 0 0 0.381 21
$PAD
Sh "1" C 2.99974 2.99974 0 0 0
Dr 1.09982 0 0
At STD N 00E0FFFF
Ne 0 ""
Po 43.688 9.144
$EndPAD
$PAD
Sh "1" C 2.99974 2.99974 0 0 0
Dr 1.09982 0 0
At STD N 00E0FFFF
Ne 0 ""
Po -5.588 -47.244
$EndPAD
$PAD
Sh "1" C 2.99974 2.99974 0 0 0
Dr 1.09982 0 0
At STD N 00E0FFFF
Ne 0 ""
Po -5.588 -52.832
$EndPAD
$PAD
Sh "1" C 2.99974 2.99974 0 0 0
Dr 1.09982 0 0
At STD N 00E0FFFF
Ne 0 ""
Po 43.688 14.732
$EndPAD
$EndMODULE Heatsink_38x38mm_SpringFixation
$MODULE Heatsink_62x40mm_2xFixation3mm
Po 0 0 0 15 51AE4105 00000000 ~~
Li Heatsink_62x40mm_2xFixation3mm
Cd Heatsink, 62 x 40mm, 2x 3mm Drills,
Kw Heatsink, 62 x 40mm, 2x 3mm Drills,
Sc 0
AR 
Op 0 0 0
T0 27.686 -34.417 1.524 1.524 0 0.3048 N V 21 N "HS"
T1 30.607 -3.937 1.524 1.524 0 0.3048 N I 21 N "Heatsink_62x40mm_2xFixation3mm"
DS 67.056 -12.319 67.564 -12.319 0.381 21
DS 67.564 -12.319 68.072 -12.192 0.381 21
DS 68.072 -12.192 68.961 -11.811 0.381 21
DS 68.961 -11.811 69.342 -11.557 0.381 21
DS 69.342 -11.557 70.104 -10.795 0.381 21
DS 70.104 -10.795 70.485 -10.16 0.381 21
DS 70.485 -10.16 70.612 -9.906 0.381 21
DS 70.612 -9.906 70.739 -9.398 0.381 21
DS 70.739 -9.398 70.866 -8.763 0.381 21
DS 70.866 -8.763 70.866 -8.128 0.381 21
DS 70.866 -8.128 70.612 -7.112 0.381 21
DS 70.612 -7.112 70.485 -6.858 0.381 21
DS 70.485 -6.858 70.358 -6.604 0.381 21
DS 70.358 -6.604 70.104 -6.223 0.381 21
DS 70.104 -6.223 69.469 -5.588 0.381 21
DS 69.469 -5.588 68.961 -5.207 0.381 21
DS 68.961 -5.207 68.453 -4.953 0.381 21
DS 68.453 -4.953 67.945 -4.826 0.381 21
DS 67.945 -4.826 67.437 -4.699 0.381 21
DS 67.437 -4.699 67.056 -4.699 0.381 21
DS 67.056 -12.319 62.103 -12.319 0.381 21
DS 67.056 -4.699 62.103 -4.699 0.381 21
DS -4.953 -35.306 -5.969 -35.179 0.381 21
DS -5.969 -35.179 -6.858 -34.798 0.381 21
DS -6.858 -34.798 -7.366 -34.417 0.381 21
DS -7.366 -34.417 -7.874 -33.909 0.381 21
DS -7.874 -33.909 -8.255 -33.401 0.381 21
DS -8.255 -33.401 -8.509 -32.893 0.381 21
DS -8.509 -32.893 -8.636 -32.512 0.381 21
DS -8.636 -32.512 -8.763 -31.75 0.381 21
DS -8.763 -31.75 -8.763 -31.242 0.381 21
DS -8.763 -31.242 -8.636 -30.607 0.381 21
DS -8.636 -30.607 -8.382 -29.845 0.381 21
DS -8.382 -29.845 -8.001 -29.21 0.381 21
DS -8.001 -29.21 -7.493 -28.702 0.381 21
DS -7.493 -28.702 -6.858 -28.194 0.381 21
DS -6.858 -28.194 -5.969 -27.813 0.381 21
DS -5.969 -27.813 -4.953 -27.686 0.381 21
DS 0 -27.686 -4.953 -27.686 0.381 21
DS -4.953 -35.306 0 -35.306 0.381 21
DS 0 0 62.103 0 0.381 21
DS 62.103 0 62.103 -40.005 0.381 21
DS 62.103 -40.005 0 -40.005 0.381 21
DS 0 -40.005 0 0 0.381 21
$PAD
Sh "1" C 6.49732 6.49732 0 0 0
Dr 3.0988 0 0
At STD N 00E0FFFF
Ne 0 ""
Po 67.056 -8.509
$EndPAD
$PAD
Sh "1" C 6.49732 6.49732 0 0 0
Dr 3.0988 0 0
At STD N 00E0FFFF
Ne 0 ""
Po -4.953 -31.496
$EndPAD
$EndMODULE Heatsink_62x40mm_2xFixation3mm
$MODULE Heatsink_Fischer_SK104-STC-STIC_35x13mm_2xDrill2.5mm
Po 0 0 0 15 51AE40D1 00000000 ~~
Li Heatsink_Fischer_SK104-STC-STIC_35x13mm_2xDrill2.5mm
Cd Heatsink, 35mm x 13mm, 2x Fixation 2,5mm Drill, Soldering, Fischer SK104-STC-STIC,
Kw Heatsink, 35mm x 13mm, 2x Fixation 2,5mm Drill, Soldering, Fischer SK104-STC-STIC, Kuehlkoerper,  Strangkuehlkoerper, Loetbefestigung, for TO-220
Sc 0
AR 
Op 0 0 0
T0 -0.025 -4.875 1.524 1.524 0 0.3048 N V 21 N "HS"
T1 0.65 9.075 1.524 1.524 0 0.3048 N I 21 N "Heatsink_Fischer_SK104-STC-STIC_35x13mm_2xDrill2.5mm"
DS -1.778 -0.762 -1.778 0.762 0.381 21
DS 1.778 -0.762 1.778 0.762 0.381 21
DS -8.509 6.35 -8.001 6.35 0.381 21
DS 17.526 -6.35 12.065 -3.556 0.381 21
DS 12.065 -3.556 12.7 -6.35 0.381 21
DS -10.033 -2.667 -12.7 -6.35 0.381 21
DS -12.7 -6.35 -12.192 -3.556 0.381 21
DS -12.192 -3.556 -17.526 -6.35 0.381 21
DS -10.16 2.667 -12.7 6.35 0.381 21
DS -12.7 6.35 -12.192 3.683 0.381 21
DS -12.192 3.683 -17.526 6.35 0.381 21
DS -15.24 2.54 -17.526 6.35 0.381 21
DS -15.24 -2.54 -17.526 -6.35 0.381 21
DS 8.001 -6.35 8.382 -6.35 0.381 21
DS 8.001 6.35 8.509 6.35 0.381 21
DS 10.033 2.667 12.7 6.35 0.381 21
DS 12.7 6.35 12.065 3.556 0.381 21
DS 12.065 3.556 17.526 6.35 0.381 21
DS 15.24 2.413 17.526 3.302 0.381 21
DS 17.526 3.302 16.002 1.524 0.381 21
DS 17.526 6.35 15.24 2.413 0.381 21
DS 15.24 -2.54 17.399 -3.302 0.381 21
DS 17.399 -3.302 15.875 -1.778 0.381 21
DS 17.526 -6.35 15.24 -2.54 0.381 21
DS 10.16 -2.667 12.7 -6.35 0.381 21
DS 8.509 6.35 10.033 2.667 0.381 21
DS 8.509 -6.35 10.16 -2.667 0.381 21
DS -8.509 6.35 -10.16 2.54 0.381 21
DS -8.001 -6.35 -8.509 -6.35 0.381 21
DS -8.509 -6.35 -10.033 -2.667 0.381 21
DS -17.526 3.302 -15.748 1.905 0.381 21
DS -17.653 -3.302 -15.875 -1.778 0.381 21
DS -17.526 3.302 -15.24 2.54 0.381 21
DS -17.526 -3.302 -15.24 -2.54 0.381 21
DS 0 0.762 -8.001 0.762 0.381 21
DS -8.001 0.762 -8.001 6.35 0.381 21
DS 0 0.762 8.001 0.762 0.381 21
DS 8.001 0.762 8.001 6.35 0.381 21
DS 0 -0.762 -8.001 -0.762 0.381 21
DS -8.001 -0.762 -8.001 -6.35 0.381 21
DS 0 -0.762 8.001 -0.762 0.381 21
DS 8.001 -0.762 8.001 -6.35 0.381 21
$PAD
Sh "1" C 5.99948 5.99948 0 0 0
Dr 2.49936 0 0
At STD N 00E0FFFF
Ne 0 ""
Po 12.7 0
$EndPAD
$PAD
Sh "1" C 5.99948 5.99948 0 0 0
Dr 2.49936 0 0
At STD N 00E0FFFF
Ne 0 ""
Po -12.7 0
$EndPAD
$EndMODULE Heatsink_Fischer_SK104-STC-STIC_35x13mm_2xDrill2.5mm
$MODULE Heatsink_Fischer_SK104-STCB_35x13mm__2xDrill3.5mm_ScrewM3
Po 0 0 0 15 51AE40C4 00000000 ~~
Li Heatsink_Fischer_SK104-STCB_35x13mm__2xDrill3.5mm_ScrewM3
Cd Heatsink, 35mm x 13mm, 2x Fixation Screw M3, Fischer SK104-STCB,
Kw Heatsink, 35mm x 13mm, 2x Fixation Screw M3, Fischer SK104-STCB, Kuehlkoerper,  Strangkuehlkoerper, Schraubbefestigung, Screwed, for TO-220
Sc 0
AR 
Op 0 0 0
T0 0.15 -4.4 1.524 1.524 0 0.3048 N V 21 N "HS"
T1 1.975 9 1.524 1.524 0 0.3048 N I 21 N "Heatsink_Fischer_SK104-STCB_35x13mm_2xDrill3.5mm_ScrewM3"
DS -1.778 -0.762 -1.778 0.762 0.381 21
DS 1.778 -0.762 1.778 0.762 0.381 21
DS -8.509 6.35 -8.001 6.35 0.381 21
DS 17.526 -6.35 12.065 -3.556 0.381 21
DS 12.065 -3.556 12.7 -6.35 0.381 21
DS -10.033 -2.667 -12.7 -6.35 0.381 21
DS -12.7 -6.35 -12.192 -3.556 0.381 21
DS -12.192 -3.556 -17.526 -6.35 0.381 21
DS -10.16 2.667 -12.7 6.35 0.381 21
DS -12.7 6.35 -12.192 3.683 0.381 21
DS -12.192 3.683 -17.526 6.35 0.381 21
DS -15.24 2.54 -17.526 6.35 0.381 21
DS -15.24 -2.54 -17.526 -6.35 0.381 21
DS 8.001 -6.35 8.382 -6.35 0.381 21
DS 8.001 6.35 8.509 6.35 0.381 21
DS 10.033 2.667 12.7 6.35 0.381 21
DS 12.7 6.35 12.065 3.556 0.381 21
DS 12.065 3.556 17.526 6.35 0.381 21
DS 15.24 2.413 17.526 3.302 0.381 21
DS 17.526 3.302 16.002 1.524 0.381 21
DS 17.526 6.35 15.24 2.413 0.381 21
DS 15.24 -2.54 17.399 -3.302 0.381 21
DS 17.399 -3.302 15.875 -1.778 0.381 21
DS 17.526 -6.35 15.24 -2.54 0.381 21
DS 10.16 -2.667 12.7 -6.35 0.381 21
DS 8.509 6.35 10.033 2.667 0.381 21
DS 8.509 -6.35 10.16 -2.667 0.381 21
DS -8.509 6.35 -10.16 2.54 0.381 21
DS -8.001 -6.35 -8.509 -6.35 0.381 21
DS -8.509 -6.35 -10.033 -2.667 0.381 21
DS -17.526 3.302 -15.748 1.905 0.381 21
DS -17.653 -3.302 -15.875 -1.778 0.381 21
DS -17.526 3.302 -15.24 2.54 0.381 21
DS -17.526 -3.302 -15.24 -2.54 0.381 21
DS 0 0.762 -8.001 0.762 0.381 21
DS -8.001 0.762 -8.001 6.35 0.381 21
DS 0 0.762 8.001 0.762 0.381 21
DS 8.001 0.762 8.001 6.35 0.381 21
DS 0 -0.762 -8.001 -0.762 0.381 21
DS -8.001 -0.762 -8.001 -6.35 0.381 21
DS 0 -0.762 8.001 -0.762 0.381 21
DS 8.001 -0.762 8.001 -6.35 0.381 21
$PAD
Sh "1" C 5.99948 5.99948 0 0 0
Dr 3.50012 0 0
At STD N 00E0FFFF
Ne 0 ""
Po 12.7 0
$EndPAD
$PAD
Sh "1" C 5.99948 5.99948 0 0 0
Dr 3.50012 0 0
At STD N 00E0FFFF
Ne 0 ""
Po -12.7 0
$EndPAD
$EndMODULE Heatsink_Fischer_SK104-STCB_35x13mm__2xDrill3.5mm_ScrewM3
$MODULE Heatsink_SheetType_50x7mm_2Fixations
Po 0 0 0 15 51AE4115 00000000 ~~
Li Heatsink_SheetType_50x7mm_2Fixations
Cd Heatsink, Sheet type, 50x7mm, 2 fixations (solder),
Kw Heatsink, Sheet type, 50x7mm, 2 fixations (solder), Kuehlkoerper, From ATX-SMPS Scrap,
Sc 0
AR 
Op 0 0 0
T0 0 -10.16 1.524 1.524 0 0.3048 N V 21 N "HS"
T1 1.27 5.08 1.524 1.524 0 0.3048 N I 21 N "Heatsink_SheetType_50x7mm_2Fixations"
DS -10.033 0 -19.558 0 0.381 21
DS -2.032 0 -5.969 0 0.381 21
DS 5.969 0 2.032 0 0.381 21
DS 13.97 0 9.906 0 0.381 21
DS 13.97 0 19.431 0 0.381 21
DS -5.969 -7.112 -10.033 -7.112 0.381 21
DS 2.032 -7.112 -2.032 -7.112 0.381 21
DS -11.049 -3.556 -11.049 0 0.381 21
DS -14.097 -3.556 -14.097 0 0.381 21
DS -10.033 -7.112 -10.033 0 0.381 21
DS -5.969 -7.112 -5.969 0 0.381 21
DS -2.032 -7.112 -2.032 0 0.381 21
DS 9.906 -7.112 5.969 -7.112 0.381 21
DS 9.906 -7.112 9.906 0 0.381 21
DS 5.969 -7.112 5.969 0 0.381 21
DS 2.032 -6.985 2.032 0 0.381 21
DS 11.049 -3.556 11.049 0 0.381 21
T2 14.605 -4.953 1.524 1.524 0 0.3048 N V 21 N "M3"
T2 -14.605 -4.826 1.524 1.524 0 0.3048 N V 21 N "M3"
DS -12.573 0.508 -12.573 1.651 0.381 21
DS -12.573 -1.524 -12.573 -0.381 0.381 21
DS -12.573 -3.937 -12.573 -2.54 0.381 21
DS -12.573 -5.461 -12.573 -4.445 0.381 21
DS -12.573 -7.747 -12.573 -6.477 0.381 21
DS -12.573 -9.017 -12.573 -8.382 0.381 21
DS 12.573 1.651 12.573 2.667 0.381 21
DS 12.573 -0.762 12.573 0.889 0.381 21
DS 12.573 -2.667 12.573 -1.651 0.381 21
DS 12.573 -4.953 12.573 -3.81 0.381 21
DS 12.573 -7.112 12.573 -6.096 0.381 21
DS 12.573 -8.89 12.573 -8.001 0.381 21
DS 13.97 -3.556 13.97 0 0.381 21
DS 25.527 0 25.527 -3.556 0.381 21
DS 25.527 -3.556 -25.527 -3.556 0.381 21
DS -25.527 -3.556 -25.527 0 0.381 21
$PAD
Sh "1" C 5.00126 5.00126 0 0 0
Dr 2.49936 0 0
At STD N 00E0FFFF
Ne 0 ""
Po 22.606 0
$EndPAD
$PAD
Sh "1" C 5.00126 5.00126 0 0 0
Dr 2.49936 0 0
At STD N 00E0FFFF
Ne 0 ""
Po -22.606 0
$EndPAD
$EndMODULE Heatsink_SheetType_50x7mm_2Fixations
$EndLIBRARY
