PCBNEW-LibModule-V1  Do 06 Jun 2013 07:57:36 CEST
# encoding utf-8
Units mm
$INDEX
SC70-6_26Jul2012
SC70-6_Handsoldering_26Jul2012
SOT143R_Diode_Reverse_26Jul2012
SOT143R_Diode_Reverse_Handsoldering_26Jul2012
SOT143R_Transistor_Reverse_26Jul2012
SOT143R_Transistor_Reverse_Handsoldering_26Jul2012
SOT143_Diode_26Jul2012
SOT143_Diode_Handsoldering_26Jul2012
SOT143_Transistor_26Jul2012
SOT143_Transistor_Handsoldering_26Jul2012
SOT23_Diode_Handsoldering_RevA_03Aug2010
SOT23_Diode_RevA_03Aug2010
SOT23_Transistor_BC846_Handsoldering_RevA_03Aug2010
SOT23_Transistor_BC846_RevA_03Aug2010
SOT23_Transistor_Handsoldering_RevA_03Aug2010
SOT23_Transistor_RevA_03Aug2010
TSOT6-MK06A-Housing_26Jul2012
TSOT6-MK06A-Housing_Handsoldering_26Jul2012
$EndINDEX
$MODULE SC70-6_26Jul2012
Po 118 30 0 15 51B01E50 00000000 ~~
Li SC70-6_26Jul2012
Cd SC70-6,
Kw SC70-6,
Sc 0
AR SC70-6_26Jul2012
Op 0 0 0
At SMD
T0 0.01016 -3.05054 1.524 1.524 0 0.3048 N V 21 N "IC"
T1 0.04064 4.191 1.524 1.524 0 0.3048 N V 21 N "SC70-6_26Jul2012"
DS -1.33096 1.16078 -1.33096 1.77038 0.381 21
DS -1.33096 1.77038 -0.89916 1.78054 0.381 21
$PAD
Sh "1" R 0.39878 0.7493 0 0 0
Dr 0 0 0
At SMD N 00888000
Ne 0 ""
Po -0.65024 0.94996
$EndPAD
$PAD
Sh "2" R 0.39878 0.7493 0 0 0
Dr 0 0 0
At SMD N 00888000
Ne 0 ""
Po 0 0.94996
$EndPAD
$PAD
Sh "3" R 0.39878 0.7493 0 0 0
Dr 0 0 0
At SMD N 00888000
Ne 0 ""
Po 0.65024 0.94996
$EndPAD
$PAD
Sh "4" R 0.39878 0.7493 0 0 0
Dr 0 0 0
At SMD N 00888000
Ne 0 ""
Po 0.65024 -0.94996
$EndPAD
$PAD
Sh "5" R 0.39878 0.7493 0 0 0
Dr 0 0 0
At SMD N 00888000
Ne 0 ""
Po 0 -0.94996
$EndPAD
$PAD
Sh "6" R 0.39878 0.7493 0 0 0
Dr 0 0 0
At SMD N 00888000
Ne 0 ""
Po -0.65024 -0.94996
$EndPAD
$EndMODULE SC70-6_26Jul2012
$MODULE SC70-6_Handsoldering_26Jul2012
Po 118 52 0 15 51B01E58 00000000 ~~
Li SC70-6_Handsoldering_26Jul2012
Cd SC70-6, Handsoldering,
Kw SC70-6, Handsoldering,
Sc 0
AR 
Op 0 0 0
At SMD
T0 -0.02032 -3.98018 1.524 1.524 0 0.3048 N V 21 N "IC"
T1 -0.23876 4.11988 1.524 1.524 0 0.3048 N V 21 N "SC70-6_Handsoldering_26Jul2012"
DS -1.3208 1.97866 -1.3208 2.54762 0.381 21
DS -1.3208 2.54762 -0.90932 2.54762 0.381 21
$PAD
Sh "1" R 0.39878 1.50114 0 0 0
Dr 0 0 0
At SMD N 00888000
Ne 0 ""
Po -0.65024 1.33096
$EndPAD
$PAD
Sh "2" R 0.39878 1.50114 0 0 0
Dr 0 0 0
At SMD N 00888000
Ne 0 ""
Po 0 1.33096
$EndPAD
$PAD
Sh "3" R 0.39878 1.50114 0 0 0
Dr 0 0 0
At SMD N 00888000
Ne 0 ""
Po 0.65024 1.33096
$EndPAD
$PAD
Sh "4" R 0.39878 1.50114 0 0 0
Dr 0 0 0
At SMD N 00888000
Ne 0 ""
Po 0.65024 -1.33096
$EndPAD
$PAD
Sh "5" R 0.39878 1.50114 0 0 0
Dr 0 0 0
At SMD N 00888000
Ne 0 ""
Po 0 -1.33096
$EndPAD
$PAD
Sh "6" R 0.39878 1.50114 0 0 0
Dr 0 0 0
At SMD N 00888000
Ne 0 ""
Po -0.65024 -1.33096
$EndPAD
$EndMODULE SC70-6_Handsoldering_26Jul2012
$MODULE SOT143R_Diode_Reverse_26Jul2012
Po 0 0 0 15 51B021F7 00000000 ~~
Li SOT143R_Diode_Reverse_26Jul2012
Cd SOT143R, Diode, Reverse
Kw SOT143R, Diode, Reverse
Sc 0
AR 
Op 0 0 0
At SMD
T0 0.07874 -4.0894 1.524 1.524 0 0.3048 N V 21 N "D"
T1 -0.03048 4.24942 1.524 1.524 0 0.3048 N I 21 N "SOT143R_Diode_Reverse_26Jul2012"
DS 1.85928 1.46812 1.85928 2.27838 0.381 21
DS 1.85928 2.27838 1.28016 2.27838 0.381 21
$PAD
Sh "1" R 1.19888 1.39954 0 0 0
Dr 0 0 0
At SMD N 00888000
Ne 0 ""
Po 0.76962 1.09982
$EndPAD
$PAD
Sh "2" R 1.00076 1.39954 0 0 0
Dr 0 0 0
At SMD N 00888000
Ne 0 ""
Po -0.94996 1.09982
$EndPAD
$PAD
Sh "4" R 1.00076 1.39954 0 0 0
Dr 0 0 0
At SMD N 00888000
Ne 0 ""
Po 0.94996 -1.09982
$EndPAD
$PAD
Sh "3" R 1.00076 1.39954 0 0 0
Dr 0 0 0
At SMD N 00888000
Ne 0 ""
Po -0.94996 -1.09982
$EndPAD
$EndMODULE SOT143R_Diode_Reverse_26Jul2012
$MODULE SOT143R_Diode_Reverse_Handsoldering_26Jul2012
Po 0 0 0 15 51B01EA8 00000000 ~~
Li SOT143R_Diode_Reverse_Handsoldering_26Jul2012
Cd SOT143R, Diode, Reverse, Handsoldering,
Kw SOT143, Diode, Reverse, Handsoldering,
Sc 0
AR 
Op 0 0 0
At SMD
T0 -0.06096 -4.72948 1.524 1.524 0 0.3048 N V 21 N "D"
T1 -0.17018 5.97916 1.524 1.524 0 0.3048 N I 21 N "SOT143R_Diode_Reverse_Handsoldering_26Jul2012"
DS 1.84912 2.88798 1.84912 3.69824 0.381 21
DS 1.84912 3.69824 1.27 3.69824 0.381 21
$PAD
Sh "1" R 1.19888 2.79908 0 0 0
Dr 0 0 0
At SMD N 00888000
Ne 0 ""
Po 0.76962 1.80086
$EndPAD
$PAD
Sh "2" R 1.00076 2.79908 0 0 0
Dr 0 0 0
At SMD N 00888000
Ne 0 ""
Po -0.94996 1.80086
$EndPAD
$PAD
Sh "4" R 1.00076 2.79908 0 0 0
Dr 0 0 0
At SMD N 00888000
Ne 0 ""
Po 0.94996 -1.80086
$EndPAD
$PAD
Sh "3" T 1.00076 2.79908 0 0 0
Dr 0 0 0
At SMD N 00888000
Ne 0 ""
Po -0.94996 -1.80086
$EndPAD
$EndMODULE SOT143R_Diode_Reverse_Handsoldering_26Jul2012
$MODULE SOT143R_Transistor_Reverse_26Jul2012
Po 0 0 0 15 51B02183 00000000 ~~
Li SOT143R_Transistor_Reverse_26Jul2012
Cd SOT143R, Transistor, Reverse
Kw SOT143R, Transistor, Reverse
Sc 0
AR 
Op 0 0 0
At SMD
T0 0.07874 -4.0894 1.524 1.524 0 0.3048 N V 21 N "T"
T1 -0.03048 4.24942 1.524 1.524 0 0.3048 N I 21 N "SOT143R_Transistor_Reverse_26Jul2012"
DS 1.85928 1.46812 1.85928 2.27838 0.381 21
DS 1.85928 2.27838 1.28016 2.27838 0.381 21
$PAD
Sh "1" R 1.19888 1.39954 0 0 0
Dr 0 0 0
At SMD N 00888000
Ne 0 ""
Po 0.76962 1.09982
$EndPAD
$PAD
Sh "2" R 1.00076 1.39954 0 0 0
Dr 0 0 0
At SMD N 00888000
Ne 0 ""
Po -0.94996 1.09982
$EndPAD
$PAD
Sh "4" R 1.00076 1.39954 0 0 0
Dr 0 0 0
At SMD N 00888000
Ne 0 ""
Po 0.94996 -1.09982
$EndPAD
$PAD
Sh "3" R 1.00076 1.39954 0 0 0
Dr 0 0 0
At SMD N 00888000
Ne 0 ""
Po -0.94996 -1.09982
$EndPAD
$EndMODULE SOT143R_Transistor_Reverse_26Jul2012
$MODULE SOT143R_Transistor_Reverse_Handsoldering_26Jul2012
Po 0 0 0 15 51B01EA8 00000000 ~~
Li SOT143R_Transistor_Reverse_Handsoldering_26Jul2012
Cd SOT143R, Transistor, Reverse, Handsoldering,
Kw SOT143R, Transistor, Reverse, Handsoldering,
Sc 0
AR 
Op 0 0 0
At SMD
T0 -0.06096 -4.72948 1.524 1.524 0 0.3048 N V 21 N "T"
T1 -0.17018 5.97916 1.524 1.524 0 0.3048 N I 21 N "SOT143R_Transistor_Reverse_Handsoldering_26Jul2012"
DS 1.84912 2.88798 1.84912 3.69824 0.381 21
DS 1.84912 3.69824 1.27 3.69824 0.381 21
$PAD
Sh "1" R 1.19888 2.79908 0 0 0
Dr 0 0 0
At SMD N 00888000
Ne 0 ""
Po 0.76962 1.80086
$EndPAD
$PAD
Sh "2" R 1.00076 2.79908 0 0 0
Dr 0 0 0
At SMD N 00888000
Ne 0 ""
Po -0.94996 1.80086
$EndPAD
$PAD
Sh "4" R 1.00076 2.79908 0 0 0
Dr 0 0 0
At SMD N 00888000
Ne 0 ""
Po 0.94996 -1.80086
$EndPAD
$PAD
Sh "3" T 1.00076 2.79908 0 0 0
Dr 0 0 0
At SMD N 00888000
Ne 0 ""
Po -0.94996 -1.80086
$EndPAD
$EndMODULE SOT143R_Transistor_Reverse_Handsoldering_26Jul2012
$MODULE SOT143_Diode_26Jul2012
Po 0 0 0 15 51B01E9E 00000000 ~~
Li SOT143_Diode_26Jul2012
Cd SOT143, Diode,
Kw SOT143, Diode,
Sc 0
AR 
Op 0 0 0
At SMD
T0 0.07874 -4.0894 1.524 1.524 0 0.3048 N V 21 N "D"
T1 -0.03048 4.24942 1.524 1.524 0 0.3048 N I 21 N "SOT143_Diode_26Jul2012"
DS -1.8415 1.56972 -1.8415 2.27838 0.381 21
DS -1.8415 2.27838 -1.44018 2.27838 0.381 21
$PAD
Sh "1" R 1.19888 1.39954 0 0 0
Dr 0 0 0
At SMD N 00888000
Ne 0 ""
Po -0.76962 1.09982
$EndPAD
$PAD
Sh "2" R 1.00076 1.39954 0 0 0
Dr 0 0 0
At SMD N 00888000
Ne 0 ""
Po 0.94996 1.09982
$EndPAD
$PAD
Sh "3" R 1.00076 1.39954 0 0 0
Dr 0 0 0
At SMD N 00888000
Ne 0 ""
Po 0.94996 -1.09982
$EndPAD
$PAD
Sh "4" R 1.00076 1.39954 0 0 0
Dr 0 0 0
At SMD N 00888000
Ne 0 ""
Po -0.94996 -1.09982
$EndPAD
$EndMODULE SOT143_Diode_26Jul2012
$MODULE SOT143_Diode_Handsoldering_26Jul2012
Po 0 0 0 15 51B01E96 00000000 ~~
Li SOT143_Diode_Handsoldering_26Jul2012
Cd SOT143, Diode, Handsoldering,
Kw SOT143, Diode, Handsoldering,
Sc 0
AR SOT143R_Reverse_Handsoldering_26Jul2012
Op 0 0 0
At SMD
T0 -0.06096 -4.72948 1.524 1.524 0 0.3048 N V 21 N "D"
T1 -0.17018 5.97916 1.524 1.524 0 0.3048 N I 21 N "SOT143_Diode_Handsoldering_26Jul2012"
DS -1.8796 2.31902 -1.8796 3.70078 0.381 21
DS -1.8796 3.70078 -1.29032 3.69062 0.381 21
$PAD
Sh "1" R 1.19888 2.79908 0 0 0
Dr 0 0 0
At SMD N 00888000
Ne 0 ""
Po -0.76962 1.80086
$EndPAD
$PAD
Sh "2" R 1.00076 2.79908 0 0 0
Dr 0 0 0
At SMD N 00888000
Ne 0 ""
Po 0.94996 1.80086
$EndPAD
$PAD
Sh "3" R 1.00076 2.79908 0 0 0
Dr 0 0 0
At SMD N 00888000
Ne 0 ""
Po 0.94996 -1.80086
$EndPAD
$PAD
Sh "4" T 1.00076 2.79908 0 0 0
Dr 0 0 0
At SMD N 00888000
Ne 0 ""
Po -0.94996 -1.80086
$EndPAD
$EndMODULE SOT143_Diode_Handsoldering_26Jul2012
$MODULE SOT143_Transistor_26Jul2012
Po 0 0 0 15 51B01E9E 00000000 ~~
Li SOT143_Transistor_26Jul2012
Cd SOT143, Transistor,
Kw SOT143, Transistor,
Sc 0
AR 
Op 0 0 0
At SMD
T0 0.07874 -4.0894 1.524 1.524 0 0.3048 N V 21 N "T"
T1 -0.03048 4.24942 1.524 1.524 0 0.3048 N I 21 N "SOT143_Transistor_26Jul2012"
DS -1.8415 1.56972 -1.8415 2.27838 0.381 21
DS -1.8415 2.27838 -1.44018 2.27838 0.381 21
$PAD
Sh "1" R 1.19888 1.39954 0 0 0
Dr 0 0 0
At SMD N 00888000
Ne 0 ""
Po -0.76962 1.09982
$EndPAD
$PAD
Sh "2" R 1.00076 1.39954 0 0 0
Dr 0 0 0
At SMD N 00888000
Ne 0 ""
Po 0.94996 1.09982
$EndPAD
$PAD
Sh "3" R 1.00076 1.39954 0 0 0
Dr 0 0 0
At SMD N 00888000
Ne 0 ""
Po 0.94996 -1.09982
$EndPAD
$PAD
Sh "4" R 1.00076 1.39954 0 0 0
Dr 0 0 0
At SMD N 00888000
Ne 0 ""
Po -0.94996 -1.09982
$EndPAD
$EndMODULE SOT143_Transistor_26Jul2012
$MODULE SOT143_Transistor_Handsoldering_26Jul2012
Po 0 0 0 15 51B01E96 00000000 ~~
Li SOT143_Transistor_Handsoldering_26Jul2012
Cd SOT143, Transistor; Handsoldering,
Kw SOT143, Transistor, Handsoldering,
Sc 0
AR SOT143R_Reverse_Handsoldering_26Jul2012
Op 0 0 0
At SMD
T0 -0.06096 -4.72948 1.524 1.524 0 0.3048 N V 21 N "T"
T1 -0.17018 5.97916 1.524 1.524 0 0.3048 N I 21 N "SOT143_Transistor_Handsoldering_26Jul2012"
DS -1.8796 2.31902 -1.8796 3.70078 0.381 21
DS -1.8796 3.70078 -1.29032 3.69062 0.381 21
$PAD
Sh "1" R 1.19888 2.79908 0 0 0
Dr 0 0 0
At SMD N 00888000
Ne 0 ""
Po -0.76962 1.80086
$EndPAD
$PAD
Sh "2" R 1.00076 2.79908 0 0 0
Dr 0 0 0
At SMD N 00888000
Ne 0 ""
Po 0.94996 1.80086
$EndPAD
$PAD
Sh "3" R 1.00076 2.79908 0 0 0
Dr 0 0 0
At SMD N 00888000
Ne 0 ""
Po 0.94996 -1.80086
$EndPAD
$PAD
Sh "4" T 1.00076 2.79908 0 0 0
Dr 0 0 0
At SMD N 00888000
Ne 0 ""
Po -0.94996 -1.80086
$EndPAD
$EndMODULE SOT143_Transistor_Handsoldering_26Jul2012
$MODULE SOT23_Diode_Handsoldering_RevA_03Aug2010
Po 117.5 67.5 0 15 4C5850D0 00000000 ~~
Li SOT23_Diode_Handsoldering_RevA_03Aug2010
Cd SOT23,  Diode, Handsoldering,
Kw SOT23,  Diode, Handsoldering,
Sc 0
AR 
Op 0 0 0
T0 0 -3.81 1.524 1.524 0 0.3048 N V 21 N "D"
T1 0 3.81 1.524 1.524 0 0.3048 N V 21 N "SOT23_Diode_Handsoldering_RevA_03Aug2010"
DS -1.09982 0.0508 -1.09982 -0.65024 0.381 21
DS -1.09982 -0.65024 -0.8509 -0.65024 0.381 21
DS 0.89916 -0.65024 1.09982 -0.65024 0.381 21
DS 1.09982 -0.65024 1.09982 0.0508 0.381 21
$PAD
Sh "1" R 0.8001 1.80086 0 0 0
Dr 0 0 0
At SMD N 00888000
Ne 0 ""
Po -0.70104 1.50114
$EndPAD
$PAD
Sh "2" R 0.8001 1.80086 0 0 0
Dr 0 0 0
At SMD N 00888000
Ne 0 ""
Po 0.70104 1.50114
$EndPAD
$PAD
Sh "3" R 0.8001 1.80086 0 0 0
Dr 0 0 0
At SMD N 00888000
Ne 0 ""
Po 0 -1.50114
$EndPAD
$EndMODULE SOT23_Diode_Handsoldering_RevA_03Aug2010
$MODULE SOT23_Diode_RevA_03Aug2010
Po 117.5 85 0 15 4C584F8F 00000000 ~~
Li SOT23_Diode_RevA_03Aug2010
Cd SOT23, Standard, Diode,
Kw SOT23, Standard, Diode,
Sc 0
AR 
Op 0 0 0
T0 0 -3.81 1.524 1.524 0 0.3048 N V 21 N "D"
T1 0 3.81 1.524 1.524 0 0.3048 N V 21 N "SOT23_Diode_RevA_03Aug2010"
DS 0.89916 -0.65024 0.8509 -0.65024 0.381 21
DS -1.09982 0.0508 -1.09982 -0.65024 0.381 21
DS -1.09982 -0.65024 -0.8509 -0.65024 0.381 21
DS 0.89916 -0.65024 1.09982 -0.65024 0.381 21
DS 1.09982 -0.65024 1.09982 0.0508 0.381 21
$PAD
Sh "1" R 0.8001 0.8001 0 0 0
Dr 0 0 0
At SMD N 00888000
Ne 0 ""
Po -0.70104 1.00076
$EndPAD
$PAD
Sh "2" R 0.8001 0.8001 0 0 0
Dr 0 0 0
At SMD N 00888000
Ne 0 ""
Po 0.70104 1.00076
$EndPAD
$PAD
Sh "3" R 0.8001 0.8001 0 0 0
Dr 0 0 0
At SMD N 00888000
Ne 0 ""
Po 0 -0.99822
$EndPAD
$EndMODULE SOT23_Diode_RevA_03Aug2010
$MODULE SOT23_Transistor_BC846_Handsoldering_RevA_03Aug2010
Po 129 102.5 0 15 51B01E69 00000000 ~~
Li SOT23_Transistor_BC846_Handsoldering_RevA_03Aug2010
Cd SOT23,  Transistor, Handsoldering, BC846,
Kw SOT23,  Transistor, Handsoldering, BC846,
Sc 0
AR SOT23_Transistor_BC846_Handsoldering_RevA_03Aug2010
Op 0 0 0
At SMD
T0 0 -3.81 1.524 1.524 0 0.3048 N V 21 N "T"
T1 0 3.81 1.524 1.524 0 0.3048 N V 21 N "SOT23_Transistor_BC846_Handsoldering_RevA_03Aug2010"
DS -1.09982 0.0508 -1.09982 -0.65024 0.381 21
DS -1.09982 -0.65024 -0.8509 -0.65024 0.381 21
DS 0.89916 -0.65024 1.09982 -0.65024 0.381 21
DS 1.09982 -0.65024 1.09982 0.0508 0.381 21
$PAD
Sh "B" R 0.8001 1.80086 0 0 0
Dr 0 0 0
At SMD N 00888000
Ne 0 ""
Po -0.70104 1.50114
$EndPAD
$PAD
Sh "E" R 0.8001 1.80086 0 0 0
Dr 0 0 0
At SMD N 00888000
Ne 0 ""
Po 0.70104 1.50114
$EndPAD
$PAD
Sh "C" R 0.8001 1.80086 0 0 0
Dr 0 0 0
At SMD N 00888000
Ne 0 ""
Po 0 -1.50114
$EndPAD
$EndMODULE SOT23_Transistor_BC846_Handsoldering_RevA_03Aug2010
$MODULE SOT23_Transistor_BC846_RevA_03Aug2010
Po 134 119 0 15 51B01E8A 00000000 ~~
Li SOT23_Transistor_BC846_RevA_03Aug2010
Cd SOT23, Standard, Transistor, BC846,
Kw SOT23, Standard, Transistor, BC846,
Sc 0
AR 
Op 0 0 0
At SMD
T0 0 -3.81 1.524 1.524 0 0.3048 N V 21 N "T"
T1 0 3.81 1.524 1.524 0 0.3048 N V 21 N "SOT23_Transistor_BC846_RevA_03Aug2010"
DS 0.89916 -0.65024 0.8509 -0.65024 0.381 21
DS -1.09982 0.0508 -1.09982 -0.65024 0.381 21
DS -1.09982 -0.65024 -0.8509 -0.65024 0.381 21
DS 0.89916 -0.65024 1.09982 -0.65024 0.381 21
DS 1.09982 -0.65024 1.09982 0.0508 0.381 21
$PAD
Sh "B" R 0.8001 0.8001 0 0 0
Dr 0 0 0
At SMD N 00888000
Ne 0 ""
Po -0.70104 1.00076
$EndPAD
$PAD
Sh "E" R 0.8001 0.8001 0 0 0
Dr 0 0 0
At SMD N 00888000
Ne 0 ""
Po 0.70104 1.00076
$EndPAD
$PAD
Sh "C" R 0.8001 0.8001 0 0 0
Dr 0 0 0
At SMD N 00888000
Ne 0 ""
Po 0 -0.99822
$EndPAD
$EndMODULE SOT23_Transistor_BC846_RevA_03Aug2010
$MODULE SOT23_Transistor_Handsoldering_RevA_03Aug2010
Po 183 35 0 15 51B01ECA 00000000 ~~
Li SOT23_Transistor_Handsoldering_RevA_03Aug2010
Cd SOT23,  Transistor, Handsoldering,
Kw SOT23,  Transistor, Handsoldering,
Sc 0
AR 
Op 0 0 0
At SMD
T0 0 -3.81 1.524 1.524 0 0.3048 N V 21 N "T"
T1 0 3.81 1.524 1.524 0 0.3048 N V 21 N "SOT23_Transistor_Handsoldering_RevA_03Aug2010"
DS -1.09982 0.0508 -1.09982 -0.65024 0.381 21
DS -1.09982 -0.65024 -0.8509 -0.65024 0.381 21
DS 0.89916 -0.65024 1.09982 -0.65024 0.381 21
DS 1.09982 -0.65024 1.09982 0.0508 0.381 21
$PAD
Sh "1" R 0.8001 1.80086 0 0 0
Dr 0 0 0
At SMD N 00888000
Ne 0 ""
Po -0.70104 1.50114
$EndPAD
$PAD
Sh "2" R 0.8001 1.80086 0 0 0
Dr 0 0 0
At SMD N 00888000
Ne 0 ""
Po 0.70104 1.50114
$EndPAD
$PAD
Sh "3" R 0.8001 1.80086 0 0 0
Dr 0 0 0
At SMD N 00888000
Ne 0 ""
Po 0 -1.50114
$EndPAD
$EndMODULE SOT23_Transistor_Handsoldering_RevA_03Aug2010
$MODULE SOT23_Transistor_RevA_03Aug2010
Po 182.5 50.5 0 15 51B01EC3 00000000 ~~
Li SOT23_Transistor_RevA_03Aug2010
Cd SOT23, Standard, Transistor,
Kw SOT23, Standard, Transistor,
Sc 0
AR 
Op 0 0 0
At SMD
T0 0 -3.81 1.524 1.524 0 0.3048 N V 21 N "T"
T1 0 3.81 1.524 1.524 0 0.3048 N V 21 N "SOT23_Transistor_RevA_03Aug2010"
DS 0.89916 -0.65024 0.8509 -0.65024 0.381 21
DS -1.09982 0.0508 -1.09982 -0.65024 0.381 21
DS -1.09982 -0.65024 -0.8509 -0.65024 0.381 21
DS 0.89916 -0.65024 1.09982 -0.65024 0.381 21
DS 1.09982 -0.65024 1.09982 0.0508 0.381 21
$PAD
Sh "1" R 0.8001 0.8001 0 0 0
Dr 0 0 0
At SMD N 00888000
Ne 0 ""
Po -0.70104 1.00076
$EndPAD
$PAD
Sh "2" R 0.8001 0.8001 0 0 0
Dr 0 0 0
At SMD N 00888000
Ne 0 ""
Po 0.70104 1.00076
$EndPAD
$PAD
Sh "3" R 0.8001 0.8001 0 0 0
Dr 0 0 0
At SMD N 00888000
Ne 0 ""
Po 0 -0.99822
$EndPAD
$EndMODULE SOT23_Transistor_RevA_03Aug2010
$MODULE TSOT6-MK06A-Housing_26Jul2012
Po 239 55.5 0 15 51B01ED4 00000000 ~~
Li TSOT6-MK06A-Housing_26Jul2012
Cd TSOP-6 MK06A housing 6pin
Sc 0
AR 
Op 0 0 0
At SMD
T0 -0.07112 -3.62966 1.524 1.524 0 0.3048 N V 21 N "IC"
T1 -0.02032 3.56108 1.524 1.524 0 0.3048 N V 21 N "TSOT6-MK06A-Housing_26Jul2012"
DS -0.50038 0.18034 0.50038 0.18034 0.381 17
DS 0.50038 -0.18034 -0.50038 -0.18034 0.381 17
DC -0.50038 0 -0.69088 0 0.381 17
DC 0.50038 0 0.69088 0 0.381 17
DS -1.6002 0.35052 -1.10998 0.35052 0.381 21
DS -1.6002 -0.35052 -1.6002 0.35052 0.381 21
DS 1.6002 -0.35052 1.6002 0.35052 0.381 21
$PAD
Sh "1" R 0.69088 1.00076 0 0 0
Dr 0 0 0
At SMD N 00888000
Ne 0 ""
Po -0.94996 1.30048
$EndPAD
$PAD
Sh "2" R 0.69088 1.00076 0 0 0
Dr 0 0 0
At SMD N 00888000
Ne 0 ""
Po 0 1.30048
$EndPAD
$PAD
Sh "3" R 0.69088 1.00076 0 0 0
Dr 0 0 0
At SMD N 00888000
Ne 0 ""
Po 0.94996 1.30048
$EndPAD
$PAD
Sh "4" R 0.69088 1.00076 0 0 0
Dr 0 0 0
At SMD N 00888000
Ne 0 ""
Po 0.94996 -1.30048
$EndPAD
$PAD
Sh "5" R 0.69088 1.00076 0 0 0
Dr 0 0 0
At SMD N 00888000
Ne 0 ""
Po 0 -1.30048
$EndPAD
$PAD
Sh "6" R 0.69088 1.00076 0 0 0
Dr 0 0 0
At SMD N 00888000
Ne 0 ""
Po -0.94996 -1.30048
$EndPAD
$EndMODULE TSOT6-MK06A-Housing_26Jul2012
$MODULE TSOT6-MK06A-Housing_Handsoldering_26Jul2012
Po 235.5 77 0 15 51B01EAE 00000000 ~~
Li TSOT6-MK06A-Housing_Handsoldering_26Jul2012
Cd TSOP-6 MK06A housing 6pin
Sc 0
AR 
Op 0 0 0
At SMD
T0 -0.07112 -4.35102 1.524 1.524 0 0.3048 N V 21 N "IC"
T1 -0.03048 5.22986 1.524 1.524 0 0.3048 N V 21 N "TSOT6-MK06A-Housing_Handsoldering_26Jul2012"
DS -1.6002 0.35052 -1.10998 0.35052 0.381 21
DS -1.6002 -0.35052 -1.6002 0.35052 0.381 21
DS 1.6002 -0.35052 1.6002 0.35052 0.381 21
$PAD
Sh "1" R 0.69088 1.99898 0 0 0
Dr 0 0 0
At SMD N 00888000
Ne 0 ""
Po -0.94996 1.80086
$EndPAD
$PAD
Sh "2" R 0.69088 1.99898 0 0 0
Dr 0 0 0
At SMD N 00888000
Ne 0 ""
Po 0 1.80086
$EndPAD
$PAD
Sh "3" R 0.69088 1.99898 0 0 0
Dr 0 0 0
At SMD N 00888000
Ne 0 ""
Po 0.94996 1.80086
$EndPAD
$PAD
Sh "4" R 0.69088 1.99898 0 0 0
Dr 0 0 0
At SMD N 00888000
Ne 0 ""
Po 0.94996 -1.80086
$EndPAD
$PAD
Sh "5" R 0.69088 1.99898 0 0 0
Dr 0 0 0
At SMD N 00888000
Ne 0 ""
Po 0 -1.80086
$EndPAD
$PAD
Sh "6" R 0.69088 1.99898 0 0 0
Dr 0 0 0
At SMD N 00888000
Ne 0 ""
Po -0.94996 -1.80086
$EndPAD
$EndMODULE TSOT6-MK06A-Housing_Handsoldering_26Jul2012
$EndLIBRARY
