PCBNEW-LibModule-V1  Do 06 Jun 2013 22:02:31 CEST
# encoding utf-8
Units mm
$INDEX
TO-78_Housing_10Pin_RevA_04Jun2013
TO-78_Housing_6Pin_RevA_04Jun2013
TO-78_Housing_8Pin_RevA_04Jun2013
$EndINDEX
$MODULE TO-78_Housing_10Pin_RevA_04Jun2013
Po 0 0 0 15 51B0E824 00000000 ~~
Li TO-78_Housing_10Pin_RevA_04Jun2013
Cd TO-78, 10 Pin,
Kw TO-78, 10 Pin,
Sc 0
AR 
Op 0 0 0
T0 0.15 -6.475 1.524 1.524 0 0.3048 N V 21 N "U"
T1 -0.8 7.475 1.524 1.524 0 0.3048 N I 21 N "TO-78_Housing_10Pin_RevA_04Jun2013"
DS 3.7625 3.9125 3.4125 4.2625 0.381 21
DS 3.4125 4.2625 2.9125 3.6875 0.381 21
DS 3.7625 3.9125 4.1375 3.5375 0.381 21
DS 4.1375 3.5375 3.5875 3.0125 0.381 21
DC -0.1125 0.0375 -0.1125 -4.2125 0.2 21
DC -0.1125 0.0375 -0.1125 -4.6625 0.381 21
$PAD
Sh "10" C 1.3 1.3 0 0 0
Dr 0.8 0 0
At STD N 00E0FFFF
Ne 0 ""
Po 2.125 2.125
$EndPAD
$PAD
Sh "9" C 1.3 1.3 0 0 0
Dr 0.8 0 0
At STD N 00E0FFFF
Ne 0 ""
Po 0.475 2.975
$EndPAD
$PAD
Sh "8" C 1.3 1.3 0 0 0
Dr 0.8 0 0
At STD N 00E0FFFF
Ne 0 ""
Po -1.375 2.675
$EndPAD
$PAD
Sh "7" C 1.3 1.3 0 0 0
Dr 0.8 0 0
At STD N 00E0FFFF
Ne 0 ""
Po -2.675 1.35
$EndPAD
$PAD
Sh "6" C 1.3 1.3 0 0 0
Dr 0.8 0 0
At STD N 00E0FFFF
Ne 0 ""
Po -2.975 -0.475
$EndPAD
$PAD
Sh "5" C 1.3 1.3 0 0 0
Dr 0.8 0 0
At STD N 00E0FFFF
Ne 0 ""
Po -2.15 -2.125
$EndPAD
$PAD
Sh "4" C 1.3 1.3 0 0 0
Dr 0.8 0 0
At STD N 00E0FFFF
Ne 0 ""
Po -0.475 -2.95
$EndPAD
$PAD
Sh "3" C 1.3 1.3 0 0 0
Dr 0.8 0 0
At STD N 00E0FFFF
Ne 0 ""
Po 1.35 -2.675
$EndPAD
$PAD
Sh "2" C 1.3 1.3 0 0 0
Dr 0.8 0 0
At STD N 00E0FFFF
Ne 0 ""
Po 2.675 -1.375
$EndPAD
$PAD
Sh "1" C 1.3 1.3 0 0 0
Dr 0.8 0 0
At STD N 00E0FFFF
Ne 0 ""
Po 2.95 0.475
$EndPAD
$SHAPE3D
Na "TO-78_Wings3D_RevA_06Jun2013/TO-78_10Pin_Faktor03937_RevA_06Jun2013.wrl"
Sc 0.3937 0.3937 0.3937
Of 0 0 0
Ro 0 0 0
$EndSHAPE3D
$EndMODULE TO-78_Housing_10Pin_RevA_04Jun2013
$MODULE TO-78_Housing_6Pin_RevA_04Jun2013
Po 0 0 0 15 51B0E206 00000000 ~~
Li TO-78_Housing_6Pin_RevA_04Jun2013
Cd TO-78, 6 Pin,
Kw TO-78, 6 Pin,
Sc 0
AR 
Op 0 0 0
T0 0.15 -6.475 1.524 1.524 0 0.3048 N V 21 N "U"
T1 -0.8 7.475 1.524 1.524 0 0.3048 N I 21 N "TO-78_Housing_6Pin_RevA_04Jun2013"
DS 3.8875 3.8125 3.5375 4.1625 0.381 21
DS 3.5375 4.1625 3.0375 3.5875 0.381 21
DS 3.8875 3.8125 4.2625 3.4375 0.381 21
DS 4.2625 3.4375 3.7125 2.9125 0.381 21
DC 0.0125 -0.0625 0.0125 -4.3125 0.2 21
DC 0.0125 -0.0625 0.0125 -4.7625 0.381 21
$PAD
Sh "7" C 1.524 1.524 0 0 900
Dr 0.85 0 0
At STD N 00E0FFFF
Ne 0 ""
Po 0.0125 2.9375
$EndPAD
$PAD
Sh "3" C 1.524 1.524 0 0 900
Dr 0.85 0 0
At STD N 00E0FFFF
Ne 0 ""
Po 0.0125 -3.0625
$EndPAD
$PAD
Sh "2" C 1.524 1.524 0 0 900
Dr 0.85 0 0
At STD N 00E0FFFF
Ne 0 ""
Po 2.1375 -2.1875
$EndPAD
$PAD
Sh "6" C 1.524 1.524 0 0 900
Dr 0.85 0 0
At STD N 00E0FFFF
Ne 0 ""
Po -2.1125 2.0625
$EndPAD
$PAD
Sh "4" C 1.524 1.524 0 0 900
Dr 0.85 0 0
At STD N 00E0FFFF
Ne 0 ""
Po -2.1125 -2.1875
$EndPAD
$PAD
Sh "8" C 1.524 1.524 0 0 900
Dr 0.85 0 0
At STD N 00E0FFFF
Ne 0 ""
Po 2.1375 2.0625
$EndPAD
$SHAPE3D
Na "TO-78_Wings3D_RevA_06Jun2013/TO-78_6Pin_Faktor03937_RevA_06Jun2013.wrl"
Sc 0.3937 0.3937 0.3937
Of 0 0 0
Ro 0 0 0
$EndSHAPE3D
$EndMODULE TO-78_Housing_6Pin_RevA_04Jun2013
$MODULE TO-78_Housing_8Pin_RevA_04Jun2013
Po 0 0 0 15 51ADD704 00000000 ~~
Li TO-78_Housing_8Pin_RevA_04Jun2013
Cd TO-78, 8 Pin,
Kw TO-78, 8 Pin,
Sc 0
AR 
Op 0 0 0
T0 0.15 -6.475 1.524 1.524 0 0.3048 N V 21 N "U"
T1 -0.8 7.475 1.524 1.524 0 0.3048 N I 21 N "TO-78_Housing_8Pin_RevA_04Jun2013"
DS 3.7625 3.9125 3.4125 4.2625 0.381 21
DS 3.4125 4.2625 2.9125 3.6875 0.381 21
DS 3.7625 3.9125 4.1375 3.5375 0.381 21
DS 4.1375 3.5375 3.5875 3.0125 0.381 21
DC -0.1125 0.0375 -0.1125 -4.2125 0.2 21
DC -0.1125 0.0375 -0.1125 -4.6625 0.381 21
$PAD
Sh "1" C 1.524 1.524 0 0 900
Dr 0.85 0 0
At STD N 00E0FFFF
Ne 0 ""
Po -0.1125 3.0375
$EndPAD
$PAD
Sh "5" C 1.524 1.524 0 0 900
Dr 0.85 0 0
At STD N 00E0FFFF
Ne 0 ""
Po -0.1125 -2.9625
$EndPAD
$PAD
Sh "3" C 1.524 1.524 0 0 900
Dr 0.85 0 0
At STD N 00E0FFFF
Ne 0 ""
Po -3.1125 0.0375
$EndPAD
$PAD
Sh "1" C 1.524 1.524 0 0 900
Dr 0.85 0 0
At STD N 00E0FFFF
Ne 0 ""
Po 2.8875 0.0375
$EndPAD
$PAD
Sh "2" C 1.524 1.524 0 0 900
Dr 0.85 0 0
At STD N 00E0FFFF
Ne 0 ""
Po 2.0125 -2.0875
$EndPAD
$PAD
Sh "2" C 1.524 1.524 0 0 900
Dr 0.85 0 0
At STD N 00E0FFFF
Ne 0 ""
Po -2.2375 2.1625
$EndPAD
$PAD
Sh "4" C 1.524 1.524 0 0 900
Dr 0.85 0 0
At STD N 00E0FFFF
Ne 0 ""
Po -2.2375 -2.0875
$EndPAD
$PAD
Sh "8" C 1.524 1.524 0 0 900
Dr 0.85 0 0
At STD N 00E0FFFF
Ne 0 ""
Po 2.0125 2.1625
$EndPAD
$SHAPE3D
Na "TO-78_Wings3D_RevA_06Jun2013/TO-78_8Pin_Faktor03937_RevA_06Jun2013.wrl"
Sc 0.3937 0.3937 0.3937
Of 0 0 0
Ro 0 0 0
$EndSHAPE3D
$EndMODULE TO-78_Housing_8Pin_RevA_04Jun2013
$EndLIBRARY
