PCBNEW-LibModule-V1  Di 01 Okt 2013 22:03:23 CEST
# encoding utf-8
Units mm
$INDEX
IR-directFET_L8-Outline_Names_RevA_30Jun2011
IR-directFET_L8-Outline_Numbers_RevA_30Jun2011
IR-directFET_MN-Outline_Names_RevA_30Jun2011
IR-directFET_MN-Outline_Numbers_RevA_30Jun2011
IR-directFET_MP-Outline_Names_RevA_30Jun2011
IR-directFET_MP-Outline_Numbers_RevA_30Jun2011
IR-directFET_MT-Outline_Names_RevA_30Jun2011
IR-directFET_MT-Outline_Numbers_RevA_30Jun2011
IR-directFET_MX-Outline_Names_RevA_30Jun2011
IR-directFET_MX-Outline_Numbers_RevA_30Jun2011
IR-directFET_MZ-Outline_Names_RevA_30Jun2011
IR-directFET_MZ-Outline_Numnbers_RevA_30Jun2011
IR-directFET_S1-Outline_Names_RevA_30Jun2011
IR-directFET_S1-Outline_Numbers_RevA_30Jun2011
IR-directFET_SH-Outline_Names_RevA_30Jun2011
IR-directFET_SH-Outline_Numbers_RevA_30Jun2011
IR-directFET_SJ-Outline_Names_RevA_30Jun2011
IR-directFET_SJ-Outline_Numbers_RevA_30Jun2011
IR-directFET_SQ-Outline_Names_RevA_30Jun2011
IR-directFET_SQ-Outline_Numbers_RevA_30Jun2011
IR-directFET_ST-Outline_Names_RevA_30Jun2011
IR-directFET_ST-Outline_Numbers_RevA_30Jun2011
IR-directFET_ST-Outline_Numbers_SquareHeatSink_RevA_30Jun2011
$EndINDEX
$MODULE IR-directFET_L8-Outline_Names_RevA_30Jun2011
Po 0 0 0 15 4E0D1025 00000000 ~~
Li IR-directFET_L8-Outline_Names_RevA_30Jun2011
Cd IR-directFET, L8-Outline, Pads with Names,
Kw IR-directFET, L8-Outline, Pads with Names,
Sc 0
AR 
Op 0 0 0
T0 0 -5.00126 1.524 1.524 0 0.3048 N V 21 N "T"
T1 0 5.99948 1.524 1.524 0 0.3048 N I 21 N "IR-directFET_L8-Outline_Names_RevA_30Jun2011"
DS -3.55092 -3.55092 3.55092 -3.55092 0.381 21
DS 3.55092 -3.55092 3.55092 3.55092 0.381 21
DS 3.55092 3.55092 -3.55092 3.55092 0.381 21
DS -3.55092 3.55092 -3.55092 -3.55092 0.381 21
$PAD
Sh "G" R 0.70104 1.30048 0 0 0
Dr 0 0 0
At SMD N 00888000
Ne 0 ""
Po -2.25044 0
$EndPAD
$PAD
Sh "S" R 1.09982 0.8509 0 0 0
Dr 0 0 0
At SMD N 00888000
Ne 0 ""
Po -0.8509 -0.57912
$EndPAD
$PAD
Sh "S" R 1.09982 0.8509 0 0 0
Dr 0 0 0
At SMD N 00888000
Ne 0 ""
Po -0.8509 0.57912
$EndPAD
$PAD
Sh "S" R 1.09982 0.8509 0 0 0
Dr 0 0 0
At SMD N 00888000
Ne 0 ""
Po 1.95072 0.57912
$EndPAD
$PAD
Sh "S" R 1.09982 0.8509 0 0 0
Dr 0 0 0
At SMD N 00888000
Ne 0 ""
Po 1.95072 -0.57912
$EndPAD
$PAD
Sh "S" R 1.09982 0.8509 0 0 0
Dr 0 0 0
At SMD N 00888000
Ne 0 ""
Po -0.8509 -1.72974
$EndPAD
$PAD
Sh "S" R 1.09982 0.8509 0 0 0
Dr 0 0 0
At SMD N 00888000
Ne 0 ""
Po 1.95072 -1.72974
$EndPAD
$PAD
Sh "S" R 1.09982 0.8509 0 0 0
Dr 0 0 0
At SMD N 00888000
Ne 0 ""
Po -0.8509 1.72974
$EndPAD
$PAD
Sh "S" R 1.09982 0.8509 0 0 0
Dr 0 0 0
At SMD N 00888000
Ne 0 ""
Po 1.95072 1.72974
$EndPAD
$PAD
Sh "D" R 1.09982 1.69926 0 0 0
Dr 0 0 0
At SMD N 00888000
Ne 0 ""
Po -4.50088 0
$EndPAD
$PAD
Sh "D" R 1.09982 1.69926 0 0 0
Dr 0 0 0
At SMD N 00888000
Ne 0 ""
Po -4.50088 -2.19964
$EndPAD
$PAD
Sh "D" R 1.09982 1.69926 0 0 0
Dr 0 0 0
At SMD N 00888000
Ne 0 ""
Po -4.50088 2.19964
$EndPAD
$PAD
Sh "D" R 1.09982 1.69926 0 0 0
Dr 0 0 0
At SMD N 00888000
Ne 0 ""
Po 4.49834 0
$EndPAD
$PAD
Sh "D" R 1.09982 1.69926 0 0 0
Dr 0 0 0
At SMD N 00888000
Ne 0 ""
Po 4.49834 2.19964
$EndPAD
$PAD
Sh "D" R 1.09982 1.69926 0 0 0
Dr 0 0 0
At SMD N 00888000
Ne 0 ""
Po 4.49834 -2.19964
$EndPAD
$SHAPE3D
Na "IR-directFET_Packages_Wings3d_RevB_28Sep2013/IR-directFET_L8-Outline_Faktor03937_RevA_28Sep2013.wrl"
Sc 0.3937 0.3937 0.3937
Of 0 0 0
Ro 0 0 0
$EndSHAPE3D
$EndMODULE IR-directFET_L8-Outline_Names_RevA_30Jun2011
$MODULE IR-directFET_L8-Outline_Numbers_RevA_30Jun2011
Po 0 0 0 15 4E0D1104 00000000 ~~
Li IR-directFET_L8-Outline_Numbers_RevA_30Jun2011
Cd IR-directFET, L8-Outline, Pads with Numbers,
Kw IR-directFET, L8-Outline, Pads with Numbers,
Sc 0
AR 
Op 0 0 0
T0 0 -5.00126 1.524 1.524 0 0.3048 N V 21 N "T"
T1 0 5.99948 1.524 1.524 0 0.3048 N I 21 N "IR-directFET_L8-Outline_Numbers_RevA_30Jun2011"
DS -3.55092 -3.55092 3.55092 -3.55092 0.381 21
DS 3.55092 -3.55092 3.55092 3.55092 0.381 21
DS 3.55092 3.55092 -3.55092 3.55092 0.381 21
DS -3.55092 3.55092 -3.55092 -3.55092 0.381 21
$PAD
Sh "12" R 0.70104 1.30048 0 0 0
Dr 0 0 0
At SMD N 00888000
Ne 0 ""
Po -2.25044 0
$EndPAD
$PAD
Sh "9" R 1.09982 0.8509 0 0 0
Dr 0 0 0
At SMD N 00888000
Ne 0 ""
Po -0.8509 -0.57912
$EndPAD
$PAD
Sh "10" R 1.09982 0.8509 0 0 0
Dr 0 0 0
At SMD N 00888000
Ne 0 ""
Po -0.8509 0.57912
$EndPAD
$PAD
Sh "6" R 1.09982 0.8509 0 0 0
Dr 0 0 0
At SMD N 00888000
Ne 0 ""
Po 1.95072 0.57912
$EndPAD
$PAD
Sh "5" R 1.09982 0.8509 0 0 0
Dr 0 0 0
At SMD N 00888000
Ne 0 ""
Po 1.95072 -0.57912
$EndPAD
$PAD
Sh "8" R 1.09982 0.8509 0 0 0
Dr 0 0 0
At SMD N 00888000
Ne 0 ""
Po -0.8509 -1.72974
$EndPAD
$PAD
Sh "4" R 1.09982 0.8509 0 0 0
Dr 0 0 0
At SMD N 00888000
Ne 0 ""
Po 1.95072 -1.72974
$EndPAD
$PAD
Sh "11" R 1.09982 0.8509 0 0 0
Dr 0 0 0
At SMD N 00888000
Ne 0 ""
Po -0.8509 1.72974
$EndPAD
$PAD
Sh "7" R 1.09982 0.8509 0 0 0
Dr 0 0 0
At SMD N 00888000
Ne 0 ""
Po 1.95072 1.72974
$EndPAD
$PAD
Sh "14" R 1.09982 1.69926 0 0 0
Dr 0 0 0
At SMD N 00888000
Ne 0 ""
Po -4.50088 0
$EndPAD
$PAD
Sh "13" R 1.09982 1.69926 0 0 0
Dr 0 0 0
At SMD N 00888000
Ne 0 ""
Po -4.50088 -2.19964
$EndPAD
$PAD
Sh "15" R 1.09982 1.69926 0 0 0
Dr 0 0 0
At SMD N 00888000
Ne 0 ""
Po -4.50088 2.19964
$EndPAD
$PAD
Sh "2" R 1.09982 1.69926 0 0 0
Dr 0 0 0
At SMD N 00888000
Ne 0 ""
Po 4.49834 0
$EndPAD
$PAD
Sh "3" R 1.09982 1.69926 0 0 0
Dr 0 0 0
At SMD N 00888000
Ne 0 ""
Po 4.49834 2.19964
$EndPAD
$PAD
Sh "1" R 1.09982 1.69926 0 0 0
Dr 0 0 0
At SMD N 00888000
Ne 0 ""
Po 4.49834 -2.19964
$EndPAD
$SHAPE3D
Na "IR-directFET_Packages_Wings3d_RevB_28Sep2013/IR-directFET_L8-Outline_Faktor03937_RevA_28Sep2013.wrl"
Sc 0.3937 0.3937 0.3937
Of 0 0 0
Ro 0 0 0
$EndSHAPE3D
$EndMODULE IR-directFET_L8-Outline_Numbers_RevA_30Jun2011
$MODULE IR-directFET_MN-Outline_Names_RevA_30Jun2011
Po 0 0 0 15 4E0CD1C2 00000000 ~~
Li IR-directFET_MN-Outline_Names_RevA_30Jun2011
Cd IR-directFET, MN-Outline, Pads with Names,
Kw IR-directFET, MN-Outline, Pads with Names,
Sc 0
AR 
Op 0 0 0
T0 0.01016 -3.91922 1.524 1.524 0 0.3048 N V 21 N "T"
T1 0 4.572 1.524 1.524 0 0.3048 N I 21 N "IR-directFET_MN-Outline_Names_RevA_30Jun201"
DS -2.44094 -2.4511 2.4511 -2.4511 0.381 21
DS 2.4511 -2.4511 2.4511 2.4511 0.381 21
DS 2.4511 2.4511 -2.4511 2.4511 0.381 21
DS -2.4511 2.4511 -2.4511 -2.4511 0.381 21
DS -2.4511 -2.4511 -2.4511 -2.46126 0.381 21
$PAD
Sh "G" R 0.8509 0.8509 0 0 0
Dr 0 0 0
At SMD N 00888000
Ne 0 ""
Po -1.12014 0
$EndPAD
$PAD
Sh "D" R 0.89916 1.84912 0 0 0
Dr 0 0 0
At SMD N 00888000
Ne 0 ""
Po -3.2004 -1.1811
.SolderPasteRatio -0.001
$EndPAD
$PAD
Sh "D" R 0.89916 1.84912 0 0 0
Dr 0 0 0
At SMD N 00888000
Ne 0 ""
Po -3.2004 1.1811
$EndPAD
$PAD
Sh "D" R 0.89916 1.84912 0 0 0
Dr 0 0 0
At SMD N 00888000
Ne 0 ""
Po 3.18008 -1.1811
$EndPAD
$PAD
Sh "D" R 0.89916 1.84912 0 0 0
Dr 0 0 0
At SMD N 00888000
Ne 0 ""
Po 3.18008 1.1811
$EndPAD
$PAD
Sh "S" R 1.45034 0.94996 0 0 0
Dr 0 0 0
At SMD N 00888000
Ne 0 ""
Po 0.70104 -0.70104
$EndPAD
$PAD
Sh "S" R 1.45034 0.89916 0 0 0
Dr 0 0 0
At SMD N 00888000
Ne 0 ""
Po 0.70104 0.70104
$EndPAD
$SHAPE3D
Na "IR-directFET_Packages_Wings3d_RevB_28Sep2013/IR-directFET_MN-Outline_Faktor03937_RevA_28Sep2013.wrl"
Sc 0.3937 0.3937 0.3937
Of 0 0 0
Ro 0 0 0
$EndSHAPE3D
$EndMODULE IR-directFET_MN-Outline_Names_RevA_30Jun2011
$MODULE IR-directFET_MN-Outline_Numbers_RevA_30Jun2011
Po 0 0 0 15 4E0CD233 00000000 ~~
Li IR-directFET_MN-Outline_Numbers_RevA_30Jun2011
Cd IR-directFET, MN-Outline, Pads with Numbers,
Kw IR-directFET, MN-Outline, Pads with Numbers,
Sc 0
AR 
Op 0 0 0
T0 0.01016 -3.91922 1.524 1.524 0 0.3048 N V 21 N "T"
T1 0 4.572 1.524 1.524 0 0.3048 N I 21 N "IR-directFET_MN-Outline_Numbers_RevA_30Jun201"
DS -2.44094 -2.4511 2.4511 -2.4511 0.381 21
DS 2.4511 -2.4511 2.4511 2.4511 0.381 21
DS 2.4511 2.4511 -2.4511 2.4511 0.381 21
DS -2.4511 2.4511 -2.4511 -2.4511 0.381 21
DS -2.4511 -2.4511 -2.4511 -2.46126 0.381 21
$PAD
Sh "5" R 0.8509 0.8509 0 0 0
Dr 0 0 0
At SMD N 00888000
Ne 0 ""
Po -1.12014 0
$EndPAD
$PAD
Sh "6" R 0.89916 1.84912 0 0 0
Dr 0 0 0
At SMD N 00888000
Ne 0 ""
Po -3.2004 -1.1811
.SolderPasteRatio -0.001
$EndPAD
$PAD
Sh "7" R 0.89916 1.84912 0 0 0
Dr 0 0 0
At SMD N 00888000
Ne 0 ""
Po -3.2004 1.1811
$EndPAD
$PAD
Sh "1" R 0.89916 1.84912 0 0 0
Dr 0 0 0
At SMD N 00888000
Ne 0 ""
Po 3.18008 -1.1811
$EndPAD
$PAD
Sh "2" R 0.89916 1.84912 0 0 0
Dr 0 0 0
At SMD N 00888000
Ne 0 ""
Po 3.18008 1.1811
$EndPAD
$PAD
Sh "3" R 1.45034 0.94996 0 0 0
Dr 0 0 0
At SMD N 00888000
Ne 0 ""
Po 0.70104 -0.70104
$EndPAD
$PAD
Sh "4" R 1.45034 0.89916 0 0 0
Dr 0 0 0
At SMD N 00888000
Ne 0 ""
Po 0.70104 0.70104
$EndPAD
$SHAPE3D
Na "IR-directFET_Packages_Wings3d_RevB_28Sep2013/IR-directFET_MN-Outline_Faktor03937_RevA_28Sep2013.wrl"
Sc 0.3937 0.3937 0.3937
Of 0 0 0
Ro 0 0 0
$EndSHAPE3D
$EndMODULE IR-directFET_MN-Outline_Numbers_RevA_30Jun2011
$MODULE IR-directFET_MP-Outline_Names_RevA_30Jun2011
Po 0 0 0 15 4E0CF76C 00000000 ~~
Li IR-directFET_MP-Outline_Names_RevA_30Jun2011
Cd IR-directFET, MP-Outline, Pads with Names,
Kw IR-directFET, MP-Outline, Pads with Names,
Sc 0
AR 
Op 0 0 0
T0 0 -4.09956 1.524 1.524 0 0.3048 N V 21 N "T"
T1 0 4.826 1.524 1.524 0 0.3048 N I 21 N "IR-directFET_MP-Outline_Names_RevA_30Jun2011"
DS 2.60096 2.60096 -2.60096 2.60096 0.381 21
DS -2.60096 -2.60096 2.60096 -2.60096 0.381 21
$PAD
Sh "G" R 0.65024 0.65024 0 0 0
Dr 0 0 0
At SMD N 00888000
Ne 0 ""
Po -0.8001 0
$EndPAD
$PAD
Sh "S" R 0.83058 0.59944 0 0 0
Dr 0 0 0
At SMD N 00888000
Ne 0 ""
Po 0.58928 -0.4191
$EndPAD
$PAD
Sh "S" R 0.83058 0.59944 0 0 0
Dr 0 0 0
At SMD N 00888000
Ne 0 ""
Po 0.58928 0.4191
$EndPAD
$PAD
Sh "D" R 0.89916 1.84912 0 0 0
Dr 0 0 0
At SMD N 00888000
Ne 0 ""
Po -3.2004 -1.1811
$EndPAD
$PAD
Sh "D" R 0.89916 1.84912 0 0 0
Dr 0 0 0
At SMD N 00888000
Ne 0 ""
Po -3.2004 1.1811
$EndPAD
$PAD
Sh "D" R 0.89916 1.84912 0 0 0
Dr 0 0 0
At SMD N 00888000
Ne 0 ""
Po 3.2004 -1.1811
$EndPAD
$PAD
Sh "D" R 0.89916 1.84912 0 0 0
Dr 0 0 0
At SMD N 00888000
Ne 0 ""
Po 3.2004 1.1811
$EndPAD
$SHAPE3D
Na "IR-directFET_Packages_Wings3d_RevB_28Sep2013/IR-directFET_MP-Outline_Faktor03937_RevA_28Sep2013.wrl"
Sc 0.3937 0.3937 0.3937
Of 0 0 0
Ro 0 0 0
$EndSHAPE3D
$EndMODULE IR-directFET_MP-Outline_Names_RevA_30Jun2011
$MODULE IR-directFET_MP-Outline_Numbers_RevA_30Jun2011
Po 0 0 0 15 4E0CF7E1 00000000 ~~
Li IR-directFET_MP-Outline_Numbers_RevA_30Jun2011
Cd IR-directFET, MP-Outline, Pads with Numbers,
Kw IR-directFET, MP-Outline, Pads with Numbers,
Sc 0
AR 
Op 0 0 0
T0 0 -4.09956 1.524 1.524 0 0.3048 N V 21 N "T"
T1 0 4.826 1.524 1.524 0 0.3048 N I 21 N "IR-directFET_MP-Outline_Numbers_RevA_30Jun2011"
DS 2.60096 2.60096 -2.60096 2.60096 0.381 21
DS -2.60096 -2.60096 2.60096 -2.60096 0.381 21
$PAD
Sh "5" R 0.65024 0.65024 0 0 0
Dr 0 0 0
At SMD N 00888000
Ne 0 ""
Po -0.8001 0
$EndPAD
$PAD
Sh "3" R 0.83058 0.59944 0 0 0
Dr 0 0 0
At SMD N 00888000
Ne 0 ""
Po 0.58928 -0.4191
$EndPAD
$PAD
Sh "4" R 0.83058 0.59944 0 0 0
Dr 0 0 0
At SMD N 00888000
Ne 0 ""
Po 0.58928 0.4191
$EndPAD
$PAD
Sh "6" R 0.89916 1.84912 0 0 0
Dr 0 0 0
At SMD N 00888000
Ne 0 ""
Po -3.2004 -1.1811
$EndPAD
$PAD
Sh "7" R 0.89916 1.84912 0 0 0
Dr 0 0 0
At SMD N 00888000
Ne 0 ""
Po -3.2004 1.1811
$EndPAD
$PAD
Sh "1" R 0.89916 1.84912 0 0 0
Dr 0 0 0
At SMD N 00888000
Ne 0 ""
Po 3.2004 -1.1811
$EndPAD
$PAD
Sh "2" R 0.89916 1.84912 0 0 0
Dr 0 0 0
At SMD N 00888000
Ne 0 ""
Po 3.2004 1.1811
$EndPAD
$SHAPE3D
Na "IR-directFET_Packages_Wings3d_RevB_28Sep2013/IR-directFET_MP-Outline_Faktor03937_RevA_28Sep2013.wrl"
Sc 0.3937 0.3937 0.3937
Of 0 0 0
Ro 0 0 0
$EndSHAPE3D
$EndMODULE IR-directFET_MP-Outline_Numbers_RevA_30Jun2011
$MODULE IR-directFET_MT-Outline_Names_RevA_30Jun2011
Po 0 0 0 15 4E0CFF35 00000000 ~~
Li IR-directFET_MT-Outline_Names_RevA_30Jun2011
Cd IR-directFET, MT-Outline, Pads with Names,
Kw IR-directFET, MT-Outline, Pads with Names,
Sc 0
AR 
Op 0 0 0
T0 0 -4.09956 1.524 1.524 0 0.3048 N V 21 N "T"
T1 0 4.826 1.524 1.524 0 0.3048 N I 21 N "IR-directFET_MT-Outline_Names_RevA_30Jun2011"
DS 2.60096 2.60096 -2.60096 2.60096 0.381 21
DS -2.60096 -2.60096 2.60096 -2.60096 0.381 21
$PAD
Sh "G" R 0.8509 0.94996 0 0 0
Dr 0 0 0
At SMD N 00888000
Ne 0 ""
Po -1.4097 0
$EndPAD
$PAD
Sh "S" R 1.84912 1.04902 0 0 0
Dr 0 0 0
At SMD N 00888000
Ne 0 ""
Po 0.69088 -0.83058
$EndPAD
$PAD
Sh "S" R 1.84912 1.04902 0 0 0
Dr 0 0 0
At SMD N 00888000
Ne 0 ""
Po 0.69088 0.83058
$EndPAD
$PAD
Sh "D" R 0.89916 1.84912 0 0 0
Dr 0 0 0
At SMD N 00888000
Ne 0 ""
Po -3.21056 -1.1811
$EndPAD
$PAD
Sh "D" R 0.89916 1.84912 0 0 0
Dr 0 0 0
At SMD N 00888000
Ne 0 ""
Po -3.21056 1.1811
$EndPAD
$PAD
Sh "D" R 0.89916 1.84912 0 0 0
Dr 0 0 0
At SMD N 00888000
Ne 0 ""
Po 3.2004 -1.1811
$EndPAD
$PAD
Sh "D" R 0.89916 1.84912 0 0 0
Dr 0 0 0
At SMD N 00888000
Ne 0 ""
Po 3.2004 1.1811
$EndPAD
$SHAPE3D
Na "IR-directFET_Packages_Wings3d_RevB_28Sep2013/IR-directFET_MT-Outline_Faktor03937_RevA_28Sep2013.wrl"
Sc 0.3937 0.3937 0.3937
Of 0 0 0
Ro 0 0 0
$EndSHAPE3D
$EndMODULE IR-directFET_MT-Outline_Names_RevA_30Jun2011
$MODULE IR-directFET_MT-Outline_Numbers_RevA_30Jun2011
Po 0 0 0 15 4E0CFFC2 00000000 ~~
Li IR-directFET_MT-Outline_Numbers_RevA_30Jun2011
Cd IR-directFET, MT-Outline, Pads with Numbers,
Kw IR-directFET, MT-Outline, Pads with Numbers,
Sc 0
AR 
Op 0 0 0
T0 0 -4.09956 1.524 1.524 0 0.3048 N V 21 N "T"
T1 0 4.826 1.524 1.524 0 0.3048 N I 21 N "IR-directFET_MT-Outline_Numbers_RevA_30Jun2011"
DS 2.60096 2.60096 -2.60096 2.60096 0.381 21
DS -2.60096 -2.60096 2.60096 -2.60096 0.381 21
$PAD
Sh "5" R 0.8509 0.94996 0 0 0
Dr 0 0 0
At SMD N 00888000
Ne 0 ""
Po -1.4097 0
$EndPAD
$PAD
Sh "3" R 1.84912 1.04902 0 0 0
Dr 0 0 0
At SMD N 00888000
Ne 0 ""
Po 0.69088 -0.83058
$EndPAD
$PAD
Sh "4" R 1.84912 1.04902 0 0 0
Dr 0 0 0
At SMD N 00888000
Ne 0 ""
Po 0.69088 0.83058
$EndPAD
$PAD
Sh "6" R 0.89916 1.84912 0 0 0
Dr 0 0 0
At SMD N 00888000
Ne 0 ""
Po -3.21056 -1.1811
$EndPAD
$PAD
Sh "7" R 0.89916 1.84912 0 0 0
Dr 0 0 0
At SMD N 00888000
Ne 0 ""
Po -3.21056 1.1811
$EndPAD
$PAD
Sh "1" R 0.89916 1.84912 0 0 0
Dr 0 0 0
At SMD N 00888000
Ne 0 ""
Po 3.2004 -1.1811
$EndPAD
$PAD
Sh "2" R 0.89916 1.84912 0 0 0
Dr 0 0 0
At SMD N 00888000
Ne 0 ""
Po 3.2004 1.1811
$EndPAD
$SHAPE3D
Na "IR-directFET_Packages_Wings3d_RevB_28Sep2013/IR-directFET_MT-Outline_Faktor03937_RevA_28Sep2013.wrl"
Sc 0.3937 0.3937 0.3937
Of 0 0 0
Ro 0 0 0
$EndSHAPE3D
$EndMODULE IR-directFET_MT-Outline_Numbers_RevA_30Jun2011
$MODULE IR-directFET_MX-Outline_Names_RevA_30Jun2011
Po 0 0 0 15 4E0D0366 00000000 ~~
Li IR-directFET_MX-Outline_Names_RevA_30Jun2011
Cd IR-directFET, MX-Outline, Pads with Names,
Kw IR-directFET, MX-Outline, Pads with Names,
Sc 0
AR 
Op 0 0 0
T0 0.03048 -4.3307 1.524 1.524 0 0.3048 N V 21 N "T"
T1 0 4.826 1.524 1.524 0 0.3048 N I 21 N "IR-directFET_MX-Outline_Names_RevA_30Jun2011"
DS 2.60096 2.60096 -2.60096 2.60096 0.381 21
DS -2.60096 -2.60096 2.60096 -2.60096 0.381 21
$PAD
Sh "G" R 0.7493 0.7493 0 0 0
Dr 0 0 0
At SMD N 00888000
Ne 0 ""
Po -1.45034 0
$EndPAD
$PAD
Sh "S" R 1.45034 0.87122 0 0 0
Dr 0 0 0
At SMD N 00888000
Ne 0 ""
Po 0.29972 -0.6096
$EndPAD
$PAD
Sh "S" R 1.45034 0.87122 0 0 0
Dr 0 0 0
At SMD N 00888000
Ne 0 ""
Po 0.29972 0.6096
$EndPAD
$PAD
Sh "D" R 0.89916 1.84912 0 0 0
Dr 0 0 0
At SMD N 00888000
Ne 0 ""
Po -3.2004 -1.1811
$EndPAD
$PAD
Sh "D" R 0.89916 1.84912 0 0 0
Dr 0 0 0
At SMD N 00888000
Ne 0 ""
Po -3.2004 1.1811
$EndPAD
$PAD
Sh "D" R 0.89916 1.84912 0 0 0
Dr 0 0 0
At SMD N 00888000
Ne 0 ""
Po 3.2004 1.1811
$EndPAD
$PAD
Sh "D" R 0.89916 1.84912 0 0 0
Dr 0 0 0
At SMD N 00888000
Ne 0 ""
Po 3.2004 -1.1811
$EndPAD
$SHAPE3D
Na "IR-directFET_Packages_Wings3d_RevB_28Sep2013/IR-directFET_MX-Outline_Faktor03937_RevA_28Sep2013.wrl"
Sc 0.3937 0.3937 0.3937
Of 0 0 0
Ro 0 0 0
$EndSHAPE3D
$EndMODULE IR-directFET_MX-Outline_Names_RevA_30Jun2011
$MODULE IR-directFET_MX-Outline_Numbers_RevA_30Jun2011
Po 0 0 0 15 4E0D0366 00000000 ~~
Li IR-directFET_MX-Outline_Numbers_RevA_30Jun2011
Cd IR-directFET, MX-Outline, Pads with Numbers,
Kw IR-directFET, MX-Outline, Pads with Numbers,
Sc 0
AR 
Op 0 0 0
T0 0.03048 -4.3307 1.524 1.524 0 0.3048 N V 21 N "T"
T1 0 4.826 1.524 1.524 0 0.3048 N I 21 N "IR-directFET_MX-Outline_Numbers_RevA_30Jun2011"
DS 2.60096 2.60096 -2.60096 2.60096 0.381 21
DS -2.60096 -2.60096 2.60096 -2.60096 0.381 21
$PAD
Sh "G" R 0.7493 0.7493 0 0 0
Dr 0 0 0
At SMD N 00888000
Ne 0 ""
Po -1.45034 0
$EndPAD
$PAD
Sh "S" R 1.45034 0.87122 0 0 0
Dr 0 0 0
At SMD N 00888000
Ne 0 ""
Po 0.29972 -0.6096
$EndPAD
$PAD
Sh "S" R 1.45034 0.87122 0 0 0
Dr 0 0 0
At SMD N 00888000
Ne 0 ""
Po 0.29972 0.6096
$EndPAD
$PAD
Sh "D" R 0.89916 1.84912 0 0 0
Dr 0 0 0
At SMD N 00888000
Ne 0 ""
Po -3.2004 -1.1811
$EndPAD
$PAD
Sh "D" R 0.89916 1.84912 0 0 0
Dr 0 0 0
At SMD N 00888000
Ne 0 ""
Po -3.2004 1.1811
$EndPAD
$PAD
Sh "D" R 0.89916 1.84912 0 0 0
Dr 0 0 0
At SMD N 00888000
Ne 0 ""
Po 3.2004 1.1811
$EndPAD
$PAD
Sh "D" R 0.89916 1.84912 0 0 0
Dr 0 0 0
At SMD N 00888000
Ne 0 ""
Po 3.2004 -1.1811
$EndPAD
$SHAPE3D
Na "IR-directFET_Packages_Wings3d_RevB_28Sep2013/IR-directFET_MX-Outline_Faktor03937_RevA_28Sep2013.wrl"
Sc 0.3937 0.3937 0.3937
Of 0 0 0
Ro 0 0 0
$EndSHAPE3D
$EndMODULE IR-directFET_MX-Outline_Numbers_RevA_30Jun2011
$MODULE IR-directFET_MZ-Outline_Names_RevA_30Jun2011
Po 0 0 0 15 4E0CE44F 00000000 ~~
Li IR-directFET_MZ-Outline_Names_RevA_30Jun2011
Cd IR-directFET, MZ-Outline, Pads with Names,
Kw IR-directFET, MZ-Outline, Pads with Names,
Sc 0
AR 
Op 0 0 0
T0 0 -4.572 1.524 1.524 0 0.3048 N V 21 N "T"
T1 0 4.826 1.524 1.524 0 0.3048 N I 21 N "IR-directFET_MZ-Outline_Names_RevA_30Jun2011"
DS 2.60096 2.60096 -2.60096 2.60096 0.381 21
DS -2.60096 -2.60096 2.60096 -2.60096 0.381 21
$PAD
Sh "G" R 0.7493 0.7493 0 0 0
Dr 0 0 0
At SMD N 00888000
Ne 0 ""
Po -1.19888 0
$EndPAD
$PAD
Sh "S" R 1.00076 0.70104 0 0 0
Dr 0 0 0
At SMD N 00888000
Ne 0 ""
Po 0.3302 -0.48006
$EndPAD
$PAD
Sh "S" R 1.00076 0.70104 0 0 0
Dr 0 0 0
At SMD N 00888000
Ne 0 ""
Po 0.3302 0.48006
$EndPAD
$PAD
Sh "D" R 0.89916 1.84912 0 0 0
Dr 0 0 0
At SMD N 00888000
Ne 0 ""
Po -3.19786 -1.1811
$EndPAD
$PAD
Sh "D" R 0.89916 1.84912 0 0 0
Dr 0 0 0
At SMD N 00888000
Ne 0 ""
Po -3.19786 1.1811
$EndPAD
$PAD
Sh "D" R 0.89916 1.84912 0 0 0
Dr 0 0 0
At SMD N 00888000
Ne 0 ""
Po 3.2004 -1.1811
$EndPAD
$PAD
Sh "D" R 0.89916 1.84912 0 0 0
Dr 0 0 0
At SMD N 00888000
Ne 0 ""
Po 3.2004 1.1811
$EndPAD
$SHAPE3D
Na "IR-directFET_Packages_Wings3d_RevB_28Sep2013/IR-directFET_MZ-Outline_Faktor03937_RevA_28Sep2013.wrl"
Sc 0.3937 0.3937 0.3937
Of 0 0 0
Ro 0 0 0
$EndSHAPE3D
$EndMODULE IR-directFET_MZ-Outline_Names_RevA_30Jun2011
$MODULE IR-directFET_MZ-Outline_Numnbers_RevA_30Jun2011
Po 0 0 0 15 4E0CE507 00000000 ~~
Li IR-directFET_MZ-Outline_Numnbers_RevA_30Jun2011
Cd IR-directFET, MZ-Outline, Pads with Numnbers
Kw IR-directFET, MZ-Outline, Pads with Numnbers
Sc 0
AR 
Op 0 0 0
T0 -0.09906 -4.699 1.524 1.524 0 0.3048 N V 21 N "T"
T1 0 4.826 1.524 1.524 0 0.3048 N I 21 N "IR-directFET_MZ-Outline_Numnbers_RevA_30Jun2011"
DS 2.60096 2.60096 -2.60096 2.60096 0.381 21
DS -2.60096 -2.60096 2.60096 -2.60096 0.381 21
$PAD
Sh "5" R 0.7493 0.7493 0 0 0
Dr 0 0 0
At SMD N 00888000
Ne 0 ""
Po -1.19888 0
$EndPAD
$PAD
Sh "4" R 1.00076 0.70104 0 0 0
Dr 0 0 0
At SMD N 00888000
Ne 0 ""
Po 0.3302 -0.48006
$EndPAD
$PAD
Sh "4" R 1.00076 0.70104 0 0 0
Dr 0 0 0
At SMD N 00888000
Ne 0 ""
Po 0.3302 0.48006
$EndPAD
$PAD
Sh "6" R 0.89916 1.84912 0 0 0
Dr 0 0 0
At SMD N 00888000
Ne 0 ""
Po -3.19786 -1.1811
$EndPAD
$PAD
Sh "7" R 0.89916 1.84912 0 0 0
Dr 0 0 0
At SMD N 00888000
Ne 0 ""
Po -3.19786 1.1811
$EndPAD
$PAD
Sh "1" R 0.89916 1.84912 0 0 0
Dr 0 0 0
At SMD N 00888000
Ne 0 ""
Po 3.2004 -1.1811
$EndPAD
$PAD
Sh "2" R 0.89916 1.84912 0 0 0
Dr 0 0 0
At SMD N 00888000
Ne 0 ""
Po 3.2004 1.1811
$EndPAD
$SHAPE3D
Na "IR-directFET_Packages_Wings3d_RevB_28Sep2013/IR-directFET_MZ-Outline_Faktor03937_RevA_28Sep2013.wrl"
Sc 0.3937 0.3937 0.3937
Of 0 0 0
Ro 0 0 0
$EndSHAPE3D
$EndMODULE IR-directFET_MZ-Outline_Numnbers_RevA_30Jun2011
$MODULE IR-directFET_S1-Outline_Names_RevA_30Jun2011
Po 0 0 0 15 4E0CF22D 00000000 ~~
Li IR-directFET_S1-Outline_Names_RevA_30Jun2011
Cd IR-directFET, S1-Outline, Pads with Names,
Kw IR-directFET, S1-Outline, Pads with Names,
Sc 0
AR 
Op 0 0 0
T0 0 -4.0005 1.524 1.524 0 0.3048 N V 21 N "T"
T1 0 4.826 1.524 1.524 0 0.3048 N I 21 N "IR-directFET_S1-Outline_Names_RevA_30Jun2011"
DS 1.99898 1.99898 -1.99898 1.99898 0.381 21
DS -1.99898 -1.99898 1.99898 -1.99898 0.381 21
$PAD
Sh "G" R 0.55118 0.65024 0 0 0
Dr 0 0 0
At SMD N 00888000
Ne 0 ""
Po -0.889 -0.01016
$EndPAD
$PAD
Sh "S" R 0.55118 1.15062 0 0 0
Dr 0 0 0
At SMD N 00888000
Ne 0 ""
Po 0 0
$EndPAD
$PAD
Sh "S" R 0.55118 1.15062 0 0 0
Dr 0 0 0
At SMD N 00888000
Ne 0 ""
Po 0.9017 0
$EndPAD
$PAD
Sh "D" R 0.55118 1.15062 0 0 0
Dr 0 0 0
At SMD N 00888000
Ne 0 ""
Po -2.44856 -0.83058
$EndPAD
$PAD
Sh "D" R 0.55118 1.15062 0 0 0
Dr 0 0 0
At SMD N 00888000
Ne 0 ""
Po -2.44856 0.83058
$EndPAD
$PAD
Sh "D" R 0.55118 1.15062 0 0 0
Dr 0 0 0
At SMD N 00888000
Ne 0 ""
Po 2.4511 -0.83058
$EndPAD
$PAD
Sh "D" R 0.55118 1.15062 0 0 0
Dr 0 0 0
At SMD N 00888000
Ne 0 ""
Po 2.4511 0.83058
$EndPAD
$SHAPE3D
Na "IR-directFET_Packages_Wings3d_RevB_28Sep2013/IR-directFET_S1-Outline_Faktor03937_RevA_28Sep2013.wrl"
Sc 0.3937 0.3937 0.3937
Of 0 0 0
Ro 0 0 0
$EndSHAPE3D
$EndMODULE IR-directFET_S1-Outline_Names_RevA_30Jun2011
$MODULE IR-directFET_S1-Outline_Numbers_RevA_30Jun2011
Po 0 0 0 15 4E0CF2A9 00000000 ~~
Li IR-directFET_S1-Outline_Numbers_RevA_30Jun2011
Cd IR-directFET, S1-Outline, Pads with Numbers,
Kw IR-directFET, S1-Outline, Pads with Numbers,
Sc 0
AR 
Op 0 0 0
T0 0 -4.0005 1.524 1.524 0 0.3048 N V 21 N "T"
T1 0 4.826 1.524 1.524 0 0.3048 N I 21 N "IR-directFET_S1-Outline_Numbers_RevA_30Jun2011"
DS 1.99898 1.99898 -1.99898 1.99898 0.381 21
DS -1.99898 -1.99898 1.99898 -1.99898 0.381 21
$PAD
Sh "5" R 0.55118 0.65024 0 0 0
Dr 0 0 0
At SMD N 00888000
Ne 0 ""
Po -0.889 -0.01016
$EndPAD
$PAD
Sh "4" R 0.55118 1.15062 0 0 0
Dr 0 0 0
At SMD N 00888000
Ne 0 ""
Po 0 0
$EndPAD
$PAD
Sh "3" R 0.55118 1.15062 0 0 0
Dr 0 0 0
At SMD N 00888000
Ne 0 ""
Po 0.9017 0
$EndPAD
$PAD
Sh "6" R 0.55118 1.15062 0 0 0
Dr 0 0 0
At SMD N 00888000
Ne 0 ""
Po -2.44856 -0.83058
$EndPAD
$PAD
Sh "7" R 0.55118 1.15062 0 0 0
Dr 0 0 0
At SMD N 00888000
Ne 0 ""
Po -2.44856 0.83058
$EndPAD
$PAD
Sh "1" R 0.55118 1.15062 0 0 0
Dr 0 0 0
At SMD N 00888000
Ne 0 ""
Po 2.4511 -0.83058
$EndPAD
$PAD
Sh "2" R 0.55118 1.15062 0 0 0
Dr 0 0 0
At SMD N 00888000
Ne 0 ""
Po 2.4511 0.83058
$EndPAD
$SHAPE3D
Na "IR-directFET_Packages_Wings3d_RevB_28Sep2013/IR-directFET_S1-Outline_Faktor03937_RevA_28Sep2013.wrl"
Sc 0.3937 0.3937 0.3937
Of 0 0 0
Ro 0 0 0
$EndSHAPE3D
$EndMODULE IR-directFET_S1-Outline_Numbers_RevA_30Jun2011
$MODULE IR-directFET_SH-Outline_Names_RevA_30Jun2011
Po 0 0 0 15 4E0CE00D 00000000 ~~
Li IR-directFET_SH-Outline_Names_RevA_30Jun2011
Cd IR-directFET, SH-Outline, Pads with Names,
Kw IR-directFET, SH-Outline, Pads with Names,
Sc 0
AR 
Op 0 0 0
T0 0 -4.064 1.524 1.524 0 0.3048 N V 21 N "T"
T1 0 4.826 1.524 1.524 0 0.3048 N I 21 N "IR-directFET_SH-Outline_Names_RevA_30Jun2011"
DS 1.99898 1.99898 -1.99898 1.99898 0.381 21
DS -1.99898 -1.99898 1.99898 -1.99898 0.381 21
$PAD
Sh "G" R 0.65024 0.65024 0 0 0
Dr 0 0 0
At SMD N 00888000
Ne 0 ""
Po -0.70104 -0.01016
$EndPAD
$PAD
Sh "S" R 0.70104 0.89916 0 0 0
Dr 0 0 0
At SMD N 00888000
Ne 0 ""
Po 0.64008 0
$EndPAD
$PAD
Sh "D" R 0.89916 1.24968 0 0 0
Dr 0 0 0
At SMD N 00888000
Ne 0 ""
Po -2.44094 -0.83058
$EndPAD
$PAD
Sh "D" R 0.89916 1.24968 0 0 0
Dr 0 0 0
At SMD N 00888000
Ne 0 ""
Po -2.4511 0.83058
$EndPAD
$PAD
Sh "D" R 0.89916 1.24968 0 0 0
Dr 0 0 0
At SMD N 00888000
Ne 0 ""
Po 2.42824 -0.83058
$EndPAD
$PAD
Sh "D" R 0.89916 1.24968 0 0 0
Dr 0 0 0
At SMD N 00888000
Ne 0 ""
Po 2.42824 0.83058
$EndPAD
$SHAPE3D
Na "IR-directFET_Packages_Wings3d_RevB_28Sep2013/IR-directFET_SH-Outline_Faktor03937_RevA_28Sep2013.wrl"
Sc 0.3937 0.3937 0.3937
Of 0 0 0
Ro 0 0 0
$EndSHAPE3D
$EndMODULE IR-directFET_SH-Outline_Names_RevA_30Jun2011
$MODULE IR-directFET_SH-Outline_Numbers_RevA_30Jun2011
Po 0 0 0 15 4E0CDF5B 00000000 ~~
Li IR-directFET_SH-Outline_Numbers_RevA_30Jun2011
Cd IR-directFET, SH-Outline, Pads with Numbers,
Kw IR-directFET, SH-Outline, Pads with Numbers,
Sc 0
AR 
Op 0 0 0
T0 0 -3.70078 1.524 1.524 0 0.3048 N V 21 N "T"
T1 0 4.39928 1.524 1.524 0 0.3048 N I 21 N "IR-directFET_SH-Outline_Numbers_RevA_30Jun2011"
DS 1.99898 1.99898 -1.99898 1.99898 0.381 21
DS -1.99898 -1.99898 1.99898 -1.99898 0.381 21
$PAD
Sh "G" R 0.65024 0.65024 0 0 0
Dr 0 0 0
At SMD N 00888000
Ne 0 ""
Po -0.70104 -0.01016
$EndPAD
$PAD
Sh "S" R 0.70104 0.89916 0 0 0
Dr 0 0 0
At SMD N 00888000
Ne 0 ""
Po 0.64008 0
$EndPAD
$PAD
Sh "D" R 0.89916 1.24968 0 0 0
Dr 0 0 0
At SMD N 00888000
Ne 0 ""
Po -2.44094 -0.83058
$EndPAD
$PAD
Sh "D" R 0.89916 1.24968 0 0 0
Dr 0 0 0
At SMD N 00888000
Ne 0 ""
Po -2.4511 0.83058
$EndPAD
$PAD
Sh "D" R 0.89916 1.24968 0 0 0
Dr 0 0 0
At SMD N 00888000
Ne 0 ""
Po 2.42824 -0.83058
$EndPAD
$PAD
Sh "D" R 0.89916 1.24968 0 0 0
Dr 0 0 0
At SMD N 00888000
Ne 0 ""
Po 2.42824 0.83058
$EndPAD
$SHAPE3D
Na "IR-directFET_Packages_Wings3d_RevB_28Sep2013/IR-directFET_SH-Outline_Faktor03937_RevA_28Sep2013.wrl"
Sc 0.3937 0.3937 0.3937
Of 0 0 0
Ro 0 0 0
$EndSHAPE3D
$EndMODULE IR-directFET_SH-Outline_Numbers_RevA_30Jun2011
$MODULE IR-directFET_SJ-Outline_Names_RevA_30Jun2011
Po 0 0 0 15 4E0CD8B0 00000000 ~~
Li IR-directFET_SJ-Outline_Names_RevA_30Jun2011
Cd IR-directFET, SJ-Outline, Pads with Names,
Kw IR-directFET, SJ-Outline, Pads with Names,
Sc 0
AR 
Op 0 0 0
T0 0.01016 -3.91922 1.524 1.524 0 0.3048 N V 21 N "T"
T1 0 4.572 1.524 1.524 0 0.3048 N I 21 N "IR-directFET_SJ-Outline_Names_RevA_30Jun201"
DS 1.99898 1.99898 -1.99898 1.99898 0.381 21
DS -1.99898 -1.99898 1.99898 -1.99898 0.381 21
DS 1.99898 -1.99898 2.00914 -1.99898 0.381 21
$PAD
Sh "G" R 0.65024 0.65024 0 0 0
Dr 0 0 0
At SMD N 00888000
Ne 0 ""
Po -0.7112 -0.01016
$EndPAD
$PAD
Sh "S" R 0.7493 0.7493 0 0 0
Dr 0 0 0
At SMD N 00888000
Ne 0 ""
Po 0.6477 -0.48006
$EndPAD
$PAD
Sh "S" R 0.7493 0.7493 0 0 0
Dr 0 0 0
At SMD N 00888000
Ne 0 ""
Po 0.6477 0.48006
$EndPAD
$PAD
Sh "D" R 0.89916 1.24968 0 0 0
Dr 0 0 0
At SMD N 00888000
Ne 0 ""
Po -2.4511 -0.83058
$EndPAD
$PAD
Sh "D" R 0.89916 1.24968 0 0 0
Dr 0 0 0
At SMD N 00888000
Ne 0 ""
Po -2.4511 0.83058
$EndPAD
$PAD
Sh "D" R 0.89916 1.24968 0 0 0
Dr 0 0 0
At SMD N 00888000
Ne 0 ""
Po 2.44856 -0.83058
$EndPAD
$PAD
Sh "D" R 0.89916 1.24968 0 0 0
Dr 0 0 0
At SMD N 00888000
Ne 0 ""
Po 2.44856 0.83058
$EndPAD
$SHAPE3D
Na "IR-directFET_Packages_Wings3d_RevB_28Sep2013/IR-directFET_SJ-Outline_Faktor03937_RevA_28Sep2013.wrl"
Sc 0.3937 0.3937 0.3937
Of 0 0 0
Ro 0 0 0
$EndSHAPE3D
$EndMODULE IR-directFET_SJ-Outline_Names_RevA_30Jun2011
$MODULE IR-directFET_SJ-Outline_Numbers_RevA_30Jun2011
Po 0 0 0 15 4E0CD965 00000000 ~~
Li IR-directFET_SJ-Outline_Numbers_RevA_30Jun2011
Cd IR-directFET, SJ-Outline, Pads with Numbers,
Kw IR-directFET, SJ-Outline, Pads with Numbers,
Sc 0
AR 
Op 0 0 0
T0 0.01016 -3.91922 1.524 1.524 0 0.3048 N V 21 N "T"
T1 0 4.572 1.524 1.524 0 0.3048 N I 21 N "IR-directFET_SJ-Outline_Numbers_RevA_30Jun201"
DS 1.99898 1.99898 -1.99898 1.99898 0.381 21
DS -1.99898 -1.99898 1.99898 -1.99898 0.381 21
DS 1.99898 -1.99898 2.00914 -1.99898 0.381 21
$PAD
Sh "5" R 0.65024 0.65024 0 0 0
Dr 0 0 0
At SMD N 00888000
Ne 0 ""
Po -0.7112 -0.01016
$EndPAD
$PAD
Sh "3" R 0.7493 0.7493 0 0 0
Dr 0 0 0
At SMD N 00888000
Ne 0 ""
Po 0.6477 -0.48006
$EndPAD
$PAD
Sh "4" R 0.7493 0.7493 0 0 0
Dr 0 0 0
At SMD N 00888000
Ne 0 ""
Po 0.6477 0.48006
$EndPAD
$PAD
Sh "6" R 0.89916 1.24968 0 0 0
Dr 0 0 0
At SMD N 00888000
Ne 0 ""
Po -2.4511 -0.83058
$EndPAD
$PAD
Sh "7" R 0.89916 1.24968 0 0 0
Dr 0 0 0
At SMD N 00888000
Ne 0 ""
Po -2.4511 0.83058
$EndPAD
$PAD
Sh "1" R 0.89916 1.24968 0 0 0
Dr 0 0 0
At SMD N 00888000
Ne 0 ""
Po 2.44856 -0.83058
$EndPAD
$PAD
Sh "2" R 0.89916 1.24968 0 0 0
Dr 0 0 0
At SMD N 00888000
Ne 0 ""
Po 2.44856 0.83058
$EndPAD
$SHAPE3D
Na "IR-directFET_Packages_Wings3d_RevB_28Sep2013/IR-directFET_SJ-Outline_Faktor03937_RevA_28Sep2013.wrl"
Sc 0.3937 0.3937 0.3937
Of 0 0 0
Ro 0 0 0
$EndSHAPE3D
$EndMODULE IR-directFET_SJ-Outline_Numbers_RevA_30Jun2011
$MODULE IR-directFET_SQ-Outline_Names_RevA_30Jun2011
Po 0 0 0 15 4E0CEDC4 00000000 ~~
Li IR-directFET_SQ-Outline_Names_RevA_30Jun2011
Cd IR-directFET, SQ-Outline, Pads with Names,
Kw IR-directFET, SQ-Outline, Pads with Names,
Sc 0
AR 
Op 0 0 0
T0 0 -4.0005 1.524 1.524 0 0.3048 N V 21 N "T"
T1 0 4.826 1.524 1.524 0 0.3048 N I 21 N "IR-directFET_SQ-Outline_Names_RevA_30Jun2011"
DS 1.99898 1.99898 -1.99898 1.99898 0.381 21
DS -1.99898 -1.99898 1.99898 -1.99898 0.381 21
$PAD
Sh "G" R 0.55118 0.8509 0 0 0
Dr 0 0 0
At SMD N 00888000
Ne 0 ""
Po -0.8001 0
$EndPAD
$PAD
Sh "S" R 0.94996 0.8509 0 0 0
Dr 0 0 0
At SMD N 00888000
Ne 0 ""
Po 0.50038 0
$EndPAD
$PAD
Sh "D" R 0.89916 1.24968 0 0 0
Dr 0 0 0
At SMD N 00888000
Ne 0 ""
Po -2.4511 -0.83058
$EndPAD
$PAD
Sh "D" R 0.89916 1.24968 0 0 0
Dr 0 0 0
At SMD N 00888000
Ne 0 ""
Po -2.4511 0.83058
$EndPAD
$PAD
Sh "D" R 0.89916 1.24968 0 0 0
Dr 0 0 0
At SMD N 00888000
Ne 0 ""
Po 2.4511 -0.83058
$EndPAD
$PAD
Sh "D" R 0.89916 1.24968 0 0 0
Dr 0 0 0
At SMD N 00888000
Ne 0 ""
Po 2.4511 0.83058
$EndPAD
$SHAPE3D
Na "IR-directFET_Packages_Wings3d_RevB_28Sep2013/IR-directFET_SQ-Outline_Faktor03937_RevA_28Sep2013.wrl"
Sc 0.3937 0.3937 0.3937
Of 0 0 0
Ro 0 0 0
$EndSHAPE3D
$EndMODULE IR-directFET_SQ-Outline_Names_RevA_30Jun2011
$MODULE IR-directFET_SQ-Outline_Numbers_RevA_30Jun2011
Po 0 0 0 15 4E0CEE8E 00000000 ~~
Li IR-directFET_SQ-Outline_Numbers_RevA_30Jun2011
Cd IR-directFET, SQ-Outline, Pads with Numbers,
Kw IR-directFET, SQ-Outline, Pads with Numbers,
Sc 0
AR 
Op 0 0 0
T0 0 -4.0005 1.524 1.524 0 0.3048 N V 21 N "T"
T1 0 4.826 1.524 1.524 0 0.3048 N I 21 N "IR-directFET_SQ-Outline_Numbers_RevA_30Jun2011"
DS 1.99898 1.99898 -1.99898 1.99898 0.381 21
DS -1.99898 -1.99898 1.99898 -1.99898 0.381 21
$PAD
Sh "4" R 0.55118 0.8509 0 0 0
Dr 0 0 0
At SMD N 00888000
Ne 0 ""
Po -0.8001 0
$EndPAD
$PAD
Sh "3" R 0.94996 0.8509 0 0 0
Dr 0 0 0
At SMD N 00888000
Ne 0 ""
Po 0.50038 0
$EndPAD
$PAD
Sh "5" R 0.89916 1.24968 0 0 0
Dr 0 0 0
At SMD N 00888000
Ne 0 ""
Po -2.4511 -0.83058
$EndPAD
$PAD
Sh "6" R 0.89916 1.24968 0 0 0
Dr 0 0 0
At SMD N 00888000
Ne 0 ""
Po -2.4511 0.83058
$EndPAD
$PAD
Sh "1" R 0.89916 1.24968 0 0 0
Dr 0 0 0
At SMD N 00888000
Ne 0 ""
Po 2.4511 -0.83058
$EndPAD
$PAD
Sh "2" R 0.89916 1.24968 0 0 0
Dr 0 0 0
At SMD N 00888000
Ne 0 ""
Po 2.4511 0.83058
$EndPAD
$SHAPE3D
Na "IR-directFET_Packages_Wings3d_RevB_28Sep2013/IR-directFET_SQ-Outline_Faktor03937_RevA_28Sep2013.wrl"
Sc 0.3937 0.3937 0.3937
Of 0 0 0
Ro 0 0 0
$EndSHAPE3D
$EndMODULE IR-directFET_SQ-Outline_Numbers_RevA_30Jun2011
$MODULE IR-directFET_ST-Outline_Names_RevA_30Jun2011
Po 0 0 0 15 4E0BBD2B 00000000 ~~
Li IR-directFET_ST-Outline_Names_RevA_30Jun2011
Cd IR directFRT, ST-Outline, Pads named,
Kw IR directFRT, ST-Outline, Pads named,
Sc 0
AR 
Op 0 0 0
T0 -0.01016 -4.62026 1.524 1.524 0 0.3048 N V 21 N "T"
T1 -0.01016 4.0005 1.524 1.524 0 0.3048 N I 21 N "IR-directFET_ST-Outline_Names_RevA_30Jun2011"
DS -1.89992 1.89992 1.89992 1.89992 0.381 21
DS -1.89992 -1.89992 1.89992 -1.89992 0.381 21
$PAD
Sh "G" R 0.65024 0.65024 0 0 0
Dr 0 0 0
At SMD N 00888000
Ne 0 ""
Po -0.61976 0
$EndPAD
$PAD
Sh "S" R 0.65024 0.59944 0 0 0
Dr 0 0 0
At SMD N 00888000
Ne 0 ""
Po 0.76962 -0.5207
.SolderMask 0.20066
$EndPAD
$PAD
Sh "S" R 0.65024 0.59944 0 0 0
Dr 0 0 0
At SMD N 00888000
Ne 0 ""
Po 0.76962 0.5207
.SolderMask 0.09906
$EndPAD
$PAD
Sh "D" R 0.89916 1.24968 0 0 0
Dr 0 0 0
At SMD N 00888000
Ne 0 ""
Po -2.30886 -0.82042
$EndPAD
$PAD
Sh "D" R 0.89916 1.24968 0 0 0
Dr 0 0 0
At SMD N 00888000
Ne 0 ""
Po -2.30886 0.82042
$EndPAD
$PAD
Sh "D" R 0.89916 1.24968 0 0 0
Dr 0 0 0
At SMD N 00888000
Ne 0 ""
Po 2.49936 -0.82042
$EndPAD
$PAD
Sh "D" R 0.89916 1.24968 0 0 0
Dr 0 0 0
At SMD N 00888000
Ne 0 ""
Po 2.49936 0.82042
$EndPAD
$SHAPE3D
Na "IR-directFET_Packages_Wings3d_RevB_28Sep2013/IR-directFET_ST-Outline_Faktor03937_RevA_28Sep2013.wrl"
Sc 0.3937 0.3937 0.3937
Of 0 0 0
Ro 0 0 0
$EndSHAPE3D
$EndMODULE IR-directFET_ST-Outline_Names_RevA_30Jun2011
$MODULE IR-directFET_ST-Outline_Numbers_RevA_30Jun2011
Po 0 0 0 15 4E0C4B5B 00000000 ~~
Li IR-directFET_ST-Outline_Numbers_RevA_30Jun2011
Cd IR directFRT, ST-Outline, Pads munbered,
Kw IR directFRT, ST-Outline, Pads numbered,
Sc 0
AR IR-directFET_ST-Outline_Numbers_RevA_30Jun2011
Op 0 0 0
T0 -0.01016 -4.62026 1.524 1.524 0 0.3048 N V 21 N "T"
T1 -0.01016 4.0005 1.524 1.524 0 0.3048 N I 21 N "IR-directFET_ST-Outline_Numbers_RevA_30Jun2011"
DS -1.89992 1.89992 1.89992 1.89992 0.381 21
DS -1.89992 -1.89992 1.89992 -1.89992 0.381 21
$PAD
Sh "5" R 0.65024 0.65024 0 0 0
Dr 0 0 0
At SMD N 00888000
Ne 0 ""
Po -0.61976 0
$EndPAD
$PAD
Sh "4" R 0.65024 0.59944 0 0 0
Dr 0 0 0
At SMD N 00888000
Ne 0 ""
Po 0.76962 -0.5207
.SolderMask 0.20066
$EndPAD
$PAD
Sh "4" R 0.65024 0.59944 0 0 0
Dr 0 0 0
At SMD N 00888000
Ne 0 ""
Po 0.76962 0.5207
.SolderMask 0.09906
$EndPAD
$PAD
Sh "6" R 0.89916 1.24968 0 0 0
Dr 0 0 0
At SMD N 00888000
Ne 0 ""
Po -2.30886 -0.82042
$EndPAD
$PAD
Sh "7" R 0.89916 1.24968 0 0 0
Dr 0 0 0
At SMD N 00888000
Ne 0 ""
Po -2.30886 0.82042
$EndPAD
$PAD
Sh "1" R 0.89916 1.24968 0 0 0
Dr 0 0 0
At SMD N 00888000
Ne 0 ""
Po 2.49936 -0.82042
$EndPAD
$PAD
Sh "3" R 0.89916 1.24968 0 0 0
Dr 0 0 0
At SMD N 00888000
Ne 0 ""
Po 2.49936 0.82042
$EndPAD
$SHAPE3D
Na "IR-directFET_Packages_Wings3d_RevB_28Sep2013/IR-directFET_ST-Outline_Faktor03937_RevA_28Sep2013.wrl"
Sc 0.3937 0.3937 0.3937
Of 0 0 0
Ro 0 0 0
$EndSHAPE3D
$EndMODULE IR-directFET_ST-Outline_Numbers_RevA_30Jun2011
$MODULE IR-directFET_ST-Outline_Numbers_SquareHeatSink_RevA_30Jun2011
Po 0 0 0 15 4E0CC6B9 00000000 ~~
Li IR-directFET_ST-Outline_Numbers_SquareHeatSink_RevA_30Jun2011
Cd IR directFRT, ST-Outline, Pads munbered,
Kw IR directFRT, ST-Outline, Pads numbered,
Sc 0
AR IR-directFET_ST-Outline_Numbers_RevA_30Jun2011
Op 0 0 0
T0 0 -14.732 1.524 1.524 0 0.3048 N V 21 N "T"
T1 0 16.256 1.524 1.524 0 0.3048 N I 21 N "IR-directFET_ST-Outline_Numbers_SquareHeatSink_RevA_30Jun2011"
DS -2.286 12.192 -4.826 12.192 0.381 15
DS -4.826 12.192 -5.08 12.7 0.381 15
DS -12.192 12.192 -2.286 12.446 0.381 15
DS -12.192 -1.016 -2.286 -1.016 0.381 15
DS -12.446 -2.032 -2.54 -2.032 0.381 15
DS -12.446 -12.192 12.446 -12.192 0.381 15
DS 2.54 11.684 12.446 11.684 1.016 15
DS 2.54 10.668 12.446 10.668 1.016 15
DS 2.54 9.652 12.446 9.652 1.016 15
DS 2.54 8.636 12.446 8.636 1.016 15
DS 2.54 7.62 12.446 7.62 1.016 15
DS 2.54 6.604 12.446 6.604 1.016 15
DS 2.54 5.588 12.446 5.588 1.016 15
DS 2.54 4.572 12.446 4.572 1.016 15
DS 2.54 3.556 12.446 3.556 1.016 15
DS 2.54 2.54 12.192 2.54 1.016 15
DS 2.54 1.524 12.192 1.524 1.016 15
DS 2.54 0.508 12.192 0.508 1.016 15
DS 2.54 -0.508 12.446 -0.508 1.016 15
DS 2.54 -1.524 12.446 -1.524 1.016 15
DS 12.446 12.7 2.54 12.7 1.016 15
DS -12.446 11.684 -2.54 11.684 1.016 15
DS -12.446 10.668 -2.54 10.668 1.016 15
DS -12.446 9.652 -2.54 9.652 1.016 15
DS -12.446 8.636 -2.54 8.636 1.016 15
DS -12.446 7.62 -2.286 7.62 1.016 15
DS -12.446 6.604 -2.54 6.604 1.016 15
DS -12.446 5.588 -2.286 5.588 1.016 15
DS -12.7 4.572 -2.286 4.572 1.016 15
DS -12.192 3.556 -2.286 3.556 1.016 15
DS -12.446 2.54 -2.286 2.54 1.016 15
DS -12.446 1.524 -2.54 1.524 1.016 15
DS -12.446 0.508 -2.54 0.508 1.016 15
DS -12.446 -0.508 -2.286 -0.508 1.016 15
DS -12.446 -1.524 -2.54 -1.524 0.762 15
DS -12.446 -2.54 12.446 -2.54 1.016 15
DS -12.446 -3.556 12.446 -3.556 1.016 15
DS -12.446 -4.572 12.446 -4.572 1.016 15
DS -12.446 -5.588 12.446 -5.588 1.016 15
DS -12.446 -6.604 12.446 -6.604 1.016 15
DS -12.446 -7.62 12.446 -7.62 1.016 15
DS -12.446 -8.636 12.446 -8.636 1.016 15
DS -12.446 -9.652 12.446 -9.652 1.016 15
DS -12.446 -10.668 12.446 -10.668 1.016 15
DS -12.446 -11.684 12.446 -11.684 1.016 15
DS -2.032 2.032 -2.032 -2.032 0.762 15
DS -2.032 -2.032 2.032 -2.032 0.762 15
DS 2.286 -2.032 2.286 2.54 0.762 15
DS -2.032 2.54 -2.032 2.032 0.762 15
DS 12.192 -12.7 -2.032 -12.7 0.762 15
DS 12.7 12.192 12.7 -12.192 0.762 15
DS -12.192 12.7 -2.032 12.7 0.762 15
DS -12.7 -12.192 -12.7 12.192 0.762 15
DS -2.032 -12.7 -12.192 -12.7 0.762 15
DS -12.7 12.192 -12.7 12.7 0.762 15
DS -12.7 12.7 -12.192 12.7 0.762 15
DS -12.192 -12.7 -12.7 -12.7 0.762 15
DS -12.7 -12.7 -12.7 -12.192 0.762 15
DS 12.192 -12.7 12.7 -12.7 0.762 15
DS 12.7 -12.7 12.7 -12.192 0.762 15
DS 12.192 12.7 12.7 12.7 0.762 15
DS 12.7 12.7 12.7 12.192 0.762 15
DS -2.032 2.54 -2.032 12.7 0.762 15
DS 2.286 2.54 2.286 12.7 0.762 15
DS -1.89992 1.89992 1.89992 1.89992 0.381 25
DS -1.89992 -1.89992 1.89992 -1.89992 0.381 25
$PAD
Sh "5" R 0.65024 0.65024 0 0 0
Dr 0 0 0
At SMD N 00888000
Ne 0 ""
Po -0.61976 0
$EndPAD
$PAD
Sh "4" R 0.65024 0.59944 0 0 0
Dr 0 0 0
At SMD N 00888000
Ne 0 ""
Po 0.76962 -0.5207
.SolderMask 0.20066
$EndPAD
$PAD
Sh "4" R 0.65024 0.59944 0 0 0
Dr 0 0 0
At SMD N 00888000
Ne 0 ""
Po 0.76962 0.5207
.SolderMask 0.09906
$EndPAD
$PAD
Sh "6" R 0.89916 1.24968 0 0 0
Dr 0 0 0
At SMD N 00888000
Ne 0 ""
Po -2.30886 -0.82042
$EndPAD
$PAD
Sh "7" R 0.89916 1.24968 0 0 0
Dr 0 0 0
At SMD N 00888000
Ne 0 ""
Po -2.30886 0.82042
$EndPAD
$PAD
Sh "1" R 0.89916 1.24968 0 0 0
Dr 0 0 0
At SMD N 00888000
Ne 0 ""
Po 2.49936 -0.82042
$EndPAD
$PAD
Sh "3" R 0.89916 1.24968 0 0 0
Dr 0 0 0
At SMD N 00888000
Ne 0 ""
Po 2.49936 0.82042
$EndPAD
$SHAPE3D
Na "IR-directFET_Packages_Wings3d_RevB_28Sep2013/IR-directFET_ST-Outline_Faktor03937_RevA_28Sep2013.wrl"
Sc 0.3937 0.3937 0.3937
Of 0 0 0
Ro 0 0 0
$EndSHAPE3D
$EndMODULE IR-directFET_ST-Outline_Numbers_SquareHeatSink_RevA_30Jun2011
$EndLIBRARY
