PCBNEW-LibModule-V1  Mi 16 Okt 2013 21:19:22 CEST
# encoding utf-8
Units mm
$INDEX
HTFS-Series_LEM-HallEffektCurrentTransducer_RevA_16Oct2013
HX02_HX03_HallEffectCurrentTransducer_RevA_13Oct2013
HX04_HX05_HallEffectCurrentTransducer_RevA_13Oct2013
HX06_HX10_HallEffectCurrentTransducer_RevA_13Oct2013
HX15_HallEffectCurrentTransducer_RevA_13Oct2013
HX20_HX25_HallEffectCurrentTransducer_RevA_13Oct2013
HX50_HallEffectCurrentTransducer_RevA_13Oct2013
$EndINDEX
$MODULE HTFS-Series_LEM-HallEffektCurrentTransducer_RevA_16Oct2013
Po 0 0 0 15 525EC4E4 00000000 ~~
Li HTFS-Series_LEM-HallEffektCurrentTransducer_RevA_16Oct2013
Sc 0
AR 
Op 0 0 0
T0 0.075 -24.6 1.524 1.524 0 0.3048 N V 21 N "U"
T1 -0.325 30.575 1.524 1.524 0 0.3048 N I 21 N "HTFS-Series_LEM-HallEffektCurrentTransducer_RevA_16Oct2013"
DC 9.5 12 9.675 12.125 0.381 21
DS 13 10.5 14 10.5 0.381 21
DS 13 8.5 14 8.5 0.381 21
DS 13.5 8.5 13.5 10.5 0.381 21
DC 9.5 12 10 12 0.381 21
DC 9.5 12 11.5 13.5 0.381 21
DS 20.05 14.65 19.85 14.3 0.381 21
DS 19.85 14.3 19.65 14 0.381 21
DS 19.65 14 19.4 13.75 0.381 21
DS 19.4 13.75 19.2 13.5 0.381 21
DS 19.2 13.5 19.1 13.35 0.381 21
DS 19.1 13.35 19 13.05 0.381 21
DS 13 19 13.3 19.05 0.381 21
DS 13.3 19.05 13.5 19.15 0.381 21
DS 13.5 19.15 13.75 19.4 0.381 21
DS 13.75 19.4 14.1 19.7 0.381 21
DS 14.1 19.7 14.4 19.9 0.381 21
DS 14.4 19.9 14.85 20.15 0.381 21
DS 14.85 20.15 15.4 20.35 0.381 21
DS 15.4 20.35 15.8 20.45 0.381 21
DS 15.8 20.45 16.2 20.5 0.381 21
DS 16.2 20.5 16.7 20.5 0.381 21
DS 16.7 20.5 17.15 20.45 0.381 21
DS 17.15 20.45 17.6 20.35 0.381 21
DS 17.6 20.35 18.05 20.2 0.381 21
DS 18.05 20.2 18.55 19.95 0.381 21
DS 18.55 19.95 19.05 19.6 0.381 21
DS 19.05 19.6 19.5 19.15 0.381 21
DS 19.5 19.15 19.75 18.85 0.381 21
DS 19.75 18.85 19.9 18.6 0.381 21
DS 19.9 18.6 20.15 18.15 0.381 21
DS 20.15 18.15 20.3 17.75 0.381 21
DS 20.3 17.75 20.4 17.35 0.381 21
DS 20.4 17.35 20.45 17.05 0.381 21
DS 20.45 17.05 20.5 16.75 0.381 21
DS 20.5 16.75 20.5 16.45 0.381 21
DS 20.5 16.45 20.5 16.15 0.381 21
DS 20.5 16.15 20.45 15.8 0.381 21
DS 20.45 15.8 20.35 15.4 0.381 21
DS 20.35 15.4 20.2 14.95 0.381 21
DS 20.2 14.95 20.05 14.65 0.381 21
DS 8 19 13 19 0.381 21
DS -8 19 -13 19 0.381 21
DS -19 13.05 -19.05 13.25 0.381 21
DS -19.05 13.25 -19.15 13.5 0.381 21
DS -19.15 13.5 -19.35 13.7 0.381 21
DS -19.35 13.7 -19.65 14.05 0.381 21
DS -19.65 14.05 -19.85 14.3 0.381 21
DS -19.85 14.3 -20 14.55 0.381 21
DS -20 14.55 -20.15 14.85 0.381 21
DS -20.15 14.85 -20.3 15.2 0.381 21
DS -20.3 15.2 -20.45 15.8 0.381 21
DS -20.45 15.8 -20.5 16.2 0.381 21
DS -20.5 16.2 -20.5 16.65 0.381 21
DS -20.5 16.65 -20.45 17.05 0.381 21
DS -20.45 17.05 -20.4 17.45 0.381 21
DS -20.4 17.45 -20.3 17.8 0.381 21
DS -20.3 17.8 -20.1 18.25 0.381 21
DS -20.1 18.25 -19.9 18.6 0.381 21
DS -19.9 18.6 -19.6 19 0.381 21
DS -19.6 19 -19.3 19.35 0.381 21
DS -19.3 19.35 -18.85 19.75 0.381 21
DS -18.85 19.75 -18.45 20 0.381 21
DS -18.45 20 -17.9 20.25 0.381 21
DS -17.9 20.25 -17.4 20.4 0.381 21
DS -17.4 20.4 -17.15 20.45 0.381 21
DS -17.15 20.45 -16.6 20.5 0.381 21
DS -16.6 20.5 -16.25 20.5 0.381 21
DS -16.25 20.5 -15.85 20.45 0.381 21
DS -15.85 20.45 -15.5 20.4 0.381 21
DS -15.5 20.4 -15 20.2 0.381 21
DS -15 20.2 -14.6 20.05 0.381 21
DS -14.6 20.05 -14.3 19.85 0.381 21
DS -14.3 19.85 -13.9 19.55 0.381 21
DS -13.9 19.55 -13.6 19.25 0.381 21
DS -13.6 19.25 -13.35 19.1 0.381 21
DS -13.35 19.1 -13 19 0.381 21
DS -19 8 -19 13 0.381 21
DS -13.05 -19 -13.3 -19.05 0.381 21
DS -13.3 -19.05 -13.6 -19.25 0.381 21
DS -13.6 -19.25 -13.85 -19.5 0.381 21
DS -13.85 -19.5 -14.1 -19.7 0.381 21
DS -14.1 -19.7 -14.5 -19.95 0.381 21
DS -14.5 -19.95 -14.85 -20.15 0.381 21
DS -14.85 -20.15 -15.3 -20.3 0.381 21
DS -15.3 -20.3 -15.8 -20.45 0.381 21
DS -15.8 -20.45 -16.25 -20.5 0.381 21
DS -16.25 -20.5 -16.75 -20.5 0.381 21
DS -16.75 -20.5 -17.15 -20.45 0.381 21
DS -17.15 -20.45 -17.6 -20.35 0.381 21
DS -17.6 -20.35 -18.05 -20.2 0.381 21
DS -18.05 -20.2 -18.35 -20.05 0.381 21
DS -18.35 -20.05 -18.7 -19.85 0.381 21
DS -18.7 -19.85 -19.1 -19.55 0.381 21
DS -19.1 -19.55 -19.4 -19.25 0.381 21
DS -19.4 -19.25 -19.65 -18.95 0.381 21
DS -19.65 -18.95 -20.05 -18.35 0.381 21
DS -20.05 -18.35 -20.2 -18.05 0.381 21
DS -20.2 -18.05 -20.3 -17.7 0.381 21
DS -20.3 -17.7 -20.4 -17.4 0.381 21
DS -20.4 -17.4 -20.5 -16.85 0.381 21
DS -20.5 -16.85 -20.5 -16.25 0.381 21
DS -20.5 -16.25 -20.4 -15.65 0.381 21
DS -20.4 -15.65 -20.25 -15.1 0.381 21
DS -20.25 -15.1 -20 -14.55 0.381 21
DS -20 -14.55 -19.75 -14.15 0.381 21
DS -19.75 -14.15 -19.45 -13.8 0.381 21
DS -19.45 -13.8 -19.15 -13.45 0.381 21
DS -19.15 -13.45 -19.05 -13.25 0.381 21
DS -19.05 -13.25 -19 -13.05 0.381 21
DS 19 -12.95 19.05 -13.3 0.381 21
DS 19.05 -13.3 19.4 -13.7 0.381 21
DS 19.4 -13.7 19.7 -14.05 0.381 21
DS 19.7 -14.05 20 -14.55 0.381 21
DS 20 -14.55 20.25 -15.05 0.381 21
DS 20.25 -15.05 20.4 -15.6 0.381 21
DS 20.4 -15.6 20.5 -16.35 0.381 21
DS 20.5 -16.35 20.5 -16.75 0.381 21
DS 20.5 -16.75 20.45 -17.15 0.381 21
DS 20.45 -17.15 20.4 -17.4 0.381 21
DS 20.4 -17.4 20.3 -17.75 0.381 21
DS 20.3 -17.75 20.15 -18.15 0.381 21
DS 20.15 -18.15 19.9 -18.6 0.381 21
DS 19.9 -18.6 19.7 -18.9 0.381 21
DS 19.7 -18.9 19.45 -19.2 0.381 21
DS 19.45 -19.2 19.1 -19.55 0.381 21
DS 19.1 -19.55 18.85 -19.75 0.381 21
DS 18.85 -19.75 18.55 -19.95 0.381 21
DS 18.55 -19.95 18.25 -20.1 0.381 21
DS 18.25 -20.1 17.9 -20.25 0.381 21
DS 17.9 -20.25 17.55 -20.35 0.381 21
DS 17.55 -20.35 17.35 -20.4 0.381 21
DS 17.35 -20.4 17.05 -20.45 0.381 21
DS 17.05 -20.45 16.7 -20.5 0.381 21
DS 16.7 -20.5 16.35 -20.5 0.381 21
DS 16.35 -20.5 16.15 -20.5 0.381 21
DS 16.15 -20.5 15.9 -20.45 0.381 21
DS 15.9 -20.45 15.45 -20.35 0.381 21
DS 15.45 -20.35 15.1 -20.25 0.381 21
DS 15.1 -20.25 14.85 -20.15 0.381 21
DS 14.85 -20.15 14.55 -20 0.381 21
DS 14.55 -20 14.25 -19.8 0.381 21
DS 14.25 -19.8 13.9 -19.55 0.381 21
DS 13.9 -19.55 13.6 -19.25 0.381 21
DS 13.6 -19.25 13.4 -19.1 0.381 21
DS 13.4 -19.1 13.1 -19 0.381 21
DS 13.1 -19 12.95 -19 0.381 21
DS -19 -13 -19 -8 0.381 21
DS -8 -19 -13 -19 0.381 21
DS 13 -19 8 -19 0.381 21
DS 19 -8 19 -13 0.381 21
DS 19 8 19 13 0.381 21
DS 5 27 5 20 0.381 21
DS 5 27 -3 27 0.381 21
DS -3 27 -3 20.5 0.381 21
DC 0 0 20.5 0 0.381 21
DC 0 0 11.5 0 0.381 21
$PAD
Sh "" C 22 22 0 0 0
Dr 22 0 0
At HOLE N 00E0FFFF
Ne 0 ""
Po 0 0
$EndPAD
$PAD
Sh "" C 4 4 0 0 0
Dr 4 0 0
At HOLE N 00E0FFFF
Ne 0 ""
Po 16.5 -16.5
$EndPAD
$PAD
Sh "" C 4 4 0 0 0
Dr 4 0 0
At HOLE N 00E0FFFF
Ne 0 ""
Po -16.5 -16.5
$EndPAD
$PAD
Sh "" C 4 4 0 0 0
Dr 4 0 0
At HOLE N 00E0FFFF
Ne 0 ""
Po -16.5 16.5
$EndPAD
$PAD
Sh "" C 4 4 0 0 0
Dr 4 0 0
At HOLE N 00E0FFFF
Ne 0 ""
Po 16.5 16.5
$EndPAD
$PAD
Sh "4" C 1.5 1.5 0 0 0
Dr 0.8 0 0
At STD N 00E0FFFF
Ne 0 ""
Po 0 16
$EndPAD
$PAD
Sh "3" C 1.5 1.5 0 0 0
Dr 0.8 0 0
At STD N 00E0FFFF
Ne 0 ""
Po 0 18.54
$EndPAD
$PAD
Sh "2" C 1.5 1.5 0 0 0
Dr 0.8 0 0
At STD N 00E0FFFF
Ne 0 ""
Po 0 21.08
$EndPAD
$PAD
Sh "1" C 1.5 1.5 0 0 0
Dr 0.8 0 0
At STD N 00E0FFFF
Ne 0 ""
Po 0 23.62
$EndPAD
$SHAPE3D
Na "LEM_HallEffectTransducers_Wings3d_RevA_13Oct2012/HTFS-Serie_LEM-HallEffectTransducer_Faktor03937_RevA_16Oct2013.wrl"
Sc 0.3937 0.3937 0.3937
Of 0 0 0
Ro 0 0 0
$EndSHAPE3D
$EndMODULE HTFS-Series_LEM-HallEffektCurrentTransducer_RevA_16Oct2013
$MODULE HX02_HX03_HallEffectCurrentTransducer_RevA_13Oct2013
Po 0 0 0 15 525A86C2 00000000 ~~
Li HX02_HX03_HallEffectCurrentTransducer_RevA_13Oct2013
Sc 0
AR 
Op 0 0 0
T0 0.1 -10.8 1.524 1.524 0 0.3048 N V 21 N "U"
T1 0.1 10.2 1.524 1.524 0 0.3048 N I 21 N "HX02_HX03_HallEffectCurrentTransducer_RevA_13Oct2013"
DS -9.5 7.7 9.5 7.7 0.381 21
DS 9.5 7.7 9.5 -7.7 0.381 21
DS 9.5 -7.7 -9.5 -7.7 0.381 21
DS -9.5 -7.7 -9.5 7.7 0.381 21
$PAD
Sh "5" C 2 2 0 0 0
Dr 1 0 0
At STD N 00E0FFFF
Ne 0 ""
Po 4.35 -3
$EndPAD
$PAD
Sh "6" C 2 2 0 0 0
Dr 1 0 0
At STD N 00E0FFFF
Ne 0 ""
Po 4.35 3
$EndPAD
$PAD
Sh "3" C 1.75 1.75 0 0 0
Dr 0.8128 0 0
At STD N 00E0FFFF
Ne 0 ""
Po -6.5 1.27
$EndPAD
$PAD
Sh "2" C 1.75 1.75 0 0 0
Dr 0.8128 0 0
At STD N 00E0FFFF
Ne 0 ""
Po -6.5 -1.27
$EndPAD
$PAD
Sh "1" C 1.75 1.75 0 0 0
Dr 0.8128 0 0
At STD N 00E0FFFF
Ne 0 ""
Po -6.5 -3.81
$EndPAD
$PAD
Sh "4" C 1.75 1.75 0 0 0
Dr 0.8128 0 0
At STD N 00E0FFFF
Ne 0 ""
Po -6.5 3.81
$EndPAD
$SHAPE3D
Na "LEM_HallEffectTransducers_Wings3d_RevA_13Oct2012/HX02_HX03_LEM-HallEffectTransducer_Faktor03937_RevA_13Oct2013.wrl"
Sc 0.3937 0.3937 0.3937
Of 0 0 0
Ro 0 0 0
$EndSHAPE3D
$EndMODULE HX02_HX03_HallEffectCurrentTransducer_RevA_13Oct2013
$MODULE HX04_HX05_HallEffectCurrentTransducer_RevA_13Oct2013
Po 0 0 0 15 525A8684 00000000 ~~
Li HX04_HX05_HallEffectCurrentTransducer_RevA_13Oct2013
Sc 0
AR 
Op 0 0 0
T0 0.1 -10.8 1.524 1.524 0 0.3048 N V 21 N "U"
T1 0.1 10.2 1.524 1.524 0 0.3048 N I 21 N "HX04_HX05_HallEffectCurrentTransducer_RevA_13Oct2013"
DS -9.5 7.7 9.5 7.7 0.381 21
DS 9.5 7.7 9.5 -7.7 0.381 21
DS 9.5 -7.7 -9.5 -7.7 0.381 21
DS -9.5 -7.7 -9.5 7.7 0.381 21
$PAD
Sh "5" C 2.2 2.2 0 0 0
Dr 1.2 0 0
At STD N 00E0FFFF
Ne 0 ""
Po 4.35 -3
$EndPAD
$PAD
Sh "6" C 2.2 2.2 0 0 0
Dr 1.2 0 0
At STD N 00E0FFFF
Ne 0 ""
Po 4.35 3
$EndPAD
$PAD
Sh "3" C 1.75 1.75 0 0 0
Dr 0.8128 0 0
At STD N 00E0FFFF
Ne 0 ""
Po -6.5 1.27
$EndPAD
$PAD
Sh "2" C 1.75 1.75 0 0 0
Dr 0.8128 0 0
At STD N 00E0FFFF
Ne 0 ""
Po -6.5 -1.27
$EndPAD
$PAD
Sh "1" C 1.75 1.75 0 0 0
Dr 0.8128 0 0
At STD N 00E0FFFF
Ne 0 ""
Po -6.5 -3.81
$EndPAD
$PAD
Sh "4" C 1.75 1.75 0 0 0
Dr 0.8128 0 0
At STD N 00E0FFFF
Ne 0 ""
Po -6.5 3.81
$EndPAD
$SHAPE3D
Na "LEM_HallEffectTransducers_Wings3d_RevA_13Oct2012/HX04_HX05_LEM-HallEffectTransducer_Faktor03937_RevA_13Oct2013.wrl"
Sc 0.3937 0.3937 0.3937
Of 0 0 0
Ro 0 0 0
$EndSHAPE3D
$EndMODULE HX04_HX05_HallEffectCurrentTransducer_RevA_13Oct2013
$MODULE HX06_HX10_HallEffectCurrentTransducer_RevA_13Oct2013
Po 0 0 0 15 525A8659 00000000 ~~
Li HX06_HX10_HallEffectCurrentTransducer_RevA_13Oct2013
Sc 0
AR 
Op 0 0 0
T0 0.1 -10.8 1.524 1.524 0 0.3048 N V 21 N "U"
T1 0.1 10.2 1.524 1.524 0 0.3048 N I 21 N "HX06_HX10_HallEffectCurrentTransducer_RevA_13Oct2013"
DS -9.5 7.7 9.5 7.7 0.381 21
DS 9.5 7.7 9.5 -7.7 0.381 21
DS 9.5 -7.7 -9.5 -7.7 0.381 21
DS -9.5 -7.7 -9.5 7.7 0.381 21
$PAD
Sh "5" C 2.7 2.7 0 0 0
Dr 1.5 0 0
At STD N 00E0FFFF
Ne 0 ""
Po 4.35 -3
$EndPAD
$PAD
Sh "6" C 2.7 2.7 0 0 0
Dr 1.5 0 0
At STD N 00E0FFFF
Ne 0 ""
Po 4.35 3
$EndPAD
$PAD
Sh "3" C 1.75 1.75 0 0 0
Dr 0.8128 0 0
At STD N 00E0FFFF
Ne 0 ""
Po -6.5 1.27
$EndPAD
$PAD
Sh "2" C 1.75 1.75 0 0 0
Dr 0.8128 0 0
At STD N 00E0FFFF
Ne 0 ""
Po -6.5 -1.27
$EndPAD
$PAD
Sh "1" C 1.75 1.75 0 0 0
Dr 0.8128 0 0
At STD N 00E0FFFF
Ne 0 ""
Po -6.5 -3.81
$EndPAD
$PAD
Sh "4" C 1.75 1.75 0 0 0
Dr 0.8128 0 0
At STD N 00E0FFFF
Ne 0 ""
Po -6.5 3.81
$EndPAD
$SHAPE3D
Na "LEM_HallEffectTransducers_Wings3d_RevA_13Oct2012/HX06_HX10_LEM-HallEffectTransducer_Faktor03937_RevA_13Oct2013.wrl"
Sc 0.3937 0.3937 0.3937
Of 0 0 0
Ro 0 0 0
$EndSHAPE3D
$EndMODULE HX06_HX10_HallEffectCurrentTransducer_RevA_13Oct2013
$MODULE HX15_HallEffectCurrentTransducer_RevA_13Oct2013
Po 0 0 0 15 525A8724 00000000 ~~
Li HX15_HallEffectCurrentTransducer_RevA_13Oct2013
Sc 0
AR 
Op 0 0 0
T0 0.1 -10.8 1.524 1.524 0 0.3048 N V 21 N "U"
T1 0.1 10.2 1.524 1.524 0 0.3048 N I 21 N "HX15_HallEffectCurrentTransducer_RevA_13Oct2013"
DS -9.5 7.7 9.5 7.7 0.381 21
DS 9.5 7.7 9.5 -7.7 0.381 21
DS 9.5 -7.7 -9.5 -7.7 0.381 21
DS -9.5 -7.7 -9.5 7.7 0.381 21
$PAD
Sh "5" C 3.2 3.2 0 0 0
Dr 1.9 0 0
At STD N 00E0FFFF
Ne 0 ""
Po 4.35 -3
$EndPAD
$PAD
Sh "6" C 3.2 3.2 0 0 0
Dr 1.9 0 0
At STD N 00E0FFFF
Ne 0 ""
Po 4.35 3
$EndPAD
$PAD
Sh "3" C 1.75 1.75 0 0 0
Dr 0.8128 0 0
At STD N 00E0FFFF
Ne 0 ""
Po -6.5 1.27
$EndPAD
$PAD
Sh "2" C 1.75 1.75 0 0 0
Dr 0.8128 0 0
At STD N 00E0FFFF
Ne 0 ""
Po -6.5 -1.27
$EndPAD
$PAD
Sh "1" C 1.75 1.75 0 0 0
Dr 0.8128 0 0
At STD N 00E0FFFF
Ne 0 ""
Po -6.5 -3.81
$EndPAD
$PAD
Sh "4" C 1.75 1.75 0 0 0
Dr 0.8128 0 0
At STD N 00E0FFFF
Ne 0 ""
Po -6.5 3.81
$EndPAD
$SHAPE3D
Na "LEM_HallEffectTransducers_Wings3d_RevA_13Oct2012/HX15_LEM-HallEffectTransducer_Faktor03937_RevA_13Oct2013.wrl"
Sc 0.3937 0.3937 0.3937
Of 0 0 0
Ro 0 0 0
$EndSHAPE3D
$EndMODULE HX15_HallEffectCurrentTransducer_RevA_13Oct2013
$MODULE HX20_HX25_HallEffectCurrentTransducer_RevA_13Oct2013
Po 0 0 0 15 525A87DA 00000000 ~~
Li HX20_HX25_HallEffectCurrentTransducer_RevA_13Oct2013
Sc 0
AR 
Op 0 0 0
T0 0.1 -10.8 1.524 1.524 0 0.3048 N V 21 N "U"
T1 0.1 10.2 1.524 1.524 0 0.3048 N I 21 N "HX20_HX25_HallEffectCurrentTransducer_RevA_13Oct2013"
DS -9.5 7.7 9.5 7.7 0.381 21
DS 9.5 7.7 9.5 -7.7 0.381 21
DS 9.5 -7.7 -9.5 -7.7 0.381 21
DS -9.5 -7.7 -9.5 7.7 0.381 21
$PAD
Sh "5" C 3.8 3.8 0 0 0
Dr 2.2 0 0
At STD N 00E0FFFF
Ne 0 ""
Po 4.35 -3
$EndPAD
$PAD
Sh "6" C 3.8 3.8 0 0 0
Dr 2.2 0 0
At STD N 00E0FFFF
Ne 0 ""
Po 4.35 3
$EndPAD
$PAD
Sh "3" C 1.75 1.75 0 0 0
Dr 0.8128 0 0
At STD N 00E0FFFF
Ne 0 ""
Po -6.5 1.27
$EndPAD
$PAD
Sh "2" C 1.75 1.75 0 0 0
Dr 0.8128 0 0
At STD N 00E0FFFF
Ne 0 ""
Po -6.5 -1.27
$EndPAD
$PAD
Sh "1" C 1.75 1.75 0 0 0
Dr 0.8128 0 0
At STD N 00E0FFFF
Ne 0 ""
Po -6.5 -3.81
$EndPAD
$PAD
Sh "4" C 1.75 1.75 0 0 0
Dr 0.8128 0 0
At STD N 00E0FFFF
Ne 0 ""
Po -6.5 3.81
$EndPAD
$SHAPE3D
Na "LEM_HallEffectTransducers_Wings3d_RevA_13Oct2012/HX20_HX25_LEM-HallEffectTransducer_Faktor03937_RevA_13Oct2013.wrl"
Sc 0.3937 0.3937 0.3937
Of 0 0 0
Ro 0 0 0
$EndSHAPE3D
$EndMODULE HX20_HX25_HallEffectCurrentTransducer_RevA_13Oct2013
$MODULE HX50_HallEffectCurrentTransducer_RevA_13Oct2013
Po 0 0 0 15 525A8A3A 00000000 ~~
Li HX50_HallEffectCurrentTransducer_RevA_13Oct2013
Sc 0
AR 
Op 0 0 0
T0 0.1 -10.8 1.524 1.524 0 0.3048 N V 21 N "U"
T1 0.1 10.2 1.524 1.524 0 0.3048 N I 21 N "HX50_HallEffectCurrentTransducer_RevA_13Oct2013"
DS -9.5 7.7 9.5 7.7 0.381 21
DS 9.5 7.7 9.5 -7.7 0.381 21
DS 9.5 -7.7 -9.5 -7.7 0.381 21
DS -9.5 -7.7 -9.5 7.7 0.381 21
$PAD
Sh "5" O 3 11 0 0 0
Dr 1.5 0 0 O 1.5 8
At STD N 00E0FFFF
Ne 0 ""
Po 7.7 0
$EndPAD
$PAD
Sh "6" O 3 11 0 0 0
Dr 1.5 0 0 O 1.5 8
At STD N 00E0FFFF
Ne 0 ""
Po 2.3 0
$EndPAD
$PAD
Sh "3" C 1.75 1.75 0 0 0
Dr 0.8128 0 0
At STD N 00E0FFFF
Ne 0 ""
Po -6.5 1.27
$EndPAD
$PAD
Sh "2" C 1.75 1.75 0 0 0
Dr 0.8128 0 0
At STD N 00E0FFFF
Ne 0 ""
Po -6.5 -1.27
$EndPAD
$PAD
Sh "1" C 1.75 1.75 0 0 0
Dr 0.8128 0 0
At STD N 00E0FFFF
Ne 0 ""
Po -6.5 -3.81
$EndPAD
$PAD
Sh "4" C 1.75 1.75 0 0 0
Dr 0.8128 0 0
At STD N 00E0FFFF
Ne 0 ""
Po -6.5 3.81
$EndPAD
$SHAPE3D
Na "LEM_HallEffectTransducers_Wings3d_RevA_13Oct2012/HX50_LEM-HallEffectTransducer_Faktor03937_RevA_13Oct2013.wrl"
Sc 0.3937 0.3937 0.3937
Of 0 0 0
Ro 0 0 0
$EndSHAPE3D
$EndMODULE HX50_HallEffectCurrentTransducer_RevA_13Oct2013
$EndLIBRARY
