PCBNEW-LibModule-V1  Mo 23 Sep 2013 10:52:29 CEST
# encoding utf-8
Units mm
$INDEX
NF-Transformer_1-1_P1200_ETAL_RevA_28Aug2012
NF-Transformer_P1165_ETAL_RevA_28Aug2012
NF-Transformer_P2781_ETAL_HandSoldering_RevA_31Aug2012
NF-Transformer_P2781_ETAL_RevA_31Aug2012
NF-Transformer_P3000_ETAL_HandSoldering_RevA_31Aug2012
NF-Transformer_P3000_ETAL_RevA_31Aug2012
NF-Transformer_P3181_ETAL_HandSoldering_RevA_31Aug2012
NF-Transformer_P3181_ETAL_RevA_31Aug2012
NF-Transformer_P3188_ETAL_HandSoldering_RevA_31Aug2012
NF-Transformer_P3188_ETAL_RevA_31Aug2012
NF-Transformer_P3191_ETAL_HandSoldering_RevA_31Aug2012
NF-Transformer_P3191_ETAL_RevA_31Aug2012
NF-Transformer_P3324_ETAL_RevA_30Aug2012
NF-Transformer_P3356_ETAL_RevA_30Aug2012
$EndINDEX
$MODULE NF-Transformer_1-1_P1200_ETAL_RevA_28Aug2012
Po 0 0 0 15 503D1799 00000000 ~~
Li NF-Transformer_1-1_P1200_ETAL_RevA_28Aug2012
Cd NF-Transformer, 1:1, ETAL P1200,
Kw NF-Transformer, 1:1, ETAL P1200,
Sc 0
AR NF-Transformer_1-1_P1200_ETAL_RevA_28Aug2012
Op 0 0 0
T0 -0.01016 -11.6205 1.524 1.524 0 0.3048 N V 21 N "TR"
T1 -0.07112 12.05992 1.524 1.524 0 0.3048 N I 21 N "NF-Transformer_1-1_P1200_ETAL_RevA_28Aug2012"
DS 5.80136 0.44958 6.79196 0.44958 0.381 21
DS 6.79196 0.44958 6.30174 1.05918 0.381 21
DS 6.30174 1.05918 6.61162 1.0795 0.381 21
DS 6.61162 1.0795 6.7818 1.27 0.381 21
DS 6.7818 1.27 6.82244 1.5494 0.381 21
DS 6.82244 1.5494 6.75132 1.8288 0.381 21
DS 6.75132 1.8288 6.5913 1.97866 0.381 21
DS 6.5913 1.97866 6.37032 2.00914 0.381 21
DS 6.37032 2.00914 6.18998 1.98882 0.381 21
DS 6.18998 1.98882 6.02996 1.9685 0.381 21
DS 6.02996 1.9685 5.8801 1.85928 0.381 21
DS -6.23062 1.01854 -6.25094 2.03962 0.381 21
DS -6.61924 0.32004 -7.04088 1.52908 0.381 21
DS -7.04088 1.52908 -5.969 1.50876 0.381 21
DS -5.59308 -5.58038 -5.58292 -5.62102 0.381 21
DS -5.58292 -5.62102 -5.58292 -5.61086 0.381 21
DS -6.10108 -7.21106 -6.40334 -7.2009 0.381 21
DS -6.40334 -7.2009 -6.61162 -7.17042 0.381 21
DS -6.61162 -7.17042 -6.74116 -7.05104 0.381 21
DS -6.74116 -7.05104 -6.95198 -6.8199 0.381 21
DS -6.95198 -6.8199 -6.98246 -6.53034 0.381 21
DS -6.98246 -6.53034 -7.01294 -6.1214 0.381 21
DS -7.01294 -6.1214 -6.9215 -5.80136 0.381 21
DS -6.9215 -5.80136 -6.76148 -5.67182 0.381 21
DS -6.76148 -5.67182 -6.47192 -5.61086 0.381 21
DS -6.47192 -5.61086 -6.28142 -5.6515 0.381 21
DS -6.28142 -5.6515 -6.14172 -5.85216 0.381 21
DS -6.14172 -5.85216 -6.1214 -6.1214 0.381 21
DS -6.1214 -6.1214 -6.19252 -6.35 0.381 21
DS -6.19252 -6.35 -6.39318 -6.53034 0.381 21
DS -6.39318 -6.53034 -6.70306 -6.5405 0.381 21
DS -6.70306 -6.5405 -6.8834 -6.47192 0.381 21
DS 5.98932 -5.6007 6.97992 -5.6007 0.381 21
DS 5.95122 -6.56082 6.47954 -7.05104 0.381 21
DS 6.47954 -7.05104 6.47954 -5.58038 0.381 21
DS 5.90042 6.69036 6.12902 6.78942 0.381 21
DS 6.12902 6.78942 6.25094 6.93928 0.381 21
DS 6.25094 6.93928 6.28904 7.13994 0.381 21
DS 6.28904 7.13994 6.28904 7.60984 0.381 21
DS 6.28904 7.60984 6.2611 7.8994 0.381 21
DS 6.2611 7.8994 6.18998 8.05942 0.381 21
DS 6.18998 8.05942 6.08076 8.17118 0.381 21
DS 6.08076 8.17118 5.98932 8.21944 0.381 21
DS 5.98932 8.21944 5.8801 8.2296 0.381 21
DS 5.8801 8.2296 5.75056 8.17118 0.381 21
DS 5.75056 8.17118 5.61086 8.06958 0.381 21
DS 5.61086 8.06958 5.52958 7.87908 0.381 21
DS 5.52958 7.87908 5.4991 7.52094 0.381 21
DS 5.4991 7.52094 5.4991 7.26948 0.381 21
DS 5.4991 7.26948 5.53974 7.03072 0.381 21
DS 5.53974 7.03072 5.6388 6.88086 0.381 21
DS 5.6388 6.88086 5.75056 6.74878 0.381 21
DS 5.75056 6.74878 5.85978 6.70052 0.381 21
DS 4.42976 6.72084 4.62026 6.7691 0.381 21
DS 4.62026 6.7691 4.81076 6.99008 0.381 21
DS 4.81076 6.99008 4.87934 7.29996 0.381 21
DS 4.87934 7.29996 4.86918 7.59968 0.381 21
DS 4.86918 7.59968 4.79044 7.9502 0.381 21
DS 4.79044 7.9502 4.6609 8.15086 0.381 21
DS 4.6609 8.15086 4.4704 8.2296 0.381 21
DS 4.4704 8.2296 4.24942 8.17118 0.381 21
DS 4.24942 8.17118 4.09956 7.98068 0.381 21
DS 4.09956 7.98068 4.03098 7.69112 0.381 21
DS 4.03098 7.69112 4.02082 7.31012 0.381 21
DS 4.02082 7.31012 4.09956 7.00024 0.381 21
DS 4.09956 7.00024 4.21894 6.77926 0.381 21
DS 4.21894 6.77926 4.37896 6.72084 0.381 21
DS 2.51968 6.90118 2.57048 6.84022 0.381 21
DS 2.57048 6.84022 2.77114 6.72084 0.381 21
DS 2.77114 6.72084 2.96926 6.70052 0.381 21
DS 2.96926 6.70052 3.18008 6.731 0.381 21
DS 3.18008 6.731 3.3401 6.85038 0.381 21
DS 3.3401 6.85038 3.429 7.04088 0.381 21
DS 3.429 7.04088 3.38074 7.29996 0.381 21
DS 3.38074 7.29996 2.55016 8.23976 0.381 21
DS 2.55016 8.23976 3.43916 8.23976 0.381 21
DS 1.06934 8.20928 1.96088 8.21944 0.381 21
DS 1.06934 7.18058 1.5494 6.74116 0.381 21
DS 1.5494 6.74116 1.55956 8.21944 0.381 21
DS -0.34036 8.20928 -0.35052 6.731 0.381 21
DS -0.35052 6.731 0.1397 6.74116 0.381 21
DS 0.1397 6.74116 0.3302 6.78942 0.381 21
DS 0.3302 6.78942 0.51054 6.97992 0.381 21
DS 0.51054 6.97992 0.53086 7.22122 0.381 21
DS 0.53086 7.22122 0.4699 7.3406 0.381 21
DS 0.4699 7.3406 0.37084 7.43966 0.381 21
DS 0.37084 7.43966 0.24892 7.50062 0.381 21
DS 0.24892 7.50062 -0.26924 7.50062 0.381 21
DS -2.72034 6.65988 -2.72034 8.20928 0.381 21
DS -2.72034 8.20928 -1.99898 8.2296 0.381 21
DS -4.04114 7.79018 -3.51028 7.79018 0.381 21
DS -4.26974 8.2296 -3.7592 6.70052 0.381 21
DS -3.7592 6.70052 -3.24104 8.20928 0.381 21
DS -5.44068 6.70052 -4.63042 6.70052 0.381 21
DS -4.98094 8.20928 -4.98094 6.74116 0.381 21
DS -6.55066 7.4295 -6.10108 7.4295 0.381 21
DS -5.86994 6.70052 -6.61924 6.72084 0.381 21
DS -6.61924 6.72084 -6.61924 8.24992 0.381 21
DS -6.61924 8.24992 -5.92074 8.24992 0.381 21
DS -1.40716 -6.77926 -0.7874 -6.79958 0.381 21
DS 0.82042 -6.85038 1.4605 -6.85038 0.381 21
DS 0.09906 -6.91896 0.02032 -6.91896 0.381 21
DS 0.03048 -7.71906 -0.02032 -7.69874 0.381 21
DS 0.67056 -7.87908 1.17094 -8.30072 0.381 21
DS 1.17094 -8.30072 1.17094 -6.85038 0.381 21
DS -1.56972 -7.82066 -1.03124 -8.30072 0.381 21
DS -1.03124 -8.30072 -1.03124 -6.78942 0.381 21
DS 4.82092 -4.0005 3.0607 -4.04114 0.381 21
DS 3.0607 -4.04114 2.75082 -3.98018 0.381 21
DS 2.75082 -3.98018 2.42062 -3.78968 0.381 21
DS 2.42062 -3.78968 2.11074 -3.50012 0.381 21
DS 2.11074 -3.50012 1.98882 -3.10896 0.381 21
DS 1.98882 -3.10896 2.0193 -2.74066 0.381 21
DS 2.0193 -2.74066 2.16916 -2.35966 0.381 21
DS 2.16916 -2.35966 2.42062 -2.16916 0.381 21
DS 2.42062 -2.16916 2.88036 -1.96088 0.381 21
DS 2.88036 -1.96088 3.12928 -1.96088 0.381 21
DS 3.12928 -1.96088 2.64922 -1.86944 0.381 21
DS 2.64922 -1.86944 2.14884 -1.5494 0.381 21
DS 2.14884 -1.5494 2.00914 -1.23952 0.381 21
DS 2.00914 -1.23952 1.98882 -0.889 0.381 21
DS 1.98882 -0.889 2.11074 -0.5207 0.381 21
DS 2.11074 -0.5207 2.4003 -0.21082 0.381 21
DS 2.4003 -0.21082 2.72034 -0.02032 0.381 21
DS 2.72034 -0.02032 3.15976 0 0.381 21
DS 3.15976 0 2.6797 0.07112 0.381 21
DS 2.6797 0.07112 2.32918 0.26924 0.381 21
DS 2.32918 0.26924 2.11074 0.55118 0.381 21
DS 2.11074 0.55118 2.00914 0.87122 0.381 21
DS 2.00914 0.87122 2.0193 1.22936 0.381 21
DS 2.0193 1.22936 2.16916 1.57988 0.381 21
DS 2.16916 1.57988 2.43078 1.81102 0.381 21
DS 2.43078 1.81102 2.74066 1.97104 0.381 21
DS 2.74066 1.97104 2.97942 2.02946 0.381 21
DS 2.97942 2.02946 3.2004 2.02946 0.381 21
DS 3.2004 2.02946 2.46888 2.14884 0.381 21
DS 2.46888 2.14884 2.17932 2.4003 0.381 21
DS 2.17932 2.4003 2.03962 2.76098 0.381 21
DS 2.03962 2.76098 2.00914 3.08102 0.381 21
DS 2.00914 3.08102 2.11074 3.44932 0.381 21
DS 2.11074 3.44932 2.30886 3.68046 0.381 21
DS 2.30886 3.68046 2.5908 3.92938 0.381 21
DS 2.5908 3.92938 2.96926 4.0005 0.381 21
DS 2.96926 4.0005 4.89966 4.0005 0.381 21
DS -5.00126 -4.0005 -2.99974 -4.0005 0.381 21
DS -2.99974 -4.0005 -2.61874 -3.9497 0.381 21
DS -2.61874 -3.9497 -2.32918 -3.73126 0.381 21
DS -2.32918 -3.73126 -2.10058 -3.50012 0.381 21
DS -2.10058 -3.50012 -2.04978 -3.2893 0.381 21
DS -2.04978 -3.2893 -1.98882 -2.94894 0.381 21
DS -1.98882 -2.94894 -2.04978 -2.51968 0.381 21
DS -2.04978 -2.51968 -2.23012 -2.32918 0.381 21
DS -2.23012 -2.32918 -2.44094 -2.18948 0.381 21
DS -2.44094 -2.18948 -2.84988 -2.00914 0.381 21
DS -2.84988 -2.00914 -3.0099 -2.00914 0.381 21
DS -3.0099 -2.00914 -2.72034 -1.92024 0.381 21
DS -2.72034 -1.92024 -2.4003 -1.81102 0.381 21
DS -2.4003 -1.81102 -2.14122 -1.62052 0.381 21
DS -2.14122 -1.62052 -2.0701 -1.3208 0.381 21
DS -2.0701 -1.3208 -2.02946 -0.98044 0.381 21
DS -2.02946 -0.98044 -2.0701 -0.6604 0.381 21
DS -2.0701 -0.6604 -2.2098 -0.42926 0.381 21
DS -2.2098 -0.42926 -2.30886 -0.2794 0.381 21
DS -2.30886 -0.2794 -2.55016 -0.11938 0.381 21
DS -2.55016 -0.11938 -2.78892 -0.02032 0.381 21
DS -2.78892 -0.02032 -2.93878 -0.02032 0.381 21
DS -2.93878 -0.02032 -2.66954 0.07112 0.381 21
DS -2.66954 0.07112 -2.42062 0.20066 0.381 21
DS -2.42062 0.20066 -2.16916 0.43942 0.381 21
DS -2.16916 0.43942 -2.0701 0.6604 0.381 21
DS -2.0701 0.6604 -2.00914 0.9398 0.381 21
DS -2.00914 0.9398 -2.02946 1.20904 0.381 21
DS -2.02946 1.20904 -2.10058 1.48082 0.381 21
DS -2.10058 1.48082 -2.28092 1.6891 0.381 21
DS -2.28092 1.6891 -2.44094 1.8288 0.381 21
DS -2.44094 1.8288 -2.61874 1.92024 0.381 21
DS -2.61874 1.92024 -2.94894 1.96088 0.381 21
DS -2.94894 1.96088 -2.68986 2.03962 0.381 21
DS -2.68986 2.03962 -2.42062 2.19964 0.381 21
DS -2.42062 2.19964 -2.23012 2.44094 0.381 21
DS -2.23012 2.44094 -2.10058 2.64922 0.381 21
DS -2.10058 2.64922 -2.04978 2.88036 0.381 21
DS -2.04978 2.88036 -2.04978 3.1496 0.381 21
DS -2.04978 3.1496 -2.14122 3.46964 0.381 21
DS -2.14122 3.46964 -2.2606 3.68046 0.381 21
DS -2.2606 3.68046 -2.46888 3.88112 0.381 21
DS -2.46888 3.88112 -2.74066 3.92938 0.381 21
DS -2.74066 3.92938 -2.94894 3.98018 0.381 21
DS -2.94894 3.98018 -3.0099 3.95986 0.381 21
DS -3.0099 3.95986 -4.93014 3.9497 0.381 21
DS 0 -5.99948 0 5.99948 0.381 21
DS 8.99922 -8.99922 -8.99922 -8.99922 0.381 21
DS -8.99922 -8.99922 -8.99922 8.99922 0.381 21
DS -8.99922 8.99922 8.99922 8.99922 0.381 21
DS 8.99922 8.99922 8.99922 -8.99922 0.381 21
$PAD
Sh "6" C 1.524 1.524 0 0 0
Dr 0.8128 0 0
At STD N 00E0FFFF
Ne 0 ""
Po -6.35 -3.81
$EndPAD
$PAD
Sh "4" C 1.524 1.524 0 0 0
Dr 0.8128 0 0
At STD N 00E0FFFF
Ne 0 ""
Po -6.35 3.81
$EndPAD
$PAD
Sh "1" C 1.524 1.524 0 0 0
Dr 0.8128 0 0
At STD N 00E0FFFF
Ne 0 ""
Po 6.35 -3.81
$EndPAD
$PAD
Sh "3" C 1.524 1.524 0 0 0
Dr 0.8128 0 0
At STD N 00E0FFFF
Ne 0 ""
Po 6.35 3.81
$EndPAD
$SHAPE3D
Na "NF-Transformer_ETAL_Wings3d_RevA_28Aug2012/NF-Transformer_ETAL_P1200_P3356_P3324_Faktor03937_RevA_30Aug2012.wrl"
Sc 0.3937 0.3937 0.3937
Of 0 0 0
Ro 0 0 0
$EndSHAPE3D
$EndMODULE NF-Transformer_1-1_P1200_ETAL_RevA_28Aug2012
$MODULE NF-Transformer_P1165_ETAL_RevA_28Aug2012
Po 0 0 0 15 503F2C5F 00000000 ~~
Li NF-Transformer_P1165_ETAL_RevA_28Aug2012
Cd NF-Transformer,  ETAL, P1165,
Kw NF-Transformer,  ETAL, P1165,
Sc 0
AR NF-Transformer_1-1_P1200_ETAL_RevA_28Aug2012
Op 0 0 0
T0 -0.01016 -11.6205 1.524 1.524 0 0.3048 N V 21 N "TR"
T1 -0.07112 12.05992 1.524 1.524 0 0.3048 N I 21 N "NF-Transformer_P1165_ETAL_RevA_28Aug2012"
DS 6.37032 6.731 5.57022 6.731 0.381 21
DS 5.57022 6.731 5.4991 7.45998 0.381 21
DS 5.4991 7.45998 5.70992 7.31012 0.381 21
DS 5.70992 7.31012 5.9309 7.29996 0.381 21
DS 5.9309 7.29996 6.14934 7.3406 0.381 21
DS 6.14934 7.3406 6.2992 7.45998 0.381 21
DS 6.2992 7.45998 6.38048 7.69112 0.381 21
DS 6.38048 7.69112 6.36016 7.94004 0.381 21
DS 6.36016 7.94004 6.2611 8.13054 0.381 21
DS 6.2611 8.13054 6.09092 8.21944 0.381 21
DS 6.09092 8.21944 5.7912 8.21944 0.381 21
DS 5.7912 8.21944 5.59054 8.1407 0.381 21
DS 5.59054 8.1407 5.51942 8.06958 0.381 21
DS 4.8006 6.731 4.52882 6.72084 0.381 21
DS 4.52882 6.72084 4.36118 6.77926 0.381 21
DS 4.36118 6.77926 4.18084 7.0104 0.381 21
DS 4.18084 7.0104 4.05892 7.31012 0.381 21
DS 4.05892 7.31012 4.02082 7.58952 0.381 21
DS 4.02082 7.58952 4.02082 7.84098 0.381 21
DS 4.02082 7.84098 4.11988 8.07974 0.381 21
DS 4.11988 8.07974 4.20878 8.17118 0.381 21
DS 4.20878 8.17118 4.36118 8.2296 0.381 21
DS 4.36118 8.2296 4.54914 8.23976 0.381 21
DS 4.54914 8.23976 4.68884 8.19912 0.381 21
DS 4.68884 8.19912 4.87934 8.0391 0.381 21
DS 4.87934 8.0391 4.93014 7.79018 0.381 21
DS 4.93014 7.79018 4.89966 7.5311 0.381 21
DS 4.89966 7.5311 4.72948 7.37108 0.381 21
DS 4.72948 7.37108 4.5593 7.32028 0.381 21
DS 4.5593 7.32028 4.34086 7.36092 0.381 21
DS 4.34086 7.36092 4.18084 7.44982 0.381 21
DS 2.56032 8.19912 3.46964 8.21944 0.381 21
DS 2.49936 7.24916 2.99974 6.74878 0.381 21
DS 2.99974 6.74878 2.99974 8.19912 0.381 21
DS 9.75106 -9.75106 -9.75106 -9.75106 0.381 21
DS -9.75106 -9.75106 -9.75106 9.75106 0.381 21
DS -9.75106 9.75106 9.75106 9.75106 0.381 21
DS 9.75106 9.75106 9.75106 -9.75106 0.381 21
DS 2.1844 5.00126 2.24536 4.98094 0.381 21
DS 1.97612 4.95046 2.1844 5.00126 0.381 21
DS 1.70434 4.9022 1.97612 4.95046 0.381 21
DS 1.49606 4.70154 1.70434 4.9022 0.381 21
DS 1.37668 4.49072 1.49606 4.70154 0.381 21
DS 1.28524 4.17068 1.37668 4.49072 0.381 21
DS 1.28524 3.90144 1.28524 4.17068 0.381 21
DS 1.33604 3.6703 1.28524 3.90144 0.381 21
DS 1.46558 3.46202 1.33604 3.6703 0.381 21
DS 1.65608 3.22072 1.46558 3.46202 0.381 21
DS 1.92532 3.0607 1.65608 3.22072 0.381 21
DS 2.1844 2.98196 1.92532 3.0607 0.381 21
DS 1.8542 2.94132 2.1844 2.98196 0.381 21
DS 1.6764 2.84988 1.8542 2.94132 0.381 21
DS 1.51638 2.71018 1.6764 2.84988 0.381 21
DS 1.33604 2.5019 1.51638 2.71018 0.381 21
DS 1.26492 2.23012 1.33604 2.5019 0.381 21
DS 1.2446 1.96088 1.26492 2.23012 0.381 21
DS 1.30556 1.68148 1.2446 1.96088 0.381 21
DS 1.40462 1.4605 1.30556 1.68148 0.381 21
DS 1.65608 1.22174 1.40462 1.4605 0.381 21
DS 1.905 1.0922 1.65608 1.22174 0.381 21
DS 2.17424 1.00076 1.905 1.0922 0.381 21
DS 2.02438 1.00076 2.17424 1.00076 0.381 21
DS 1.78562 0.9017 2.02438 1.00076 0.381 21
DS 1.54432 0.74168 1.78562 0.9017 0.381 21
DS 1.44526 0.59182 1.54432 0.74168 0.381 21
DS 1.30556 0.36068 1.44526 0.59182 0.381 21
DS 1.26492 0.04064 1.30556 0.36068 0.381 21
DS 1.30556 -0.29972 1.26492 0.04064 0.381 21
DS 1.37668 -0.59944 1.30556 -0.29972 0.381 21
DS 1.63576 -0.78994 1.37668 -0.59944 0.381 21
DS 1.9558 -0.89916 1.63576 -0.78994 0.381 21
DS 2.24536 -0.98806 1.9558 -0.89916 0.381 21
DS 2.08534 -0.98806 2.24536 -0.98806 0.381 21
DS 1.6764 -1.1684 2.08534 -0.98806 0.381 21
DS 1.46558 -1.3081 1.6764 -1.1684 0.381 21
DS 1.28524 -1.4986 1.46558 -1.3081 0.381 21
DS 1.22428 -1.92786 1.28524 -1.4986 0.381 21
DS 1.28524 -2.26822 1.22428 -1.92786 0.381 21
DS 1.33604 -2.47904 1.28524 -2.26822 0.381 21
DS 1.56464 -2.71018 1.33604 -2.47904 0.381 21
DS 1.8542 -2.92862 1.56464 -2.71018 0.381 21
DS 2.2352 -2.97942 1.8542 -2.92862 0.381 21
DS 1.68656 -3.1496 2.22504 -2.94894 0.381 21
DS 1.3843 -3.429 1.68656 -3.1496 0.381 21
DS 1.22428 -3.82016 1.3843 -3.429 0.381 21
DS 1.25476 -4.26974 1.22428 -3.82016 0.381 21
DS 1.5748 -4.75996 1.25476 -4.26974 0.381 21
DS 1.9558 -4.93776 1.5748 -4.75996 0.381 21
DS 2.286 -4.98856 1.9558 -4.93776 0.381 21
DS -2.16916 -5.01904 -1.83896 -4.96824 0.381 21
DS -1.83896 -4.96824 -1.45796 -4.79044 0.381 21
DS -1.45796 -4.79044 -1.13792 -4.30022 0.381 21
DS -1.13792 -4.30022 -1.10744 -3.85064 0.381 21
DS -1.10744 -3.85064 -1.26746 -3.45948 0.381 21
DS -1.26746 -3.45948 -1.56972 -3.18008 0.381 21
DS -1.56972 -3.18008 -2.1082 -2.97942 0.381 21
DS 4.6228 1.7399 5.6134 1.7399 0.381 21
DS 5.6134 1.7399 5.12318 2.3495 0.381 21
DS 5.12318 2.3495 5.43306 2.36982 0.381 21
DS 5.43306 2.36982 5.60324 2.56032 0.381 21
DS 5.60324 2.56032 5.64388 2.83972 0.381 21
DS 5.64388 2.83972 5.57276 3.11912 0.381 21
DS 5.57276 3.11912 5.41274 3.26898 0.381 21
DS 5.41274 3.26898 5.19176 3.29946 0.381 21
DS 5.19176 3.29946 5.01142 3.27914 0.381 21
DS 5.01142 3.27914 4.8514 3.25882 0.381 21
DS 4.8514 3.25882 4.70154 3.1496 0.381 21
DS -4.74218 2.42824 -4.7625 3.44932 0.381 21
DS -5.1308 1.72974 -5.55244 2.93878 0.381 21
DS -5.55244 2.93878 -4.48056 2.91846 0.381 21
DS -4.37388 -6.56844 -4.36372 -6.60908 0.381 21
DS -5.03174 -8.13054 -5.334 -8.12038 0.381 21
DS -5.334 -8.12038 -5.54228 -8.0899 0.381 21
DS -5.54228 -8.0899 -5.67182 -7.97052 0.381 21
DS -5.67182 -7.97052 -5.88264 -7.73938 0.381 21
DS -5.88264 -7.73938 -5.91312 -7.44982 0.381 21
DS -5.91312 -7.44982 -5.9436 -7.04088 0.381 21
DS -5.9436 -7.04088 -5.85216 -6.72084 0.381 21
DS -5.85216 -6.72084 -5.69214 -6.5913 0.381 21
DS -5.69214 -6.5913 -5.40258 -6.53034 0.381 21
DS -5.40258 -6.53034 -5.21208 -6.57098 0.381 21
DS -5.21208 -6.57098 -5.07238 -6.77164 0.381 21
DS -5.07238 -6.77164 -5.05206 -7.04088 0.381 21
DS -5.05206 -7.04088 -5.12318 -7.26948 0.381 21
DS -5.12318 -7.26948 -5.32384 -7.44982 0.381 21
DS -5.32384 -7.44982 -5.63372 -7.45998 0.381 21
DS -5.63372 -7.45998 -5.81406 -7.3914 0.381 21
DS 4.57962 -6.55066 5.57022 -6.55066 0.381 21
DS 4.54152 -7.51078 5.06984 -8.001 0.381 21
DS 5.06984 -8.001 5.06984 -6.53034 0.381 21
DS 1.06934 8.20928 1.96088 8.21944 0.381 21
DS 1.06934 7.18058 1.5494 6.74116 0.381 21
DS 1.5494 6.74116 1.55956 8.21944 0.381 21
DS -0.34036 8.20928 -0.35052 6.731 0.381 21
DS -0.35052 6.731 0.1397 6.74116 0.381 21
DS 0.1397 6.74116 0.3302 6.78942 0.381 21
DS 0.3302 6.78942 0.51054 6.97992 0.381 21
DS 0.51054 6.97992 0.53086 7.22122 0.381 21
DS 0.53086 7.22122 0.4699 7.3406 0.381 21
DS 0.4699 7.3406 0.37084 7.43966 0.381 21
DS 0.37084 7.43966 0.24892 7.50062 0.381 21
DS 0.24892 7.50062 -0.26924 7.50062 0.381 21
DS -2.72034 6.65988 -2.72034 8.20928 0.381 21
DS -2.72034 8.20928 -1.99898 8.2296 0.381 21
DS -4.04114 7.79018 -3.51028 7.79018 0.381 21
DS -4.26974 8.2296 -3.7592 6.70052 0.381 21
DS -3.7592 6.70052 -3.24104 8.20928 0.381 21
DS -5.44068 6.70052 -4.63042 6.70052 0.381 21
DS -4.98094 8.20928 -4.98094 6.74116 0.381 21
DS -6.55066 7.4295 -6.10108 7.4295 0.381 21
DS -5.86994 6.70052 -6.61924 6.72084 0.381 21
DS -6.61924 6.72084 -6.61924 8.24992 0.381 21
DS -6.61924 8.24992 -5.92074 8.24992 0.381 21
DS -1.40716 -6.77926 -0.7874 -6.79958 0.381 21
DS 0.82042 -6.85038 1.4605 -6.85038 0.381 21
DS 0.09906 -6.91896 0.02032 -6.91896 0.381 21
DS 0.03048 -7.71906 -0.02032 -7.69874 0.381 21
DS 0.67056 -7.87908 1.17094 -8.30072 0.381 21
DS 1.17094 -8.30072 1.17094 -6.85038 0.381 21
DS -1.56972 -7.82066 -1.03124 -8.30072 0.381 21
DS -1.03124 -8.30072 -1.03124 -6.78942 0.381 21
DS -2.11836 -3.0099 -1.73736 -2.9591 0.381 21
DS -1.73736 -2.9591 -1.4478 -2.74066 0.381 21
DS -1.4478 -2.74066 -1.2192 -2.50952 0.381 21
DS -1.2192 -2.50952 -1.1684 -2.2987 0.381 21
DS -1.1684 -2.2987 -1.10744 -1.95834 0.381 21
DS -1.10744 -1.95834 -1.1684 -1.52908 0.381 21
DS -1.1684 -1.52908 -1.34874 -1.33858 0.381 21
DS -1.34874 -1.33858 -1.55956 -1.19888 0.381 21
DS -1.55956 -1.19888 -1.9685 -1.01854 0.381 21
DS -1.9685 -1.01854 -2.12852 -1.01854 0.381 21
DS -2.12852 -1.01854 -1.83896 -0.92964 0.381 21
DS -1.83896 -0.92964 -1.51892 -0.82042 0.381 21
DS -1.51892 -0.82042 -1.25984 -0.62992 0.381 21
DS -1.25984 -0.62992 -1.18872 -0.3302 0.381 21
DS -1.18872 -0.3302 -1.14808 0.01016 0.381 21
DS -1.14808 0.01016 -1.18872 0.3302 0.381 21
DS -1.18872 0.3302 -1.32842 0.56134 0.381 21
DS -1.32842 0.56134 -1.42748 0.7112 0.381 21
DS -1.42748 0.7112 -1.66878 0.87122 0.381 21
DS -1.66878 0.87122 -1.90754 0.97028 0.381 21
DS -1.90754 0.97028 -2.0574 0.97028 0.381 21
DS -2.0574 0.97028 -1.78816 1.06172 0.381 21
DS -1.78816 1.06172 -1.53924 1.19126 0.381 21
DS -1.53924 1.19126 -1.28778 1.43002 0.381 21
DS -1.28778 1.43002 -1.18872 1.651 0.381 21
DS -1.18872 1.651 -1.12776 1.9304 0.381 21
DS -1.12776 1.9304 -1.14808 2.19964 0.381 21
DS -1.14808 2.19964 -1.2192 2.47142 0.381 21
DS -1.2192 2.47142 -1.39954 2.6797 0.381 21
DS -1.39954 2.6797 -1.55956 2.8194 0.381 21
DS -1.55956 2.8194 -1.73736 2.91084 0.381 21
DS -1.73736 2.91084 -2.06756 2.95148 0.381 21
DS -2.06756 2.95148 -1.80848 3.03022 0.381 21
DS -1.80848 3.03022 -1.53924 3.19024 0.381 21
DS -1.53924 3.19024 -1.34874 3.43154 0.381 21
DS -1.34874 3.43154 -1.2192 3.63982 0.381 21
DS -1.2192 3.63982 -1.1684 3.87096 0.381 21
DS -1.1684 3.87096 -1.1684 4.1402 0.381 21
DS -1.1684 4.1402 -1.25984 4.46024 0.381 21
DS -1.25984 4.46024 -1.37922 4.67106 0.381 21
DS -1.37922 4.67106 -1.5875 4.87172 0.381 21
DS -1.5875 4.87172 -1.85928 4.91998 0.381 21
DS -1.85928 4.91998 -2.06756 4.97078 0.381 21
DS -2.06756 4.97078 -2.12852 4.95046 0.381 21
DS 0 -5.99948 0 5.99948 0.381 21
$PAD
Sh "6" C 1.524 1.524 0 0 0
Dr 0.8128 0 0
At STD N 00E0FFFF
Ne 0 ""
Po -5.00126 -5.00126
$EndPAD
$PAD
Sh "4" C 1.524 1.524 0 0 0
Dr 0.8128 0 0
At STD N 00E0FFFF
Ne 0 ""
Po -5.00126 5.00126
$EndPAD
$PAD
Sh "1" C 1.524 1.524 0 0 0
Dr 0.8128 0 0
At STD N 00E0FFFF
Ne 0 ""
Po 5.00126 -5.00126
$EndPAD
$PAD
Sh "3" C 1.524 1.524 0 0 0
Dr 0.8128 0 0
At STD N 00E0FFFF
Ne 0 ""
Po 5.00126 5.00126
$EndPAD
$SHAPE3D
Na "NF-Transformer_ETAL_Wings3d_RevA_28Aug2012/NF-Transformer_ETAL_P1165_Faktor03937_RevA_30Aug2012.wrl"
Sc 0.3937 0.3937 0.3937
Of 0 0 0
Ro 0 0 0
$EndSHAPE3D
$EndMODULE NF-Transformer_P1165_ETAL_RevA_28Aug2012
$MODULE NF-Transformer_P2781_ETAL_HandSoldering_RevA_31Aug2012
Po 0 0 0 15 5040D359 00000000 ~~
Li NF-Transformer_P2781_ETAL_HandSoldering_RevA_31Aug2012
Cd NF-Transformer, ETAL, P2781, SMD, Handsoldering
Kw NF-Transformer, ETAL, P2781, SMD, Handsoldering,
Sc 0
AR 
Op 0 0 0
At SMD
T0 0 -7.00024 1.524 1.524 0 0.3048 N V 21 N "TR"
T1 0 7.50062 1.524 1.524 0 0.3048 N I 21 N "NF-Transformer_P2781_ETAL_HandSoldering_RevA_31Aug2012"
DS 6.49986 4.50088 6.49986 4.0005 0.381 21
DS 6.49986 -4.50088 6.49986 -4.0005 0.381 21
DS 2.9591 3.93954 3.83032 3.93954 0.381 21
DS 2.98958 2.92862 3.43916 2.45872 0.381 21
DS 3.43916 2.45872 3.43916 3.93954 0.381 21
DS 2.0193 2.41808 2.25044 2.46888 0.381 21
DS 2.25044 2.46888 2.37998 2.65938 0.381 21
DS 2.37998 2.65938 2.4003 2.86766 0.381 21
DS 2.4003 2.86766 2.32918 2.99974 0.381 21
DS 2.32918 2.99974 2.159 3.08864 0.381 21
DS 2.159 3.08864 1.89992 3.0988 0.381 21
DS 1.89992 3.0988 1.66878 3.19786 0.381 21
DS 1.66878 3.19786 1.51892 3.44932 0.381 21
DS 1.51892 3.44932 1.52908 3.7592 0.381 21
DS 1.52908 3.7592 1.67894 3.86842 0.381 21
DS 1.67894 3.86842 1.8288 3.91922 0.381 21
DS 1.8288 3.91922 2.05994 3.93954 0.381 21
DS 2.05994 3.93954 2.28092 3.86842 0.381 21
DS 2.28092 3.86842 2.37998 3.68808 0.381 21
DS 2.37998 3.68808 2.39014 3.48742 0.381 21
DS 2.39014 3.48742 2.3495 3.31978 0.381 21
DS 2.3495 3.31978 2.23012 3.19786 0.381 21
DS 2.23012 3.19786 2.0193 3.11912 0.381 21
DS 2.0193 3.11912 1.7907 3.08864 0.381 21
DS 1.7907 3.08864 1.651 2.99974 0.381 21
DS 1.651 2.99974 1.56972 2.78892 0.381 21
DS 1.56972 2.78892 1.6002 2.6289 0.381 21
DS 1.6002 2.6289 1.6891 2.51968 0.381 21
DS 1.6891 2.51968 1.9304 2.4384 0.381 21
DS 0.04064 2.42824 1.02108 2.41808 0.381 21
DS 1.02108 2.41808 0.40894 3.93954 0.381 21
DS -1.38938 2.6289 -1.24968 2.49936 0.381 21
DS -1.24968 2.49936 -1.08966 2.4384 0.381 21
DS -1.08966 2.4384 -0.83058 2.4384 0.381 21
DS -0.83058 2.4384 -0.67056 2.49936 0.381 21
DS -0.67056 2.49936 -0.51054 2.6797 0.381 21
DS -0.51054 2.6797 -0.4699 2.86766 0.381 21
DS -0.4699 2.86766 -0.51054 3.03784 0.381 21
DS -0.51054 3.03784 -0.65024 3.20802 0.381 21
DS -0.65024 3.20802 -1.45034 3.92938 0.381 21
DS -1.45034 3.92938 -0.49022 3.93954 0.381 21
DS -2.80924 3.96748 -2.8194 2.44856 0.381 21
DS -2.8194 2.44856 -2.17932 2.46888 0.381 21
DS -2.17932 2.46888 -1.99898 2.6289 0.381 21
DS -1.99898 2.6289 -1.94056 2.91846 0.381 21
DS -1.94056 2.91846 -1.99898 3.12928 0.381 21
DS -1.99898 3.12928 -2.2098 3.2385 0.381 21
DS -2.2098 3.2385 -2.44094 3.25882 0.381 21
DS -2.44094 3.25882 -2.77114 3.2385 0.381 21
DS 2.63906 -3.63982 2.6289 -2.14122 0.381 21
DS 2.6289 -2.14122 3.3401 -2.14122 0.381 21
DS 1.24968 -2.55016 1.89992 -2.55016 0.381 21
DS 1.08966 -2.10058 1.61036 -3.63982 0.381 21
DS 1.61036 -3.63982 2.11074 -2.13106 0.381 21
DS 2.11074 -2.13106 2.12852 -2.13106 0.381 21
DS 0.381 -3.60934 0.381 -2.14122 0.381 21
DS -0.04064 -3.62966 0.78994 -3.63982 0.381 21
DS -1.19126 -2.89052 -0.73914 -2.89052 0.381 21
DS -0.49022 -3.62966 -1.2192 -3.62966 0.381 21
DS -1.2192 -3.62966 -1.2192 -2.1209 0.381 21
DS -1.2192 -2.1209 -0.53086 -2.11074 0.381 21
DS -2.9591 -2.41046 -2.09042 -2.42062 0.381 21
DS -2.93878 -3.3909 -2.50952 -3.90906 0.381 21
DS -2.50952 -3.90906 -2.49936 -2.43078 0.381 21
DS -6.49986 -4.0005 -3.50012 -4.0005 0.381 21
DS -6.49986 4.50088 -6.49986 4.0005 0.381 21
DS -3.50012 -4.50088 -3.50012 4.50088 0.381 21
DS -6.49986 -4.50088 -6.49986 -4.0005 0.381 21
DS 6.49986 4.50088 -6.49986 4.50088 0.381 21
DS -6.49986 -4.50088 6.49986 -4.50088 0.381 21
$PAD
Sh "7" O 3.50012 1.39954 0 0 900
Dr 0 0 0
At SMD N 00020000
Ne 0 ""
Po -1.99898 0
$EndPAD
$PAD
Sh "1" R 3.50012 1.39954 0 0 0
Dr 0 0 0
At SMD N 00888000
Ne 0 ""
Po -6.04012 -2.54
$EndPAD
$PAD
Sh "2" R 3.50012 1.39954 0 0 0
Dr 0 0 0
At SMD N 00888000
Ne 0 ""
Po -6.04012 0
$EndPAD
$PAD
Sh "3" R 3.50012 1.39954 0 0 0
Dr 0 0 0
At SMD N 00888000
Ne 0 ""
Po -6.04012 2.54
$EndPAD
$PAD
Sh "4" R 3.50012 1.39954 0 0 0
Dr 0 0 0
At SMD N 00888000
Ne 0 ""
Po 6.04012 2.54
$EndPAD
$PAD
Sh "5" R 3.50012 1.39954 0 0 0
Dr 0 0 0
At SMD N 00888000
Ne 0 ""
Po 6.04012 0
$EndPAD
$PAD
Sh "6" R 3.50012 1.39954 0 0 0
Dr 0 0 0
At SMD N 00888000
Ne 0 ""
Po 6.04012 -2.54
$EndPAD
$PAD
Sh "7" O 3.50012 1.39954 0 0 900
Dr 0 0 0
At SMD N 00020000
Ne 0 ""
Po 1.99898 0
$EndPAD
$SHAPE3D
Na "NF-Transformer_ETAL_Wings3d_RevA_28Aug2012/NF-Transformer_ETAL_P2781_Faktor03937_RevA_30Aug2012.wrl"
Sc 0.3937 0.3937 0.3937
Of 0 0 0
Ro 0 0 0
$EndSHAPE3D
$EndMODULE NF-Transformer_P2781_ETAL_HandSoldering_RevA_31Aug2012
$MODULE NF-Transformer_P2781_ETAL_RevA_31Aug2012
Po 0 0 0 15 5040D2F2 00000000 ~~
Li NF-Transformer_P2781_ETAL_RevA_31Aug2012
Cd NF-Transformer, ETAL, P2781, SMD,
Kw NF-Transformer, ETAL, P2781, SMD,
Sc 0
AR 
Op 0 0 0
At SMD
T0 0 -7.00024 1.524 1.524 0 0.3048 N V 21 N "TR"
T1 0 7.50062 1.524 1.524 0 0.3048 N I 21 N "NF-Transformer_P2781_ETAL_RevA_31Aug2012"
DS 6.49986 4.50088 6.49986 4.0005 0.381 21
DS 6.49986 -4.50088 6.49986 -4.0005 0.381 21
DS 2.9591 3.83032 3.83032 3.83032 0.381 21
DS 2.98958 2.8194 3.43916 2.3495 0.381 21
DS 3.43916 2.3495 3.43916 3.83032 0.381 21
DS 2.0193 2.30886 2.25044 2.35966 0.381 21
DS 2.25044 2.35966 2.37998 2.55016 0.381 21
DS 2.37998 2.55016 2.4003 2.75844 0.381 21
DS 2.4003 2.75844 2.32918 2.89052 0.381 21
DS 2.32918 2.89052 2.159 2.97942 0.381 21
DS 2.159 2.97942 1.89992 2.98958 0.381 21
DS 1.89992 2.98958 1.66878 3.08864 0.381 21
DS 1.66878 3.08864 1.51892 3.3401 0.381 21
DS 1.51892 3.3401 1.52908 3.64998 0.381 21
DS 1.52908 3.64998 1.67894 3.7592 0.381 21
DS 1.67894 3.7592 1.8288 3.81 0.381 21
DS 1.8288 3.81 2.05994 3.83032 0.381 21
DS 2.05994 3.83032 2.28092 3.7592 0.381 21
DS 2.28092 3.7592 2.37998 3.57886 0.381 21
DS 2.37998 3.57886 2.39014 3.3782 0.381 21
DS 2.39014 3.3782 2.3495 3.21056 0.381 21
DS 2.3495 3.21056 2.23012 3.08864 0.381 21
DS 2.23012 3.08864 2.0193 3.0099 0.381 21
DS 2.0193 3.0099 1.7907 2.97942 0.381 21
DS 1.7907 2.97942 1.651 2.89052 0.381 21
DS 1.651 2.89052 1.56972 2.6797 0.381 21
DS 1.56972 2.6797 1.6002 2.51968 0.381 21
DS 1.6002 2.51968 1.6891 2.41046 0.381 21
DS 1.6891 2.41046 1.9304 2.32918 0.381 21
DS 0.04064 2.31902 1.02108 2.30886 0.381 21
DS 1.02108 2.30886 0.40894 3.83032 0.381 21
DS -1.38938 2.51968 -1.24968 2.39014 0.381 21
DS -1.24968 2.39014 -1.08966 2.32918 0.381 21
DS -1.08966 2.32918 -0.83058 2.32918 0.381 21
DS -0.83058 2.32918 -0.67056 2.39014 0.381 21
DS -0.67056 2.39014 -0.51054 2.57048 0.381 21
DS -0.51054 2.57048 -0.4699 2.75844 0.381 21
DS -0.4699 2.75844 -0.51054 2.92862 0.381 21
DS -0.51054 2.92862 -0.65024 3.0988 0.381 21
DS -0.65024 3.0988 -1.45034 3.82016 0.381 21
DS -1.45034 3.82016 -0.49022 3.83032 0.381 21
DS -2.80924 3.85826 -2.8194 2.33934 0.381 21
DS -2.8194 2.33934 -2.17932 2.35966 0.381 21
DS -2.17932 2.35966 -1.99898 2.51968 0.381 21
DS -1.99898 2.51968 -1.94056 2.80924 0.381 21
DS -1.94056 2.80924 -1.99898 3.02006 0.381 21
DS -1.99898 3.02006 -2.2098 3.12928 0.381 21
DS -2.2098 3.12928 -2.44094 3.1496 0.381 21
DS -2.44094 3.1496 -2.77114 3.12928 0.381 21
DS 2.65938 -3.91668 2.64922 -2.41808 0.381 21
DS 2.64922 -2.41808 3.36042 -2.41808 0.381 21
DS 1.27 -2.82702 1.92024 -2.82702 0.381 21
DS 1.10998 -2.37744 1.63068 -3.91668 0.381 21
DS 1.63068 -3.91668 2.13106 -2.40792 0.381 21
DS 2.13106 -2.40792 2.14884 -2.40792 0.381 21
DS 0.40132 -3.8862 0.40132 -2.41808 0.381 21
DS -0.02032 -3.90652 0.81026 -3.91668 0.381 21
DS -1.17094 -3.16738 -0.71882 -3.16738 0.381 21
DS -0.4699 -3.90652 -1.19888 -3.90652 0.381 21
DS -1.19888 -3.90652 -1.19888 -2.39776 0.381 21
DS -1.19888 -2.39776 -0.51054 -2.3876 0.381 21
DS -2.9591 -2.41046 -2.09042 -2.42062 0.381 21
DS -2.93878 -3.3909 -2.50952 -3.90906 0.381 21
DS -2.50952 -3.90906 -2.49936 -2.43078 0.381 21
DS -6.49986 -4.0005 -3.50012 -4.0005 0.381 21
DS -6.49986 4.50088 -6.49986 4.0005 0.381 21
DS -3.50012 -4.50088 -3.50012 4.50088 0.381 21
DS -6.49986 -4.50088 -6.49986 -4.0005 0.381 21
DS 6.49986 4.50088 -6.49986 4.50088 0.381 21
DS -6.49986 -4.50088 6.49986 -4.50088 0.381 21
$PAD
Sh "1" R 2.49936 1.39954 0 0 0
Dr 0 0 0
At SMD N 00888000
Ne 0 ""
Po -5.53974 -2.54
$EndPAD
$PAD
Sh "2" R 2.49936 1.39954 0 0 0
Dr 0 0 0
At SMD N 00888000
Ne 0 ""
Po -5.53974 0
$EndPAD
$PAD
Sh "3" R 2.49936 1.39954 0 0 0
Dr 0 0 0
At SMD N 00888000
Ne 0 ""
Po -5.53974 2.54
$EndPAD
$PAD
Sh "4" R 2.49936 1.39954 0 0 0
Dr 0 0 0
At SMD N 00888000
Ne 0 ""
Po 5.53974 2.54
$EndPAD
$PAD
Sh "5" R 2.5019 1.39954 0 0 0
Dr 0 0 0
At SMD N 00888000
Ne 0 ""
Po 5.53974 0
$EndPAD
$PAD
Sh "6" R 2.49936 1.39954 0 0 0
Dr 0 0 0
At SMD N 00888000
Ne 0 ""
Po 5.53974 -2.54
$EndPAD
$PAD
Sh "7" O 3.50012 1.39954 0 0 900
Dr 0 0 0
At SMD N 00020000
Ne 0 ""
Po -1.99898 0
$EndPAD
$PAD
Sh "7" O 3.50012 1.39954 0 0 900
Dr 0 0 0
At SMD N 00020000
Ne 0 ""
Po 1.99898 0
$EndPAD
$SHAPE3D
Na "NF-Transformer_ETAL_Wings3d_RevA_28Aug2012/NF-Transformer_ETAL_P2781_Faktor03937_RevA_30Aug2012.wrl"
Sc 0.3937 0.3937 0.3937
Of 0 0 0
Ro 0 0 0
$EndSHAPE3D
$EndMODULE NF-Transformer_P2781_ETAL_RevA_31Aug2012
$MODULE NF-Transformer_P3000_ETAL_HandSoldering_RevA_31Aug2012
Po 0 0 0 15 5040E0FB 00000000 ~~
Li NF-Transformer_P3000_ETAL_HandSoldering_RevA_31Aug2012
Cd NF-Reansformer, ETAL, P3000, SMD, Handsoldering,
Kw NF-Reansformer, ETAL, P3000, SMD, Handsoldering,
Sc 0
AR 
Op 0 0 0
At SMD
T0 0 -9.99998 1.524 1.524 0 0.3048 N V 21 N "TR"
T1 0 9.99998 1.524 1.524 0 0.3048 N I 21 N "NF-Transformer_P3000_ETAL_HandSoldering_RevA_31Aug2012"
DS -7.16026 2.71018 -6.27126 2.70002 0.381 21
DS -7.22122 1.69926 -6.70052 1.19888 0.381 21
DS -6.70052 1.19888 -6.70052 2.72034 0.381 21
DS 2.98958 1.72974 3.10896 1.76022 0.381 21
DS 3.10896 1.76022 3.19024 1.79832 0.381 21
DS 3.19024 1.79832 3.24866 1.86944 0.381 21
DS 3.24866 1.86944 3.3401 2.00914 0.381 21
DS 3.3401 2.00914 3.39852 2.16916 0.381 21
DS 3.39852 2.16916 3.429 2.32918 0.381 21
DS 3.429 2.32918 3.429 2.51968 0.381 21
DS 3.429 2.51968 3.41884 2.68986 0.381 21
DS 3.41884 2.68986 3.3782 2.92862 0.381 21
DS 3.3782 2.92862 3.29946 3.08864 0.381 21
DS 3.29946 3.08864 3.19024 3.19024 0.381 21
DS 3.19024 3.19024 3.06832 3.2385 0.381 21
DS 3.06832 3.2385 2.96926 3.22834 0.381 21
DS 2.96926 3.22834 2.8194 3.16992 0.381 21
DS 2.8194 3.16992 2.70002 3.02006 0.381 21
DS 2.70002 3.02006 2.61874 2.86004 0.381 21
DS 2.61874 2.86004 2.56032 2.58826 0.381 21
DS 2.56032 2.58826 2.56032 2.3495 0.381 21
DS 2.56032 2.3495 2.61874 2.1082 0.381 21
DS 2.61874 2.1082 2.6797 1.9304 0.381 21
DS 2.6797 1.9304 2.73812 1.84912 0.381 21
DS 2.73812 1.84912 2.8702 1.778 0.381 21
DS 2.8702 1.778 2.9591 1.75006 0.381 21
DS 1.53924 1.70942 1.62814 1.7399 0.381 21
DS 1.62814 1.7399 1.78816 1.8288 0.381 21
DS 1.78816 1.8288 1.8796 1.97866 0.381 21
DS 1.8796 1.97866 1.92024 2.24028 0.381 21
DS 1.92024 2.24028 1.95834 2.49936 0.381 21
DS 1.95834 2.49936 1.95834 2.71018 0.381 21
DS 1.95834 2.71018 1.91008 2.9083 0.381 21
DS 1.91008 2.9083 1.80848 3.13944 0.381 21
DS 1.80848 3.13944 1.65862 3.22834 0.381 21
DS 1.65862 3.22834 1.50876 3.24866 0.381 21
DS 1.50876 3.24866 1.33858 3.18008 0.381 21
DS 1.33858 3.18008 1.22936 2.98958 0.381 21
DS 1.22936 2.98958 1.14046 2.7686 0.381 21
DS 1.14046 2.7686 1.1303 2.45872 0.381 21
DS 1.1303 2.45872 1.14808 2.14884 0.381 21
DS 1.14808 2.14884 1.19888 1.94818 0.381 21
DS 1.19888 1.94818 1.3081 1.79832 0.381 21
DS 1.3081 1.79832 1.39954 1.75006 0.381 21
DS 1.39954 1.75006 1.47828 1.71958 0.381 21
DS 0.10922 1.72974 0.20828 1.76022 0.381 21
DS 0.20828 1.76022 0.39878 1.89992 0.381 21
DS 0.39878 1.89992 0.48006 2.159 0.381 21
DS 0.48006 2.159 0.51816 2.46888 0.381 21
DS 0.51816 2.46888 0.508 2.74828 0.381 21
DS 0.508 2.74828 0.42926 3.0099 0.381 21
DS 0.42926 3.0099 0.32004 3.15976 0.381 21
DS 0.32004 3.15976 0.18034 3.21818 0.381 21
DS 0.18034 3.21818 0.02794 3.20802 0.381 21
DS 0.02794 3.20802 -0.1397 3.11912 0.381 21
DS -0.1397 3.11912 -0.26162 2.91846 0.381 21
DS -0.26162 2.91846 -0.32004 2.65938 0.381 21
DS -0.32004 2.65938 -0.34036 2.4003 0.381 21
DS -0.34036 2.4003 -0.29972 2.11836 0.381 21
DS -0.29972 2.11836 -0.23114 1.94818 0.381 21
DS -0.23114 1.94818 -0.04064 1.76022 0.381 21
DS -0.04064 1.76022 0.02794 1.7399 0.381 21
DS -1.86182 1.71958 -0.92202 1.71958 0.381 21
DS -0.92202 1.71958 -1.4097 2.31902 0.381 21
DS -1.4097 2.31902 -1.09982 2.35966 0.381 21
DS -1.09982 2.35966 -0.94996 2.55016 0.381 21
DS -0.94996 2.55016 -0.92202 2.75844 0.381 21
DS -0.92202 2.75844 -0.9398 3.02006 0.381 21
DS -0.9398 3.02006 -1.08966 3.18008 0.381 21
DS -1.08966 3.18008 -1.27 3.22834 0.381 21
DS -1.27 3.22834 -1.5113 3.24866 0.381 21
DS -1.5113 3.24866 -1.67132 3.21818 0.381 21
DS -1.67132 3.21818 -1.83134 3.0988 0.381 21
DS -3.26136 3.20802 -3.2512 1.7399 0.381 21
DS -3.2512 1.7399 -2.72034 1.7399 0.381 21
DS -2.72034 1.7399 -2.51968 1.80848 0.381 21
DS -2.51968 1.80848 -2.42062 1.97866 0.381 21
DS -2.42062 1.97866 -2.4003 2.24028 0.381 21
DS -2.4003 2.24028 -2.4511 2.37998 0.381 21
DS -2.4511 2.37998 -2.66954 2.49936 0.381 21
DS -2.66954 2.49936 -3.16992 2.50952 0.381 21
DS 1.66878 -3.57124 1.69926 -2.08026 0.381 21
DS 1.69926 -2.08026 2.39014 -2.0701 0.381 21
DS 0.34036 -2.49174 0.92964 -2.49174 0.381 21
DS 0.17018 -2.05232 0.66802 -3.59156 0.381 21
DS 0.66802 -3.59156 1.1684 -2.05994 0.381 21
DS -0.5715 -3.55092 -0.56134 -2.09042 0.381 21
DS -1.00076 -3.56108 -0.16002 -3.56108 0.381 21
DS -2.15138 -2.82194 -1.69164 -2.8321 0.381 21
DS -1.47066 -3.55092 -2.15138 -3.54076 0.381 21
DS -2.15138 -3.54076 -2.15138 -2.0701 0.381 21
DS -2.15138 -2.0701 -1.4605 -2.0701 0.381 21
DS 8.8011 3.8989 -8.8011 3.8989 0.381 21
DS 5.28066 -6.35 5.58038 -6.35 0.381 21
DS 2.80924 -6.35 3.02006 -6.35 0.381 21
DS -0.45974 -6.35 0.48006 -6.35 0.381 21
DS -3.04038 -6.35 -2.75082 -6.35 0.381 21
DS -5.57022 -6.35 -5.28066 -6.35 0.381 21
DS -8.8011 -6.35 -7.82066 -6.35 0.381 21
DS -8.8011 6.35 -8.8011 -6.35 0.381 21
DS -7.82066 6.35 -8.8011 6.35 0.381 21
DS -5.31114 6.35 -5.57022 6.35 0.381 21
DS -2.75082 6.35 -3.05054 6.35 0.381 21
DS 0.45974 6.35 -0.48006 6.35 0.381 21
DS 3.05054 6.35 2.7305 6.35 0.381 21
DS 5.5499 6.35 5.31114 6.35 0.381 21
DS 8.8011 -6.35 7.83082 -6.35 0.381 21
DS 8.8011 6.35 7.83082 6.35 0.381 21
DS 8.8011 -6.35 8.8011 6.35 0.381 21
$PAD
Sh "13" O 1.50114 2.99974 0 0 0
Dr 0 0 0
At SMD N 00020000
Ne 0 ""
Po -5.00126 0
$EndPAD
$PAD
Sh "13" O 1.50114 2.99974 0 0 0
Dr 0 0 0
At SMD N 00020000
Ne 0 ""
Po 0 0
$EndPAD
$PAD
Sh "3" R 1.3208 2.99974 0 0 0
Dr 0 0 0
At SMD N 00888000
Ne 0 ""
Po -1.62052 6.14934
$EndPAD
$PAD
Sh "2" R 1.3208 2.99974 0 0 0
Dr 0 0 0
At SMD N 00888000
Ne 0 ""
Po -4.16052 6.14934
$EndPAD
$PAD
Sh "1" R 1.3208 2.99974 0 0 0
Dr 0 0 0
At SMD N 00888000
Ne 0 ""
Po -6.70052 6.14934
$EndPAD
$PAD
Sh "4" R 1.3208 2.99974 0 0 0
Dr 0 0 0
At SMD N 00888000
Ne 0 ""
Po 1.62052 6.14934
$EndPAD
$PAD
Sh "5" R 1.3208 2.99974 0 0 0
Dr 0 0 0
At SMD N 00888000
Ne 0 ""
Po 4.16052 6.14934
$EndPAD
$PAD
Sh "6" R 1.3208 2.99974 0 0 0
Dr 0 0 0
At SMD N 00888000
Ne 0 ""
Po 6.70052 6.14934
$EndPAD
$PAD
Sh "7" R 1.3208 2.99974 0 0 0
Dr 0 0 0
At SMD N 00888000
Ne 0 ""
Po 6.70052 -6.14934
$EndPAD
$PAD
Sh "8" R 1.3208 2.99974 0 0 0
Dr 0 0 0
At SMD N 00888000
Ne 0 ""
Po 4.16052 -6.14934
$EndPAD
$PAD
Sh "9" R 1.3208 2.99974 0 0 0
Dr 0 0 0
At SMD N 00888000
Ne 0 ""
Po 1.62052 -6.14934
$EndPAD
$PAD
Sh "10" R 1.3208 2.99974 0 0 0
Dr 0 0 0
At SMD N 00888000
Ne 0 ""
Po -1.62052 -6.14934
$EndPAD
$PAD
Sh "11" R 1.3208 2.99974 0 0 0
Dr 0 0 0
At SMD N 00888000
Ne 0 ""
Po -4.16052 -6.14934
$EndPAD
$PAD
Sh "12" R 1.3208 2.99974 0 0 0
Dr 0 0 0
At SMD N 00888000
Ne 0 ""
Po -6.70052 -6.14934
$EndPAD
$PAD
Sh "13" O 1.50114 2.99974 0 0 0
Dr 0 0 0
At SMD N 00020000
Ne 0 ""
Po 5.00126 0
$EndPAD
$SHAPE3D
Na "NF-Transformer_ETAL_Wings3d_RevA_28Aug2012/NF-Transformer_ETAL_P3000_Faktor03937_RevA_30Aug2012.wrl"
Sc 0.3937 0.3937 0.3937
Of 0 0 0
Ro 0 0 0
$EndSHAPE3D
$EndMODULE NF-Transformer_P3000_ETAL_HandSoldering_RevA_31Aug2012
$MODULE NF-Transformer_P3000_ETAL_RevA_31Aug2012
Po 0 0 0 15 5040E08C 00000000 ~~
Li NF-Transformer_P3000_ETAL_RevA_31Aug2012
Cd NF-Reansformer, ETAL, P3000, SMD,
Kw NF-Reansformer, ETAL, P3000, SMD,
Sc 0
AR NF-Reansformer_P3000_ETAL_RevA_31Aug2012
Op 0 0 0
At SMD
T0 0 -9.99998 1.524 1.524 0 0.3048 N V 21 N "TR"
T1 0 9.99998 1.524 1.524 0 0.3048 N I 21 N "NF-Transformer_P3000_ETAL_RevA_31Aug2012"
DS -7.16026 2.71018 -6.27126 2.70002 0.381 21
DS -7.22122 1.69926 -6.70052 1.19888 0.381 21
DS -6.70052 1.19888 -6.70052 2.72034 0.381 21
DS 3.05054 1.7907 3.16992 1.82118 0.381 21
DS 3.16992 1.82118 3.2512 1.85928 0.381 21
DS 3.2512 1.85928 3.30962 1.9304 0.381 21
DS 3.30962 1.9304 3.40106 2.0701 0.381 21
DS 3.40106 2.0701 3.45948 2.23012 0.381 21
DS 3.45948 2.23012 3.48996 2.39014 0.381 21
DS 3.48996 2.39014 3.48996 2.58064 0.381 21
DS 3.48996 2.58064 3.4798 2.75082 0.381 21
DS 3.4798 2.75082 3.43916 2.98958 0.381 21
DS 3.43916 2.98958 3.36042 3.1496 0.381 21
DS 3.36042 3.1496 3.2512 3.2512 0.381 21
DS 3.2512 3.2512 3.12928 3.29946 0.381 21
DS 3.12928 3.29946 3.03022 3.2893 0.381 21
DS 3.03022 3.2893 2.88036 3.23088 0.381 21
DS 2.88036 3.23088 2.76098 3.08102 0.381 21
DS 2.76098 3.08102 2.6797 2.921 0.381 21
DS 2.6797 2.921 2.62128 2.64922 0.381 21
DS 2.62128 2.64922 2.62128 2.41046 0.381 21
DS 2.62128 2.41046 2.6797 2.16916 0.381 21
DS 2.6797 2.16916 2.74066 1.99136 0.381 21
DS 2.74066 1.99136 2.79908 1.91008 0.381 21
DS 2.79908 1.91008 2.93116 1.83896 0.381 21
DS 2.93116 1.83896 3.02006 1.81102 0.381 21
DS 1.6002 1.77038 1.6891 1.80086 0.381 21
DS 1.6891 1.80086 1.84912 1.88976 0.381 21
DS 1.84912 1.88976 1.94056 2.03962 0.381 21
DS 1.94056 2.03962 1.9812 2.30124 0.381 21
DS 1.9812 2.30124 2.0193 2.56032 0.381 21
DS 2.0193 2.56032 2.0193 2.77114 0.381 21
DS 2.0193 2.77114 1.97104 2.96926 0.381 21
DS 1.97104 2.96926 1.86944 3.2004 0.381 21
DS 1.86944 3.2004 1.71958 3.2893 0.381 21
DS 1.71958 3.2893 1.56972 3.30962 0.381 21
DS 1.56972 3.30962 1.39954 3.24104 0.381 21
DS 1.39954 3.24104 1.29032 3.05054 0.381 21
DS 1.29032 3.05054 1.20142 2.82956 0.381 21
DS 1.20142 2.82956 1.19126 2.51968 0.381 21
DS 1.19126 2.51968 1.20904 2.2098 0.381 21
DS 1.20904 2.2098 1.25984 2.00914 0.381 21
DS 1.25984 2.00914 1.36906 1.85928 0.381 21
DS 1.36906 1.85928 1.4605 1.81102 0.381 21
DS 1.4605 1.81102 1.53924 1.78054 0.381 21
DS 0.17018 1.7907 0.26924 1.82118 0.381 21
DS 0.26924 1.82118 0.45974 1.96088 0.381 21
DS 0.45974 1.96088 0.54102 2.21996 0.381 21
DS 0.54102 2.21996 0.57912 2.52984 0.381 21
DS 0.57912 2.52984 0.56896 2.80924 0.381 21
DS 0.56896 2.80924 0.49022 3.07086 0.381 21
DS 0.49022 3.07086 0.381 3.22072 0.381 21
DS 0.381 3.22072 0.2413 3.27914 0.381 21
DS 0.2413 3.27914 0.0889 3.26898 0.381 21
DS 0.0889 3.26898 -0.07874 3.18008 0.381 21
DS -0.07874 3.18008 -0.20066 2.97942 0.381 21
DS -0.20066 2.97942 -0.25908 2.72034 0.381 21
DS -0.25908 2.72034 -0.2794 2.46126 0.381 21
DS -0.2794 2.46126 -0.23876 2.17932 0.381 21
DS -0.23876 2.17932 -0.17018 2.00914 0.381 21
DS -0.17018 2.00914 0.02032 1.82118 0.381 21
DS 0.02032 1.82118 0.0889 1.80086 0.381 21
DS -1.80086 1.78054 -0.86106 1.78054 0.381 21
DS -0.86106 1.78054 -1.34874 2.37998 0.381 21
DS -1.34874 2.37998 -1.03886 2.42062 0.381 21
DS -1.03886 2.42062 -0.889 2.61112 0.381 21
DS -0.889 2.61112 -0.86106 2.8194 0.381 21
DS -0.86106 2.8194 -0.87884 3.08102 0.381 21
DS -0.87884 3.08102 -1.0287 3.24104 0.381 21
DS -1.0287 3.24104 -1.20904 3.2893 0.381 21
DS -1.20904 3.2893 -1.45034 3.30962 0.381 21
DS -1.45034 3.30962 -1.61036 3.27914 0.381 21
DS -1.61036 3.27914 -1.77038 3.15976 0.381 21
DS -3.2004 3.26898 -3.19024 1.80086 0.381 21
DS -3.19024 1.80086 -2.65938 1.80086 0.381 21
DS -2.65938 1.80086 -2.45872 1.86944 0.381 21
DS -2.45872 1.86944 -2.35966 2.03962 0.381 21
DS -2.35966 2.03962 -2.33934 2.30124 0.381 21
DS -2.33934 2.30124 -2.39014 2.44094 0.381 21
DS -2.39014 2.44094 -2.60858 2.56032 0.381 21
DS -2.60858 2.56032 -3.10896 2.57048 0.381 21
DS 1.77038 -3.40106 1.80086 -1.91008 0.381 21
DS 1.80086 -1.91008 2.49174 -1.89992 0.381 21
DS 0.44196 -2.32156 1.03124 -2.32156 0.381 21
DS 0.27178 -1.88214 0.76962 -3.42138 0.381 21
DS 0.76962 -3.42138 1.27 -1.88976 0.381 21
DS -0.4699 -3.38074 -0.45974 -1.92024 0.381 21
DS -0.89916 -3.3909 -0.05842 -3.3909 0.381 21
DS -2.04978 -2.65176 -1.59004 -2.66192 0.381 21
DS -1.36906 -3.38074 -2.04978 -3.37058 0.381 21
DS -2.04978 -3.37058 -2.04978 -1.89992 0.381 21
DS -2.04978 -1.89992 -1.3589 -1.89992 0.381 21
DS 8.8011 3.8989 -8.8011 3.8989 0.381 21
DS 5.28066 -6.35 5.58038 -6.35 0.381 21
DS 2.80924 -6.35 3.02006 -6.35 0.381 21
DS -0.45974 -6.35 0.48006 -6.35 0.381 21
DS -3.04038 -6.35 -2.75082 -6.35 0.381 21
DS -5.57022 -6.35 -5.28066 -6.35 0.381 21
DS -8.8011 -6.35 -7.82066 -6.35 0.381 21
DS -8.8011 6.35 -8.8011 -6.35 0.381 21
DS -7.82066 6.35 -8.8011 6.35 0.381 21
DS -5.31114 6.35 -5.57022 6.35 0.381 21
DS -2.75082 6.35 -3.05054 6.35 0.381 21
DS 0.45974 6.35 -0.48006 6.35 0.381 21
DS 3.05054 6.35 2.7305 6.35 0.381 21
DS 5.5499 6.35 5.31114 6.35 0.381 21
DS 8.8011 -6.35 7.83082 -6.35 0.381 21
DS 8.8011 6.35 7.83082 6.35 0.381 21
DS 8.8011 -6.35 8.8011 6.35 0.381 21
$PAD
Sh "13" O 1.50114 2.99974 0 0 0
Dr 0 0 0
At SMD N 00020000
Ne 0 ""
Po 0 0
$EndPAD
$PAD
Sh "13" O 1.50114 2.99974 0 0 0
Dr 0 0 0
At SMD N 00020000
Ne 0 ""
Po -5.00126 0
$EndPAD
$PAD
Sh "3" R 1.3208 1.50114 0 0 0
Dr 0 0 0
At SMD N 00888000
Ne 0 ""
Po -1.62052 5.40004
$EndPAD
$PAD
Sh "2" R 1.3208 1.50114 0 0 0
Dr 0 0 0
At SMD N 00888000
Ne 0 ""
Po -4.16052 5.40004
$EndPAD
$PAD
Sh "1" R 1.3208 1.50114 0 0 0
Dr 0 0 0
At SMD N 00888000
Ne 0 ""
Po -6.70052 5.40004
$EndPAD
$PAD
Sh "4" R 1.3208 1.50114 0 0 0
Dr 0 0 0
At SMD N 00888000
Ne 0 ""
Po 1.62052 5.40004
$EndPAD
$PAD
Sh "5" R 1.3208 1.50114 0 0 0
Dr 0 0 0
At SMD N 00888000
Ne 0 ""
Po 4.16052 5.40004
$EndPAD
$PAD
Sh "6" R 1.3208 1.50114 0 0 0
Dr 0 0 0
At SMD N 00888000
Ne 0 ""
Po 6.70052 5.40004
$EndPAD
$PAD
Sh "7" R 1.3208 1.50114 0 0 0
Dr 0 0 0
At SMD N 00888000
Ne 0 ""
Po 6.70052 -5.40004
$EndPAD
$PAD
Sh "8" R 1.3208 1.50114 0 0 0
Dr 0 0 0
At SMD N 00888000
Ne 0 ""
Po 4.16052 -5.40004
$EndPAD
$PAD
Sh "9" R 1.3208 1.50114 0 0 0
Dr 0 0 0
At SMD N 00888000
Ne 0 ""
Po 1.62052 -5.40004
$EndPAD
$PAD
Sh "10" R 1.3208 1.50114 0 0 0
Dr 0 0 0
At SMD N 00888000
Ne 0 ""
Po -1.62052 -5.40004
$EndPAD
$PAD
Sh "11" R 1.3208 1.50114 0 0 0
Dr 0 0 0
At SMD N 00888000
Ne 0 ""
Po -4.16052 -5.40004
$EndPAD
$PAD
Sh "12" R 1.3208 1.50114 0 0 0
Dr 0 0 0
At SMD N 00888000
Ne 0 ""
Po -6.70052 -5.40004
$EndPAD
$PAD
Sh "13" O 1.50114 2.99974 0 0 0
Dr 0 0 0
At SMD N 00020000
Ne 0 ""
Po 5.00126 0
$EndPAD
$SHAPE3D
Na "NF-Transformer_ETAL_Wings3d_RevA_28Aug2012/NF-Transformer_ETAL_P3000_Faktor03937_RevA_30Aug2012.wrl"
Sc 0.3937 0.3937 0.3937
Of 0 0 0
Ro 0 0 0
$EndSHAPE3D
$EndMODULE NF-Transformer_P3000_ETAL_RevA_31Aug2012
$MODULE NF-Transformer_P3181_ETAL_HandSoldering_RevA_31Aug2012
Po 0 0 0 15 5040DB6B 00000000 ~~
Li NF-Transformer_P3181_ETAL_HandSoldering_RevA_31Aug2012
Cd NF-Transformer, ETAL, P3181, SMD, Hand Soldering,
Kw NF-Transformer, ETAL, P3181, SMD, Hand Soldering,
Sc 0
AR NF-Transformer_P3181_ETAL_HandSoldering_RevA_31Aug2012
Op 0 0 0
At SMD
T0 0 -7.00024 1.524 1.524 0 0.3048 N V 21 N "TR"
T1 0 6.49986 1.524 1.524 0 0.3048 N I 21 N "NF-Transformer_P3181_ETAL_HandSoldering_RevA_31Aug2012"
DS -3.78968 -2.86004 -3.429 -3.12928 0.381 21
DS -3.429 -3.12928 -3.429 -2.21996 0.381 21
DS -4.02082 -4.0005 -6.42112 -4.0005 0.381 21
DS -4.0005 4.50088 -4.0005 4.0005 0.381 21
DS -4.0005 -1.00076 -4.0005 1.00076 0.381 21
DS -4.0005 -4.50088 -4.0005 -4.0005 0.381 21
DS 2.90068 3.82016 3.68046 3.82016 0.381 21
DS 2.7813 2.78892 3.03022 2.64922 0.381 21
DS 3.03022 2.64922 3.2893 2.30124 0.381 21
DS 3.2893 2.30124 3.2893 3.78968 0.381 21
DS 1.84912 2.28092 1.7399 2.29108 0.381 21
DS 1.7399 2.29108 1.64084 2.30124 0.381 21
DS 1.64084 2.30124 1.53162 2.37998 0.381 21
DS 1.53162 2.37998 1.4097 2.55016 0.381 21
DS 1.4097 2.55016 1.4097 2.63906 0.381 21
DS 1.4097 2.63906 1.43002 2.74066 0.381 21
DS 1.43002 2.74066 1.5113 2.8194 0.381 21
DS 1.5113 2.8194 1.62052 2.89052 0.381 21
DS 1.62052 2.89052 1.7907 2.96926 0.381 21
DS 1.7907 2.96926 2.08026 2.98958 0.381 21
DS 2.08026 2.98958 2.15138 3.03022 0.381 21
DS 2.15138 3.03022 2.24028 3.15976 0.381 21
DS 2.24028 3.15976 2.2606 3.43916 0.381 21
DS 2.2606 3.43916 2.19964 3.60934 0.381 21
DS 2.19964 3.60934 2.08026 3.7592 0.381 21
DS 2.08026 3.7592 1.97104 3.82016 0.381 21
DS 1.97104 3.82016 1.83134 3.83032 0.381 21
DS 1.83134 3.83032 1.651 3.78968 0.381 21
DS 1.651 3.78968 1.53924 3.73888 0.381 21
DS 1.53924 3.73888 1.4097 3.57124 0.381 21
DS 1.4097 3.57124 1.39954 3.41884 0.381 21
DS 1.39954 3.41884 1.4097 3.25882 0.381 21
DS 1.4097 3.25882 1.48082 3.10896 0.381 21
DS 1.48082 3.10896 1.64084 3.03022 0.381 21
DS 1.64084 3.03022 1.82118 2.98958 0.381 21
DS 1.82118 2.98958 2.04978 2.9591 0.381 21
DS 2.04978 2.9591 2.16916 2.8702 0.381 21
DS 2.16916 2.8702 2.25044 2.71018 0.381 21
DS 2.25044 2.71018 2.27076 2.55016 0.381 21
DS 2.27076 2.55016 2.24028 2.45872 0.381 21
DS 2.24028 2.45872 2.08026 2.3495 0.381 21
DS 2.08026 2.3495 1.8796 2.29108 0.381 21
DS -0.10922 3.78968 0.83058 3.78968 0.381 21
DS -0.0889 2.77876 0.11938 2.66954 0.381 21
DS 0.11938 2.66954 0.36068 2.29108 0.381 21
DS 0.36068 2.29108 0.37084 3.78968 0.381 21
DS -1.56972 2.30124 -0.65024 2.30886 0.381 21
DS -0.65024 2.30886 -1.16078 2.88036 0.381 21
DS -1.16078 2.88036 -0.91948 2.88036 0.381 21
DS -0.91948 2.88036 -0.73914 2.97942 0.381 21
DS -0.73914 2.97942 -0.65024 3.11912 0.381 21
DS -0.65024 3.11912 -0.64008 3.25882 0.381 21
DS -0.64008 3.25882 -0.65024 3.52044 0.381 21
DS -0.65024 3.52044 -0.70866 3.70078 0.381 21
DS -0.70866 3.70078 -0.8509 3.78968 0.381 21
DS -0.8509 3.78968 -1.09982 3.82016 0.381 21
DS -1.09982 3.82016 -1.27 3.82016 0.381 21
DS -1.27 3.82016 -1.38938 3.77952 0.381 21
DS -1.38938 3.77952 -1.5494 3.69062 0.381 21
DS -2.97942 3.79984 -2.97942 2.30886 0.381 21
DS -2.97942 2.30886 -2.4384 2.30124 0.381 21
DS -2.4384 2.30124 -2.27838 2.3495 0.381 21
DS -2.27838 2.3495 -2.13868 2.47904 0.381 21
DS -2.13868 2.47904 -2.09042 2.6797 0.381 21
DS -2.09042 2.6797 -2.12852 2.88036 0.381 21
DS -2.12852 2.88036 -2.19964 2.99974 0.381 21
DS -2.19964 2.99974 -2.30886 3.07086 0.381 21
DS -2.30886 3.07086 -2.47904 3.0988 0.381 21
DS -2.47904 3.0988 -2.83972 3.0988 0.381 21
DS 1.36906 -3.8227 1.36906 -2.34188 0.381 21
DS 1.36906 -2.34188 2.08026 -2.34188 0.381 21
DS 0.0381 -2.7813 0.57912 -2.7813 0.381 21
DS -0.1397 -2.34188 0.3302 -3.83286 0.381 21
DS 0.3302 -3.83286 0.85852 -2.33172 0.381 21
DS -0.89154 -2.34188 -0.88138 -3.73126 0.381 21
DS -1.30048 -3.84302 -0.45974 -3.85318 0.381 21
DS -2.41046 -3.10134 -2.00152 -3.10134 0.381 21
DS -1.78054 -3.83286 -2.44094 -3.8227 0.381 21
DS -2.44094 -3.8227 -2.44094 -2.34188 0.381 21
DS -2.44094 -2.34188 -1.77038 -2.34188 0.381 21
DS -6.49986 -1.19888 -6.49986 1.19888 0.381 21
DS -6.49986 -4.50088 -6.49986 -3.79984 0.381 21
DS -6.49986 3.79984 -6.49986 4.50088 0.381 21
DS 6.49986 3.79984 6.49986 4.50088 0.381 21
DS 6.49986 -4.50088 6.49986 -3.79984 0.381 21
DS 6.49986 -4.50088 -6.49986 -4.50088 0.381 21
DS -6.49986 4.50088 6.49986 4.50088 0.381 21
$PAD
Sh "7" O 3.50012 1.50114 0 0 900
Dr 0 0 0
At SMD N 00020000
Ne 0 ""
Po -1.99898 0
$EndPAD
$PAD
Sh "1" R 3.50012 1.50114 0 0 0
Dr 0 0 0
At SMD N 00888000
Ne 0 ""
Po -6.08838 -2.54
$EndPAD
$PAD
Sh "2" R 3.50012 1.50114 0 0 0
Dr 0 0 0
At SMD N 00888000
Ne 0 ""
Po -6.08838 2.54
$EndPAD
$PAD
Sh "3" R 3.50012 1.50114 0 0 0
Dr 0 0 0
At SMD N 00888000
Ne 0 ""
Po 6.08838 2.54
$EndPAD
$PAD
Sh "4" R 3.50012 1.50114 0 0 0
Dr 0 0 0
At SMD N 00888000
Ne 0 ""
Po 6.08838 0
$EndPAD
$PAD
Sh "5" R 3.50012 1.50114 0 0 0
Dr 0 0 0
At SMD N 00888000
Ne 0 ""
Po 6.08838 -2.54
$EndPAD
$PAD
Sh "7" O 3.50012 1.50114 0 0 900
Dr 0 0 0
At SMD N 00020000
Ne 0 ""
Po 1.99898 0
$EndPAD
$SHAPE3D
Na "NF-Transformer_ETAL_Wings3d_RevA_28Aug2012/NF-Transformer_ETAL_P3181_Faktor03937_RevA_30Aug2012.wrl"
Sc 0.3937 0.3937 0.3937
Of 0 0 0
Ro 0 0 0
$EndSHAPE3D
$EndMODULE NF-Transformer_P3181_ETAL_HandSoldering_RevA_31Aug2012
$MODULE NF-Transformer_P3181_ETAL_RevA_31Aug2012
Po 0 0 0 15 5040DB44 00000000 ~~
Li NF-Transformer_P3181_ETAL_RevA_31Aug2012
Cd NF-Transformer, ETAL, P3181, SMD,
Kw NF-Transformer, ETAL, P3181, SMD,
Sc 0
AR 
Op 0 0 0
At SMD
T0 0 -7.00024 1.524 1.524 0 0.3048 N V 21 N "TR"
T1 0 6.49986 1.524 1.524 0 0.3048 N I 21 N "NF-Transformer_P3181_ETAL_RevA_31Aug2012"
DS -3.70078 -3.12928 -3.46964 -3.3401 0.381 21
DS -3.46964 -3.3401 -3.46964 -2.32918 0.381 21
DS -4.02082 -4.02082 -6.45922 -4.02082 0.381 21
DS -4.0005 4.50088 -4.0005 4.0005 0.381 21
DS -4.0005 -1.00076 -4.0005 1.00076 0.381 21
DS -4.0005 -4.50088 -4.0005 -4.0005 0.381 21
DS 2.84988 3.81 3.62966 3.81 0.381 21
DS 2.7305 2.77876 2.97942 2.63906 0.381 21
DS 2.97942 2.63906 3.2385 2.29108 0.381 21
DS 3.2385 2.29108 3.2385 3.77952 0.381 21
DS 1.79832 2.27076 1.6891 2.28092 0.381 21
DS 1.6891 2.28092 1.59004 2.29108 0.381 21
DS 1.59004 2.29108 1.48082 2.36982 0.381 21
DS 1.48082 2.36982 1.3589 2.54 0.381 21
DS 1.3589 2.54 1.3589 2.6289 0.381 21
DS 1.3589 2.6289 1.37922 2.7305 0.381 21
DS 1.37922 2.7305 1.4605 2.80924 0.381 21
DS 1.4605 2.80924 1.56972 2.88036 0.381 21
DS 1.56972 2.88036 1.7399 2.9591 0.381 21
DS 1.7399 2.9591 2.02946 2.97942 0.381 21
DS 2.02946 2.97942 2.10058 3.02006 0.381 21
DS 2.10058 3.02006 2.18948 3.1496 0.381 21
DS 2.18948 3.1496 2.2098 3.429 0.381 21
DS 2.2098 3.429 2.14884 3.59918 0.381 21
DS 2.14884 3.59918 2.02946 3.74904 0.381 21
DS 2.02946 3.74904 1.92024 3.81 0.381 21
DS 1.92024 3.81 1.78054 3.82016 0.381 21
DS 1.78054 3.82016 1.6002 3.77952 0.381 21
DS 1.6002 3.77952 1.48844 3.72872 0.381 21
DS 1.48844 3.72872 1.3589 3.56108 0.381 21
DS 1.3589 3.56108 1.34874 3.40868 0.381 21
DS 1.34874 3.40868 1.3589 3.24866 0.381 21
DS 1.3589 3.24866 1.43002 3.0988 0.381 21
DS 1.43002 3.0988 1.59004 3.02006 0.381 21
DS 1.59004 3.02006 1.77038 2.97942 0.381 21
DS 1.77038 2.97942 1.99898 2.94894 0.381 21
DS 1.99898 2.94894 2.11836 2.86004 0.381 21
DS 2.11836 2.86004 2.19964 2.70002 0.381 21
DS 2.19964 2.70002 2.21996 2.54 0.381 21
DS 2.21996 2.54 2.18948 2.44856 0.381 21
DS 2.18948 2.44856 2.02946 2.33934 0.381 21
DS 2.02946 2.33934 1.8288 2.28092 0.381 21
DS -0.16002 3.77952 0.77978 3.77952 0.381 21
DS -0.1397 2.7686 0.06858 2.65938 0.381 21
DS 0.06858 2.65938 0.30988 2.28092 0.381 21
DS 0.30988 2.28092 0.32004 3.77952 0.381 21
DS -1.62052 2.29108 -0.70104 2.2987 0.381 21
DS -0.70104 2.2987 -1.21158 2.8702 0.381 21
DS -1.21158 2.8702 -0.97028 2.8702 0.381 21
DS -0.97028 2.8702 -0.78994 2.96926 0.381 21
DS -0.78994 2.96926 -0.70104 3.10896 0.381 21
DS -0.70104 3.10896 -0.69088 3.24866 0.381 21
DS -0.69088 3.24866 -0.70104 3.51028 0.381 21
DS -0.70104 3.51028 -0.75946 3.69062 0.381 21
DS -0.75946 3.69062 -0.9017 3.77952 0.381 21
DS -0.9017 3.77952 -1.15062 3.81 0.381 21
DS -1.15062 3.81 -1.3208 3.81 0.381 21
DS -1.3208 3.81 -1.44018 3.76936 0.381 21
DS -1.44018 3.76936 -1.6002 3.68046 0.381 21
DS -3.03022 3.78968 -3.03022 2.2987 0.381 21
DS -3.03022 2.2987 -2.4892 2.29108 0.381 21
DS -2.4892 2.29108 -2.32918 2.33934 0.381 21
DS -2.32918 2.33934 -2.18948 2.46888 0.381 21
DS -2.18948 2.46888 -2.14122 2.66954 0.381 21
DS -2.14122 2.66954 -2.17932 2.8702 0.381 21
DS -2.17932 2.8702 -2.25044 2.98958 0.381 21
DS -2.25044 2.98958 -2.35966 3.0607 0.381 21
DS -2.35966 3.0607 -2.52984 3.08864 0.381 21
DS -2.52984 3.08864 -2.89052 3.08864 0.381 21
DS 1.63068 -3.66014 1.63068 -2.17932 0.381 21
DS 1.6383 -2.17932 2.3495 -2.17932 0.381 21
DS 0.29972 -2.61874 0.84074 -2.61874 0.381 21
DS 0.12192 -2.17932 0.59182 -3.6703 0.381 21
DS 0.59182 -3.6703 1.12014 -2.16916 0.381 21
DS -0.62992 -2.17932 -0.61976 -3.5687 0.381 21
DS -1.03886 -3.68046 -0.19812 -3.69062 0.381 21
DS -2.14884 -2.93878 -1.7399 -2.93878 0.381 21
DS -1.51892 -3.6703 -2.17932 -3.66014 0.381 21
DS -2.17932 -3.66014 -2.17932 -2.17932 0.381 21
DS -2.16916 -2.16916 -1.4986 -2.16916 0.381 21
DS -6.49986 -1.19888 -6.49986 1.19888 0.381 21
DS -6.49986 -4.50088 -6.49986 -3.79984 0.381 21
DS -6.49986 3.79984 -6.49986 4.50088 0.381 21
DS 6.49986 3.79984 6.49986 4.50088 0.381 21
DS 6.49986 -4.50088 6.49986 -3.79984 0.381 21
DS 6.49986 -4.50088 -6.49986 -4.50088 0.381 21
DS -6.49986 4.50088 6.49986 4.50088 0.381 21
$PAD
Sh "1" R 1.99898 1.50114 0 0 0
Dr 0 0 0
At SMD N 00888000
Ne 0 ""
Po -5.33908 -2.54
$EndPAD
$PAD
Sh "2" R 1.99898 1.50114 0 0 0
Dr 0 0 0
At SMD N 00888000
Ne 0 ""
Po -5.33908 2.54
$EndPAD
$PAD
Sh "3" R 1.99898 1.50114 0 0 0
Dr 0 0 0
At SMD N 00888000
Ne 0 ""
Po 5.33908 2.54
$EndPAD
$PAD
Sh "4" R 1.99898 1.50114 0 0 0
Dr 0 0 0
At SMD N 00888000
Ne 0 ""
Po 5.33908 0
$EndPAD
$PAD
Sh "5" R 1.99898 1.50114 0 0 0
Dr 0 0 0
At SMD N 00888000
Ne 0 ""
Po 5.33908 -2.54
$EndPAD
$PAD
Sh "7" O 3.50012 1.50114 0 0 900
Dr 0 0 0
At SMD N 00020000
Ne 0 ""
Po 1.99898 0
$EndPAD
$PAD
Sh "7" O 3.50012 1.50114 0 0 900
Dr 0 0 0
At SMD N 00020000
Ne 0 ""
Po -1.99898 0
$EndPAD
$SHAPE3D
Na "NF-Transformer_ETAL_Wings3d_RevA_28Aug2012/NF-Transformer_ETAL_P3181_Faktor03937_RevA_30Aug2012.wrl"
Sc 0.3937 0.3937 0.3937
Of 0 0 0
Ro 0 0 0
$EndSHAPE3D
$EndMODULE NF-Transformer_P3181_ETAL_RevA_31Aug2012
$MODULE NF-Transformer_P3188_ETAL_HandSoldering_RevA_31Aug2012
Po 0 0 0 15 5040DC53 00000000 ~~
Li NF-Transformer_P3188_ETAL_HandSoldering_RevA_31Aug2012
Cd NF-Transformer, ETAL, P3188, SMD, Handsoldering,
Kw NF-Transformer, ETAL, P3188, SMD, Handsoldering,
Sc 0
AR NF-Transformer_P3188_ETAL_HandSoldering_RevA_31Aug2012
Op 0 0 0
At SMD
T0 0 -7.00024 1.524 1.524 0 0.3048 N V 21 N "TR"
T1 0 6.49986 1.524 1.524 0 0.3048 N I 21 N "NF-Transformer_P3188_ETAL_HandSoldering_RevA_31Aug2012"
DS -3.74904 -2.72034 -3.429 -2.98958 0.381 21
DS -3.429 -2.98958 -3.429 -2.02946 0.381 21
DS -4.0005 -4.04114 -6.4389 -4.04114 0.381 21
DS 3.26136 2.08788 3.0607 2.02946 0.381 21
DS 3.42138 2.1971 3.26136 2.08788 0.381 21
DS 3.45186 2.28854 3.42138 2.1971 0.381 21
DS 3.43154 2.44856 3.45186 2.28854 0.381 21
DS 3.35026 2.60858 3.43154 2.44856 0.381 21
DS 3.23088 2.69748 3.35026 2.60858 0.381 21
DS 3.00228 2.72796 3.23088 2.69748 0.381 21
DS 2.82194 2.7686 3.00228 2.72796 0.381 21
DS 2.66192 2.84734 2.82194 2.7686 0.381 21
DS 2.5908 2.9972 2.66192 2.84734 0.381 21
DS 2.58064 3.15722 2.5908 2.9972 0.381 21
DS 2.5908 3.30962 2.58064 3.15722 0.381 21
DS 2.72034 3.47726 2.5908 3.30962 0.381 21
DS 2.8321 3.52806 2.72034 3.47726 0.381 21
DS 3.01244 3.5687 2.8321 3.52806 0.381 21
DS 3.15214 3.55854 3.01244 3.5687 0.381 21
DS 3.26136 3.49758 3.15214 3.55854 0.381 21
DS 3.38074 3.34772 3.26136 3.49758 0.381 21
DS 3.4417 3.17754 3.38074 3.34772 0.381 21
DS 3.42138 2.89814 3.4417 3.17754 0.381 21
DS 3.33248 2.7686 3.42138 2.89814 0.381 21
DS 3.26136 2.72796 3.33248 2.7686 0.381 21
DS 2.9718 2.70764 3.26136 2.72796 0.381 21
DS 2.80162 2.6289 2.9718 2.70764 0.381 21
DS 2.6924 2.55778 2.80162 2.6289 0.381 21
DS 2.61112 2.47904 2.6924 2.55778 0.381 21
DS 2.5908 2.37744 2.61112 2.47904 0.381 21
DS 2.5908 2.28854 2.5908 2.37744 0.381 21
DS 2.71272 2.11836 2.5908 2.28854 0.381 21
DS 2.82194 2.03962 2.71272 2.11836 0.381 21
DS 2.921 2.02946 2.82194 2.03962 0.381 21
DS 3.03022 2.0193 2.921 2.02946 0.381 21
DS -4.0005 4.50088 -4.0005 4.0005 0.381 21
DS -4.0005 -4.50088 -4.0005 -4.0005 0.381 21
DS 1.52908 2.0193 1.41986 2.02946 0.381 21
DS 1.41986 2.02946 1.3208 2.03962 0.381 21
DS 1.3208 2.03962 1.21158 2.11836 0.381 21
DS 1.21158 2.11836 1.08966 2.28854 0.381 21
DS 1.08966 2.28854 1.08966 2.37744 0.381 21
DS 1.08966 2.37744 1.10998 2.47904 0.381 21
DS 1.10998 2.47904 1.19126 2.55778 0.381 21
DS 1.19126 2.55778 1.30048 2.6289 0.381 21
DS 1.30048 2.6289 1.47066 2.70764 0.381 21
DS 1.47066 2.70764 1.76022 2.72796 0.381 21
DS 1.76022 2.72796 1.83134 2.7686 0.381 21
DS 1.83134 2.7686 1.92024 2.89814 0.381 21
DS 1.92024 2.89814 1.94056 3.17754 0.381 21
DS 1.94056 3.17754 1.8796 3.34772 0.381 21
DS 1.8796 3.34772 1.76022 3.49758 0.381 21
DS 1.76022 3.49758 1.651 3.55854 0.381 21
DS 1.651 3.55854 1.5113 3.5687 0.381 21
DS 1.5113 3.5687 1.33096 3.52806 0.381 21
DS 1.33096 3.52806 1.2192 3.47726 0.381 21
DS 1.2192 3.47726 1.08966 3.30962 0.381 21
DS 1.08966 3.30962 1.0795 3.15722 0.381 21
DS 1.0795 3.15722 1.08966 2.9972 0.381 21
DS 1.08966 2.9972 1.16078 2.84734 0.381 21
DS 1.16078 2.84734 1.3208 2.7686 0.381 21
DS 1.3208 2.7686 1.50114 2.72796 0.381 21
DS 1.50114 2.72796 1.72974 2.69748 0.381 21
DS 1.72974 2.69748 1.84912 2.60858 0.381 21
DS 1.84912 2.60858 1.9304 2.44856 0.381 21
DS 1.9304 2.44856 1.95072 2.28854 0.381 21
DS 1.95072 2.28854 1.92024 2.1971 0.381 21
DS 1.92024 2.1971 1.76022 2.08788 0.381 21
DS 1.76022 2.08788 1.55956 2.02946 0.381 21
DS -0.42926 3.52806 0.51054 3.52806 0.381 21
DS -0.40894 2.51714 -0.20066 2.40792 0.381 21
DS -0.20066 2.40792 0.04064 2.02946 0.381 21
DS 0.04064 2.02946 0.0508 3.52806 0.381 21
DS -1.88976 2.03962 -0.97028 2.04724 0.381 21
DS -0.97028 2.04724 -1.48082 2.61874 0.381 21
DS -1.48082 2.61874 -1.23952 2.61874 0.381 21
DS -1.23952 2.61874 -1.05918 2.7178 0.381 21
DS -1.05918 2.7178 -0.97028 2.8575 0.381 21
DS -0.97028 2.8575 -0.96012 2.9972 0.381 21
DS -0.96012 2.9972 -0.97028 3.25882 0.381 21
DS -0.97028 3.25882 -1.0287 3.43916 0.381 21
DS -1.0287 3.43916 -1.17094 3.52806 0.381 21
DS -1.17094 3.52806 -1.41986 3.55854 0.381 21
DS -1.41986 3.55854 -1.59004 3.55854 0.381 21
DS -1.59004 3.55854 -1.70942 3.5179 0.381 21
DS -1.70942 3.5179 -1.86944 3.429 0.381 21
DS -3.29946 3.53822 -3.29946 2.04724 0.381 21
DS -3.29946 2.04724 -2.75844 2.03962 0.381 21
DS -2.75844 2.03962 -2.59842 2.08788 0.381 21
DS -2.59842 2.08788 -2.45872 2.21742 0.381 21
DS -2.45872 2.21742 -2.41046 2.41808 0.381 21
DS -2.41046 2.41808 -2.44856 2.61874 0.381 21
DS -2.44856 2.61874 -2.51968 2.73812 0.381 21
DS -2.51968 2.73812 -2.6289 2.80924 0.381 21
DS -2.6289 2.80924 -2.79908 2.83718 0.381 21
DS -2.79908 2.83718 -3.15976 2.83718 0.381 21
DS 1.651 -3.68046 1.651 -2.19964 0.381 21
DS 1.651 -2.19964 2.3622 -2.19964 0.381 21
DS 0.32004 -2.63906 0.86106 -2.63906 0.381 21
DS 0.14224 -2.19964 0.61214 -3.69062 0.381 21
DS 0.61214 -3.69062 1.14046 -2.18948 0.381 21
DS -0.6096 -2.19964 -0.59944 -3.58902 0.381 21
DS -1.01854 -3.70078 -0.1778 -3.71094 0.381 21
DS -2.12852 -2.9591 -1.71958 -2.9591 0.381 21
DS -1.4986 -3.69062 -2.159 -3.68046 0.381 21
DS -2.159 -3.68046 -2.159 -2.19964 0.381 21
DS -2.159 -2.19964 -1.48844 -2.19964 0.381 21
DS -6.49986 -4.50088 -6.49986 -3.79984 0.381 21
DS -6.49986 3.79984 -6.49986 4.50088 0.381 21
DS 6.49986 3.79984 6.49986 4.50088 0.381 21
DS 6.49986 -4.50088 6.49986 -3.79984 0.381 21
DS 6.49986 -4.50088 -6.49986 -4.50088 0.381 21
DS -6.49986 4.50088 6.49986 4.50088 0.381 21
$PAD
Sh "1" R 3.50012 1.50114 0 0 0
Dr 0 0 0
At SMD N 00888000
Ne 0 ""
Po -6.08838 -2.54
$EndPAD
$PAD
Sh "2" R 3.50012 1.50114 0 0 0
Dr 0 0 0
At SMD N 00888000
Ne 0 ""
Po -6.08838 2.54
$EndPAD
$PAD
Sh "3" R 3.50012 1.50114 0 0 0
Dr 0 0 0
At SMD N 00888000
Ne 0 ""
Po 6.08838 2.54
$EndPAD
$PAD
Sh "4" R 3.50012 1.50114 0 0 0
Dr 0 0 0
At SMD N 00888000
Ne 0 ""
Po 6.08838 0
$EndPAD
$PAD
Sh "5" R 3.50012 1.50114 0 0 0
Dr 0 0 0
At SMD N 00888000
Ne 0 ""
Po 6.08838 -2.54
$EndPAD
$PAD
Sh "7" O 3.50012 1.50114 0 0 900
Dr 0 0 0
At SMD N 00020000
Ne 0 ""
Po 1.99898 0
$EndPAD
$PAD
Sh "7" O 3.50012 1.50114 0 0 900
Dr 0 0 0
At SMD N 00020000
Ne 0 ""
Po -1.99898 0
$EndPAD
$PAD
Sh "2" R 3.50012 1.50114 0 0 0
Dr 0 0 0
At SMD N 00888000
Ne 0 ""
Po -6.08838 0
$EndPAD
$SHAPE3D
Na "NF-Transformer_ETAL_Wings3d_RevA_28Aug2012/NF-Transformer_ETAL_P3188_P3191_Faktor03937_RevA_30Aug2012.wrl"
Sc 0.3937 0.3937 0.3937
Of 0 0 0
Ro 0 0 0
$EndSHAPE3D
$EndMODULE NF-Transformer_P3188_ETAL_HandSoldering_RevA_31Aug2012
$MODULE NF-Transformer_P3188_ETAL_RevA_31Aug2012
Po 0 0 0 15 5040DC7E 00000000 ~~
Li NF-Transformer_P3188_ETAL_RevA_31Aug2012
Cd NF-Transformer, ETAL, P3188, SMD,
Kw NF-Transformer, ETAL, P3188, SMD,
Sc 0
AR 
Op 0 0 0
At SMD
T0 0 -7.00024 1.524 1.524 0 0.3048 N V 21 N "TR"
T1 0 6.49986 1.524 1.524 0 0.3048 N I 21 N "NF-Transformer_P3188_ETAL_RevA_31Aug2012"
DS -3.78968 -2.74066 -3.51028 -3.0607 0.381 21
DS -3.51028 -3.0607 -3.48996 -2.16916 0.381 21
DS -3.99034 -4.0005 -6.42112 -4.0005 0.381 21
DS 3.26136 2.08788 3.0607 2.02946 0.381 21
DS 3.42138 2.1971 3.26136 2.08788 0.381 21
DS 3.45186 2.28854 3.42138 2.1971 0.381 21
DS 3.43154 2.44856 3.45186 2.28854 0.381 21
DS 3.35026 2.60858 3.43154 2.44856 0.381 21
DS 3.23088 2.69748 3.35026 2.60858 0.381 21
DS 3.00228 2.72796 3.23088 2.69748 0.381 21
DS 2.82194 2.7686 3.00228 2.72796 0.381 21
DS 2.66192 2.84734 2.82194 2.7686 0.381 21
DS 2.5908 2.9972 2.66192 2.84734 0.381 21
DS 2.58064 3.15722 2.5908 2.9972 0.381 21
DS 2.5908 3.30962 2.58064 3.15722 0.381 21
DS 2.72034 3.47726 2.5908 3.30962 0.381 21
DS 2.8321 3.52806 2.72034 3.47726 0.381 21
DS 3.01244 3.5687 2.8321 3.52806 0.381 21
DS 3.15214 3.55854 3.01244 3.5687 0.381 21
DS 3.26136 3.49758 3.15214 3.55854 0.381 21
DS 3.38074 3.34772 3.26136 3.49758 0.381 21
DS 3.4417 3.17754 3.38074 3.34772 0.381 21
DS 3.42138 2.89814 3.4417 3.17754 0.381 21
DS 3.33248 2.7686 3.42138 2.89814 0.381 21
DS 3.26136 2.72796 3.33248 2.7686 0.381 21
DS 2.9718 2.70764 3.26136 2.72796 0.381 21
DS 2.80162 2.6289 2.9718 2.70764 0.381 21
DS 2.6924 2.55778 2.80162 2.6289 0.381 21
DS 2.61112 2.47904 2.6924 2.55778 0.381 21
DS 2.5908 2.37744 2.61112 2.47904 0.381 21
DS 2.5908 2.28854 2.5908 2.37744 0.381 21
DS 2.71272 2.11836 2.5908 2.28854 0.381 21
DS 2.82194 2.03962 2.71272 2.11836 0.381 21
DS 2.921 2.02946 2.82194 2.03962 0.381 21
DS 3.03022 2.0193 2.921 2.02946 0.381 21
DS -4.0005 4.50088 -4.0005 4.0005 0.381 21
DS -4.0005 -4.50088 -4.0005 -4.0005 0.381 21
DS 1.52908 2.0193 1.41986 2.02946 0.381 21
DS 1.41986 2.02946 1.3208 2.03962 0.381 21
DS 1.3208 2.03962 1.21158 2.11836 0.381 21
DS 1.21158 2.11836 1.08966 2.28854 0.381 21
DS 1.08966 2.28854 1.08966 2.37744 0.381 21
DS 1.08966 2.37744 1.10998 2.47904 0.381 21
DS 1.10998 2.47904 1.19126 2.55778 0.381 21
DS 1.19126 2.55778 1.30048 2.6289 0.381 21
DS 1.30048 2.6289 1.47066 2.70764 0.381 21
DS 1.47066 2.70764 1.76022 2.72796 0.381 21
DS 1.76022 2.72796 1.83134 2.7686 0.381 21
DS 1.83134 2.7686 1.92024 2.89814 0.381 21
DS 1.92024 2.89814 1.94056 3.17754 0.381 21
DS 1.94056 3.17754 1.8796 3.34772 0.381 21
DS 1.8796 3.34772 1.76022 3.49758 0.381 21
DS 1.76022 3.49758 1.651 3.55854 0.381 21
DS 1.651 3.55854 1.5113 3.5687 0.381 21
DS 1.5113 3.5687 1.33096 3.52806 0.381 21
DS 1.33096 3.52806 1.2192 3.47726 0.381 21
DS 1.2192 3.47726 1.08966 3.30962 0.381 21
DS 1.08966 3.30962 1.0795 3.15722 0.381 21
DS 1.0795 3.15722 1.08966 2.9972 0.381 21
DS 1.08966 2.9972 1.16078 2.84734 0.381 21
DS 1.16078 2.84734 1.3208 2.7686 0.381 21
DS 1.3208 2.7686 1.50114 2.72796 0.381 21
DS 1.50114 2.72796 1.72974 2.69748 0.381 21
DS 1.72974 2.69748 1.84912 2.60858 0.381 21
DS 1.84912 2.60858 1.9304 2.44856 0.381 21
DS 1.9304 2.44856 1.95072 2.28854 0.381 21
DS 1.95072 2.28854 1.92024 2.1971 0.381 21
DS 1.92024 2.1971 1.76022 2.08788 0.381 21
DS 1.76022 2.08788 1.55956 2.02946 0.381 21
DS -0.42926 3.52806 0.51054 3.52806 0.381 21
DS -0.40894 2.51714 -0.20066 2.40792 0.381 21
DS -0.20066 2.40792 0.04064 2.02946 0.381 21
DS 0.04064 2.02946 0.0508 3.52806 0.381 21
DS -1.88976 2.03962 -0.97028 2.04724 0.381 21
DS -0.97028 2.04724 -1.48082 2.61874 0.381 21
DS -1.48082 2.61874 -1.23952 2.61874 0.381 21
DS -1.23952 2.61874 -1.05918 2.7178 0.381 21
DS -1.05918 2.7178 -0.97028 2.8575 0.381 21
DS -0.97028 2.8575 -0.96012 2.9972 0.381 21
DS -0.96012 2.9972 -0.97028 3.25882 0.381 21
DS -0.97028 3.25882 -1.0287 3.43916 0.381 21
DS -1.0287 3.43916 -1.17094 3.52806 0.381 21
DS -1.17094 3.52806 -1.41986 3.55854 0.381 21
DS -1.41986 3.55854 -1.59004 3.55854 0.381 21
DS -1.59004 3.55854 -1.70942 3.5179 0.381 21
DS -1.70942 3.5179 -1.86944 3.429 0.381 21
DS -3.29946 3.53822 -3.29946 2.04724 0.381 21
DS -3.29946 2.04724 -2.75844 2.03962 0.381 21
DS -2.75844 2.03962 -2.59842 2.08788 0.381 21
DS -2.59842 2.08788 -2.45872 2.21742 0.381 21
DS -2.45872 2.21742 -2.41046 2.41808 0.381 21
DS -2.41046 2.41808 -2.44856 2.61874 0.381 21
DS -2.44856 2.61874 -2.51968 2.73812 0.381 21
DS -2.51968 2.73812 -2.6289 2.80924 0.381 21
DS -2.6289 2.80924 -2.79908 2.83718 0.381 21
DS -2.79908 2.83718 -3.15976 2.83718 0.381 21
DS 1.651 -3.68046 1.651 -2.19964 0.381 21
DS 1.651 -2.19964 2.3622 -2.19964 0.381 21
DS 0.32004 -2.63906 0.86106 -2.63906 0.381 21
DS 0.14224 -2.19964 0.61214 -3.69062 0.381 21
DS 0.61214 -3.69062 1.14046 -2.18948 0.381 21
DS -0.6096 -2.19964 -0.59944 -3.58902 0.381 21
DS -1.01854 -3.70078 -0.1778 -3.71094 0.381 21
DS -2.12852 -2.9591 -1.71958 -2.9591 0.381 21
DS -1.4986 -3.69062 -2.159 -3.68046 0.381 21
DS -2.159 -3.68046 -2.159 -2.19964 0.381 21
DS -2.159 -2.19964 -1.48844 -2.19964 0.381 21
DS -6.49986 -4.50088 -6.49986 -3.79984 0.381 21
DS -6.49986 3.79984 -6.49986 4.50088 0.381 21
DS 6.49986 3.79984 6.49986 4.50088 0.381 21
DS 6.49986 -4.50088 6.49986 -3.79984 0.381 21
DS 6.49986 -4.50088 -6.49986 -4.50088 0.381 21
DS -6.49986 4.50088 6.49986 4.50088 0.381 21
$PAD
Sh "1" R 1.99898 1.50114 0 0 0
Dr 0 0 0
At SMD N 00888000
Ne 0 ""
Po -5.33908 -2.54
$EndPAD
$PAD
Sh "2" R 1.99898 1.50114 0 0 0
Dr 0 0 0
At SMD N 00888000
Ne 0 ""
Po -5.33908 2.54
$EndPAD
$PAD
Sh "3" R 1.99898 1.50114 0 0 0
Dr 0 0 0
At SMD N 00888000
Ne 0 ""
Po 5.33908 2.54
$EndPAD
$PAD
Sh "4" R 1.99898 1.50114 0 0 0
Dr 0 0 0
At SMD N 00888000
Ne 0 ""
Po 5.33908 0
$EndPAD
$PAD
Sh "5" R 1.99898 1.50114 0 0 0
Dr 0 0 0
At SMD N 00888000
Ne 0 ""
Po 5.33908 -2.54
$EndPAD
$PAD
Sh "7" O 3.50012 1.50114 0 0 900
Dr 0 0 0
At SMD N 00020000
Ne 0 ""
Po 1.99898 0
$EndPAD
$PAD
Sh "7" O 3.50012 1.50114 0 0 900
Dr 0 0 0
At SMD N 00020000
Ne 0 ""
Po -1.99898 0
$EndPAD
$PAD
Sh "2" R 1.99898 1.50114 0 0 0
Dr 0 0 0
At SMD N 00888000
Ne 0 ""
Po -5.40004 0
$EndPAD
$SHAPE3D
Na "NF-Transformer_ETAL_Wings3d_RevA_28Aug2012/NF-Transformer_ETAL_P3181_Faktor03937_RevA_30Aug2012.wrl"
Sc 0.3937 0.3937 0.3937
Of 0 0 0
Ro 0 0 0
$EndSHAPE3D
$EndMODULE NF-Transformer_P3188_ETAL_RevA_31Aug2012
$MODULE NF-Transformer_P3191_ETAL_HandSoldering_RevA_31Aug2012
Po 0 0 0 15 5040DC11 00000000 ~~
Li NF-Transformer_P3191_ETAL_HandSoldering_RevA_31Aug2012
Cd NF-Transformer, ETAL, P3191, SMD, Handsoldering,
Kw NF-Transformer, ETAL, P3191, SMD, Handsoldering,
Sc 0
AR NF-Transformer_P3188_ETAL_HandSoldering_RevA_31Aug2012
Op 0 0 0
At SMD
T0 0 -7.00024 1.524 1.524 0 0.3048 N V 21 N "TR"
T1 0 6.49986 1.524 1.524 0 0.3048 N I 21 N "NF-Transformer_P3191_ETAL_HandSoldering_RevA_31Aug2012"
DS -3.76936 -2.90068 -3.38074 -3.22072 0.381 21
DS -3.38074 -3.22072 -3.38074 -2.29108 0.381 21
DS -4.0005 -4.0005 -6.42112 -4.0005 0.381 21
DS 2.65938 3.5306 3.46964 3.5306 0.381 21
DS 2.54 2.50952 2.76098 2.35966 0.381 21
DS 2.76098 2.35966 2.94894 2.2098 0.381 21
DS 2.94894 2.2098 3.03022 2.03962 0.381 21
DS 3.03022 2.03962 3.03022 3.51028 0.381 21
DS 1.33096 3.55092 1.62052 3.5306 0.381 21
DS 1.62052 3.5306 1.7907 3.41884 0.381 21
DS 1.7907 3.41884 1.9304 3.23088 0.381 21
DS 1.9304 3.23088 1.98882 2.93116 0.381 21
DS 1.98882 2.93116 2.02946 2.50952 0.381 21
DS 2.02946 2.50952 2.02946 2.29108 0.381 21
DS 2.02946 2.29108 1.9812 2.17932 0.381 21
DS 1.9812 2.17932 1.8796 2.10058 0.381 21
DS 1.8796 2.10058 1.76022 2.04978 0.381 21
DS 1.76022 2.04978 1.61036 2.02946 0.381 21
DS 1.61036 2.02946 1.44018 2.05994 0.381 21
DS 1.44018 2.05994 1.27 2.14122 0.381 21
DS 1.27 2.14122 1.1811 2.31902 0.381 21
DS 1.1811 2.31902 1.1811 2.54 0.381 21
DS 1.1811 2.54 1.19126 2.7305 0.381 21
DS 1.19126 2.7305 1.29032 2.83972 0.381 21
DS 1.29032 2.83972 1.44018 2.921 0.381 21
DS 1.44018 2.921 1.59004 2.94894 0.381 21
DS 1.59004 2.94894 1.76022 2.90068 0.381 21
DS 1.76022 2.90068 1.8796 2.83972 0.381 21
DS -4.0005 4.50088 -4.0005 4.0005 0.381 21
DS -4.0005 -4.50088 -4.0005 -4.0005 0.381 21
DS -0.42926 3.52806 0.51054 3.52806 0.381 21
DS -0.40894 2.51714 -0.20066 2.40792 0.381 21
DS -0.20066 2.40792 0.04064 2.02946 0.381 21
DS 0.04064 2.02946 0.0508 3.52806 0.381 21
DS -1.88976 2.03962 -0.97028 2.04724 0.381 21
DS -0.97028 2.04724 -1.48082 2.61874 0.381 21
DS -1.48082 2.61874 -1.23952 2.61874 0.381 21
DS -1.23952 2.61874 -1.05918 2.7178 0.381 21
DS -1.05918 2.7178 -0.97028 2.8575 0.381 21
DS -0.97028 2.8575 -0.96012 2.9972 0.381 21
DS -0.96012 2.9972 -0.97028 3.25882 0.381 21
DS -0.97028 3.25882 -1.0287 3.43916 0.381 21
DS -1.0287 3.43916 -1.17094 3.52806 0.381 21
DS -1.17094 3.52806 -1.41986 3.55854 0.381 21
DS -1.41986 3.55854 -1.59004 3.55854 0.381 21
DS -1.59004 3.55854 -1.70942 3.5179 0.381 21
DS -1.70942 3.5179 -1.86944 3.429 0.381 21
DS -3.29946 3.53822 -3.29946 2.04724 0.381 21
DS -3.29946 2.04724 -2.75844 2.03962 0.381 21
DS -2.75844 2.03962 -2.59842 2.08788 0.381 21
DS -2.59842 2.08788 -2.45872 2.21742 0.381 21
DS -2.45872 2.21742 -2.41046 2.41808 0.381 21
DS -2.41046 2.41808 -2.44856 2.61874 0.381 21
DS -2.44856 2.61874 -2.51968 2.73812 0.381 21
DS -2.51968 2.73812 -2.6289 2.80924 0.381 21
DS -2.6289 2.80924 -2.79908 2.83718 0.381 21
DS -2.79908 2.83718 -3.15976 2.83718 0.381 21
DS 1.651 -3.68046 1.651 -2.19964 0.381 21
DS 1.651 -2.19964 2.3622 -2.19964 0.381 21
DS 0.32004 -2.63906 0.86106 -2.63906 0.381 21
DS 0.14224 -2.19964 0.61214 -3.69062 0.381 21
DS 0.61214 -3.69062 1.14046 -2.18948 0.381 21
DS -0.6096 -2.19964 -0.59944 -3.58902 0.381 21
DS -1.01854 -3.70078 -0.1778 -3.71094 0.381 21
DS -2.12852 -2.9591 -1.71958 -2.9591 0.381 21
DS -1.4986 -3.69062 -2.159 -3.68046 0.381 21
DS -2.159 -3.68046 -2.159 -2.19964 0.381 21
DS -2.159 -2.19964 -1.48844 -2.19964 0.381 21
DS -6.49986 -4.50088 -6.49986 -3.79984 0.381 21
DS -6.49986 3.79984 -6.49986 4.50088 0.381 21
DS 6.49986 3.79984 6.49986 4.50088 0.381 21
DS 6.49986 -4.50088 6.49986 -3.79984 0.381 21
DS 6.49986 -4.50088 -6.49986 -4.50088 0.381 21
DS -6.49986 4.50088 6.49986 4.50088 0.381 21
$PAD
Sh "1" R 3.50012 1.50114 0 0 0
Dr 0 0 0
At SMD N 00888000
Ne 0 ""
Po -6.08838 -2.54
$EndPAD
$PAD
Sh "2" R 3.50012 1.50114 0 0 0
Dr 0 0 0
At SMD N 00888000
Ne 0 ""
Po -6.08838 2.54
$EndPAD
$PAD
Sh "3" R 3.50012 1.50114 0 0 0
Dr 0 0 0
At SMD N 00888000
Ne 0 ""
Po 6.08838 2.54
$EndPAD
$PAD
Sh "4" R 3.50012 1.50114 0 0 0
Dr 0 0 0
At SMD N 00888000
Ne 0 ""
Po 6.08838 0
$EndPAD
$PAD
Sh "5" R 3.50012 1.50114 0 0 0
Dr 0 0 0
At SMD N 00888000
Ne 0 ""
Po 6.08838 -2.54
$EndPAD
$PAD
Sh "7" O 3.50012 1.50114 0 0 900
Dr 0 0 0
At SMD N 00020000
Ne 0 ""
Po 1.99898 0
$EndPAD
$PAD
Sh "7" O 3.50012 1.50114 0 0 900
Dr 0 0 0
At SMD N 00020000
Ne 0 ""
Po -1.99898 0
$EndPAD
$PAD
Sh "2" R 3.50012 1.50114 0 0 0
Dr 0 0 0
At SMD N 00888000
Ne 0 ""
Po -6.08838 0
$EndPAD
$SHAPE3D
Na "NF-Transformer_ETAL_Wings3d_RevA_28Aug2012/NF-Transformer_ETAL_P3188_P3191_Faktor03937_RevA_30Aug2012.wrl"
Sc 0.3937 0.3937 0.3937
Of 0 0 0
Ro 0 0 0
$EndSHAPE3D
$EndMODULE NF-Transformer_P3191_ETAL_HandSoldering_RevA_31Aug2012
$MODULE NF-Transformer_P3191_ETAL_RevA_31Aug2012
Po 0 0 0 15 5040DBB8 00000000 ~~
Li NF-Transformer_P3191_ETAL_RevA_31Aug2012
Cd NF-Transformer, ETAL, P3191, SMD,
Kw NF-Transformer, ETAL, P3191, SMD,
Sc 0
AR 
Op 0 0 0
At SMD
T0 0 -7.00024 1.524 1.524 0 0.3048 N V 21 N "TR"
T1 0 6.49986 1.524 1.524 0 0.3048 N I 21 N "NF-Transformer_P3191_ETAL_RevA_31Aug2012"
DS -3.44932 -2.96926 -3.0988 -3.2004 0.381 21
DS -3.0988 -3.2004 -3.0988 -2.24028 0.381 21
DS -3.99034 -3.98018 -6.42112 -3.98018 0.381 21
DS 2.6289 3.51028 3.429 3.52044 0.381 21
DS 3.02006 2.0193 3.02006 3.4798 0.381 21
DS 2.57048 2.46888 2.7305 2.41046 0.381 21
DS 2.7305 2.41046 2.88036 2.30124 0.381 21
DS 2.88036 2.30124 3.02006 2.02946 0.381 21
DS 1.29032 3.48996 1.37922 3.50012 0.381 21
DS 1.37922 3.50012 1.50114 3.51028 0.381 21
DS 1.50114 3.51028 1.61036 3.4798 0.381 21
DS 1.61036 3.4798 1.70942 3.41884 0.381 21
DS 1.70942 3.41884 1.83896 3.2893 0.381 21
DS 1.83896 3.2893 1.95072 3.04038 0.381 21
DS 1.95072 3.04038 1.9812 2.84988 0.381 21
DS 1.9812 2.84988 1.99898 2.61874 0.381 21
DS 1.99898 2.61874 1.99898 2.4003 0.381 21
DS 1.99898 2.4003 1.98882 2.24028 0.381 21
DS 1.98882 2.24028 1.92024 2.14122 0.381 21
DS 1.92024 2.14122 1.84912 2.09042 0.381 21
DS 1.84912 2.09042 1.77038 2.05994 0.381 21
DS 1.77038 2.05994 1.62052 2.03962 0.381 21
DS 1.62052 2.03962 1.41986 2.04978 0.381 21
DS 1.41986 2.04978 1.27 2.14122 0.381 21
DS 1.27 2.14122 1.19126 2.28092 0.381 21
DS 1.19126 2.28092 1.16078 2.4892 0.381 21
DS 1.16078 2.4892 1.19888 2.68986 0.381 21
DS 1.19888 2.68986 1.28016 2.84988 0.381 21
DS 1.28016 2.84988 1.37922 2.921 0.381 21
DS 1.37922 2.921 1.50114 2.93116 0.381 21
DS 1.50114 2.93116 1.64084 2.921 0.381 21
DS 1.64084 2.921 1.7907 2.86004 0.381 21
DS 1.7907 2.86004 1.92024 2.78892 0.381 21
DS -4.0005 4.50088 -4.0005 4.0005 0.381 21
DS -4.0005 -4.50088 -4.0005 -4.0005 0.381 21
DS -0.42926 3.52806 0.51054 3.52806 0.381 21
DS -0.40894 2.51714 -0.20066 2.40792 0.381 21
DS -0.20066 2.40792 0.04064 2.02946 0.381 21
DS 0.04064 2.02946 0.0508 3.52806 0.381 21
DS -1.88976 2.03962 -0.97028 2.04724 0.381 21
DS -0.97028 2.04724 -1.48082 2.61874 0.381 21
DS -1.48082 2.61874 -1.23952 2.61874 0.381 21
DS -1.23952 2.61874 -1.05918 2.7178 0.381 21
DS -1.05918 2.7178 -0.97028 2.8575 0.381 21
DS -0.97028 2.8575 -0.96012 2.9972 0.381 21
DS -0.96012 2.9972 -0.97028 3.25882 0.381 21
DS -0.97028 3.25882 -1.0287 3.43916 0.381 21
DS -1.0287 3.43916 -1.17094 3.52806 0.381 21
DS -1.17094 3.52806 -1.41986 3.55854 0.381 21
DS -1.41986 3.55854 -1.59004 3.55854 0.381 21
DS -1.59004 3.55854 -1.70942 3.5179 0.381 21
DS -1.70942 3.5179 -1.86944 3.429 0.381 21
DS -3.29946 3.53822 -3.29946 2.04724 0.381 21
DS -3.29946 2.04724 -2.75844 2.03962 0.381 21
DS -2.75844 2.03962 -2.59842 2.08788 0.381 21
DS -2.59842 2.08788 -2.45872 2.21742 0.381 21
DS -2.45872 2.21742 -2.41046 2.41808 0.381 21
DS -2.41046 2.41808 -2.44856 2.61874 0.381 21
DS -2.44856 2.61874 -2.51968 2.73812 0.381 21
DS -2.51968 2.73812 -2.6289 2.80924 0.381 21
DS -2.6289 2.80924 -2.79908 2.83718 0.381 21
DS -2.79908 2.83718 -3.15976 2.83718 0.381 21
DS 1.651 -3.68046 1.651 -2.19964 0.381 21
DS 1.651 -2.19964 2.3622 -2.19964 0.381 21
DS 0.32004 -2.63906 0.86106 -2.63906 0.381 21
DS 0.14224 -2.19964 0.61214 -3.69062 0.381 21
DS 0.61214 -3.69062 1.14046 -2.18948 0.381 21
DS -0.6096 -2.19964 -0.59944 -3.58902 0.381 21
DS -1.01854 -3.70078 -0.1778 -3.71094 0.381 21
DS -2.12852 -2.9591 -1.71958 -2.9591 0.381 21
DS -1.4986 -3.69062 -2.159 -3.68046 0.381 21
DS -2.159 -3.68046 -2.159 -2.19964 0.381 21
DS -2.159 -2.19964 -1.48844 -2.19964 0.381 21
DS -6.49986 -4.50088 -6.49986 -3.79984 0.381 21
DS -6.49986 3.79984 -6.49986 4.50088 0.381 21
DS 6.49986 3.79984 6.49986 4.50088 0.381 21
DS 6.49986 -4.50088 6.49986 -3.79984 0.381 21
DS 6.49986 -4.50088 -6.49986 -4.50088 0.381 21
DS -6.49986 4.50088 6.49986 4.50088 0.381 21
$PAD
Sh "1" R 1.99898 1.50114 0 0 0
Dr 0 0 0
At SMD N 00888000
Ne 0 ""
Po -5.33908 -2.54
$EndPAD
$PAD
Sh "2" R 1.99898 1.50114 0 0 0
Dr 0 0 0
At SMD N 00888000
Ne 0 ""
Po -5.33908 2.54
$EndPAD
$PAD
Sh "3" R 1.99898 1.50114 0 0 0
Dr 0 0 0
At SMD N 00888000
Ne 0 ""
Po 5.33908 2.54
$EndPAD
$PAD
Sh "4" R 1.99898 1.50114 0 0 0
Dr 0 0 0
At SMD N 00888000
Ne 0 ""
Po 5.33908 0
$EndPAD
$PAD
Sh "5" R 1.99898 1.50114 0 0 0
Dr 0 0 0
At SMD N 00888000
Ne 0 ""
Po 5.33908 -2.54
$EndPAD
$PAD
Sh "7" O 3.50012 1.50114 0 0 900
Dr 0 0 0
At SMD N 00020000
Ne 0 ""
Po 1.99898 0
$EndPAD
$PAD
Sh "7" O 3.50012 1.50114 0 0 900
Dr 0 0 0
At SMD N 00020000
Ne 0 ""
Po -1.99898 0
$EndPAD
$PAD
Sh "2" R 1.99898 1.50114 0 0 0
Dr 0 0 0
At SMD N 00888000
Ne 0 ""
Po -5.40004 0
$EndPAD
$SHAPE3D
Na "NF-Transformer_ETAL_Wings3d_RevA_28Aug2012/NF-Transformer_ETAL_P3188_P3191_Faktor03937_RevA_30Aug2012.wrl"
Sc 0.3937 0.3937 0.3937
Of 0 0 0
Ro 0 0 0
$EndSHAPE3D
$EndMODULE NF-Transformer_P3191_ETAL_RevA_31Aug2012
$MODULE NF-Transformer_P3324_ETAL_RevA_30Aug2012
Po 0 0 0 15 503F8C76 00000000 ~~
Li NF-Transformer_P3324_ETAL_RevA_30Aug2012
Cd NF-Transformer, ETAL P3324,
Kw NF-Transformer, ETAL P3324,
Sc 0
AR NF-Transformer_1-1_P1200_ETAL_RevA_28Aug2012
Op 0 0 0
T0 -0.01016 -11.6205 1.524 1.524 0 0.3048 N V 21 N "TR"
T1 -0.07112 12.05992 1.524 1.524 0 0.3048 N I 21 N "NF-Transformer_P3324_ETAL_RevA_30Aug2012"
DS 6.27126 7.17042 6.27126 8.17118 0.381 21
DS 5.90042 6.58114 5.52958 7.66064 0.381 21
DS 5.52958 7.66064 6.4897 7.66064 0.381 21
DS 4.06908 6.83006 4.1402 6.75894 0.381 21
DS 4.1402 6.75894 4.23926 6.69036 0.381 21
DS 4.23926 6.69036 4.4704 6.67004 0.381 21
DS 4.4704 6.67004 4.67106 6.72084 0.381 21
DS 4.67106 6.72084 4.87934 6.8199 0.381 21
DS 4.87934 6.8199 4.90982 6.99008 0.381 21
DS 4.90982 6.99008 4.90982 7.25932 0.381 21
DS 4.90982 7.25932 4.73964 7.51078 0.381 21
DS 4.73964 7.51078 4.0005 8.1788 0.381 21
DS 4.0005 8.1788 4.9403 8.18896 0.381 21
DS 2.50952 6.67004 3.4798 6.67004 0.381 21
DS 3.4798 6.67004 2.97942 7.24916 0.381 21
DS 2.97942 7.24916 3.26898 7.26948 0.381 21
DS 3.26898 7.26948 3.44932 7.44982 0.381 21
DS 3.44932 7.44982 3.48996 7.73938 0.381 21
DS 3.48996 7.73938 3.4798 7.91972 0.381 21
DS 3.4798 7.91972 3.3401 8.12038 0.381 21
DS 3.3401 8.12038 3.13944 8.1788 0.381 21
DS 3.13944 8.1788 2.9591 8.17118 0.381 21
DS 2.9591 8.17118 2.77114 8.16102 0.381 21
DS 2.77114 8.16102 2.5908 8.04926 0.381 21
DS 1.10998 6.65988 2.0193 6.65988 0.381 21
DS 2.0193 6.65988 1.52908 7.239 0.381 21
DS 1.52908 7.239 1.82118 7.24916 0.381 21
DS 1.82118 7.24916 1.97104 7.39902 0.381 21
DS 1.97104 7.39902 2.05994 7.69874 0.381 21
DS 2.05994 7.69874 2.03962 7.90956 0.381 21
DS 2.03962 7.90956 1.9304 8.0899 0.381 21
DS 1.9304 8.0899 1.70942 8.18896 0.381 21
DS 1.70942 8.18896 1.43002 8.18896 0.381 21
DS 1.43002 8.18896 1.27 8.15086 0.381 21
DS 1.27 8.15086 1.12014 8.04926 0.381 21
DS 5.80136 0.44958 6.79196 0.44958 0.381 21
DS 6.79196 0.44958 6.30174 1.05918 0.381 21
DS 6.30174 1.05918 6.61162 1.0795 0.381 21
DS 6.61162 1.0795 6.7818 1.27 0.381 21
DS 6.7818 1.27 6.82244 1.5494 0.381 21
DS 6.82244 1.5494 6.75132 1.8288 0.381 21
DS 6.75132 1.8288 6.5913 1.97866 0.381 21
DS 6.5913 1.97866 6.37032 2.00914 0.381 21
DS 6.37032 2.00914 6.18998 1.98882 0.381 21
DS 6.18998 1.98882 6.02996 1.9685 0.381 21
DS 6.02996 1.9685 5.8801 1.85928 0.381 21
DS -6.23062 1.01854 -6.25094 2.03962 0.381 21
DS -6.61924 0.32004 -7.04088 1.52908 0.381 21
DS -7.04088 1.52908 -5.969 1.50876 0.381 21
DS -5.59308 -5.58038 -5.58292 -5.62102 0.381 21
DS -5.58292 -5.62102 -5.58292 -5.61086 0.381 21
DS -6.10108 -7.21106 -6.40334 -7.2009 0.381 21
DS -6.40334 -7.2009 -6.61162 -7.17042 0.381 21
DS -6.61162 -7.17042 -6.74116 -7.05104 0.381 21
DS -6.74116 -7.05104 -6.95198 -6.8199 0.381 21
DS -6.95198 -6.8199 -6.98246 -6.53034 0.381 21
DS -6.98246 -6.53034 -7.01294 -6.1214 0.381 21
DS -7.01294 -6.1214 -6.9215 -5.80136 0.381 21
DS -6.9215 -5.80136 -6.76148 -5.67182 0.381 21
DS -6.76148 -5.67182 -6.47192 -5.61086 0.381 21
DS -6.47192 -5.61086 -6.28142 -5.6515 0.381 21
DS -6.28142 -5.6515 -6.14172 -5.85216 0.381 21
DS -6.14172 -5.85216 -6.1214 -6.1214 0.381 21
DS -6.1214 -6.1214 -6.19252 -6.35 0.381 21
DS -6.19252 -6.35 -6.39318 -6.53034 0.381 21
DS -6.39318 -6.53034 -6.70306 -6.5405 0.381 21
DS -6.70306 -6.5405 -6.8834 -6.47192 0.381 21
DS 5.98932 -5.6007 6.97992 -5.6007 0.381 21
DS 5.95122 -6.56082 6.47954 -7.05104 0.381 21
DS 6.47954 -7.05104 6.47954 -5.58038 0.381 21
DS -0.34036 8.20928 -0.35052 6.731 0.381 21
DS -0.35052 6.731 0.1397 6.74116 0.381 21
DS 0.1397 6.74116 0.3302 6.78942 0.381 21
DS 0.3302 6.78942 0.51054 6.97992 0.381 21
DS 0.51054 6.97992 0.53086 7.22122 0.381 21
DS 0.53086 7.22122 0.4699 7.3406 0.381 21
DS 0.4699 7.3406 0.37084 7.43966 0.381 21
DS 0.37084 7.43966 0.24892 7.50062 0.381 21
DS 0.24892 7.50062 -0.26924 7.50062 0.381 21
DS -2.72034 6.65988 -2.72034 8.20928 0.381 21
DS -2.72034 8.20928 -1.99898 8.2296 0.381 21
DS -4.04114 7.79018 -3.51028 7.79018 0.381 21
DS -4.26974 8.2296 -3.7592 6.70052 0.381 21
DS -3.7592 6.70052 -3.24104 8.20928 0.381 21
DS -5.44068 6.70052 -4.63042 6.70052 0.381 21
DS -4.98094 8.20928 -4.98094 6.74116 0.381 21
DS -6.55066 7.4295 -6.10108 7.4295 0.381 21
DS -5.86994 6.70052 -6.61924 6.72084 0.381 21
DS -6.61924 6.72084 -6.61924 8.24992 0.381 21
DS -6.61924 8.24992 -5.92074 8.24992 0.381 21
DS -1.40716 -6.77926 -0.7874 -6.79958 0.381 21
DS 0.82042 -6.85038 1.4605 -6.85038 0.381 21
DS 0.09906 -6.91896 0.02032 -6.91896 0.381 21
DS 0.03048 -7.71906 -0.02032 -7.69874 0.381 21
DS 0.67056 -7.87908 1.17094 -8.30072 0.381 21
DS 1.17094 -8.30072 1.17094 -6.85038 0.381 21
DS -1.56972 -7.82066 -1.03124 -8.30072 0.381 21
DS -1.03124 -8.30072 -1.03124 -6.78942 0.381 21
DS 4.82092 -4.0005 3.0607 -4.04114 0.381 21
DS 3.0607 -4.04114 2.75082 -3.98018 0.381 21
DS 2.75082 -3.98018 2.42062 -3.78968 0.381 21
DS 2.42062 -3.78968 2.11074 -3.50012 0.381 21
DS 2.11074 -3.50012 1.98882 -3.10896 0.381 21
DS 1.98882 -3.10896 2.0193 -2.74066 0.381 21
DS 2.0193 -2.74066 2.16916 -2.35966 0.381 21
DS 2.16916 -2.35966 2.42062 -2.16916 0.381 21
DS 2.42062 -2.16916 2.88036 -1.96088 0.381 21
DS 2.88036 -1.96088 3.12928 -1.96088 0.381 21
DS 3.12928 -1.96088 2.64922 -1.86944 0.381 21
DS 2.64922 -1.86944 2.14884 -1.5494 0.381 21
DS 2.14884 -1.5494 2.00914 -1.23952 0.381 21
DS 2.00914 -1.23952 1.98882 -0.889 0.381 21
DS 1.98882 -0.889 2.11074 -0.5207 0.381 21
DS 2.11074 -0.5207 2.4003 -0.21082 0.381 21
DS 2.4003 -0.21082 2.72034 -0.02032 0.381 21
DS 2.72034 -0.02032 3.15976 0 0.381 21
DS 3.15976 0 2.6797 0.07112 0.381 21
DS 2.6797 0.07112 2.32918 0.26924 0.381 21
DS 2.32918 0.26924 2.11074 0.55118 0.381 21
DS 2.11074 0.55118 2.00914 0.87122 0.381 21
DS 2.00914 0.87122 2.0193 1.22936 0.381 21
DS 2.0193 1.22936 2.16916 1.57988 0.381 21
DS 2.16916 1.57988 2.43078 1.81102 0.381 21
DS 2.43078 1.81102 2.74066 1.97104 0.381 21
DS 2.74066 1.97104 2.97942 2.02946 0.381 21
DS 2.97942 2.02946 3.2004 2.02946 0.381 21
DS 3.2004 2.02946 2.46888 2.14884 0.381 21
DS 2.46888 2.14884 2.17932 2.4003 0.381 21
DS 2.17932 2.4003 2.03962 2.76098 0.381 21
DS 2.03962 2.76098 2.00914 3.08102 0.381 21
DS 2.00914 3.08102 2.11074 3.44932 0.381 21
DS 2.11074 3.44932 2.30886 3.68046 0.381 21
DS 2.30886 3.68046 2.5908 3.92938 0.381 21
DS 2.5908 3.92938 2.96926 4.0005 0.381 21
DS 2.96926 4.0005 4.89966 4.0005 0.381 21
DS -5.00126 -4.0005 -2.99974 -4.0005 0.381 21
DS -2.99974 -4.0005 -2.61874 -3.9497 0.381 21
DS -2.61874 -3.9497 -2.32918 -3.73126 0.381 21
DS -2.32918 -3.73126 -2.10058 -3.50012 0.381 21
DS -2.10058 -3.50012 -2.04978 -3.2893 0.381 21
DS -2.04978 -3.2893 -1.98882 -2.94894 0.381 21
DS -1.98882 -2.94894 -2.04978 -2.51968 0.381 21
DS -2.04978 -2.51968 -2.23012 -2.32918 0.381 21
DS -2.23012 -2.32918 -2.44094 -2.18948 0.381 21
DS -2.44094 -2.18948 -2.84988 -2.00914 0.381 21
DS -2.84988 -2.00914 -3.0099 -2.00914 0.381 21
DS -3.0099 -2.00914 -2.72034 -1.92024 0.381 21
DS -2.72034 -1.92024 -2.4003 -1.81102 0.381 21
DS -2.4003 -1.81102 -2.14122 -1.62052 0.381 21
DS -2.14122 -1.62052 -2.0701 -1.3208 0.381 21
DS -2.0701 -1.3208 -2.02946 -0.98044 0.381 21
DS -2.02946 -0.98044 -2.0701 -0.6604 0.381 21
DS -2.0701 -0.6604 -2.2098 -0.42926 0.381 21
DS -2.2098 -0.42926 -2.30886 -0.2794 0.381 21
DS -2.30886 -0.2794 -2.55016 -0.11938 0.381 21
DS -2.55016 -0.11938 -2.78892 -0.02032 0.381 21
DS -2.78892 -0.02032 -2.93878 -0.02032 0.381 21
DS -2.93878 -0.02032 -2.66954 0.07112 0.381 21
DS -2.66954 0.07112 -2.42062 0.20066 0.381 21
DS -2.42062 0.20066 -2.16916 0.43942 0.381 21
DS -2.16916 0.43942 -2.0701 0.6604 0.381 21
DS -2.0701 0.6604 -2.00914 0.9398 0.381 21
DS -2.00914 0.9398 -2.02946 1.20904 0.381 21
DS -2.02946 1.20904 -2.10058 1.48082 0.381 21
DS -2.10058 1.48082 -2.28092 1.6891 0.381 21
DS -2.28092 1.6891 -2.44094 1.8288 0.381 21
DS -2.44094 1.8288 -2.61874 1.92024 0.381 21
DS -2.61874 1.92024 -2.94894 1.96088 0.381 21
DS -2.94894 1.96088 -2.68986 2.03962 0.381 21
DS -2.68986 2.03962 -2.42062 2.19964 0.381 21
DS -2.42062 2.19964 -2.23012 2.44094 0.381 21
DS -2.23012 2.44094 -2.10058 2.64922 0.381 21
DS -2.10058 2.64922 -2.04978 2.88036 0.381 21
DS -2.04978 2.88036 -2.04978 3.1496 0.381 21
DS -2.04978 3.1496 -2.14122 3.46964 0.381 21
DS -2.14122 3.46964 -2.2606 3.68046 0.381 21
DS -2.2606 3.68046 -2.46888 3.88112 0.381 21
DS -2.46888 3.88112 -2.74066 3.92938 0.381 21
DS -2.74066 3.92938 -2.94894 3.98018 0.381 21
DS -2.94894 3.98018 -3.0099 3.95986 0.381 21
DS -3.0099 3.95986 -4.93014 3.9497 0.381 21
DS 0 -5.99948 0 5.99948 0.381 21
DS 8.99922 -8.99922 -8.99922 -8.99922 0.381 21
DS -8.99922 -8.99922 -8.99922 8.99922 0.381 21
DS -8.99922 8.99922 8.99922 8.99922 0.381 21
DS 8.99922 8.99922 8.99922 -8.99922 0.381 21
$PAD
Sh "6" C 1.524 1.524 0 0 0
Dr 0.8128 0 0
At STD N 00E0FFFF
Ne 0 ""
Po -6.35 -3.81
$EndPAD
$PAD
Sh "4" C 1.524 1.524 0 0 0
Dr 0.8128 0 0
At STD N 00E0FFFF
Ne 0 ""
Po -6.35 3.81
$EndPAD
$PAD
Sh "1" C 1.524 1.524 0 0 0
Dr 0.8128 0 0
At STD N 00E0FFFF
Ne 0 ""
Po 6.35 -3.81
$EndPAD
$PAD
Sh "3" C 1.524 1.524 0 0 0
Dr 0.8128 0 0
At STD N 00E0FFFF
Ne 0 ""
Po 6.35 3.81
$EndPAD
$SHAPE3D
Na "NF-Transformer_ETAL_Wings3d_RevA_28Aug2012/NF-Transformer_ETAL_P1200_P3356_P3324_Faktor03937_RevA_30Aug2012.wrl"
Sc 0.3937 0.3937 0.3937
Of 0 0 0
Ro 0 0 0
$EndSHAPE3D
$EndMODULE NF-Transformer_P3324_ETAL_RevA_30Aug2012
$MODULE NF-Transformer_P3356_ETAL_RevA_30Aug2012
Po 0 0 0 15 503F8D8C 00000000 ~~
Li NF-Transformer_P3356_ETAL_RevA_30Aug2012
Cd NF-Transformer, ETAL P3356,
Kw NF-Transformer, ETAL P3356,
Sc 0
AR NF-Transformer_1-1_P1200_ETAL_RevA_28Aug2012
Op 0 0 0
T0 -0.01016 -11.6205 1.524 1.524 0 0.3048 N V 21 N "TR"
T1 -0.07112 12.05992 1.524 1.524 0 0.3048 N I 21 N "NF-Transformer_P3356_ETAL_RevA_30Aug2012"
DS 6.31952 6.71068 6.1595 6.71068 0.381 21
DS 6.1595 6.71068 6.06044 6.72084 0.381 21
DS 6.06044 6.72084 5.89026 6.78942 0.381 21
DS 5.89026 6.78942 5.7404 6.93928 0.381 21
DS 5.7404 6.93928 5.63118 7.1501 0.381 21
DS 5.63118 7.1501 5.58038 7.36092 0.381 21
DS 5.58038 7.36092 5.57022 7.5311 0.381 21
DS 5.57022 7.5311 5.58038 7.74954 0.381 21
DS 5.58038 7.74954 5.59054 7.8994 0.381 21
DS 5.59054 7.8994 5.6388 8.04926 0.381 21
DS 5.6388 8.04926 5.70992 8.13054 0.381 21
DS 5.70992 8.13054 5.83946 8.20928 0.381 21
DS 5.83946 8.20928 6.06044 8.2296 0.381 21
DS 6.06044 8.2296 6.2611 8.17118 0.381 21
DS 6.2611 8.17118 6.41096 7.97052 0.381 21
DS 6.41096 7.97052 6.44906 7.69874 0.381 21
DS 6.44906 7.69874 6.39064 7.50062 0.381 21
DS 6.39064 7.50062 6.2992 7.38124 0.381 21
DS 6.2992 7.38124 6.1595 7.29996 0.381 21
DS 6.1595 7.29996 6.0198 7.29996 0.381 21
DS 6.0198 7.29996 5.8293 7.3406 0.381 21
DS 5.8293 7.3406 5.66928 7.4295 0.381 21
DS 4.95046 6.71068 4.191 6.71068 0.381 21
DS 4.191 6.71068 4.11988 7.4295 0.381 21
DS 4.11988 7.4295 4.31038 7.29996 0.381 21
DS 4.31038 7.29996 4.6609 7.2898 0.381 21
DS 4.6609 7.2898 4.86918 7.39902 0.381 21
DS 4.86918 7.39902 4.9403 7.49046 0.381 21
DS 4.9403 7.49046 4.9911 7.64032 0.381 21
DS 4.9911 7.64032 4.98094 7.98068 0.381 21
DS 4.98094 7.98068 4.86918 8.12038 0.381 21
DS 4.86918 8.12038 4.73964 8.20928 0.381 21
DS 4.73964 8.20928 4.57962 8.21944 0.381 21
DS 4.57962 8.21944 4.38912 8.21944 0.381 21
DS 4.38912 8.21944 4.2291 8.16102 0.381 21
DS 4.2291 8.16102 4.15036 8.0899 0.381 21
DS 2.50952 6.67004 3.4798 6.67004 0.381 21
DS 3.4798 6.67004 2.97942 7.24916 0.381 21
DS 2.97942 7.24916 3.26898 7.26948 0.381 21
DS 3.26898 7.26948 3.44932 7.44982 0.381 21
DS 3.44932 7.44982 3.48996 7.73938 0.381 21
DS 3.48996 7.73938 3.4798 7.91972 0.381 21
DS 3.4798 7.91972 3.3401 8.12038 0.381 21
DS 3.3401 8.12038 3.13944 8.1788 0.381 21
DS 3.13944 8.1788 2.9591 8.17118 0.381 21
DS 2.9591 8.17118 2.77114 8.16102 0.381 21
DS 2.77114 8.16102 2.5908 8.04926 0.381 21
DS 1.10998 6.65988 2.0193 6.65988 0.381 21
DS 2.0193 6.65988 1.52908 7.239 0.381 21
DS 1.52908 7.239 1.82118 7.24916 0.381 21
DS 1.82118 7.24916 1.97104 7.39902 0.381 21
DS 1.97104 7.39902 2.05994 7.69874 0.381 21
DS 2.05994 7.69874 2.03962 7.90956 0.381 21
DS 2.03962 7.90956 1.9304 8.0899 0.381 21
DS 1.9304 8.0899 1.70942 8.18896 0.381 21
DS 1.70942 8.18896 1.43002 8.18896 0.381 21
DS 1.43002 8.18896 1.27 8.15086 0.381 21
DS 1.27 8.15086 1.12014 8.04926 0.381 21
DS 5.80136 0.44958 6.79196 0.44958 0.381 21
DS 6.79196 0.44958 6.30174 1.05918 0.381 21
DS 6.30174 1.05918 6.61162 1.0795 0.381 21
DS 6.61162 1.0795 6.7818 1.27 0.381 21
DS 6.7818 1.27 6.82244 1.5494 0.381 21
DS 6.82244 1.5494 6.75132 1.8288 0.381 21
DS 6.75132 1.8288 6.5913 1.97866 0.381 21
DS 6.5913 1.97866 6.37032 2.00914 0.381 21
DS 6.37032 2.00914 6.18998 1.98882 0.381 21
DS 6.18998 1.98882 6.02996 1.9685 0.381 21
DS 6.02996 1.9685 5.8801 1.85928 0.381 21
DS -6.23062 1.01854 -6.25094 2.03962 0.381 21
DS -6.61924 0.32004 -7.04088 1.52908 0.381 21
DS -7.04088 1.52908 -5.969 1.50876 0.381 21
DS -5.59308 -5.58038 -5.58292 -5.62102 0.381 21
DS -5.58292 -5.62102 -5.58292 -5.61086 0.381 21
DS -6.10108 -7.21106 -6.40334 -7.2009 0.381 21
DS -6.40334 -7.2009 -6.61162 -7.17042 0.381 21
DS -6.61162 -7.17042 -6.74116 -7.05104 0.381 21
DS -6.74116 -7.05104 -6.95198 -6.8199 0.381 21
DS -6.95198 -6.8199 -6.98246 -6.53034 0.381 21
DS -6.98246 -6.53034 -7.01294 -6.1214 0.381 21
DS -7.01294 -6.1214 -6.9215 -5.80136 0.381 21
DS -6.9215 -5.80136 -6.76148 -5.67182 0.381 21
DS -6.76148 -5.67182 -6.47192 -5.61086 0.381 21
DS -6.47192 -5.61086 -6.28142 -5.6515 0.381 21
DS -6.28142 -5.6515 -6.14172 -5.85216 0.381 21
DS -6.14172 -5.85216 -6.1214 -6.1214 0.381 21
DS -6.1214 -6.1214 -6.19252 -6.35 0.381 21
DS -6.19252 -6.35 -6.39318 -6.53034 0.381 21
DS -6.39318 -6.53034 -6.70306 -6.5405 0.381 21
DS -6.70306 -6.5405 -6.8834 -6.47192 0.381 21
DS 5.98932 -5.6007 6.97992 -5.6007 0.381 21
DS 5.95122 -6.56082 6.47954 -7.05104 0.381 21
DS 6.47954 -7.05104 6.47954 -5.58038 0.381 21
DS -0.34036 8.20928 -0.35052 6.731 0.381 21
DS -0.35052 6.731 0.1397 6.74116 0.381 21
DS 0.1397 6.74116 0.3302 6.78942 0.381 21
DS 0.3302 6.78942 0.51054 6.97992 0.381 21
DS 0.51054 6.97992 0.53086 7.22122 0.381 21
DS 0.53086 7.22122 0.4699 7.3406 0.381 21
DS 0.4699 7.3406 0.37084 7.43966 0.381 21
DS 0.37084 7.43966 0.24892 7.50062 0.381 21
DS 0.24892 7.50062 -0.26924 7.50062 0.381 21
DS -2.72034 6.65988 -2.72034 8.20928 0.381 21
DS -2.72034 8.20928 -1.99898 8.2296 0.381 21
DS -4.04114 7.79018 -3.51028 7.79018 0.381 21
DS -4.26974 8.2296 -3.7592 6.70052 0.381 21
DS -3.7592 6.70052 -3.24104 8.20928 0.381 21
DS -5.44068 6.70052 -4.63042 6.70052 0.381 21
DS -4.98094 8.20928 -4.98094 6.74116 0.381 21
DS -6.55066 7.4295 -6.10108 7.4295 0.381 21
DS -5.86994 6.70052 -6.61924 6.72084 0.381 21
DS -6.61924 6.72084 -6.61924 8.24992 0.381 21
DS -6.61924 8.24992 -5.92074 8.24992 0.381 21
DS -1.40716 -6.77926 -0.7874 -6.79958 0.381 21
DS 0.82042 -6.85038 1.4605 -6.85038 0.381 21
DS 0.09906 -6.91896 0.02032 -6.91896 0.381 21
DS 0.03048 -7.71906 -0.02032 -7.69874 0.381 21
DS 0.67056 -7.87908 1.17094 -8.30072 0.381 21
DS 1.17094 -8.30072 1.17094 -6.85038 0.381 21
DS -1.56972 -7.82066 -1.03124 -8.30072 0.381 21
DS -1.03124 -8.30072 -1.03124 -6.78942 0.381 21
DS 4.82092 -4.0005 3.0607 -4.04114 0.381 21
DS 3.0607 -4.04114 2.75082 -3.98018 0.381 21
DS 2.75082 -3.98018 2.42062 -3.78968 0.381 21
DS 2.42062 -3.78968 2.11074 -3.50012 0.381 21
DS 2.11074 -3.50012 1.98882 -3.10896 0.381 21
DS 1.98882 -3.10896 2.0193 -2.74066 0.381 21
DS 2.0193 -2.74066 2.16916 -2.35966 0.381 21
DS 2.16916 -2.35966 2.42062 -2.16916 0.381 21
DS 2.42062 -2.16916 2.88036 -1.96088 0.381 21
DS 2.88036 -1.96088 3.12928 -1.96088 0.381 21
DS 3.12928 -1.96088 2.64922 -1.86944 0.381 21
DS 2.64922 -1.86944 2.14884 -1.5494 0.381 21
DS 2.14884 -1.5494 2.00914 -1.23952 0.381 21
DS 2.00914 -1.23952 1.98882 -0.889 0.381 21
DS 1.98882 -0.889 2.11074 -0.5207 0.381 21
DS 2.11074 -0.5207 2.4003 -0.21082 0.381 21
DS 2.4003 -0.21082 2.72034 -0.02032 0.381 21
DS 2.72034 -0.02032 3.15976 0 0.381 21
DS 3.15976 0 2.6797 0.07112 0.381 21
DS 2.6797 0.07112 2.32918 0.26924 0.381 21
DS 2.32918 0.26924 2.11074 0.55118 0.381 21
DS 2.11074 0.55118 2.00914 0.87122 0.381 21
DS 2.00914 0.87122 2.0193 1.22936 0.381 21
DS 2.0193 1.22936 2.16916 1.57988 0.381 21
DS 2.16916 1.57988 2.43078 1.81102 0.381 21
DS 2.43078 1.81102 2.74066 1.97104 0.381 21
DS 2.74066 1.97104 2.97942 2.02946 0.381 21
DS 2.97942 2.02946 3.2004 2.02946 0.381 21
DS 3.2004 2.02946 2.46888 2.14884 0.381 21
DS 2.46888 2.14884 2.17932 2.4003 0.381 21
DS 2.17932 2.4003 2.03962 2.76098 0.381 21
DS 2.03962 2.76098 2.00914 3.08102 0.381 21
DS 2.00914 3.08102 2.11074 3.44932 0.381 21
DS 2.11074 3.44932 2.30886 3.68046 0.381 21
DS 2.30886 3.68046 2.5908 3.92938 0.381 21
DS 2.5908 3.92938 2.96926 4.0005 0.381 21
DS 2.96926 4.0005 4.89966 4.0005 0.381 21
DS -5.00126 -4.0005 -2.99974 -4.0005 0.381 21
DS -2.99974 -4.0005 -2.61874 -3.9497 0.381 21
DS -2.61874 -3.9497 -2.32918 -3.73126 0.381 21
DS -2.32918 -3.73126 -2.10058 -3.50012 0.381 21
DS -2.10058 -3.50012 -2.04978 -3.2893 0.381 21
DS -2.04978 -3.2893 -1.98882 -2.94894 0.381 21
DS -1.98882 -2.94894 -2.04978 -2.51968 0.381 21
DS -2.04978 -2.51968 -2.23012 -2.32918 0.381 21
DS -2.23012 -2.32918 -2.44094 -2.18948 0.381 21
DS -2.44094 -2.18948 -2.84988 -2.00914 0.381 21
DS -2.84988 -2.00914 -3.0099 -2.00914 0.381 21
DS -3.0099 -2.00914 -2.72034 -1.92024 0.381 21
DS -2.72034 -1.92024 -2.4003 -1.81102 0.381 21
DS -2.4003 -1.81102 -2.14122 -1.62052 0.381 21
DS -2.14122 -1.62052 -2.0701 -1.3208 0.381 21
DS -2.0701 -1.3208 -2.02946 -0.98044 0.381 21
DS -2.02946 -0.98044 -2.0701 -0.6604 0.381 21
DS -2.0701 -0.6604 -2.2098 -0.42926 0.381 21
DS -2.2098 -0.42926 -2.30886 -0.2794 0.381 21
DS -2.30886 -0.2794 -2.55016 -0.11938 0.381 21
DS -2.55016 -0.11938 -2.78892 -0.02032 0.381 21
DS -2.78892 -0.02032 -2.93878 -0.02032 0.381 21
DS -2.93878 -0.02032 -2.66954 0.07112 0.381 21
DS -2.66954 0.07112 -2.42062 0.20066 0.381 21
DS -2.42062 0.20066 -2.16916 0.43942 0.381 21
DS -2.16916 0.43942 -2.0701 0.6604 0.381 21
DS -2.0701 0.6604 -2.00914 0.9398 0.381 21
DS -2.00914 0.9398 -2.02946 1.20904 0.381 21
DS -2.02946 1.20904 -2.10058 1.48082 0.381 21
DS -2.10058 1.48082 -2.28092 1.6891 0.381 21
DS -2.28092 1.6891 -2.44094 1.8288 0.381 21
DS -2.44094 1.8288 -2.61874 1.92024 0.381 21
DS -2.61874 1.92024 -2.94894 1.96088 0.381 21
DS -2.94894 1.96088 -2.68986 2.03962 0.381 21
DS -2.68986 2.03962 -2.42062 2.19964 0.381 21
DS -2.42062 2.19964 -2.23012 2.44094 0.381 21
DS -2.23012 2.44094 -2.10058 2.64922 0.381 21
DS -2.10058 2.64922 -2.04978 2.88036 0.381 21
DS -2.04978 2.88036 -2.04978 3.1496 0.381 21
DS -2.04978 3.1496 -2.14122 3.46964 0.381 21
DS -2.14122 3.46964 -2.2606 3.68046 0.381 21
DS -2.2606 3.68046 -2.46888 3.88112 0.381 21
DS -2.46888 3.88112 -2.74066 3.92938 0.381 21
DS -2.74066 3.92938 -2.94894 3.98018 0.381 21
DS -2.94894 3.98018 -3.0099 3.95986 0.381 21
DS -3.0099 3.95986 -4.93014 3.9497 0.381 21
DS 0 -5.99948 0 5.99948 0.381 21
DS 8.99922 -8.99922 -8.99922 -8.99922 0.381 21
DS -8.99922 -8.99922 -8.99922 8.99922 0.381 21
DS -8.99922 8.99922 8.99922 8.99922 0.381 21
DS 8.99922 8.99922 8.99922 -8.99922 0.381 21
$PAD
Sh "6" C 1.524 1.524 0 0 0
Dr 0.8128 0 0
At STD N 00E0FFFF
Ne 0 ""
Po -6.35 -3.81
$EndPAD
$PAD
Sh "4" C 1.524 1.524 0 0 0
Dr 0.8128 0 0
At STD N 00E0FFFF
Ne 0 ""
Po -6.35 3.81
$EndPAD
$PAD
Sh "1" C 1.524 1.524 0 0 0
Dr 0.8128 0 0
At STD N 00E0FFFF
Ne 0 ""
Po 6.35 -3.81
$EndPAD
$PAD
Sh "3" C 1.524 1.524 0 0 0
Dr 0.8128 0 0
At STD N 00E0FFFF
Ne 0 ""
Po 6.35 3.81
$EndPAD
$SHAPE3D
Na "NF-Transformer_ETAL_Wings3d_RevA_28Aug2012/NF-Transformer_ETAL_P1200_P3356_P3324_Faktor03937_RevA_30Aug2012.wrl"
Sc 0.3937 0.3937 0.3937
Of 0 0 0
Ro 0 0 0
$EndSHAPE3D
$EndMODULE NF-Transformer_P3356_ETAL_RevA_30Aug2012
$EndLIBRARY
