PCBNEW-LibModule-V1  Sun 03 Nov 2013 09:55:02 AM EST
# encoding utf-8
Units mm
$INDEX
PFF_Leadform_5pins
PSF_Leadform_5pins
PSS_Leadform_5pins
$EndINDEX
$MODULE PFF_Leadform_5pins
Po 0 0 0 15 4FCE87EB 00000000 ~~
Li PFF_Leadform_5pins
Cd Allegro, Hallsensor, Through hole, Package CB-PFF,
Kw Allegro, Hallsensor, Through hole, Package CB-PFF,
Sc 0
AR IC-provisorisch
Op 0 0 0
T0 0.20066 -14.89964 1.524 1.524 0 0.3048 N V 21 N "IC"
T1 0.20066 13.89888 1.524 1.524 0 0.3048 N I 21 N "PFF_Leadform_5pins"
DS -3.2004 7.8994 -3.50012 7.80034 0.381 21
DS -3.50012 7.80034 -3.79984 7.8994 0.381 21
DS -3.79984 7.8994 -4.0005 8.30072 0.381 21
DS -4.0005 8.30072 -3.79984 8.6995 0.381 21
DS -3.79984 8.6995 -3.59918 8.90016 0.381 21
DS -3.59918 8.90016 -3.29946 8.6995 0.381 21
DS -4.50088 7.80034 -4.8006 7.80034 0.381 21
DS -4.8006 7.80034 -5.19938 7.8994 0.381 21
DS -5.19938 7.8994 -5.30098 8.39978 0.381 21
DS -5.30098 8.39978 -5.10032 8.8011 0.381 21
DS -5.10032 8.8011 -4.8006 8.8011 0.381 21
DS -4.8006 8.8011 -4.59994 8.6995 0.381 21
DS -6.70052 7.29996 -6.20014 8.60044 0.381 21
DS -6.20014 8.60044 -5.69976 7.29996 0.381 21
DS 6.90118 8.001 6.2992 8.001 0.381 21
DS 6.49986 7.39902 6.49986 8.90016 0.381 21
DS 6.49986 8.90016 6.70052 8.99922 0.381 21
DS 6.70052 8.99922 6.90118 8.99922 0.381 21
DS 5.19938 8.001 5.19938 8.90016 0.381 21
DS 5.19938 8.90016 5.4991 8.99922 0.381 21
DS 5.4991 8.99922 5.79882 8.90016 0.381 21
DS 5.79882 8.90016 5.79882 8.001 0.381 21
DS 4.0005 7.50062 3.79984 7.50062 0.381 21
DS 3.79984 7.50062 3.50012 7.69874 0.381 21
DS 3.50012 7.69874 3.40106 8.30072 0.381 21
DS 3.40106 8.30072 3.50012 8.6995 0.381 21
DS 3.50012 8.6995 3.79984 8.99922 0.381 21
DS 3.79984 8.99922 4.20116 8.99922 0.381 21
DS 4.20116 8.99922 4.39928 8.6995 0.381 21
DS 4.39928 8.6995 4.50088 8.10006 0.381 21
DS 4.50088 8.10006 4.39928 7.69874 0.381 21
DS 4.39928 7.69874 4.0005 7.50062 0.381 21
DS 9.10082 2.99974 9.10082 4.20116 0.381 21
DS 9.70026 3.59918 8.49884 3.59918 0.381 21
DS 7.0993 3.2004 7.50062 3.2004 0.381 21
DS 7.50062 3.2004 7.80034 3.40106 0.381 21
DS 7.80034 3.40106 7.80034 3.8989 0.381 21
DS 7.80034 3.8989 7.59968 4.20116 0.381 21
DS 7.59968 4.20116 7.2009 4.20116 0.381 21
DS 7.0993 3.2004 7.0993 4.699 0.381 21
DS 6.4008 2.60096 6.4008 4.20116 0.381 21
DS 1.19888 3.2004 1.19888 4.699 0.381 21
DS 1.19888 4.699 1.69926 4.59994 0.381 21
DS 1.69926 4.59994 1.99898 4.09956 0.381 21
DS 1.99898 4.09956 1.99898 3.59918 0.381 21
DS 1.99898 3.59918 1.69926 3.29946 0.381 21
DS 1.69926 3.29946 1.19888 3.2004 0.381 21
DS -0.39878 4.699 -0.39878 3.2004 0.381 21
DS -0.39878 3.2004 0.39878 4.699 0.381 21
DS 0.39878 4.699 0.39878 3.2004 0.381 21
DS -1.19888 3.29946 -1.30048 3.2004 0.381 21
DS -1.30048 3.2004 -1.69926 3.2004 0.381 21
DS -1.69926 3.2004 -1.99898 3.59918 0.381 21
DS -1.99898 3.59918 -2.10058 4.09956 0.381 21
DS -2.10058 4.09956 -1.80086 4.50088 0.381 21
DS -1.80086 4.50088 -1.39954 4.699 0.381 21
DS -1.39954 4.699 -1.19888 4.59994 0.381 21
DS -1.19888 4.59994 -1.19888 4.0005 0.381 21
DS -1.19888 4.0005 -1.50114 4.0005 0.381 21
DS -6.20014 3.40106 -7.29996 3.40106 0.381 21
DS -8.6995 2.99974 -8.30072 2.99974 0.381 21
DS -8.30072 2.99974 -8.10006 3.0988 0.381 21
DS -8.10006 3.0988 -8.001 3.29946 0.381 21
DS -8.001 3.29946 -8.001 3.79984 0.381 21
DS -8.001 3.79984 -8.19912 4.0005 0.381 21
DS -8.19912 4.0005 -8.6995 4.0005 0.381 21
DS -8.6995 2.99974 -8.6995 4.50088 0.381 21
DS -9.40054 2.49936 -9.40054 4.0005 0.381 21
DS -5.10032 1.89992 -7.50062 1.89992 0.381 21
DS -7.50062 1.89992 -7.50062 -7.0993 0.381 21
DS 5.10032 1.89992 7.50062 1.89992 0.381 21
DS 7.50062 1.89992 7.50062 -7.29996 0.381 21
DS 1.89992 6.20014 1.89992 9.19988 0.381 21
DS -1.89992 6.20014 -1.89992 9.19988 0.381 21
DS 0 6.20014 0 9.19988 0.381 21
DS -5.10032 -6.59892 5.10032 -6.59892 0.381 21
DS 5.10032 -6.59892 5.10032 6.20014 0.381 21
DS 5.10032 6.20014 -5.10032 6.20014 0.381 21
DS -5.10032 6.20014 -5.10032 -6.59892 0.381 21
DS -3.64998 -8.30072 -3.8989 -8.34898 0.381 15
DS -3.8989 -8.34898 -3.62458 -8.30072 0.381 0
DS -8.7249 -12.02436 -8.90016 -11.72464 0.381 15
DS -8.90016 -11.72464 -8.6995 -12.02436 0.381 0
DS -3.64998 -13.07592 -4.12496 -13.07592 0.381 15
DS -4.15036 -13.07592 -3.59918 -13.07592 0.381 0
DS -0.7747 -11.00074 -0.8001 -10.54862 0.381 15
DS -1.09982 -9.525 -1.27508 -8.7757 0.381 15
DS -1.27508 -8.7757 -1.5494 -8.54964 0.381 15
DS -1.5494 -8.54964 -2.87528 -8.15086 0.381 15
DS -2.87528 -8.15086 -3.07594 -8.10006 0.381 15
DS -3.07594 -8.10006 -6.87578 -8.15086 0.381 15
DS -6.87578 -8.15086 -8.10006 -8.45058 0.381 15
DS -8.10006 -8.45058 -8.42518 -8.65124 0.381 15
DS -8.42518 -8.65124 -9.22528 -9.42594 0.381 15
DS -9.22528 -9.42594 -9.37514 -9.72566 0.381 15
DS -9.37514 -9.72566 -9.5504 -10.94994 0.381 15
DS -9.5504 -10.94994 -9.4996 -11.32586 0.381 15
DS -9.4996 -11.32586 -8.6741 -12.52474 0.381 15
DS -8.6741 -12.52474 -8.47598 -12.7762 0.381 15
DS -8.47598 -12.7762 -7.02564 -13.25118 0.381 15
DS -7.02564 -13.25118 -3.1496 -13.25118 0.381 15
DS -3.1496 -13.25118 -1.69926 -12.94892 0.381 15
DS -1.69926 -12.94892 -1.42494 -12.6492 0.381 15
DS -1.42494 -12.6492 -1.12522 -11.9253 0.381 15
DS -1.27508 -8.7757 -1.45034 -8.62584 0.381 0
DS -1.45034 -8.62584 -2.92608 -8.15086 0.381 0
DS -2.92608 -8.15086 -3.07594 -8.10006 0.381 0
DS -3.07594 -8.10006 -7.05104 -8.17626 0.381 0
DS -7.05104 -8.17626 -8.15086 -8.47598 0.381 0
DS -8.15086 -8.47598 -8.47598 -8.7249 0.381 0
DS -8.47598 -8.7249 -9.25068 -9.4742 0.381 0
DS -9.25068 -9.4742 -9.40054 -9.79932 0.381 0
DS -9.40054 -9.79932 -9.5504 -10.94994 0.381 0
DS -9.5504 -10.94994 -9.525 -11.30046 0.381 0
DS -9.525 -11.30046 -8.65124 -12.55014 0.381 0
DS -8.65124 -12.55014 -8.42518 -12.79906 0.381 0
DS -8.42518 -12.79906 -7.02564 -13.25118 0.381 0
DS -1.32588 -8.87476 -1.07442 -9.5504 0.381 0
DS -0.7493 -11.00074 -0.7747 -10.52576 0.381 0
DS -7.00024 -13.27404 -5.72516 -13.27404 0.381 0
DS -5.72516 -13.27404 -3.1242 -13.25118 0.381 0
DS -3.1242 -13.25118 -1.67386 -12.92606 0.381 0
DS -1.67386 -12.92606 -1.42494 -12.6492 0.381 0
DS -1.42494 -12.6492 -1.12522 -11.9253 0.381 0
DS 1.24968 -12.19962 1.5748 -12.82446 0.381 0
DS 1.5748 -12.82446 1.72466 -12.94892 0.381 0
DS 1.72466 -12.94892 3.07594 -13.25118 0.381 0
DS 0.7239 -10.67562 0.7747 -11.30046 0.381 0
DS 3.07594 -13.25118 6.92404 -13.20038 0.381 0
DS 6.92404 -13.20038 8.45058 -12.90066 0.381 0
DS 8.45058 -12.90066 9.525 -11.32586 0.381 0
DS 9.525 -11.32586 9.37514 -9.70026 0.381 0
DS 9.37514 -9.70026 9.32434 -9.5504 0.381 0
DS 9.32434 -9.5504 8.30072 -8.47598 0.381 0
DS 8.30072 -8.47598 7.47522 -8.04926 0.381 0
DS 7.47522 -8.04926 3.52552 -8.02386 0.381 0
DS 3.52552 -8.02386 1.5494 -8.65124 0.381 0
DS 1.5494 -8.65124 1.30048 -8.90016 0.381 0
DS 1.30048 -8.90016 0.97536 -9.72566 0.381 0
DS 2.67462 -8.45058 2.10058 -8.62584 0.381 15
DS 2.10058 -8.62584 2.60096 -8.45058 0.381 0
DS 5.30098 -8.19912 4.65074 -8.22452 0.381 15
DS 4.65074 -8.22452 5.30098 -8.19912 0.381 0
DS 7.72414 -8.34898 7.1247 -8.17626 0.381 15
DS 7.1247 -8.17626 7.72414 -8.34898 0.381 0
DS 4.699 -13.02512 5.40004 -13.02512 0.381 15
DS 5.40004 -13.02258 4.6736 -13.02258 0.381 0
DS 0.92456 -9.77392 1.37414 -8.7503 0.381 15
DS 1.37414 -8.7503 2.22504 -8.37438 0.381 15
DS 0.7747 -11.30046 0.7239 -10.62482 0.381 15
DS 2.22504 -8.37438 3.52552 -8.02386 0.381 15
DS 3.52552 -8.02386 7.44982 -8.02386 0.381 15
DS 7.44982 -8.02386 8.32612 -8.49884 0.381 15
DS 8.32612 -8.49884 9.29894 -9.525 0.381 15
DS 9.29894 -9.525 9.525 -11.19886 0.381 15
DS 9.525 -11.19886 8.60044 -12.6746 0.381 15
DS 8.60044 -12.6746 8.42518 -12.90066 0.381 15
DS 8.42518 -12.90066 6.87578 -13.20038 0.381 15
DS 6.87578 -13.20038 5.72516 -13.22578 0.381 15
DS 5.72516 -13.22578 4.32562 -13.25118 0.381 15
DS 4.32562 -13.25118 3.05054 -13.22578 0.381 15
DS 3.05054 -13.22578 1.77546 -12.97432 0.381 15
DS 1.77546 -12.97432 1.27508 -12.19962 0.381 15
DS 2.77622 -12.14882 7.22376 -12.04976 0.381 0
DS 7.22376 -12.04976 8.22452 -11.60018 0.381 0
DS 8.22452 -11.60018 8.45058 -10.50036 0.381 0
DS 8.45058 -10.50036 8.19912 -9.85012 0.381 0
DS 8.19912 -9.85012 7.59968 -9.42594 0.381 0
DS 7.59968 -9.42594 6.17474 -9.27608 0.381 0
DS 6.17474 -9.27608 4.59994 -9.25068 0.381 0
DS 4.59994 -9.25068 2.62382 -9.32434 0.381 0
DS 2.62382 -9.32434 1.75006 -9.92378 0.381 0
DS 1.75006 -9.92378 1.45034 -10.89914 0.381 0
DS 1.45034 -10.89914 1.95072 -11.67384 0.381 0
DS 1.95072 -11.67384 2.77622 -12.14882 0.381 0
DS 2.99974 -11.8999 7.00024 -11.8491 0.381 0
DS 7.00024 -11.8491 7.65048 -11.72464 0.381 0
DS 7.65048 -11.72464 7.9756 -11.35126 0.381 0
DS 7.9756 -11.35126 8.17626 -10.80008 0.381 0
DS 8.17626 -10.80008 8.15086 -10.3251 0.381 0
DS 8.15086 -10.3251 7.874 -9.90092 0.381 0
DS 7.874 -9.90092 7.29996 -9.5504 0.381 0
DS 7.29996 -9.5504 2.75082 -9.525 0.381 0
DS 2.75082 -9.525 2.27584 -9.79932 0.381 0
DS 2.27584 -9.79932 1.92532 -10.22604 0.381 0
DS 1.92532 -10.22604 1.84912 -10.85088 0.381 0
DS 1.84912 -10.85088 1.99898 -11.37412 0.381 0
DS 1.99898 -11.37412 2.4511 -11.75004 0.381 0
DS 2.4511 -11.75004 2.99974 -11.9253 0.381 0
DS -7.27456 -12.07516 -5.95122 -12.10056 0.381 0
DS -5.95122 -12.10056 -3.42392 -12.14882 0.381 0
DS -3.42392 -12.14882 -2.47396 -12.04976 0.381 0
DS -2.47396 -12.04976 -1.99898 -11.65098 0.381 0
DS -1.99898 -11.65098 -1.47574 -10.85088 0.381 0
DS -1.47574 -10.85088 -1.92532 -9.87552 0.381 0
DS -1.92532 -9.87552 -2.3241 -9.42594 0.381 0
DS -2.3241 -9.42594 -3.9497 -9.19988 0.381 0
DS -3.9497 -9.19988 -6.85038 -9.32434 0.381 0
DS -6.85038 -9.32434 -7.50062 -9.5504 0.381 0
DS -7.50062 -9.5504 -8.10006 -10.02538 0.381 0
DS -8.10006 -10.02538 -8.37438 -10.3251 0.381 0
DS -8.37438 -10.3251 -8.30072 -11.37412 0.381 0
DS -8.30072 -11.37412 -7.42442 -12.12596 0.381 0
DS -7.42442 -12.12596 -6.25094 -12.12596 0.381 0
DS -7.0993 -11.8999 -2.92608 -11.8999 0.381 0
DS -2.92608 -11.8999 -2.47396 -11.77544 0.381 0
DS -2.47396 -11.77544 -2.14884 -11.54938 0.381 0
DS -2.14884 -11.54938 -1.92532 -11.19886 0.381 0
DS -1.92532 -11.19886 -1.82626 -10.82548 0.381 0
DS -1.82626 -10.82548 -1.82626 -10.42416 0.381 0
DS -1.82626 -10.42416 -1.99898 -10.07618 0.381 0
DS -1.99898 -10.07618 -2.30124 -9.79932 0.381 0
DS -2.30124 -9.79932 -2.62382 -9.62406 0.381 0
DS -2.62382 -9.62406 -3.1242 -9.5504 0.381 0
DS -3.1242 -9.5504 -7.1755 -9.525 0.381 0
DS -7.1755 -9.525 -7.59968 -9.62406 0.381 0
DS -7.59968 -9.62406 -7.9248 -9.94918 0.381 0
DS -7.9248 -9.94918 -8.10006 -10.39876 0.381 0
DS -8.10006 -10.39876 -8.15086 -10.87374 0.381 0
DS -8.15086 -10.87374 -7.9756 -11.30046 0.381 0
DS -7.9756 -11.30046 -7.69874 -11.60018 0.381 0
DS -7.69874 -11.60018 -7.35076 -11.82624 0.381 0
DS -7.35076 -11.82624 -6.79958 -11.8999 0.381 0
DS -6.79958 -11.8999 -6.82498 -11.8999 0.381 0
DS -7.1247 -11.8745 -2.79908 -11.8745 0.381 15
DS -2.79908 -11.8745 -2.3749 -11.72464 0.381 15
DS -2.3749 -11.72464 -2.07518 -11.45032 0.381 15
DS -2.07518 -11.45032 -1.87452 -11.02614 0.381 15
DS -1.87452 -11.02614 -1.82626 -10.47496 0.381 15
DS -1.82626 -10.47496 -2.04978 -10.02538 0.381 15
DS -2.04978 -10.02538 -2.3241 -9.79932 0.381 15
DS -2.3241 -9.79932 -2.62382 -9.62406 0.381 15
DS -2.62382 -9.62406 -2.94894 -9.5504 0.381 15
DS -2.94894 -9.5504 -7.1755 -9.5504 0.381 15
DS -7.1755 -9.5504 -7.72414 -9.72566 0.381 15
DS -7.72414 -9.72566 -8.001 -10.12444 0.381 15
DS -8.001 -10.12444 -8.12546 -10.52576 0.381 15
DS -8.12546 -10.52576 -8.10006 -11.049 0.381 15
DS -8.10006 -11.049 -7.85114 -11.45032 0.381 15
DS -7.85114 -11.45032 -7.52602 -11.77544 0.381 15
DS -7.52602 -11.77544 -7.0739 -11.8745 0.381 15
DS 8.17626 -11.00074 7.9756 -11.39952 0.381 0
DS 7.9756 -11.39952 7.77494 -11.60018 0.381 0
DS 7.77494 -11.60018 7.47522 -11.75004 0.381 0
DS 7.47522 -11.75004 7.0993 -11.8491 0.381 0
DS 7.0993 -11.8491 6.12394 -11.8745 0.381 0
DS 6.12394 -11.8745 5.30098 -11.8745 0.381 15
DS 5.30098 -11.8745 4.22402 -11.8745 0.381 15
DS 4.22402 -11.8745 3.57378 -11.8745 0.381 15
DS 3.57378 -11.8745 2.97434 -11.8745 0.381 15
DS 2.97434 -11.8745 2.55016 -11.82624 0.381 15
DS 2.55016 -11.82624 2.3241 -11.65098 0.381 15
DS 2.3241 -11.65098 2.02438 -11.37412 0.381 15
DS 2.02438 -11.37412 1.84912 -11.00074 0.381 15
DS 1.84912 -11.00074 1.84912 -10.62482 0.381 15
DS 1.84912 -10.62482 1.92532 -10.22604 0.381 15
DS 1.92532 -10.22604 2.14884 -9.92378 0.381 15
DS 2.14884 -9.92378 2.49936 -9.64946 0.381 15
DS 2.49936 -9.64946 2.79908 -9.5504 0.381 15
DS 2.79908 -9.5504 3.85064 -9.525 0.381 15
DS 3.85064 -9.525 6.3246 -9.5504 0.381 15
DS 6.3246 -9.5504 7.24916 -9.525 0.381 15
DS 7.24916 -9.525 7.74954 -9.77392 0.381 15
DS 7.74954 -9.77392 8.15086 -10.2743 0.381 15
DS 8.15086 -10.2743 8.17626 -10.80008 0.381 15
DS 8.17626 -10.80008 7.9502 -11.47572 0.381 15
DS 7.9502 -11.47572 7.57428 -11.67384 0.381 15
DS 7.57428 -11.67384 7.44982 -11.9761 0.381 15
DS 7.44982 -11.9761 5.45084 -12.02436 0.381 15
DS 5.45084 -12.02436 4.97586 -12.12596 0.381 15
DS 4.97586 -12.12596 3.72618 -12.04976 0.381 15
DS 3.72618 -12.04976 2.75082 -12.07516 0.381 15
DS 2.75082 -12.07516 1.92532 -11.65098 0.381 15
DS 1.92532 -11.65098 1.47574 -10.87374 0.381 15
DS 1.47574 -10.87374 1.80086 -9.87552 0.381 15
DS 1.80086 -9.87552 2.62382 -9.32434 0.381 15
DS 2.62382 -9.32434 4.04876 -9.29894 0.381 15
DS 4.04876 -9.29894 5.32384 -9.25068 0.381 15
DS 5.32384 -9.25068 7.39902 -9.32434 0.381 15
DS 7.39902 -9.32434 8.15086 -9.77392 0.381 15
DS 8.15086 -9.77392 8.49884 -10.52576 0.381 15
DS 8.49884 -10.52576 8.17626 -11.52398 0.381 15
DS 8.17626 -11.52398 7.59968 -11.9253 0.381 15
DS 7.59968 -11.9253 7.50062 -11.8999 0.381 15
DS 6.97484 -11.8745 2.97434 -11.8999 0.381 28
DS 1.80086 -10.65022 1.82626 -10.44956 0.381 28
DS 1.82626 -10.44956 1.87452 -10.3251 0.381 28
DS 1.87452 -10.3251 1.92532 -10.20064 0.381 28
DS 1.92532 -10.20064 1.97612 -10.09904 0.381 28
DS 1.97612 -10.09904 2.04978 -9.97458 0.381 28
DS 2.04978 -9.97458 2.12598 -9.87552 0.381 28
DS 2.12598 -9.87552 2.22504 -9.77392 0.381 28
DS 2.22504 -9.77392 2.3495 -9.70026 0.381 28
DS 2.3495 -9.70026 2.4511 -9.62406 0.381 28
DS 2.4511 -9.62406 2.60096 -9.5758 0.381 28
DS 2.60096 -9.5758 2.77622 -9.4996 0.381 28
DS 2.77622 -9.4996 2.84988 -9.4996 0.381 28
DS 2.84988 -9.4996 3.02514 -9.4996 0.381 28
DS 3.02514 -9.4996 7.02564 -9.4996 0.381 28
DS 1.80086 -10.67562 1.82626 -10.87374 0.381 28
DS 1.82626 -10.87374 1.92532 -11.27506 0.381 28
DS 1.92532 -11.27506 1.99898 -11.39952 0.381 28
DS 1.99898 -11.39952 2.17424 -11.54938 0.381 28
DS 2.17424 -11.54938 2.30124 -11.67384 0.381 28
DS 2.30124 -11.67384 2.47396 -11.80084 0.381 28
DS 2.47396 -11.80084 2.67462 -11.8491 0.381 28
DS 2.67462 -11.8491 2.87528 -11.8999 0.381 28
DS 2.87528 -11.8999 2.99974 -11.8999 0.381 28
DS 8.19912 -10.62482 8.17626 -10.44956 0.381 28
DS 8.17626 -10.44956 8.12546 -10.2743 0.381 28
DS 8.12546 -10.2743 8.02386 -10.09904 0.381 28
DS 8.02386 -10.09904 7.874 -9.85012 0.381 28
DS 7.874 -9.85012 7.72414 -9.72566 0.381 28
DS 7.72414 -9.72566 7.52602 -9.6012 0.381 28
DS 7.47776 -9.5758 7.3279 -9.4996 0.381 28
DS 7.37616 -9.4996 7.27456 -9.4996 0.381 28
DS 7.2009 -9.4996 7.00024 -9.4996 0.381 28
DS 8.19912 -10.67562 8.19912 -10.82548 0.381 28
DS 8.19912 -10.82548 8.17626 -10.94994 0.381 28
DS 8.17626 -10.94994 8.12546 -11.1506 0.381 28
DS 8.12546 -11.1506 8.02386 -11.32586 0.381 28
DS 8.02386 -11.32586 7.80034 -11.57478 0.381 28
DS 7.80034 -11.57478 7.65048 -11.67384 0.381 28
DS 7.65048 -11.67384 7.44982 -11.77544 0.381 28
DS 7.44982 -11.77544 7.1501 -11.8491 0.381 28
DS 7.1501 -11.8491 7.00024 -11.8745 0.381 28
DS -2.62382 -12.10056 -5.34924 -12.12596 0.381 15
DS -5.34924 -12.12596 -7.37616 -12.12596 0.381 15
DS -7.37616 -12.12596 -8.32612 -11.37412 0.381 15
DS -8.32612 -11.37412 -8.34898 -10.2743 0.381 15
DS -8.34898 -10.2743 -7.59968 -9.5758 0.381 15
DS -7.59968 -9.5758 -6.94944 -9.32434 0.381 15
DS -6.94944 -9.32434 -3.50012 -9.22528 0.381 15
DS -3.50012 -9.22528 -2.19964 -9.4996 0.381 15
DS -2.19964 -9.4996 -1.42494 -10.67562 0.381 15
DS -1.42494 -10.67562 -2.10058 -11.82624 0.381 15
DS -2.10058 -11.82624 -2.52476 -12.07516 0.381 15
DS -2.92608 -9.525 -7.0739 -9.4996 0.381 28
DS -3.02514 -11.8999 -7.00024 -11.8999 0.381 28
DS -7.9502 -9.97458 -7.82574 -9.82472 0.381 28
DS -7.82574 -9.82472 -7.69874 -9.72566 0.381 28
DS -7.69874 -9.72566 -7.54888 -9.62406 0.381 28
DS -7.54888 -9.62406 -7.39902 -9.5758 0.381 15
DS -7.39902 -9.5758 -7.22376 -9.525 0.381 28
DS -7.22376 -9.525 -7.1247 -9.525 0.381 28
DS -7.1247 -9.525 -7.00024 -9.4996 0.381 15
DS -8.17626 -10.70102 -8.17626 -10.50036 0.381 28
DS -8.17626 -10.50036 -8.12546 -10.2997 0.381 28
DS -8.12546 -10.2997 -8.04926 -10.09904 0.381 28
DS -8.04926 -10.09904 -7.9756 -10.02538 0.381 28
DS -8.19912 -10.70102 -8.17626 -10.87374 0.381 28
DS -8.17626 -10.87374 -8.15086 -11.02614 0.381 28
DS -8.15086 -11.02614 -8.001 -11.30046 0.381 28
DS -8.001 -11.30046 -7.874 -11.50112 0.381 28
DS -7.874 -11.50112 -7.72414 -11.65098 0.381 28
DS -7.72414 -11.65098 -7.52602 -11.80084 0.381 28
DS -7.52602 -11.80084 -7.35076 -11.8745 0.381 28
DS -7.35076 -11.8745 -7.1755 -11.8999 0.381 28
DS -7.1755 -11.8999 -7.00024 -11.8999 0.381 28
DS -1.80086 -10.65022 -1.82626 -10.44956 0.381 28
DS -1.82626 -10.44956 -1.87452 -10.2997 0.381 28
DS -1.87452 -10.2997 -1.97612 -10.09904 0.381 28
DS -1.97612 -10.09904 -2.10058 -9.94918 0.381 28
DS -2.10058 -9.94918 -2.22504 -9.79932 0.381 28
DS -2.22504 -9.79932 -2.3495 -9.72566 0.381 28
DS -2.3495 -9.72566 -2.55016 -9.6012 0.381 28
DS -2.55016 -9.6012 -2.75082 -9.525 0.381 28
DS -2.75082 -9.525 -2.94894 -9.525 0.381 28
DS -2.94894 -9.525 -2.99974 -9.525 0.381 15
DS -1.80086 -10.70102 -1.80086 -10.85088 0.381 28
DS -1.80086 -10.85088 -1.82626 -10.97534 0.381 15
DS -1.82626 -10.97534 -1.87452 -11.1506 0.381 28
DS -1.87452 -11.1506 -1.97612 -11.30046 0.381 0
DS -1.97612 -11.30046 -2.12598 -11.52398 0.381 28
DS -2.12598 -11.52398 -2.22504 -11.62558 0.381 15
DS -2.22504 -11.62558 -2.3495 -11.72464 0.381 28
DS -2.3495 -11.72464 -2.47396 -11.80084 0.381 15
DS -2.47396 -11.80084 -2.57556 -11.82624 0.381 28
DS -2.57556 -11.82624 -2.70002 -11.8745 0.381 28
DS -2.70002 -11.8745 -2.84988 -11.8999 0.381 28
DS -2.84988 -11.8999 -2.99974 -11.8999 0.381 28
$PAD
Sh "4" C 1.524 1.524 0 0 0
Dr 0.59944 0 0
At STD N 00E0FFFF
Ne 0 ""
Po 8.8011 -9.82472
$EndPAD
$PAD
Sh "4" C 1.524 1.524 0 0 0
Dr 0.59944 0 0
At STD N 00E0FFFF
Ne 0 ""
Po 3.1242 -12.6746
$EndPAD
$PAD
Sh "4" C 1.524 1.524 0 0 0
Dr 0.59944 0 0
At STD N 00E0FFFF
Ne 0 ""
Po 4.35102 -12.6492
$EndPAD
$PAD
Sh "4" C 1.524 1.524 0 0 0
Dr 0.59944 0 0
At STD N 00E0FFFF
Ne 0 ""
Po 5.72516 -12.6492
$EndPAD
$PAD
Sh "4" C 1.524 1.524 0 0 0
Dr 0.59944 0 0
At STD N 00E0FFFF
Ne 0 ""
Po 6.87578 -12.6238
$EndPAD
$PAD
Sh "4" C 1.524 1.524 0 0 0
Dr 0.59944 0 0
At STD N 00E0FFFF
Ne 0 ""
Po 3.0988 -8.7249
$EndPAD
$PAD
Sh "4" C 1.524 1.524 0 0 0
Dr 0.59944 0 0
At STD N 00E0FFFF
Ne 0 ""
Po 4.32562 -8.6741
$EndPAD
$PAD
Sh "4" C 1.524 1.524 0 0 0
Dr 0.59944 0 0
At STD N 00E0FFFF
Ne 0 ""
Po 5.67436 -8.7249
$EndPAD
$PAD
Sh "4" C 1.524 1.524 0 0 0
Dr 0.59944 0 0
At STD N 00E0FFFF
Ne 0 ""
Po 6.85038 -8.7249
$EndPAD
$PAD
Sh "4" C 1.524 1.524 0 0 0
Dr 0.59944 0 0
At STD N 00E0FFFF
Ne 0 ""
Po 8.95096 -11.176
$EndPAD
$PAD
Sh "4" C 1.524 1.524 0 0 0
Dr 0.59944 0 0
At STD N 00E0FFFF
Ne 0 ""
Po 8.17626 -12.34948
$EndPAD
$PAD
Sh "4" C 1.524 1.524 0 0 0
Dr 0.59944 0 0
At STD N 00E0FFFF
Ne 0 ""
Po 7.9756 -8.97382
$EndPAD
$PAD
Sh "4" O 1.524 1.00076 0 0 650
Dr 0.59944 0 0.09906
At STD N 00E0FFFF
Ne 0 ""
Po 1.22428 -11.67384
$EndPAD
$PAD
Sh "4" O 1.524 1.00076 0 0 2950
Dr 0.59944 0 -0.09906
At STD N 00E0FFFF
Ne 0 ""
Po 1.04902 -10.2489
$EndPAD
$PAD
Sh "4" C 1.524 1.524 0 0 0
Dr 0.59944 0 0
At STD N 00E0FFFF
Ne 0 ""
Po 2.02438 -12.45108
$EndPAD
$PAD
Sh "4" C 1.524 1.524 0 0 0
Dr 0.59944 0 0
At STD N 00E0FFFF
Ne 0 ""
Po 1.80086 -9.14908
$EndPAD
$PAD
Sh "5" C 1.524 1.524 0 0 0
Dr 0.59944 0 0
At STD N 00E0FFFF
Ne 0 ""
Po -3.175 -12.6746
$EndPAD
$PAD
Sh "5" C 1.524 1.524 0 0 0
Dr 0.59944 0 0
At STD N 00E0FFFF
Ne 0 ""
Po -6.92404 -12.6746
$EndPAD
$PAD
Sh "5" C 1.524 1.524 0 0 0
Dr 0.59944 0 0
At STD N 00E0FFFF
Ne 0 ""
Po -5.79882 -12.7
$EndPAD
$PAD
Sh "5" C 1.524 1.524 0 0 0
Dr 0.59944 0 0
At STD N 00E0FFFF
Ne 0 ""
Po -4.54914 -12.6492
$EndPAD
$PAD
Sh "5" C 1.524 1.524 0 0 0
Dr 0.59944 0 0
At STD N 00E0FFFF
Ne 0 ""
Po -6.92404 -8.7503
$EndPAD
$PAD
Sh "5" C 1.524 1.524 0 0 0
Dr 0.59944 0 0
At STD N 00E0FFFF
Ne 0 ""
Po -3.0988 -8.6995
$EndPAD
$PAD
Sh "5" C 1.524 1.524 0 0 0
Dr 0.59944 0 0
At STD N 00E0FFFF
Ne 0 ""
Po -5.64896 -8.6995
$EndPAD
$PAD
Sh "5" C 1.524 1.524 0 0 0
Dr 0.59944 0 0
At STD N 00E0FFFF
Ne 0 ""
Po -4.50088 -8.7249
$EndPAD
$PAD
Sh "5" C 1.524 1.524 0 0 0
Dr 0.59944 0 0
At STD N 00E0FFFF
Ne 0 ""
Po -8.12546 -12.30122
$EndPAD
$PAD
Sh "5" C 1.524 1.524 0 0 0
Dr 0.59944 0 0
At STD N 00E0FFFF
Ne 0 ""
Po -7.9756 -9.02462
$EndPAD
$PAD
Sh "5" C 1.524 1.524 0 0 0
Dr 0.59944 0 0
At STD N 00E0FFFF
Ne 0 ""
Po -8.8011 -9.82472
$EndPAD
$PAD
Sh "5" C 1.524 1.524 0 0 0
Dr 0.59944 0 0
At STD N 00E0FFFF
Ne 0 ""
Po -8.97382 -11.0744
$EndPAD
$PAD
Sh "5" C 1.524 1.524 0 0 0
Dr 0.59944 0 0
At STD N 00E0FFFF
Ne 0 ""
Po -1.95072 -12.40028
$EndPAD
$PAD
Sh "5" C 1.524 1.524 0 0 0
Dr 0.59944 0 0
At STD N 00E0FFFF
Ne 0 ""
Po -1.82626 -9.07542
$EndPAD
$PAD
Sh "5" O 1.524 1.00076 0 0 650
Dr 0.59944 0 -0.09906
At STD N 00E0FFFF
Ne 0 ""
Po -1.07442 -10.07618
$EndPAD
$PAD
Sh "5" O 1.524 1.00076 0 0 2950
Dr 0.59944 0 0.09906
At STD N 00E0FFFF
Ne 0 ""
Po -1.09982 -11.39952
$EndPAD
$PAD
Sh "2" C 1.50114 1.50114 0 0 0
Dr 0.89916 0 0
At STD N 00E0FFFF
Ne 0 ""
Po 0 10.70102
$EndPAD
$PAD
Sh "3" C 1.50114 1.50114 0 0 0
Dr 0.89916 0 0
At STD N 00E0FFFF
Ne 0 ""
Po 1.91008 10.70102
$EndPAD
$PAD
Sh "1" C 1.50114 1.50114 0 0 0
Dr 0.89916 0 0
At STD N 00E0FFFF
Ne 0 ""
Po -1.91008 10.70102
$EndPAD
$SHAPE3D
Na "PFF_PSF_PSS_Leadforms/PFF_Leadform_5pins.wrl"
Sc 0.3937 0.3937 0.3937
Of 0 0 0
Ro 0 0 0
$EndSHAPE3D
$EndMODULE PFF_Leadform_5pins
$MODULE PSF_Leadform_5pins
Po 0 0 0 15 4FD62645 00000000 ~~
Li PSF_Leadform_5pins
Cd Allegro, Hallsensor, Throughhole-SMD hybrid, Package CB-PSF,
Kw Allegro, Hallsensor, Throughhole-SMD hybrid, Package CB-PSF,
Sc 0
AR IC-provisorisch
Op 0 0 0
T0 0.20066 -14.89964 1.524 1.524 0 0.3048 N V 21 N "IC"
T1 0.20066 13.89888 1.524 1.524 0 0.3048 N I 21 N "PSF_Leadform_5pins"
DS 5.90042 6.35 5.84962 6.64972 0.381 28
DS 5.84962 6.64972 5.64896 6.94944 0.381 28
DS 5.64896 6.94944 5.40004 7.1501 0.381 28
DS 5.40004 7.1501 5.15112 7.24916 0.381 28
DS 5.15112 7.24916 4.8006 7.29996 0.381 28
DS 4.8006 7.29996 4.35102 7.29996 0.381 28
DS 4.35102 7.29996 -4.89966 7.29996 0.381 28
DS -4.89966 7.29996 -5.19938 7.24916 0.381 28
DS -5.19938 7.24916 -5.45084 7.1501 0.381 28
DS -5.45084 7.1501 -5.6007 7.00024 0.381 28
DS -5.6007 7.00024 -5.79882 6.74878 0.381 28
DS -5.79882 6.74878 -5.90042 6.44906 0.381 28
DS -5.90042 6.44906 -5.90042 5.99948 0.381 28
DS -5.90042 5.99948 -5.90042 -0.7493 0.381 28
DS -5.90042 -0.7493 -5.90042 -6.25094 0.381 28
DS -5.90042 -6.25094 -5.84962 -6.55066 0.381 28
DS -5.84962 -6.55066 -5.69976 -6.79958 0.381 28
DS -5.69976 -6.79958 -5.45084 -7.05104 0.381 28
DS -5.45084 -7.05104 -5.19938 -7.1501 0.381 28
DS -5.19938 -7.1501 -4.95046 -7.2009 0.381 28
DS 4.84886 -7.2009 5.04952 -7.2009 0.381 28
DS 5.04952 -7.2009 5.34924 -7.0993 0.381 28
DS 5.34924 -7.0993 5.5499 -6.94944 0.381 28
DS 5.5499 -6.94944 5.75056 -6.70052 0.381 28
DS 5.75056 -6.70052 5.90042 -6.35 0.381 28
DS 5.90042 -6.35 5.90042 -5.95122 0.381 28
DS 5.90042 -5.34924 5.90042 6.20014 0.381 28
DS 5.90042 -6.25094 5.90042 6.35 0.381 28
DS -4.95046 -7.2009 4.84886 -7.2009 0.381 28
DS -6.49986 5.99948 -6.79958 6.49986 0.381 21
DS -6.49986 5.99948 -6.79958 5.4991 0.381 21
DS -6.49986 5.99948 -8.6995 5.99948 0.381 21
DC -4.0005 5.00126 -3.79984 5.4991 0.381 21
DS -3.2004 8.60044 -3.50012 8.50138 0.381 21
DS -3.50012 8.50138 -3.79984 8.60044 0.381 21
DS -3.79984 8.60044 -4.0005 9.00176 0.381 21
DS -4.0005 9.00176 -3.79984 9.40054 0.381 21
DS -3.79984 9.40054 -3.59918 9.6012 0.381 21
DS -3.59918 9.6012 -3.29946 9.40054 0.381 21
DS -4.50088 8.50138 -4.8006 8.50138 0.381 21
DS -4.8006 8.50138 -5.19938 8.60044 0.381 21
DS -5.19938 8.60044 -5.30098 9.10082 0.381 21
DS -5.30098 9.10082 -5.10032 9.50214 0.381 21
DS -5.10032 9.50214 -4.8006 9.50214 0.381 21
DS -4.8006 9.50214 -4.59994 9.40054 0.381 21
DS -6.70052 8.001 -6.20014 9.30148 0.381 21
DS -6.20014 9.30148 -5.69976 8.001 0.381 21
DS 6.90118 8.39978 6.2992 8.39978 0.381 21
DS 6.49986 7.7978 6.49986 9.29894 0.381 21
DS 6.49986 9.29894 6.70052 9.398 0.381 21
DS 6.70052 9.398 6.90118 9.398 0.381 21
DS 5.19938 8.39978 5.19938 9.29894 0.381 21
DS 5.19938 9.29894 5.4991 9.398 0.381 21
DS 5.4991 9.398 5.79882 9.29894 0.381 21
DS 5.79882 9.29894 5.79882 8.39978 0.381 21
DS 4.0005 7.90194 3.79984 7.90194 0.381 21
DS 3.79984 7.8994 3.50012 8.09752 0.381 21
DS 3.50012 8.09752 3.40106 8.6995 0.381 21
DS 3.40106 8.6995 3.50012 9.09828 0.381 21
DS 3.50012 9.09828 3.79984 9.398 0.381 21
DS 3.79984 9.398 4.20116 9.398 0.381 21
DS 4.20116 9.398 4.39928 9.09828 0.381 21
DS 4.39928 9.09828 4.50088 8.49884 0.381 21
DS 4.50088 8.49884 4.39928 8.09752 0.381 21
DS 4.39928 8.09752 4.0005 7.8994 0.381 21
DS 9.40054 2.99974 9.40054 4.20116 0.381 21
DS 9.99998 3.59918 8.79856 3.59918 0.381 21
DS 7.39902 3.2004 7.80034 3.2004 0.381 21
DS 7.80034 3.2004 8.10006 3.40106 0.381 21
DS 8.10006 3.40106 8.10006 3.8989 0.381 21
DS 8.10006 3.8989 7.8994 4.20116 0.381 21
DS 7.8994 4.20116 7.50062 4.20116 0.381 21
DS 7.39902 3.2004 7.39902 4.699 0.381 21
DS 6.70052 2.60096 6.70052 4.20116 0.381 21
DS 1.19888 3.2004 1.19888 4.699 0.381 21
DS 1.19888 4.699 1.69926 4.59994 0.381 21
DS 1.69926 4.59994 1.99898 4.09956 0.381 21
DS 1.99898 4.09956 1.99898 3.59918 0.381 21
DS 1.99898 3.59918 1.69926 3.29946 0.381 21
DS 1.69926 3.29946 1.19888 3.2004 0.381 21
DS -0.39878 4.699 -0.39878 3.2004 0.381 21
DS -0.39878 3.2004 0.39878 4.699 0.381 21
DS 0.39878 4.699 0.39878 3.2004 0.381 21
DS -1.19888 3.29946 -1.30048 3.2004 0.381 21
DS -1.30048 3.2004 -1.69926 3.2004 0.381 21
DS -1.69926 3.2004 -1.99898 3.59918 0.381 21
DS -1.99898 3.59918 -2.10058 4.09956 0.381 21
DS -2.10058 4.09956 -1.80086 4.50088 0.381 21
DS -1.80086 4.50088 -1.39954 4.699 0.381 21
DS -1.39954 4.699 -1.19888 4.59994 0.381 21
DS -1.19888 4.59994 -1.19888 4.0005 0.381 21
DS -1.19888 4.0005 -1.50114 4.0005 0.381 21
DS -6.4008 3.40106 -7.50062 3.40106 0.381 21
DS -8.90016 2.99974 -8.50138 2.99974 0.381 21
DS -8.50138 2.99974 -8.30072 3.0988 0.381 21
DS -8.30072 3.0988 -8.20166 3.29946 0.381 21
DS -8.20166 3.29946 -8.20166 3.79984 0.381 21
DS -8.20166 3.79984 -8.39978 4.0005 0.381 21
DS -8.39978 4.0005 -8.90016 4.0005 0.381 21
DS -8.90016 2.99974 -8.90016 4.50088 0.381 21
DS -9.6012 2.49936 -9.6012 4.0005 0.381 21
DS 1.89992 6.20014 1.89992 9.19988 0.381 21
DS -1.89992 6.20014 -1.89992 9.19988 0.381 21
DS 0 6.20014 0 9.19988 0.381 21
DS -5.10032 -6.59892 5.10032 -6.59892 0.381 21
DS 5.10032 -6.59892 5.10032 6.20014 0.381 21
DS 5.10032 6.20014 -5.10032 6.20014 0.381 21
DS -5.10032 6.20014 -5.10032 -6.59892 0.381 21
$PAD
Sh "2" C 1.50114 1.50114 0 0 0
Dr 0.89916 0 0
At STD N 00E0FFFF
Ne 0 ""
Po 0 10.70102
$EndPAD
$PAD
Sh "3" C 1.50114 1.50114 0 0 0
Dr 0.89916 0 0
At STD N 00E0FFFF
Ne 0 ""
Po 1.91008 10.70102
$EndPAD
$PAD
Sh "1" C 1.50114 1.50114 0 0 0
Dr 0.89916 0 0
At STD N 00E0FFFF
Ne 0 ""
Po -1.91008 10.70102
$EndPAD
$PAD
Sh "4" R 5.50164 12.0015 0 0 0
Dr 0 0 0
At SMD N 00888000
Ne 0 ""
Po 5.40004 -13.89888
$EndPAD
$PAD
Sh "5" R 5.50164 12.0015 0 0 0
Dr 0 0 0
At SMD N 00888000
Ne 0 ""
Po -5.40004 -13.89888
$EndPAD
$SHAPE3D
Na "PFF_PSF_PSS_Leadforms/PSF_Leadform_5pins.wrl"
Sc 0.3937 0.3937 0.3937
Of 0 0 0
Ro 0 0 0
$EndSHAPE3D
$EndMODULE PSF_Leadform_5pins
$MODULE PSS_Leadform_5pins
Po 0 0 0 15 4FD635B6 00000000 ~~
Li PSS_Leadform_5pins
Cd Allegro, Hallsensor, SMD, Package CB-PSS,
Kw Allegro, Hallsensor, SMD, Package CB-PSS,
Sc 0
AR IC-provisorisch
Op 0 0 0
T0 0.20066 -14.89964 1.524 1.524 0 0.3048 N V 21 N "IC"
T1 -0.09906 19.49958 1.524 1.524 0 0.3048 N I 21 N "PSS_Leadform_5pins"
DS 5.90042 -5.95122 5.95122 6.4008 0.381 28
DS -5.34924 -7.0993 -4.89966 -7.2009 0.381 28
DS -4.89966 -7.2009 0.09906 -7.2009 0.381 28
DS 0 -7.2009 4.89966 -7.2009 0.381 28
DS 4.89966 -7.2009 5.25018 -7.1501 0.381 28
DS 5.25018 -7.1501 5.6007 -6.90118 0.381 28
DS 5.6007 -6.90118 5.84962 -6.44906 0.381 28
DS 5.84962 -6.44906 5.90042 -5.95122 0.381 28
DS 5.95122 6.35 5.79882 6.79958 0.381 28
DS 5.79882 6.79958 5.45084 7.1501 0.381 28
DS 5.45084 7.1501 5.00126 7.29996 0.381 28
DS 5.00126 7.29996 4.20116 7.29996 0.381 28
DS 4.20116 7.29996 -4.89966 7.29996 0.381 28
DS -4.89966 7.29996 -5.34924 7.2009 0.381 28
DS -5.34924 7.2009 -5.69976 6.90118 0.381 28
DS -5.69976 6.90118 -5.90042 6.4008 0.381 28
DS -5.90042 6.4008 -5.90042 5.75056 0.381 28
DS -5.90042 5.75056 -5.90042 -6.35 0.381 28
DS -5.90042 -6.35 -5.69976 -6.79958 0.381 28
DS -5.69976 -6.79958 -5.34924 -7.0993 0.381 28
DS -6.49986 5.99948 -6.79958 6.49986 0.381 21
DS -6.49986 5.99948 -6.79958 5.4991 0.381 21
DS -6.49986 5.99948 -8.6995 5.99948 0.381 21
DC -4.0005 5.00126 -3.79984 5.4991 0.381 21
DS -3.2004 8.60044 -3.50012 8.50138 0.381 21
DS -3.50012 8.50138 -3.79984 8.60044 0.381 21
DS -3.79984 8.60044 -4.0005 9.00176 0.381 21
DS -4.0005 9.00176 -3.79984 9.40054 0.381 21
DS -3.79984 9.40054 -3.59918 9.6012 0.381 21
DS -3.59918 9.6012 -3.29946 9.40054 0.381 21
DS -4.50088 8.50138 -4.8006 8.50138 0.381 21
DS -4.8006 8.50138 -5.19938 8.60044 0.381 21
DS -5.19938 8.60044 -5.30098 9.10082 0.381 21
DS -5.30098 9.10082 -5.10032 9.50214 0.381 21
DS -5.10032 9.50214 -4.8006 9.50214 0.381 21
DS -4.8006 9.50214 -4.59994 9.40054 0.381 21
DS -6.70052 8.001 -6.20014 9.30148 0.381 21
DS -6.20014 9.30148 -5.69976 8.001 0.381 21
DS 6.90118 8.39978 6.2992 8.39978 0.381 21
DS 6.49986 7.7978 6.49986 9.29894 0.381 21
DS 6.49986 9.29894 6.70052 9.398 0.381 21
DS 6.70052 9.398 6.90118 9.398 0.381 21
DS 5.19938 8.39978 5.19938 9.29894 0.381 21
DS 5.19938 9.29894 5.4991 9.398 0.381 21
DS 5.4991 9.398 5.79882 9.29894 0.381 21
DS 5.79882 9.29894 5.79882 8.39978 0.381 21
DS 4.0005 7.90194 3.79984 7.90194 0.381 21
DS 3.79984 7.8994 3.50012 8.09752 0.381 21
DS 3.50012 8.09752 3.40106 8.6995 0.381 21
DS 3.40106 8.6995 3.50012 9.09828 0.381 21
DS 3.50012 9.09828 3.79984 9.398 0.381 21
DS 3.79984 9.398 4.20116 9.398 0.381 21
DS 4.20116 9.398 4.39928 9.09828 0.381 21
DS 4.39928 9.09828 4.50088 8.49884 0.381 21
DS 4.50088 8.49884 4.39928 8.09752 0.381 21
DS 4.39928 8.09752 4.0005 7.8994 0.381 21
DS 9.40054 2.99974 9.40054 4.20116 0.381 21
DS 9.99998 3.59918 8.79856 3.59918 0.381 21
DS 7.39902 3.2004 7.80034 3.2004 0.381 21
DS 7.80034 3.2004 8.10006 3.40106 0.381 21
DS 8.10006 3.40106 8.10006 3.8989 0.381 21
DS 8.10006 3.8989 7.8994 4.20116 0.381 21
DS 7.8994 4.20116 7.50062 4.20116 0.381 21
DS 7.39902 3.2004 7.39902 4.699 0.381 21
DS 6.70052 2.60096 6.70052 4.20116 0.381 21
DS 1.19888 3.2004 1.19888 4.699 0.381 21
DS 1.19888 4.699 1.69926 4.59994 0.381 21
DS 1.69926 4.59994 1.99898 4.09956 0.381 21
DS 1.99898 4.09956 1.99898 3.59918 0.381 21
DS 1.99898 3.59918 1.69926 3.29946 0.381 21
DS 1.69926 3.29946 1.19888 3.2004 0.381 21
DS -0.39878 4.699 -0.39878 3.2004 0.381 21
DS -0.39878 3.2004 0.39878 4.699 0.381 21
DS 0.39878 4.699 0.39878 3.2004 0.381 21
DS -1.19888 3.29946 -1.30048 3.2004 0.381 21
DS -1.30048 3.2004 -1.69926 3.2004 0.381 21
DS -1.69926 3.2004 -1.99898 3.59918 0.381 21
DS -1.99898 3.59918 -2.10058 4.09956 0.381 21
DS -2.10058 4.09956 -1.80086 4.50088 0.381 21
DS -1.80086 4.50088 -1.39954 4.699 0.381 21
DS -1.39954 4.699 -1.19888 4.59994 0.381 21
DS -1.19888 4.59994 -1.19888 4.0005 0.381 21
DS -1.19888 4.0005 -1.50114 4.0005 0.381 21
DS -6.4008 3.40106 -7.50062 3.40106 0.381 21
DS -8.90016 2.99974 -8.50138 2.99974 0.381 21
DS -8.50138 2.99974 -8.30072 3.0988 0.381 21
DS -8.30072 3.0988 -8.20166 3.29946 0.381 21
DS -8.20166 3.29946 -8.20166 3.79984 0.381 21
DS -8.20166 3.79984 -8.39978 4.0005 0.381 21
DS -8.39978 4.0005 -8.90016 4.0005 0.381 21
DS -8.90016 2.99974 -8.90016 4.50088 0.381 21
DS -9.6012 2.49936 -9.6012 4.0005 0.381 21
DS 1.89992 6.20014 1.89992 9.19988 0.381 21
DS -1.89992 6.20014 -1.89992 9.19988 0.381 21
DS 0 6.20014 0 9.19988 0.381 21
DS -5.10032 -6.59892 5.10032 -6.59892 0.381 21
DS 5.10032 -6.59892 5.10032 6.20014 0.381 21
DS 5.10032 6.20014 -5.10032 6.20014 0.381 21
DS -5.10032 6.20014 -5.10032 -6.59892 0.381 21
$PAD
Sh "2" R 1.00076 7.50062 0 0 0
Dr 0 0 0
At SMD N 00888000
Ne 0 ""
Po 0 13.89888
$EndPAD
$PAD
Sh "3" R 1.00076 7.50062 0 0 0
Dr 0 0 0
At SMD N 00888000
Ne 0 ""
Po 1.89992 13.89888
$EndPAD
$PAD
Sh "1" R 1.00076 7.50062 0 0 0
Dr 0 0 0
At SMD N 00888000
Ne 0 ""
Po -1.89992 13.89888
$EndPAD
$PAD
Sh "4" R 5.50164 12.0015 0 0 0
Dr 0 0 0
At SMD N 00888000
Ne 0 ""
Po 5.6007 -13.70076
$EndPAD
$PAD
Sh "5" R 5.50164 12.0015 0 0 0
Dr 0 0 0
At SMD N 00888000
Ne 0 ""
Po -5.6007 -13.70076
$EndPAD
$SHAPE3D
Na "PFF_PSF_PSS_Leadforms/PSS_Leadform_5pins.wrl"
Sc 0.3937 0.3937 0.3937
Of 0 0 0
Ro 0 0 0
$EndSHAPE3D
$EndMODULE PSS_Leadform_5pins
$EndLIBRARY
