PCBNEW-LibModule-V1  06/08/2013 12:03:33
# encoding utf-8
Units mm
$INDEX
PIN_ARRAY-6X1
PIN_ARRAY_1
PIN_ARRAY_20X2
PIN_ARRAY_28X1
PIN_ARRAY_2X1
PIN_ARRAY_2X2
PIN_ARRAY_30X2
PIN_ARRAY_3X1
PIN_ARRAY_4x1
PIN_ARRAY_5x1
PIN_ARRAY_5x2
pin_array_10x2
pin_array_12x2
pin_array_13x2
pin_array_3x2
pin_array_4x2
pin_array_6x2
pin_array_8x2
$EndINDEX
$MODULE PIN_ARRAY-6X1
Po 0 0 0 15 41402119 00000000 ~~
Li PIN_ARRAY-6X1
Cd Connecteur 6 pins
Kw CONN DEV
Sc 0
AR 
Op 0 0 0
T0 0 -2.159 1.016 1.016 0 0.2032 N V 21 N "PIN_ARRAY-6X1"
T1 0 2.159 1.016 0.889 0 0.2032 N I 21 N "Val**"
DS -7.62 1.27 -7.62 -1.27 0.3048 21
DS -7.62 -1.27 7.62 -1.27 0.3048 21
DS 7.62 -1.27 7.62 1.27 0.3048 21
DS 7.62 1.27 -7.62 1.27 0.3048 21
DS -5.08 1.27 -5.08 -1.27 0.3048 21
$PAD
Sh "1" R 1.524 1.524 0 0 0
Dr 1.016 0 0
At STD N 00E0FFFF
Ne 0 ""
Po -6.35 0
$EndPAD
$PAD
Sh "2" C 1.524 1.524 0 0 0
Dr 1.016 0 0
At STD N 00E0FFFF
Ne 0 ""
Po -3.81 0
$EndPAD
$PAD
Sh "3" C 1.524 1.524 0 0 0
Dr 1.016 0 0
At STD N 00E0FFFF
Ne 0 ""
Po -1.27 0
$EndPAD
$PAD
Sh "4" C 1.524 1.524 0 0 0
Dr 1.016 0 0
At STD N 00E0FFFF
Ne 0 ""
Po 1.27 0
$EndPAD
$PAD
Sh "5" C 1.524 1.524 0 0 0
Dr 1.016 0 0
At STD N 00E0FFFF
Ne 0 ""
Po 3.81 0
$EndPAD
$PAD
Sh "6" C 1.524 1.524 0 0 0
Dr 1.016 0 0
At STD N 00E0FFFF
Ne 0 ""
Po 6.35 0
$EndPAD
$SHAPE3D
Na "pin_array/pins_array_6x1.wrl"
Sc 1 1 1
Of 0 0 0
Ro 0 0 0
$EndSHAPE3D
$EndMODULE PIN_ARRAY-6X1
$MODULE PIN_ARRAY_1
Po 0 0 0 15 4E4E744E 00000000 ~~
Li PIN_ARRAY_1
Cd 1 pin
Kw CONN DEV
Sc 0
AR 
Op 0 0 0
T0 0 -1.905 0.762 0.762 0 0.1524 N V 21 N "PIN_ARRAY_1"
T1 0 -1.905 0.762 0.762 0 0.1524 N I 21 N "Val**"
DS 1.27 1.27 -1.27 1.27 0.1524 21
DS -1.27 -1.27 1.27 -1.27 0.1524 21
DS -1.27 1.27 -1.27 -1.27 0.1524 21
DS 1.27 -1.27 1.27 1.27 0.1524 21
$PAD
Sh "1" R 1.524 1.524 0 0 0
Dr 1.016 0 0
At STD N 00E0FFFF
Ne 0 ""
Po 0 0
$EndPAD
$SHAPE3D
Na "pin_array\\pin_1.wrl"
Sc 1 1 1
Of 0 0 0
Ro 0 0 0
$EndSHAPE3D
$EndMODULE PIN_ARRAY_1
$MODULE PIN_ARRAY_20X2
Po 0 0 0 15 5031D84E 00000000 ~~
Li PIN_ARRAY_20X2
Cd Double rangee de contacts 2 x 12 pins
Kw CONN
Sc 0
AR 
Op 0 0 0
T0 0 -3.81 1.016 1.016 0 0.27432 N V 21 N "REF*"
T1 0 3.81 1.016 1.016 0 0.2032 N V 21 N "PIN_ARRAY_20X2"
DS 25.4 2.54 -25.4 2.54 0.3048 21
DS 25.4 -2.54 -25.4 -2.54 0.3048 21
DS 25.4 -2.54 25.4 2.54 0.3048 21
DS -25.4 -2.54 -25.4 2.54 0.3048 21
$PAD
Sh "1" R 1.524 1.524 0 0 0
Dr 1.016 0 0
At STD N 00E0FFFF
Ne 0 ""
Po -24.13 1.27
$EndPAD
$PAD
Sh "2" C 1.524 1.524 0 0 0
Dr 1.016 0 0
At STD N 00E0FFFF
Ne 1 "GND"
Po -24.13 -1.27
$EndPAD
$PAD
Sh "11" C 1.524 1.524 0 0 0
Dr 1.016 0 0
At STD N 00E0FFFF
Ne 18 "PA8_1"
Po -11.43 1.27
$EndPAD
$PAD
Sh "4" C 1.524 1.524 0 0 0
Dr 1.016 0 0
At STD N 00E0FFFF
Ne 11 "PA1_1"
Po -21.59 -1.27
$EndPAD
$PAD
Sh "13" C 1.524 1.524 0 0 0
Dr 1.016 0 0
At STD N 00E0FFFF
Ne 5 "PA10_1"
Po -8.89 1.27
$EndPAD
$PAD
Sh "6" C 1.524 1.524 0 0 0
Dr 1.016 0 0
At STD N 00E0FFFF
Ne 13 "PA3_1"
Po -19.05 -1.27
$EndPAD
$PAD
Sh "15" C 1.524 1.524 0 0 0
Dr 1.016 0 0
At STD N 00E0FFFF
Ne 7 "PA12_1"
Po -6.35 1.27
$EndPAD
$PAD
Sh "8" C 1.524 1.524 0 0 0
Dr 1.016 0 0
At STD N 00E0FFFF
Ne 15 "PA5_1"
Po -16.51 -1.27
$EndPAD
$PAD
Sh "17" C 1.524 1.524 0 0 0
Dr 1.016 0 0
At STD N 00E0FFFF
Ne 9 "PA14_1"
Po -3.81 1.27
$EndPAD
$PAD
Sh "10" C 1.524 1.524 0 0 0
Dr 1.016 0 0
At STD N 00E0FFFF
Ne 17 "PA7_1"
Po -13.97 -1.27
$EndPAD
$PAD
Sh "19" C 1.524 1.524 0 0 0
Dr 1.016 0 0
At STD N 00E0FFFF
Ne 0 ""
Po -1.27 1.27
$EndPAD
$PAD
Sh "12" C 1.524 1.524 0 0 0
Dr 1.016 0 0
At STD N 00E0FFFF
Ne 19 "PA9_1"
Po -11.43 -1.27
$EndPAD
$PAD
Sh "21" C 1.524 1.524 0 0 0
Dr 1.016 0 0
At STD N 00E0FFFF
Ne 0 ""
Po 1.27 1.27
$EndPAD
$PAD
Sh "14" C 1.524 1.524 0 0 0
Dr 1.016 0 0
At STD N 00E0FFFF
Ne 6 "PA11_1"
Po -8.89 -1.27
$EndPAD
$PAD
Sh "23" C 1.524 1.524 0 0 0
Dr 1.016 0 0
At STD N 00E0FFFF
Ne 2 "INT1_1"
Po 3.81 1.27
$EndPAD
$PAD
Sh "16" C 1.524 1.524 0 0 0
Dr 1.016 0 0
At STD N 00E0FFFF
Ne 8 "PA13_1"
Po -6.35 -1.27
$EndPAD
$PAD
Sh "25" C 1.524 1.524 0 0 0
Dr 1.016 0 0
At STD N 00E0FFFF
Ne 0 ""
Po 6.35 1.27
$EndPAD
$PAD
Sh "18" C 1.524 1.524 0 0 0
Dr 1.016 0 0
At STD N 00E0FFFF
Ne 10 "PA15_1"
Po -3.81 -1.27
$EndPAD
$PAD
Sh "27" C 1.524 1.524 0 0 0
Dr 1.016 0 0
At STD N 00E0FFFF
Ne 0 ""
Po 8.89 1.27
$EndPAD
$PAD
Sh "20" C 1.524 1.524 0 0 0
Dr 1.016 0 0
At STD N 00E0FFFF
Ne 0 ""
Po -1.27 -1.27
$EndPAD
$PAD
Sh "29" C 1.524 1.524 0 0 0
Dr 1.016 0 0
At STD N 00E0FFFF
Ne 22 "VCC"
Po 11.43 1.27
$EndPAD
$PAD
Sh "22" C 1.524 1.524 0 0 0
Dr 1.016 0 0
At STD N 00E0FFFF
Ne 0 ""
Po 1.27 -1.27
$EndPAD
$PAD
Sh "31" C 1.524 1.524 0 0 0
Dr 1.016 0 0
At STD N 00E0FFFF
Ne 22 "VCC"
Po 13.97 1.27
$EndPAD
$PAD
Sh "24" C 1.524 1.524 0 0 0
Dr 1.016 0 0
At STD N 00E0FFFF
Ne 3 "INT2_1"
Po 3.81 -1.27
$EndPAD
$PAD
Sh "26" C 1.524 1.524 0 0 0
Dr 1.016 0 0
At STD N 00E0FFFF
Ne 0 ""
Po 6.35 -1.27
$EndPAD
$PAD
Sh "33" C 1.524 1.524 0 0 0
Dr 1.016 0 0
At STD N 00E0FFFF
Ne 21 "Tin1_cold_1"
Po 16.51 1.27
$EndPAD
$PAD
Sh "28" C 1.524 1.524 0 0 0
Dr 1.016 0 0
At STD N 00E0FFFF
Ne 10 "PA15_1"
Po 8.89 -1.27
$EndPAD
$PAD
Sh "32" C 1.524 1.524 0 0 0
Dr 1.016 0 0
At STD N 00E0FFFF
Ne 1 "GND"
Po 13.97 -1.27
$EndPAD
$PAD
Sh "34" C 1.524 1.524 0 0 0
Dr 1.016 0 0
At STD N 00E0FFFF
Ne 0 ""
Po 16.51 -1.27
$EndPAD
$PAD
Sh "36" C 1.524 1.524 0 0 0
Dr 1.016 0 0
At STD N 00E0FFFF
Ne 0 ""
Po 19.05 -1.27
$EndPAD
$PAD
Sh "38" C 1.524 1.524 0 0 0
Dr 1.016 0 0
At STD N 00E0FFFF
Ne 0 ""
Po 21.59 -1.27
$EndPAD
$PAD
Sh "35" C 1.524 1.524 0 0 0
Dr 1.016 0 0
At STD N 00E0FFFF
Ne 0 ""
Po 19.05 1.27
$EndPAD
$PAD
Sh "37" C 1.524 1.524 0 0 0
Dr 1.016 0 0
At STD N 00E0FFFF
Ne 20 "PB4_1"
Po 21.59 1.27
$EndPAD
$PAD
Sh "3" C 1.524 1.524 0 0 0
Dr 1.016 0 0
At STD N 00E0FFFF
Ne 4 "PA0_1"
Po -21.59 1.27
$EndPAD
$PAD
Sh "5" C 1.524 1.524 0 0 0
Dr 1.016 0 0
At STD N 00E0FFFF
Ne 12 "PA2_1"
Po -19.05 1.27
$EndPAD
$PAD
Sh "7" C 1.524 1.524 0 0 0
Dr 1.016 0 0
At STD N 00E0FFFF
Ne 14 "PA4_1"
Po -16.51 1.27
$EndPAD
$PAD
Sh "9" C 1.524 1.524 0 0 0
Dr 1.016 0 0
At STD N 00E0FFFF
Ne 16 "PA6_1"
Po -13.97 1.27
$EndPAD
$PAD
Sh "39" C 1.524 1.524 0 0 0
Dr 1.016 0 0
At STD N 00E0FFFF
Ne 0 ""
Po 24.13 1.27
$EndPAD
$PAD
Sh "40" C 1.524 1.524 0 0 0
Dr 1.016 0 0
At STD N 00E0FFFF
Ne 0 ""
Po 24.13 -1.27
$EndPAD
$PAD
Sh "30" C 1.524 1.524 0 0 0
Dr 1.016 0 0
At STD N 00E0FFFF
Ne 1 "GND"
Po 11.43 -1.27
$EndPAD
$SHAPE3D
Na "pin_array/pins_array_20x2.wrl"
Sc 1 1 1
Of 0 0 0
Ro 0 0 0
$EndSHAPE3D
$EndMODULE PIN_ARRAY_20X2
$MODULE PIN_ARRAY_28X1
Po 0 0 0 15 5082EA4D 00000000 ~~
Li PIN_ARRAY_28X1
Cd Single rangee contacts 1 x 28 pins
Kw CONN
Sc 0
AR /50827286
Op 0 0 0
T0 -37.084 0 0.63246 0.63246 900 0.15748 N V 21 N "P2"
T1 -36.195 0 0.63246 0.63246 900 0.15748 N V 21 N "CONN28"
DS -35.56 -1.27 35.56 -1.27 0.14986 21
DS 35.56 -1.27 35.56 1.27 0.14986 21
DS 35.56 1.27 -35.56 1.27 0.14986 21
DS -35.56 1.27 -35.56 -1.27 0.14986 21
$PAD
Sh "1" R 1.524 1.524 0 0 0
Dr 1.016 0 0
At STD N 00E0FFFF
Ne 0 ""
Po -34.29 0
$EndPAD
$PAD
Sh "2" C 1.524 1.524 0 0 0
Dr 1.016 0 0
At STD N 00E0FFFF
Ne 0 ""
Po -31.75 0
$EndPAD
$PAD
Sh "11" C 1.524 1.524 0 0 0
Dr 1.016 0 0
At STD N 00E0FFFF
Ne 0 ""
Po -8.89 0
$EndPAD
$PAD
Sh "4" C 1.524 1.524 0 0 0
Dr 1.016 0 0
At STD N 00E0FFFF
Ne 0 ""
Po -26.67 0
$EndPAD
$PAD
Sh "13" C 1.524 1.524 0 0 0
Dr 1.016 0 0
At STD N 00E0FFFF
Ne 0 ""
Po -3.81 0
$EndPAD
$PAD
Sh "6" C 1.524 1.524 0 0 0
Dr 1.016 0 0
At STD N 00E0FFFF
Ne 0 ""
Po -21.59 0
$EndPAD
$PAD
Sh "15" C 1.524 1.524 0 0 0
Dr 1.016 0 0
At STD N 00E0FFFF
Ne 0 ""
Po 1.27 0
$EndPAD
$PAD
Sh "8" C 1.524 1.524 0 0 0
Dr 1.016 0 0
At STD N 00E0FFFF
Ne 0 ""
Po -16.51 0
$EndPAD
$PAD
Sh "17" C 1.524 1.524 0 0 0
Dr 1.016 0 0
At STD N 00E0FFFF
Ne 0 ""
Po 6.35 0
$EndPAD
$PAD
Sh "10" C 1.524 1.524 0 0 0
Dr 1.016 0 0
At STD N 00E0FFFF
Ne 0 ""
Po -11.43 0
$EndPAD
$PAD
Sh "19" C 1.524 1.524 0 0 0
Dr 1.016 0 0
At STD N 00E0FFFF
Ne 0 ""
Po 11.43 0
$EndPAD
$PAD
Sh "12" C 1.524 1.524 0 0 0
Dr 1.016 0 0
At STD N 00E0FFFF
Ne 0 ""
Po -6.35 0
$EndPAD
$PAD
Sh "21" C 1.524 1.524 0 0 0
Dr 1.016 0 0
At STD N 00E0FFFF
Ne 0 ""
Po 16.51 0
$EndPAD
$PAD
Sh "14" C 1.524 1.524 0 0 0
Dr 1.016 0 0
At STD N 00E0FFFF
Ne 0 ""
Po -1.27 0
$EndPAD
$PAD
Sh "23" C 1.524 1.524 0 0 0
Dr 1.016 0 0
At STD N 00E0FFFF
Ne 0 ""
Po 21.59 0
$EndPAD
$PAD
Sh "16" C 1.524 1.524 0 0 0
Dr 1.016 0 0
At STD N 00E0FFFF
Ne 0 ""
Po 3.81 0
$EndPAD
$PAD
Sh "25" C 1.524 1.524 0 0 0
Dr 1.016 0 0
At STD N 00E0FFFF
Ne 0 ""
Po 26.67 0
$EndPAD
$PAD
Sh "18" C 1.524 1.524 0 0 0
Dr 1.016 0 0
At STD N 00E0FFFF
Ne 0 ""
Po 8.89 0
$EndPAD
$PAD
Sh "27" C 1.524 1.524 0 0 0
Dr 1.016 0 0
At STD N 00E0FFFF
Ne 0 ""
Po 31.75 0
$EndPAD
$PAD
Sh "20" C 1.524 1.524 0 0 0
Dr 1.016 0 0
At STD N 00E0FFFF
Ne 0 ""
Po 13.97 0
$EndPAD
$PAD
Sh "22" C 1.524 1.524 0 0 0
Dr 1.016 0 0
At STD N 00E0FFFF
Ne 0 ""
Po 19.05 0
$EndPAD
$PAD
Sh "24" C 1.524 1.524 0 0 0
Dr 1.016 0 0
At STD N 00E0FFFF
Ne 0 ""
Po 24.13 0
$EndPAD
$PAD
Sh "26" C 1.524 1.524 0 0 0
Dr 1.016 0 0
At STD N 00E0FFFF
Ne 0 ""
Po 29.21 0
$EndPAD
$PAD
Sh "28" C 1.524 1.524 0 0 0
Dr 1.016 0 0
At STD N 00E0FFFF
Ne 0 ""
Po 34.29 0
$EndPAD
$PAD
Sh "3" C 1.524 1.524 0 0 0
Dr 1.016 0 0
At STD N 00E0FFFF
Ne 0 ""
Po -29.21 0
$EndPAD
$PAD
Sh "5" C 1.524 1.524 0 0 0
Dr 1.016 0 0
At STD N 00E0FFFF
Ne 0 ""
Po -24.13 0
$EndPAD
$PAD
Sh "7" C 1.524 1.524 0 0 0
Dr 1.016 0 0
At STD N 00E0FFFF
Ne 0 ""
Po -19.05 0
$EndPAD
$PAD
Sh "9" C 1.524 1.524 0 0 0
Dr 1.016 0 0
At STD N 00E0FFFF
Ne 0 ""
Po -13.97 0
$EndPAD
$EndMODULE PIN_ARRAY_28X1
$MODULE PIN_ARRAY_2X1
Po 0 0 0 15 4565C520 00000000 ~~
Li PIN_ARRAY_2X1
Cd Connecteurs 2 pins
Kw CONN DEV
Sc 0
AR 
Op 0 0 0
T0 0 -1.905 0.762 0.762 0 0.1524 N V 21 N "PIN_ARRAY_2"
T1 0 -1.905 0.762 0.762 0 0.1524 N I 21 N "Val**"
DS -2.54 1.27 -2.54 -1.27 0.1524 21
DS -2.54 -1.27 2.54 -1.27 0.1524 21
DS 2.54 -1.27 2.54 1.27 0.1524 21
DS 2.54 1.27 -2.54 1.27 0.1524 21
$PAD
Sh "1" R 1.524 1.524 0 0 0
Dr 1.016 0 0
At STD N 00E0FFFF
Ne 0 ""
Po -1.27 0
$EndPAD
$PAD
Sh "2" C 1.524 1.524 0 0 0
Dr 1.016 0 0
At STD N 00E0FFFF
Ne 0 ""
Po 1.27 0
$EndPAD
$SHAPE3D
Na "pin_array/pins_array_2x1.wrl"
Sc 1 1 1
Of 0 0 0
Ro 0 0 0
$EndSHAPE3D
$EndMODULE PIN_ARRAY_2X1
$MODULE PIN_ARRAY_2X2
Po 0 0 0 15 3FAB87D4 00000000 ~~
Li PIN_ARRAY_2X2
Cd Double rangee de contacts 2 x 2 pins
Kw CONN
Sc 0
AR 
Op 0 0 0
T0 -0.381 -3.429 1.016 1.016 0 0.2032 N V 21 N "PIN_ARRAY_2X2"
T1 0 3.048 1.016 1.016 0 0.2032 N I 21 N "Val**"
DS -2.54 -2.54 2.54 -2.54 0.3048 21
DS 2.54 -2.54 2.54 2.54 0.3048 21
DS 2.54 2.54 -2.54 2.54 0.3048 21
DS -2.54 2.54 -2.54 -2.54 0.3048 21
$PAD
Sh "1" R 1.524 1.524 0 0 0
Dr 1.016 0 0
At STD N 00E0FFFF
Ne 0 ""
Po -1.27 1.27
$EndPAD
$PAD
Sh "2" C 1.524 1.524 0 0 0
Dr 1.016 0 0
At STD N 00E0FFFF
Ne 0 ""
Po -1.27 -1.27
$EndPAD
$PAD
Sh "3" C 1.524 1.524 0 0 0
Dr 1.016 0 0
At STD N 00E0FFFF
Ne 0 ""
Po 1.27 1.27
$EndPAD
$PAD
Sh "4" C 1.524 1.524 0 0 0
Dr 1.016 0 0
At STD N 00E0FFFF
Ne 0 ""
Po 1.27 -1.27
$EndPAD
$SHAPE3D
Na "pin_array/pins_array_2x2.wrl"
Sc 1 1 1
Of 0 0 0
Ro 0 0 0
$EndSHAPE3D
$EndMODULE PIN_ARRAY_2X2
$MODULE PIN_ARRAY_30X2
Po 0 0 0 15 5031D875 00000000 ~~
Li PIN_ARRAY_30X2
Cd Double rangee de contacts 2 x 12 pins
Kw CONN
Sc 0
AR 
Op 0 0 0
T0 0 -3.81 1.016 1.016 0 0.27432 N V 21 N "REF*"
T1 0 3.81 1.016 1.016 0 0.2032 N V 21 N "PIN_ARRAY_30X2"
DS 12.7 2.54 38.1 2.54 0.3048 21
DS 12.7 -2.54 38.1 -2.54 0.3048 21
DS 12.7 2.54 -38.1 2.54 0.3048 21
DS 12.7 -2.54 -38.1 -2.54 0.3048 21
DS 38.1 -2.54 38.1 2.54 0.3048 21
DS -38.1 -2.54 -38.1 2.54 0.3048 21
$PAD
Sh "1" R 1.524 1.524 0 0 0
Dr 1.016 0 0
At STD N 00E0FFFF
Ne 0 ""
Po -36.83 1.27
$EndPAD
$PAD
Sh "2" C 1.524 1.524 0 0 0
Dr 1.016 0 0
At STD N 00E0FFFF
Ne 1 "GND"
Po -36.83 -1.27
$EndPAD
$PAD
Sh "11" C 1.524 1.524 0 0 0
Dr 1.016 0 0
At STD N 00E0FFFF
Ne 18 "PA8_1"
Po -24.13 1.27
$EndPAD
$PAD
Sh "4" C 1.524 1.524 0 0 0
Dr 1.016 0 0
At STD N 00E0FFFF
Ne 11 "PA1_1"
Po -34.29 -1.27
$EndPAD
$PAD
Sh "13" C 1.524 1.524 0 0 0
Dr 1.016 0 0
At STD N 00E0FFFF
Ne 5 "PA10_1"
Po -21.59 1.27
$EndPAD
$PAD
Sh "6" C 1.524 1.524 0 0 0
Dr 1.016 0 0
At STD N 00E0FFFF
Ne 13 "PA3_1"
Po -31.75 -1.27
$EndPAD
$PAD
Sh "15" C 1.524 1.524 0 0 0
Dr 1.016 0 0
At STD N 00E0FFFF
Ne 7 "PA12_1"
Po -19.05 1.27
$EndPAD
$PAD
Sh "8" C 1.524 1.524 0 0 0
Dr 1.016 0 0
At STD N 00E0FFFF
Ne 15 "PA5_1"
Po -29.21 -1.27
$EndPAD
$PAD
Sh "17" C 1.524 1.524 0 0 0
Dr 1.016 0 0
At STD N 00E0FFFF
Ne 9 "PA14_1"
Po -16.51 1.27
$EndPAD
$PAD
Sh "10" C 1.524 1.524 0 0 0
Dr 1.016 0 0
At STD N 00E0FFFF
Ne 17 "PA7_1"
Po -26.67 -1.27
$EndPAD
$PAD
Sh "19" C 1.524 1.524 0 0 0
Dr 1.016 0 0
At STD N 00E0FFFF
Ne 0 ""
Po -13.97 1.27
$EndPAD
$PAD
Sh "12" C 1.524 1.524 0 0 0
Dr 1.016 0 0
At STD N 00E0FFFF
Ne 19 "PA9_1"
Po -24.13 -1.27
$EndPAD
$PAD
Sh "21" C 1.524 1.524 0 0 0
Dr 1.016 0 0
At STD N 00E0FFFF
Ne 0 ""
Po -11.43 1.27
$EndPAD
$PAD
Sh "14" C 1.524 1.524 0 0 0
Dr 1.016 0 0
At STD N 00E0FFFF
Ne 6 "PA11_1"
Po -21.59 -1.27
$EndPAD
$PAD
Sh "23" C 1.524 1.524 0 0 0
Dr 1.016 0 0
At STD N 00E0FFFF
Ne 2 "INT1_1"
Po -8.89 1.27
$EndPAD
$PAD
Sh "16" C 1.524 1.524 0 0 0
Dr 1.016 0 0
At STD N 00E0FFFF
Ne 8 "PA13_1"
Po -19.05 -1.27
$EndPAD
$PAD
Sh "25" C 1.524 1.524 0 0 0
Dr 1.016 0 0
At STD N 00E0FFFF
Ne 0 ""
Po -6.35 1.27
$EndPAD
$PAD
Sh "18" C 1.524 1.524 0 0 0
Dr 1.016 0 0
At STD N 00E0FFFF
Ne 10 "PA15_1"
Po -16.51 -1.27
$EndPAD
$PAD
Sh "27" C 1.524 1.524 0 0 0
Dr 1.016 0 0
At STD N 00E0FFFF
Ne 0 ""
Po -3.81 1.27
$EndPAD
$PAD
Sh "20" C 1.524 1.524 0 0 0
Dr 1.016 0 0
At STD N 00E0FFFF
Ne 0 ""
Po -13.97 -1.27
$EndPAD
$PAD
Sh "29" C 1.524 1.524 0 0 0
Dr 1.016 0 0
At STD N 00E0FFFF
Ne 22 "VCC"
Po -1.27 1.27
$EndPAD
$PAD
Sh "22" C 1.524 1.524 0 0 0
Dr 1.016 0 0
At STD N 00E0FFFF
Ne 0 ""
Po -11.43 -1.27
$EndPAD
$PAD
Sh "31" C 1.524 1.524 0 0 0
Dr 1.016 0 0
At STD N 00E0FFFF
Ne 22 "VCC"
Po 1.27 1.27
$EndPAD
$PAD
Sh "24" C 1.524 1.524 0 0 0
Dr 1.016 0 0
At STD N 00E0FFFF
Ne 3 "INT2_1"
Po -8.89 -1.27
$EndPAD
$PAD
Sh "26" C 1.524 1.524 0 0 0
Dr 1.016 0 0
At STD N 00E0FFFF
Ne 0 ""
Po -6.35 -1.27
$EndPAD
$PAD
Sh "33" C 1.524 1.524 0 0 0
Dr 1.016 0 0
At STD N 00E0FFFF
Ne 21 "Tin1_cold_1"
Po 3.81 1.27
$EndPAD
$PAD
Sh "28" C 1.524 1.524 0 0 0
Dr 1.016 0 0
At STD N 00E0FFFF
Ne 10 "PA15_1"
Po -3.81 -1.27
$EndPAD
$PAD
Sh "32" C 1.524 1.524 0 0 0
Dr 1.016 0 0
At STD N 00E0FFFF
Ne 1 "GND"
Po 1.27 -1.27
$EndPAD
$PAD
Sh "34" C 1.524 1.524 0 0 0
Dr 1.016 0 0
At STD N 00E0FFFF
Ne 0 ""
Po 3.81 -1.27
$EndPAD
$PAD
Sh "36" C 1.524 1.524 0 0 0
Dr 1.016 0 0
At STD N 00E0FFFF
Ne 0 ""
Po 6.35 -1.27
$EndPAD
$PAD
Sh "38" C 1.524 1.524 0 0 0
Dr 1.016 0 0
At STD N 00E0FFFF
Ne 0 ""
Po 8.89 -1.27
$EndPAD
$PAD
Sh "35" C 1.524 1.524 0 0 0
Dr 1.016 0 0
At STD N 00E0FFFF
Ne 0 ""
Po 6.35 1.27
$EndPAD
$PAD
Sh "37" C 1.524 1.524 0 0 0
Dr 1.016 0 0
At STD N 00E0FFFF
Ne 20 "PB4_1"
Po 8.89 1.27
$EndPAD
$PAD
Sh "3" C 1.524 1.524 0 0 0
Dr 1.016 0 0
At STD N 00E0FFFF
Ne 4 "PA0_1"
Po -34.29 1.27
$EndPAD
$PAD
Sh "5" C 1.524 1.524 0 0 0
Dr 1.016 0 0
At STD N 00E0FFFF
Ne 12 "PA2_1"
Po -31.75 1.27
$EndPAD
$PAD
Sh "7" C 1.524 1.524 0 0 0
Dr 1.016 0 0
At STD N 00E0FFFF
Ne 14 "PA4_1"
Po -29.21 1.27
$EndPAD
$PAD
Sh "9" C 1.524 1.524 0 0 0
Dr 1.016 0 0
At STD N 00E0FFFF
Ne 16 "PA6_1"
Po -26.67 1.27
$EndPAD
$PAD
Sh "39" C 1.524 1.524 0 0 0
Dr 1.016 0 0
At STD N 00E0FFFF
Ne 0 ""
Po 11.43 1.27
$EndPAD
$PAD
Sh "40" C 1.524 1.524 0 0 0
Dr 1.016 0 0
At STD N 00E0FFFF
Ne 0 ""
Po 11.43 -1.27
$EndPAD
$PAD
Sh "30" C 1.524 1.524 0 0 0
Dr 1.016 0 0
At STD N 00E0FFFF
Ne 1 "GND"
Po -1.27 -1.27
$EndPAD
$PAD
Sh "41" C 1.524 1.524 0 0 0
Dr 1.016 0 0
At STD N 00E0FFFF
Ne 0 ""
Po 13.97 1.27
$EndPAD
$PAD
Sh "42" C 1.524 1.524 0 0 0
Dr 1.016 0 0
At STD N 00E0FFFF
Ne 0 ""
Po 13.97 -1.27
$EndPAD
$PAD
Sh "43" C 1.524 1.524 0 0 0
Dr 1.016 0 0
At STD N 00E0FFFF
Ne 0 ""
Po 16.51 1.27
$EndPAD
$PAD
Sh "44" C 1.524 1.524 0 0 0
Dr 1.016 0 0
At STD N 00E0FFFF
Ne 0 ""
Po 16.51 -1.27
$EndPAD
$PAD
Sh "45" C 1.524 1.524 0 0 0
Dr 1.016 0 0
At STD N 00E0FFFF
Ne 0 ""
Po 19.05 1.27
$EndPAD
$PAD
Sh "46" C 1.524 1.524 0 0 0
Dr 1.016 0 0
At STD N 00E0FFFF
Ne 0 ""
Po 19.05 -1.27
$EndPAD
$PAD
Sh "47" C 1.524 1.524 0 0 0
Dr 1.016 0 0
At STD N 00E0FFFF
Ne 0 ""
Po 21.59 1.27
$EndPAD
$PAD
Sh "48" C 1.524 1.524 0 0 0
Dr 1.016 0 0
At STD N 00E0FFFF
Ne 0 ""
Po 21.59 -1.27
$EndPAD
$PAD
Sh "49" C 1.524 1.524 0 0 0
Dr 1.016 0 0
At STD N 00E0FFFF
Ne 0 ""
Po 24.13 1.27
$EndPAD
$PAD
Sh "50" C 1.524 1.524 0 0 0
Dr 1.016 0 0
At STD N 00E0FFFF
Ne 0 ""
Po 24.13 -1.27
$EndPAD
$PAD
Sh "51" C 1.524 1.524 0 0 0
Dr 1.016 0 0
At STD N 00E0FFFF
Ne 0 ""
Po 26.67 1.27
$EndPAD
$PAD
Sh "52" C 1.524 1.524 0 0 0
Dr 1.016 0 0
At STD N 00E0FFFF
Ne 0 ""
Po 26.67 -1.27
$EndPAD
$PAD
Sh "53" C 1.524 1.524 0 0 0
Dr 1.016 0 0
At STD N 00E0FFFF
Ne 0 ""
Po 29.21 1.27
$EndPAD
$PAD
Sh "54" C 1.524 1.524 0 0 0
Dr 1.016 0 0
At STD N 00E0FFFF
Ne 0 ""
Po 29.21 -1.27
$EndPAD
$PAD
Sh "55" C 1.524 1.524 0 0 0
Dr 1.016 0 0
At STD N 00E0FFFF
Ne 0 ""
Po 31.75 1.27
$EndPAD
$PAD
Sh "56" C 1.524 1.524 0 0 0
Dr 1.016 0 0
At STD N 00E0FFFF
Ne 0 ""
Po 31.75 -1.27
$EndPAD
$PAD
Sh "57" C 1.524 1.524 0 0 0
Dr 1.016 0 0
At STD N 00E0FFFF
Ne 0 ""
Po 34.29 1.27
$EndPAD
$PAD
Sh "58" C 1.524 1.524 0 0 0
Dr 1.016 0 0
At STD N 00E0FFFF
Ne 0 ""
Po 34.29 -1.27
$EndPAD
$PAD
Sh "59" C 1.524 1.524 0 0 0
Dr 1.016 0 0
At STD N 00E0FFFF
Ne 0 ""
Po 36.83 1.27
$EndPAD
$PAD
Sh "60" C 1.524 1.524 0 0 0
Dr 1.016 0 0
At STD N 00E0FFFF
Ne 0 ""
Po 36.83 -1.27
$EndPAD
$SHAPE3D
Na "pin_array/pins_array_30x2.wrl"
Sc 1 1 1
Of 0 0 0
Ro 0 0 0
$EndSHAPE3D
$EndMODULE PIN_ARRAY_30X2
$MODULE PIN_ARRAY_3X1
Po 0 0 0 15 4C1130E0 00000000 ~~
Li PIN_ARRAY_3X1
Cd Connecteur 3 pins
Kw CONN DEV
Sc 0
AR 
Op 0 0 0
T0 0.254 -2.159 1.016 1.016 0 0.1524 N V 21 N "PIN_ARRAY_3X1"
T1 0 -2.159 1.016 1.016 0 0.1524 N I 21 N "Val**"
DS -3.81 1.27 -3.81 -1.27 0.1524 21
DS -3.81 -1.27 3.81 -1.27 0.1524 21
DS 3.81 -1.27 3.81 1.27 0.1524 21
DS 3.81 1.27 -3.81 1.27 0.1524 21
DS -1.27 -1.27 -1.27 1.27 0.1524 21
$PAD
Sh "1" R 1.524 1.524 0 0 0
Dr 1.016 0 0
At STD N 00E0FFFF
Ne 0 ""
Po -2.54 0
$EndPAD
$PAD
Sh "2" C 1.524 1.524 0 0 0
Dr 1.016 0 0
At STD N 00E0FFFF
Ne 0 ""
Po 0 0
$EndPAD
$PAD
Sh "3" C 1.524 1.524 0 0 0
Dr 1.016 0 0
At STD N 00E0FFFF
Ne 0 ""
Po 2.54 0
$EndPAD
$SHAPE3D
Na "pin_array/pins_array_3x1.wrl"
Sc 1 1 1
Of 0 0 0
Ro 0 0 0
$EndSHAPE3D
$EndMODULE PIN_ARRAY_3X1
$MODULE PIN_ARRAY_4x1
Po 0 0 0 15 4C10F42E 00000000 ~~
Li PIN_ARRAY_4x1
Cd Double rangee de contacts 2 x 5 pins
Kw CONN
Sc 0
AR 
Op 0 0 0
T0 0 -2.54 1.016 1.016 0 0.2032 N V 21 N "PIN_ARRAY_4X1"
T1 0 2.54 1.016 1.016 0 0.2032 N I 21 N "Val**"
DS 5.08 1.27 -5.08 1.27 0.254 21
DS 5.08 -1.27 -5.08 -1.27 0.254 21
DS -5.08 -1.27 -5.08 1.27 0.254 21
DS 5.08 1.27 5.08 -1.27 0.254 21
$PAD
Sh "1" R 1.524 1.524 0 0 0
Dr 1.016 0 0
At STD N 00E0FFFF
Ne 0 ""
Po -3.81 0
$EndPAD
$PAD
Sh "2" C 1.524 1.524 0 0 0
Dr 1.016 0 0
At STD N 00E0FFFF
Ne 0 ""
Po -1.27 0
$EndPAD
$PAD
Sh "3" C 1.524 1.524 0 0 0
Dr 1.016 0 0
At STD N 00E0FFFF
Ne 0 ""
Po 1.27 0
$EndPAD
$PAD
Sh "4" C 1.524 1.524 0 0 0
Dr 1.016 0 0
At STD N 00E0FFFF
Ne 0 ""
Po 3.81 0
$EndPAD
$SHAPE3D
Na "pin_array\\pins_array_4x1.wrl"
Sc 1 1 1
Of 0 0 0
Ro 0 0 0
$EndSHAPE3D
$EndMODULE PIN_ARRAY_4x1
$MODULE PIN_ARRAY_5x1
Po 0 0 0 15 45976D86 00000000 ~~
Li PIN_ARRAY_5x1
Cd Double rangee de contacts 2 x 5 pins
Kw CONN
Sc 0
AR 
Op 0 0 0
T0 0 -2.54 1.016 1.016 0 0.2032 N V 21 N "PIN_ARRAY_5X1"
T1 0 2.54 1.016 1.016 0 0.2032 N I 21 N "Val**"
DS -6.35 -1.27 -6.35 1.27 0.3048 21
DS 6.35 1.27 6.35 -1.27 0.3048 21
DS -6.35 -1.27 6.35 -1.27 0.3048 21
DS 6.35 1.27 -6.35 1.27 0.3048 21
$PAD
Sh "1" R 1.524 1.524 0 0 0
Dr 1.016 0 0
At STD N 00E0FFFF
Ne 0 ""
Po -5.08 0
$EndPAD
$PAD
Sh "2" C 1.524 1.524 0 0 0
Dr 1.016 0 0
At STD N 00E0FFFF
Ne 0 ""
Po -2.54 0
$EndPAD
$PAD
Sh "3" C 1.524 1.524 0 0 0
Dr 1.016 0 0
At STD N 00E0FFFF
Ne 0 ""
Po 0 0
$EndPAD
$PAD
Sh "4" C 1.524 1.524 0 0 0
Dr 1.016 0 0
At STD N 00E0FFFF
Ne 0 ""
Po 2.54 0
$EndPAD
$PAD
Sh "5" C 1.524 1.524 0 0 0
Dr 1.016 0 0
At STD N 00E0FFFF
Ne 0 ""
Po 5.08 0
$EndPAD
$SHAPE3D
Na "pin_array/pins_array_5x1.wrl"
Sc 1 1 1
Of 0 0 0
Ro 0 0 0
$EndSHAPE3D
$EndMODULE PIN_ARRAY_5x1
$MODULE PIN_ARRAY_5x2
Po 0 0 0 15 3FCF2109 00000000 ~~
Li PIN_ARRAY_5x2
Cd Double rangee de contacts 2 x 5 pins
Kw CONN
Sc 0
AR 
Op 0 0 0
T0 0.635 -3.81 1.016 1.016 0 0.2032 N V 21 N "PIN_ARRAY_5X2"
T1 0 -3.81 1.016 1.016 0 0.2032 N I 21 N "Val**"
DS -6.35 -2.54 6.35 -2.54 0.3048 21
DS 6.35 -2.54 6.35 2.54 0.3048 21
DS 6.35 2.54 -6.35 2.54 0.3048 21
DS -6.35 2.54 -6.35 -2.54 0.3048 21
$PAD
Sh "1" R 1.524 1.524 0 0 0
Dr 1.016 0 0
At STD N 00E0FFFF
Ne 0 ""
Po -5.08 1.27
$EndPAD
$PAD
Sh "2" C 1.524 1.524 0 0 0
Dr 1.016 0 0
At STD N 00E0FFFF
Ne 0 ""
Po -5.08 -1.27
$EndPAD
$PAD
Sh "3" C 1.524 1.524 0 0 0
Dr 1.016 0 0
At STD N 00E0FFFF
Ne 0 ""
Po -2.54 1.27
$EndPAD
$PAD
Sh "4" C 1.524 1.524 0 0 0
Dr 1.016 0 0
At STD N 00E0FFFF
Ne 0 ""
Po -2.54 -1.27
$EndPAD
$PAD
Sh "5" C 1.524 1.524 0 0 0
Dr 1.016 0 0
At STD N 00E0FFFF
Ne 0 ""
Po 0 1.27
$EndPAD
$PAD
Sh "6" C 1.524 1.524 0 0 0
Dr 1.016 0 0
At STD N 00E0FFFF
Ne 0 ""
Po 0 -1.27
$EndPAD
$PAD
Sh "7" C 1.524 1.524 0 0 0
Dr 1.016 0 0
At STD N 00E0FFFF
Ne 0 ""
Po 2.54 1.27
$EndPAD
$PAD
Sh "8" C 1.524 1.524 0 0 0
Dr 1.016 0 0
At STD N 00E0FFFF
Ne 0 ""
Po 2.54 -1.27
$EndPAD
$PAD
Sh "9" C 1.524 1.524 0 0 0
Dr 1.016 0 0
At STD N 00E0FFFF
Ne 0 ""
Po 5.08 1.27
$EndPAD
$PAD
Sh "10" C 1.524 1.524 0 0 0
Dr 1.016 0 0
At STD N 00E0FFFF
Ne 0 ""
Po 5.08 -1.27
$EndPAD
$SHAPE3D
Na "pin_array/pins_array_5x2.wrl"
Sc 1 1 1
Of 0 0 0
Ro 0 0 0
$EndSHAPE3D
$EndMODULE PIN_ARRAY_5x2
$MODULE pin_array_10x2
Po 0 0 0 15 51DBC9C0 00000000 ~~
Li pin_array_10x2
Cd Double rangee de contacts 2 x 12 pins
Kw CONN
Sc 0
AR 
Op 0 0 0
T0 0 -3.683 1 1 0 0.15 N V 21 N "PIN_ARRAY_10X2"
T1 0 3.81 1 1 0 0.15 N V 21 N "Val**"
DS -12.7 -2.54 -12.7 2.54 0.15 21
DS -12.7 2.54 12.7 2.54 0.15 21
DS 12.7 2.54 12.7 -2.54 0.15 21
DS 12.7 -2.54 -12.7 -2.54 0.15 21
$PAD
Sh "1" R 1.524 1.524 0 0 0
Dr 1.016 0 0
At STD N 00E0FFFF
Ne 0 ""
Po -11.43 1.27
$EndPAD
$PAD
Sh "2" C 1.524 1.524 0 0 0
Dr 1.016 0 0
At STD N 00E0FFFF
Ne 0 ""
Po -11.43 -1.27
$EndPAD
$PAD
Sh "3" C 1.524 1.524 0 0 0
Dr 1.016 0 0
At STD N 00E0FFFF
Ne 0 ""
Po -8.89 1.27
$EndPAD
$PAD
Sh "4" C 1.524 1.524 0 0 0
Dr 1.016 0 0
At STD N 00E0FFFF
Ne 0 ""
Po -8.89 -1.27
$EndPAD
$PAD
Sh "5" C 1.524 1.524 0 0 0
Dr 1.016 0 0
At STD N 00E0FFFF
Ne 0 ""
Po -6.35 1.27
$EndPAD
$PAD
Sh "6" C 1.524 1.524 0 0 0
Dr 1.016 0 0
At STD N 00E0FFFF
Ne 0 ""
Po -6.35 -1.27
$EndPAD
$PAD
Sh "7" C 1.524 1.524 0 0 0
Dr 1.016 0 0
At STD N 00E0FFFF
Ne 0 ""
Po -3.81 1.27
$EndPAD
$PAD
Sh "8" C 1.524 1.524 0 0 0
Dr 1.016 0 0
At STD N 00E0FFFF
Ne 0 ""
Po -3.81 -1.27
$EndPAD
$PAD
Sh "9" C 1.524 1.524 0 0 0
Dr 1.016 0 0
At STD N 00E0FFFF
Ne 0 ""
Po -1.27 1.27
$EndPAD
$PAD
Sh "10" C 1.524 1.524 0 0 0
Dr 1.016 0 0
At STD N 00E0FFFF
Ne 0 ""
Po -1.27 -1.27
$EndPAD
$PAD
Sh "11" C 1.524 1.524 0 0 0
Dr 1.016 0 0
At STD N 00E0FFFF
Ne 0 ""
Po 1.27 1.27
$EndPAD
$PAD
Sh "12" C 1.524 1.524 0 0 0
Dr 1.016 0 0
At STD N 00E0FFFF
Ne 0 ""
Po 1.27 -1.27
$EndPAD
$PAD
Sh "13" C 1.524 1.524 0 0 0
Dr 1.016 0 0
At STD N 00E0FFFF
Ne 0 ""
Po 3.81 1.27
$EndPAD
$PAD
Sh "14" C 1.524 1.524 0 0 0
Dr 1.016 0 0
At STD N 00E0FFFF
Ne 0 ""
Po 3.81 -1.27
$EndPAD
$PAD
Sh "15" C 1.524 1.524 0 0 0
Dr 1.016 0 0
At STD N 00E0FFFF
Ne 0 ""
Po 6.35 1.27
$EndPAD
$PAD
Sh "16" C 1.524 1.524 0 0 0
Dr 1.016 0 0
At STD N 00E0FFFF
Ne 0 ""
Po 6.35 -1.27
$EndPAD
$PAD
Sh "17" C 1.524 1.524 0 0 0
Dr 1.016 0 0
At STD N 00E0FFFF
Ne 0 ""
Po 8.89 1.27
$EndPAD
$PAD
Sh "18" C 1.524 1.524 0 0 0
Dr 1.016 0 0
At STD N 00E0FFFF
Ne 0 ""
Po 8.89 -1.27
$EndPAD
$PAD
Sh "19" C 1.524 1.524 0 0 0
Dr 1.016 0 0
At STD N 00E0FFFF
Ne 0 ""
Po 11.43 1.27
$EndPAD
$PAD
Sh "20" C 1.524 1.524 0 0 0
Dr 1.016 0 0
At STD N 00E0FFFF
Ne 0 ""
Po 11.43 -1.27
$EndPAD
$SHAPE3D
Na "pin_array/pins_array_10x2.wrl"
Sc 1 1 1
Of 0 0 0
Ro 0 0 0
$EndSHAPE3D
$EndMODULE pin_array_10x2
$MODULE pin_array_12x2
Po 0 0 0 15 5031D806 00000000 ~~
Li pin_array_12x2
Cd Double rangee de contacts 2 x 12 pins
Kw CONN
Sc 0
AR 
Op 0 0 0
T0 0 -3.81 1.016 1.016 0 0.27432 N V 21 N "PIN_ARRAY_12X2"
T1 0 3.81 1.016 1.016 0 0.2032 N V 21 N "Val**"
DS -15.24 -2.54 -15.24 2.54 0.381 21
DS -15.24 2.54 15.24 2.54 0.381 21
DS 15.24 2.54 15.24 -2.54 0.381 21
DS 15.24 -2.54 -15.24 -2.54 0.381 21
$PAD
Sh "1" R 1.524 1.524 0 0 0
Dr 1.016 0 0
At STD N 00E0FFFF
Ne 0 ""
Po -13.97 1.27
$EndPAD
$PAD
Sh "2" C 1.524 1.524 0 0 0
Dr 1.016 0 0
At STD N 00E0FFFF
Ne 0 ""
Po -13.97 -1.27
$EndPAD
$PAD
Sh "3" C 1.524 1.524 0 0 0
Dr 1.016 0 0
At STD N 00E0FFFF
Ne 0 ""
Po -11.43 1.27
$EndPAD
$PAD
Sh "4" C 1.524 1.524 0 0 0
Dr 1.016 0 0
At STD N 00E0FFFF
Ne 0 ""
Po -11.43 -1.27
$EndPAD
$PAD
Sh "5" C 1.524 1.524 0 0 0
Dr 1.016 0 0
At STD N 00E0FFFF
Ne 0 ""
Po -8.89 1.27
$EndPAD
$PAD
Sh "6" C 1.524 1.524 0 0 0
Dr 1.016 0 0
At STD N 00E0FFFF
Ne 0 ""
Po -8.89 -1.27
$EndPAD
$PAD
Sh "7" C 1.524 1.524 0 0 0
Dr 1.016 0 0
At STD N 00E0FFFF
Ne 0 ""
Po -6.35 1.27
$EndPAD
$PAD
Sh "8" C 1.524 1.524 0 0 0
Dr 1.016 0 0
At STD N 00E0FFFF
Ne 0 ""
Po -6.35 -1.27
$EndPAD
$PAD
Sh "9" C 1.524 1.524 0 0 0
Dr 1.016 0 0
At STD N 00E0FFFF
Ne 0 ""
Po -3.81 1.27
$EndPAD
$PAD
Sh "10" C 1.524 1.524 0 0 0
Dr 1.016 0 0
At STD N 00E0FFFF
Ne 0 ""
Po -3.81 -1.27
$EndPAD
$PAD
Sh "11" C 1.524 1.524 0 0 0
Dr 1.016 0 0
At STD N 00E0FFFF
Ne 0 ""
Po -1.27 1.27
$EndPAD
$PAD
Sh "12" C 1.524 1.524 0 0 0
Dr 1.016 0 0
At STD N 00E0FFFF
Ne 0 ""
Po -1.27 -1.27
$EndPAD
$PAD
Sh "13" C 1.524 1.524 0 0 0
Dr 1.016 0 0
At STD N 00E0FFFF
Ne 0 ""
Po 1.27 1.27
$EndPAD
$PAD
Sh "14" C 1.524 1.524 0 0 0
Dr 1.016 0 0
At STD N 00E0FFFF
Ne 0 ""
Po 1.27 -1.27
$EndPAD
$PAD
Sh "15" C 1.524 1.524 0 0 0
Dr 1.016 0 0
At STD N 00E0FFFF
Ne 0 ""
Po 3.81 1.27
$EndPAD
$PAD
Sh "16" C 1.524 1.524 0 0 0
Dr 1.016 0 0
At STD N 00E0FFFF
Ne 0 ""
Po 3.81 -1.27
$EndPAD
$PAD
Sh "17" C 1.524 1.524 0 0 0
Dr 1.016 0 0
At STD N 00E0FFFF
Ne 0 ""
Po 6.35 1.27
$EndPAD
$PAD
Sh "18" C 1.524 1.524 0 0 0
Dr 1.016 0 0
At STD N 00E0FFFF
Ne 0 ""
Po 6.35 -1.27
$EndPAD
$PAD
Sh "19" C 1.524 1.524 0 0 0
Dr 1.016 0 0
At STD N 00E0FFFF
Ne 0 ""
Po 8.89 1.27
$EndPAD
$PAD
Sh "20" C 1.524 1.524 0 0 0
Dr 1.016 0 0
At STD N 00E0FFFF
Ne 0 ""
Po 8.89 -1.27
$EndPAD
$PAD
Sh "21" C 1.524 1.524 0 0 0
Dr 1.016 0 0
At STD N 00E0FFFF
Ne 0 ""
Po 11.43 1.27
$EndPAD
$PAD
Sh "22" C 1.524 1.524 0 0 0
Dr 1.016 0 0
At STD N 00E0FFFF
Ne 0 ""
Po 11.43 -1.27
$EndPAD
$PAD
Sh "23" C 1.524 1.524 0 0 0
Dr 1.016 0 0
At STD N 00E0FFFF
Ne 0 ""
Po 13.97 1.27
$EndPAD
$PAD
Sh "24" C 1.524 1.524 0 0 0
Dr 1.016 0 0
At STD N 00E0FFFF
Ne 0 ""
Po 13.97 -1.27
$EndPAD
$SHAPE3D
Na "pin_array/pins_array_12x2.wrl"
Sc 1 1 1
Of 0 0 0
Ro 0 0 0
$EndSHAPE3D
$EndMODULE pin_array_12x2
$MODULE pin_array_13x2
Po 0 0 0 15 5031D825 00000000 ~~
Li pin_array_13x2
Cd 2 x 13 pins connector
Kw CONN
Sc 0
AR 
Op 0 0 0
T0 -7.62 -3.81 1.016 1.016 0 0.2032 N V 21 N "PIN_ARRAY_13X2"
T1 7.62 -3.81 1.016 1.016 0 0.2032 N V 21 N "Val**"
DS -16.51 2.54 16.51 2.54 0.2032 21
DS 16.51 -2.54 -16.51 -2.54 0.2032 21
DS -16.51 -2.54 -16.51 2.54 0.2032 21
DS 16.51 2.54 16.51 -2.54 0.2032 21
$PAD
Sh "1" R 1.524 1.524 0 0 0
Dr 1.016 0 0
At STD N 00E0FFFF
Ne 0 ""
Po -15.24 1.27
$EndPAD
$PAD
Sh "2" C 1.524 1.524 0 0 0
Dr 1.016 0 0
At STD N 00E0FFFF
Ne 0 ""
Po -15.24 -1.27
$EndPAD
$PAD
Sh "3" C 1.524 1.524 0 0 0
Dr 1.016 0 0
At STD N 00E0FFFF
Ne 0 ""
Po -12.7 1.27
$EndPAD
$PAD
Sh "4" C 1.524 1.524 0 0 0
Dr 1.016 0 0
At STD N 00E0FFFF
Ne 0 ""
Po -12.7 -1.27
$EndPAD
$PAD
Sh "5" C 1.524 1.524 0 0 0
Dr 1.016 0 0
At STD N 00E0FFFF
Ne 0 ""
Po -10.16 1.27
$EndPAD
$PAD
Sh "6" C 1.524 1.524 0 0 0
Dr 1.016 0 0
At STD N 00E0FFFF
Ne 0 ""
Po -10.16 -1.27
$EndPAD
$PAD
Sh "7" C 1.524 1.524 0 0 0
Dr 1.016 0 0
At STD N 00E0FFFF
Ne 0 ""
Po -7.62 1.27
$EndPAD
$PAD
Sh "8" C 1.524 1.524 0 0 0
Dr 1.016 0 0
At STD N 00E0FFFF
Ne 0 ""
Po -7.62 -1.27
$EndPAD
$PAD
Sh "9" C 1.524 1.524 0 0 0
Dr 1.016 0 0
At STD N 00E0FFFF
Ne 0 ""
Po -5.08 1.27
$EndPAD
$PAD
Sh "10" C 1.524 1.524 0 0 0
Dr 1.016 0 0
At STD N 00E0FFFF
Ne 0 ""
Po -5.08 -1.27
$EndPAD
$PAD
Sh "11" C 1.524 1.524 0 0 0
Dr 1.016 0 0
At STD N 00E0FFFF
Ne 0 ""
Po -2.54 1.27
$EndPAD
$PAD
Sh "12" C 1.524 1.524 0 0 0
Dr 1.016 0 0
At STD N 00E0FFFF
Ne 0 ""
Po -2.54 -1.27
$EndPAD
$PAD
Sh "13" C 1.524 1.524 0 0 0
Dr 1.016 0 0
At STD N 00E0FFFF
Ne 0 ""
Po 0 1.27
$EndPAD
$PAD
Sh "14" C 1.524 1.524 0 0 0
Dr 1.016 0 0
At STD N 00E0FFFF
Ne 0 ""
Po 0 -1.27
$EndPAD
$PAD
Sh "15" C 1.524 1.524 0 0 0
Dr 1.016 0 0
At STD N 00E0FFFF
Ne 0 ""
Po 2.54 1.27
$EndPAD
$PAD
Sh "16" C 1.524 1.524 0 0 0
Dr 1.016 0 0
At STD N 00E0FFFF
Ne 0 ""
Po 2.54 -1.27
$EndPAD
$PAD
Sh "17" C 1.524 1.524 0 0 0
Dr 1.016 0 0
At STD N 00E0FFFF
Ne 0 ""
Po 5.08 1.27
$EndPAD
$PAD
Sh "18" C 1.524 1.524 0 0 0
Dr 1.016 0 0
At STD N 00E0FFFF
Ne 0 ""
Po 5.08 -1.27
$EndPAD
$PAD
Sh "19" C 1.524 1.524 0 0 0
Dr 1.016 0 0
At STD N 00E0FFFF
Ne 0 ""
Po 7.62 1.27
$EndPAD
$PAD
Sh "20" C 1.524 1.524 0 0 0
Dr 1.016 0 0
At STD N 00E0FFFF
Ne 0 ""
Po 7.62 -1.27
$EndPAD
$PAD
Sh "21" C 1.524 1.524 0 0 0
Dr 1.016 0 0
At STD N 00E0FFFF
Ne 0 ""
Po 10.16 1.27
$EndPAD
$PAD
Sh "22" C 1.524 1.524 0 0 0
Dr 1.016 0 0
At STD N 00E0FFFF
Ne 0 ""
Po 10.16 -1.27
$EndPAD
$PAD
Sh "23" C 1.524 1.524 0 0 0
Dr 1.016 0 0
At STD N 00E0FFFF
Ne 0 ""
Po 12.7 1.27
$EndPAD
$PAD
Sh "24" C 1.524 1.524 0 0 0
Dr 1.016 0 0
At STD N 00E0FFFF
Ne 0 ""
Po 12.7 -1.27
$EndPAD
$PAD
Sh "25" C 1.524 1.524 0 0 0
Dr 1.016 0 0
At STD N 00E0FFFF
Ne 0 ""
Po 15.24 1.27
$EndPAD
$PAD
Sh "26" C 1.524 1.524 0 0 0
Dr 1.016 0 0
At STD N 00E0FFFF
Ne 0 ""
Po 15.24 -1.27
$EndPAD
$SHAPE3D
Na "pin_array/pins_array_13x2.wrl"
Sc 1 1 1
Of 0 0 0
Ro 0 0 0
$EndSHAPE3D
$EndMODULE pin_array_13x2
$MODULE pin_array_3x2
Po 0 0 0 15 42931587 00000000 ~~
Li pin_array_3x2
Cd Double rangee de contacts 2 x 4 pins
Kw CONN
Sc 0
AR 
Op 0 0 0
T0 0 -3.81 1.016 1.016 0 0.2032 N V 21 N "PIN_ARRAY_3X2"
T1 0 3.81 1.016 1.016 0 0.2032 N I 21 N "Val**"
DS 3.81 2.54 -3.81 2.54 0.2032 21
DS -3.81 -2.54 3.81 -2.54 0.2032 21
DS 3.81 -2.54 3.81 2.54 0.2032 21
DS -3.81 2.54 -3.81 -2.54 0.2032 21
$PAD
Sh "1" R 1.524 1.524 0 0 0
Dr 1.016 0 0
At STD N 00E0FFFF
Ne 0 ""
Po -2.54 1.27
$EndPAD
$PAD
Sh "2" C 1.524 1.524 0 0 0
Dr 1.016 0 0
At STD N 00E0FFFF
Ne 0 ""
Po -2.54 -1.27
$EndPAD
$PAD
Sh "3" C 1.524 1.524 0 0 0
Dr 1.016 0 0
At STD N 00E0FFFF
Ne 0 ""
Po 0 1.27
$EndPAD
$PAD
Sh "4" C 1.524 1.524 0 0 0
Dr 1.016 0 0
At STD N 00E0FFFF
Ne 0 ""
Po 0 -1.27
$EndPAD
$PAD
Sh "5" C 1.524 1.524 0 0 0
Dr 1.016 0 0
At STD N 00E0FFFF
Ne 0 ""
Po 2.54 1.27
$EndPAD
$PAD
Sh "6" C 1.524 1.524 0 0 0
Dr 1.016 0 0
At STD N 00E0FFFF
Ne 0 ""
Po 2.54 -1.27
$EndPAD
$SHAPE3D
Na "pin_array/pins_array_3x2.wrl"
Sc 1 1 1
Of 0 0 0
Ro 0 0 0
$EndSHAPE3D
$EndMODULE pin_array_3x2
$MODULE pin_array_4x2
Po 0 0 0 15 3FAB90E6 00000000 ~~
Li pin_array_4x2
Cd Double rangee de contacts 2 x 4 pins
Kw CONN
Sc 0
AR 
Op 0 0 0
T0 0 -3.81 1.016 1.016 0 0.2032 N V 21 N "PIN_ARRAY_4X2"
T1 0 3.81 1.016 1.016 0 0.2032 N I 21 N "Val**"
DS -5.08 -2.54 5.08 -2.54 0.3048 21
DS 5.08 -2.54 5.08 2.54 0.3048 21
DS 5.08 2.54 -5.08 2.54 0.3048 21
DS -5.08 2.54 -5.08 -2.54 0.3048 21
$PAD
Sh "1" R 1.524 1.524 0 0 0
Dr 1.016 0 0
At STD N 00E0FFFF
Ne 0 ""
Po -3.81 1.27
$EndPAD
$PAD
Sh "2" C 1.524 1.524 0 0 0
Dr 1.016 0 0
At STD N 00E0FFFF
Ne 0 ""
Po -3.81 -1.27
$EndPAD
$PAD
Sh "3" C 1.524 1.524 0 0 0
Dr 1.016 0 0
At STD N 00E0FFFF
Ne 0 ""
Po -1.27 1.27
$EndPAD
$PAD
Sh "4" C 1.524 1.524 0 0 0
Dr 1.016 0 0
At STD N 00E0FFFF
Ne 0 ""
Po -1.27 -1.27
$EndPAD
$PAD
Sh "5" C 1.524 1.524 0 0 0
Dr 1.016 0 0
At STD N 00E0FFFF
Ne 0 ""
Po 1.27 1.27
$EndPAD
$PAD
Sh "6" C 1.524 1.524 0 0 0
Dr 1.016 0 0
At STD N 00E0FFFF
Ne 0 ""
Po 1.27 -1.27
$EndPAD
$PAD
Sh "7" C 1.524 1.524 0 0 0
Dr 1.016 0 0
At STD N 00E0FFFF
Ne 0 ""
Po 3.81 1.27
$EndPAD
$PAD
Sh "8" C 1.524 1.524 0 0 0
Dr 1.016 0 0
At STD N 00E0FFFF
Ne 0 ""
Po 3.81 -1.27
$EndPAD
$SHAPE3D
Na "pin_array/pins_array_4x2.wrl"
Sc 1 1 1
Of 0 0 0
Ro 0 0 0
$EndSHAPE3D
$EndMODULE pin_array_4x2
$MODULE pin_array_6x2
Po 0 0 0 15 3FB38A8B 00000000 ~~
Li pin_array_6x2
Cd Double rangee de contacts 2 x 6 pins
Kw CONN
Sc 0
AR 
Op 0 0 0
T0 0 -3.81 1.016 1.016 0 0.27432 N V 21 N "PIN_ARRAY_6X2"
T1 0 3.81 1.016 1.016 0 0.2032 N V 21 N "Val**"
DS -7.62 -2.54 7.62 -2.54 0.3048 21
DS 7.62 -2.54 7.62 2.54 0.3048 21
DS 7.62 2.54 -7.62 2.54 0.3048 21
DS -7.62 2.54 -7.62 -2.54 0.3048 21
$PAD
Sh "1" R 1.524 1.524 0 0 0
Dr 1.016 0 0
At STD N 00E0FFFF
Ne 0 ""
Po -6.35 1.27
$EndPAD
$PAD
Sh "2" C 1.524 1.524 0 0 0
Dr 1.016 0 0
At STD N 00E0FFFF
Ne 0 ""
Po -6.35 -1.27
$EndPAD
$PAD
Sh "3" C 1.524 1.524 0 0 0
Dr 1.016 0 0
At STD N 00E0FFFF
Ne 0 ""
Po -3.81 1.27
$EndPAD
$PAD
Sh "4" C 1.524 1.524 0 0 0
Dr 1.016 0 0
At STD N 00E0FFFF
Ne 0 ""
Po -3.81 -1.27
$EndPAD
$PAD
Sh "5" C 1.524 1.524 0 0 0
Dr 1.016 0 0
At STD N 00E0FFFF
Ne 0 ""
Po -1.27 1.27
$EndPAD
$PAD
Sh "6" C 1.524 1.524 0 0 0
Dr 1.016 0 0
At STD N 00E0FFFF
Ne 0 ""
Po -1.27 -1.27
$EndPAD
$PAD
Sh "7" C 1.524 1.524 0 0 0
Dr 1.016 0 0
At STD N 00E0FFFF
Ne 0 ""
Po 1.27 1.27
$EndPAD
$PAD
Sh "8" C 1.524 1.524 0 0 0
Dr 1.016 0 0
At STD N 00E0FFFF
Ne 0 ""
Po 1.27 -1.27
$EndPAD
$PAD
Sh "9" C 1.524 1.524 0 0 0
Dr 1.016 0 0
At STD N 00E0FFFF
Ne 0 ""
Po 3.81 1.27
$EndPAD
$PAD
Sh "10" C 1.524 1.524 0 0 0
Dr 1.016 0 0
At STD N 00E0FFFF
Ne 0 ""
Po 3.81 -1.27
$EndPAD
$PAD
Sh "11" C 1.524 1.524 0 0 0
Dr 1.016 0 0
At STD N 00E0FFFF
Ne 0 ""
Po 6.35 1.27
$EndPAD
$PAD
Sh "12" C 1.524 1.524 0 0 0
Dr 1.016 0 0
At STD N 00E0FFFF
Ne 0 ""
Po 6.35 -1.27
$EndPAD
$SHAPE3D
Na "pin_array/pins_array_6x2.wrl"
Sc 1 1 1
Of 0 0 0
Ro 0 0 0
$EndSHAPE3D
$EndMODULE pin_array_6x2
$MODULE pin_array_8x2
Po 0 0 0 15 3FB38B89 00000000 ~~
Li pin_array_8x2
Cd Double rangee de contacts 2 x 8 pins
Kw CONN
Sc 0
AR 
Op 0 0 0
T0 0 -3.302 1.016 1.016 0 0.2032 N V 21 N "PIN_ARRAY_8x2"
T1 0 3.302 1.016 1.016 0 0.2032 N V 21 N "Val**"
DS -9.906 2.286 -9.906 -2.286 0.3048 21
DS -9.906 -2.286 9.906 -2.286 0.3048 21
DS 9.906 -2.286 9.906 2.286 0.3048 21
DS 9.906 2.286 -9.906 2.286 0.3048 21
$PAD
Sh "1" R 1.524 1.524 0 0 0
Dr 1.016 0 0
At STD N 00E0FFFF
Ne 0 ""
Po -8.89 1.27
$EndPAD
$PAD
Sh "2" C 1.524 1.524 0 0 0
Dr 1.016 0 0
At STD N 00E0FFFF
Ne 0 ""
Po -8.89 -1.27
$EndPAD
$PAD
Sh "3" C 1.524 1.524 0 0 0
Dr 1.016 0 0
At STD N 00E0FFFF
Ne 0 ""
Po -6.35 1.27
$EndPAD
$PAD
Sh "4" C 1.524 1.524 0 0 0
Dr 1.016 0 0
At STD N 00E0FFFF
Ne 0 ""
Po -6.35 -1.27
$EndPAD
$PAD
Sh "5" C 1.524 1.524 0 0 0
Dr 1.016 0 0
At STD N 00E0FFFF
Ne 0 ""
Po -3.81 1.27
$EndPAD
$PAD
Sh "6" C 1.524 1.524 0 0 0
Dr 1.016 0 0
At STD N 00E0FFFF
Ne 0 ""
Po -3.81 -1.27
$EndPAD
$PAD
Sh "7" C 1.524 1.524 0 0 0
Dr 1.016 0 0
At STD N 00E0FFFF
Ne 0 ""
Po -1.27 1.27
$EndPAD
$PAD
Sh "8" C 1.524 1.524 0 0 0
Dr 1.016 0 0
At STD N 00E0FFFF
Ne 0 ""
Po -1.27 -1.27
$EndPAD
$PAD
Sh "9" C 1.524 1.524 0 0 0
Dr 1.016 0 0
At STD N 00E0FFFF
Ne 0 ""
Po 1.27 1.27
$EndPAD
$PAD
Sh "10" C 1.524 1.524 0 0 0
Dr 1.016 0 0
At STD N 00E0FFFF
Ne 0 ""
Po 1.27 -1.27
$EndPAD
$PAD
Sh "11" C 1.524 1.524 0 0 0
Dr 1.016 0 0
At STD N 00E0FFFF
Ne 0 ""
Po 3.81 1.27
$EndPAD
$PAD
Sh "12" C 1.524 1.524 0 0 0
Dr 1.016 0 0
At STD N 00E0FFFF
Ne 0 ""
Po 3.81 -1.27
$EndPAD
$PAD
Sh "13" C 1.524 1.524 0 0 0
Dr 1.016 0 0
At STD N 00E0FFFF
Ne 0 ""
Po 6.35 1.27
$EndPAD
$PAD
Sh "14" C 1.524 1.524 0 0 0
Dr 1.016 0 0
At STD N 00E0FFFF
Ne 0 ""
Po 6.35 -1.27
$EndPAD
$PAD
Sh "15" C 1.524 1.524 0 0 0
Dr 1.016 0 0
At STD N 00E0FFFF
Ne 0 ""
Po 8.89 1.27
$EndPAD
$PAD
Sh "16" C 1.524 1.524 0 0 0
Dr 1.016 0 0
At STD N 00E0FFFF
Ne 0 ""
Po 8.89 -1.27
$EndPAD
$SHAPE3D
Na "pin_array/pins_array_8x2.wrl"
Sc 1 1 1
Of 0 0 0
Ro 0 0 0
$EndSHAPE3D
$EndMODULE pin_array_8x2
$EndLIBRARY
