PCBNEW-LibModule-V1  Mi 05 Jun 2013 18:38:27 CEST
# encoding utf-8
Units mm
$INDEX
Potentiometer_Alps-RK16-double_RevA_30July2010
Potentiometer_Alps-RK16-single_RevA_30July2010
Potentiometer_Alps-RK16-single_largePads_RevA_30July2010
Potentiometer_Bourns_3296W_3-8Zoll_Inline_ScrewUp
Potentiometer_Bourns_3296X_3-8Zoll_Inline_ScrewFront
Potentiometer_Bourns_3296Y_3-8Zoll_Angular_ScrewUp
Potentiometer_Bourns_3296Z_3-8Zoll_Angular_ScrewFront
Potentiometer_Spectrol-Type148-Type149_Dual_RevA_02Aug2010
Potentiometer_Spectrol-Type148-Type149_Single_RevA_02Aug2010
Potentiometer_Spectrol-Type43
Potentiometer_Trimmer-Piher-PT15-h2-5_vertical_RevA_02Aug2010
Potentiometer_Trimmer-Piher-PT15-h5_vertical_RevA_02Aug2010
Potentiometer_Trimmer-Piher_PT15-B_vertical_RevA_02Aug2010
Potentiometer_Trimmer-Piher_PT15-V12-5_horizontal_RevA_02Aug2010
Potentiometer_Trimmer-Piher_PT15-V12-5_horizontal_revers_RevA_02Aug2010
Potentiometer_Trimmer-Piher_PT15-V15_horizontal_RevA_02Aug2010
Potentiometer_Trimmer-Piher_PT15-V17-5_horizontal_RevA_02Aug2010
Potentiometer_Trimmer-Piher_PT15-V17-5_horizontal_revers_RevA_02Aug2010
Potentiometer_VishaySpectrol-Econtrim-Type36M_RevA_02Aug2010
Potentiometer_VishaySpectrol-Econtrim-Type36P_RevA_02Aug2010
Potentiometer_VishaySpectrol-Econtrim-Type36T_RevA_02Aug2010
Potentiometer_VishaySpectrol-Econtrim-Type36X_RevA_02Aug2010
Potentiometer_VishaySpectrol-Econtrim-Type36k_RevA_02Aug2010
Potentiometer_WirePads_RevA_30July2010
Potentiometer_WirePads_Small_RevA_02Aug2010
Potentiometer_WirePads_large Pads_RevA_30July2010
Potentiometer_WirePads_largePads_RevA_30July2010
$EndINDEX
$MODULE Potentiometer_Alps-RK16-double_RevA_30July2010
Po 0 0 0 15 4C529B08 00000000 ~~
Li Potentiometer_Alps-RK16-double_RevA_30July2010
Cd Potentiometer, double, dual,  Alps, RK16, single, RevA, 30 July 2010,
Kw Potentiometer, double, dual, Alps, RK16, single, RevA, 30 July 2010,
Sc 0
AR 
Op 0 0 0
T0 0 -11.43 1.524 1.524 0 0.3048 N V 21 N "R"
T1 0 11.43 1.524 1.524 0 0.3048 N V 21 N "Potentiometer_Alps-RK16-double_RevA_30July2010"
DS -6.70052 -8.99922 -8.30072 -8.99922 0.381 21
DS -8.30072 -8.99922 -8.30072 -7.50062 0.381 21
DS -6.70052 8.99922 -8.30072 8.99922 0.381 21
DS -8.30072 8.99922 -8.30072 7.50062 0.381 21
DS -6.70052 -7.50062 -8.30072 -7.50062 0.381 21
DS -8.30072 -7.50062 -8.30072 7.50062 0.381 21
DS -8.30072 7.50062 -6.70052 7.50062 0.381 21
DS 0 8.99922 -6.70052 8.99922 0.381 21
DS 3.79984 -7.50062 3.79984 -8.99922 0.381 21
DS 3.79984 -8.99922 -6.70052 -8.99922 0.381 21
DS 3.79984 5.99948 5.79882 5.99948 0.381 21
DS 5.79882 5.99948 5.79882 8.99922 0.381 21
DS 5.79882 8.99922 0 8.99922 0.381 21
DS 0 8.99922 0 7.50062 0.381 21
DS 8.8011 -2.99974 18.80108 -2.99974 0.381 21
DS 18.80108 -2.99974 18.80108 2.99974 0.381 21
DS 18.80108 2.99974 8.8011 2.99974 0.381 21
DS 3.79984 -3.50012 8.8011 -3.50012 0.381 21
DS 8.8011 -3.50012 8.8011 3.50012 0.381 21
DS 8.8011 3.50012 3.79984 3.50012 0.381 21
DS 3.79984 -7.50062 -6.70052 -7.50062 0.381 21
DS -6.70052 7.50062 3.79984 7.50062 0.381 21
DS 3.79984 7.50062 3.79984 -7.50062 0.381 21
$PAD
Sh "23" C 2.49936 2.49936 0 0 0
Dr 1.19888 0 0
At STD N 00E0FFFF
Ne 0 ""
Po -5.00126 5.00126
$EndPAD
$PAD
Sh "22" C 2.49936 2.49936 0 0 0
Dr 1.19888 0 0
At STD N 00E0FFFF
Ne 0 ""
Po -5.00126 0
$EndPAD
$PAD
Sh "21" C 2.49936 2.49936 0 0 0
Dr 1.19888 0 0
At STD N 00E0FFFF
Ne 0 ""
Po -5.00126 -5.00126
$EndPAD
$PAD
Sh "12" C 2.49936 2.49936 0 0 0
Dr 1.19888 0 0
At STD N 00E0FFFF
Ne 0 ""
Po 0 0
$EndPAD
$PAD
Sh "13" C 2.49936 2.49936 0 0 0
Dr 1.19888 0 0
At STD N 00E0FFFF
Ne 0 ""
Po 0 5.00126
$EndPAD
$PAD
Sh "11" C 2.49936 2.49936 0 0 0
Dr 1.19888 0 0
At STD N 00E0FFFF
Ne 0 ""
Po 0 -5.00126
$EndPAD
$EndMODULE Potentiometer_Alps-RK16-double_RevA_30July2010
$MODULE Potentiometer_Alps-RK16-single_RevA_30July2010
Po 0 0 0 15 4C529815 00000000 ~~
Li Potentiometer_Alps-RK16-single_RevA_30July2010
Cd Potentiometer, Alps, RK16, single, RevA, 30 July 2010,
Kw Potentiometer, Alps, RK16, single, RevA, 30 July 2010,
Sc 0
AR 
Op 0 0 0
T0 0 -11.43 1.524 1.524 0 0.3048 N V 21 N "R"
T1 0 11.43 1.524 1.524 0 0.3048 N V 21 N "Potentiometer_Alps-RK16-single_RevA_30July2010"
DS 0 8.99922 -6.70052 8.99922 0.381 21
DS -6.70052 8.99922 -6.70052 7.39902 0.381 21
DS 3.79984 -7.50062 3.79984 -8.99922 0.381 21
DS 3.79984 -8.99922 -6.70052 -8.99922 0.381 21
DS -6.70052 -8.99922 -6.70052 -7.50062 0.381 21
DS 3.79984 5.99948 5.79882 5.99948 0.381 21
DS 5.79882 5.99948 5.79882 8.99922 0.381 21
DS 5.79882 8.99922 0 8.99922 0.381 21
DS 0 8.99922 0 7.50062 0.381 21
DS 8.8011 -2.99974 18.80108 -2.99974 0.381 21
DS 18.80108 -2.99974 18.80108 2.99974 0.381 21
DS 18.80108 2.99974 8.8011 2.99974 0.381 21
DS 3.79984 -3.50012 8.8011 -3.50012 0.381 21
DS 8.8011 -3.50012 8.8011 3.50012 0.381 21
DS 8.8011 3.50012 3.79984 3.50012 0.381 21
DS 3.79984 -7.50062 -6.70052 -7.50062 0.381 21
DS -6.70052 -7.50062 -6.70052 7.50062 0.381 21
DS -6.70052 7.50062 3.79984 7.50062 0.381 21
DS 3.79984 7.50062 3.79984 -7.50062 0.381 21
$PAD
Sh "2" C 2.49936 2.49936 0 0 0
Dr 1.19888 0 0
At STD N 00E0FFFF
Ne 0 ""
Po 0 0
$EndPAD
$PAD
Sh "3" C 2.49936 2.49936 0 0 0
Dr 1.19888 0 0
At STD N 00E0FFFF
Ne 0 ""
Po 0 5.00126
$EndPAD
$PAD
Sh "1" C 2.49936 2.49936 0 0 0
Dr 1.19888 0 0
At STD N 00E0FFFF
Ne 0 ""
Po 0 -5.00126
$EndPAD
$EndMODULE Potentiometer_Alps-RK16-single_RevA_30July2010
$MODULE Potentiometer_Alps-RK16-single_largePads_RevA_30July2010
Po 0 0 0 15 4C529886 00000000 ~~
Li Potentiometer_Alps-RK16-single_largePads_RevA_30July2010
Cd Potentiometer, Alps, RK16, single, large Pads, RevA, 30 July 2010,
Kw Potentiometer, Alps, RK16, single, large Pads, RevA, 30 July 2010,
Sc 0
AR 
Op 0 0 0
T0 0 -11.43 1.524 1.524 0 0.3048 N V 21 N "R"
T1 0 11.43 1.524 1.524 0 0.3048 N V 21 N "Potentiometer_Alps-RK16-single_largePads_RevA_30July2010"
DS 0 8.99922 -6.70052 8.99922 0.381 21
DS -6.70052 8.99922 -6.70052 7.39902 0.381 21
DS 3.79984 -7.50062 3.79984 -8.99922 0.381 21
DS 3.79984 -8.99922 -6.70052 -8.99922 0.381 21
DS -6.70052 -8.99922 -6.70052 -7.50062 0.381 21
DS 3.79984 5.99948 5.79882 5.99948 0.381 21
DS 5.79882 5.99948 5.79882 8.99922 0.381 21
DS 5.79882 8.99922 0 8.99922 0.381 21
DS 0 8.99922 0 7.50062 0.381 21
DS 8.8011 -2.99974 18.80108 -2.99974 0.381 21
DS 18.80108 -2.99974 18.80108 2.99974 0.381 21
DS 18.80108 2.99974 8.8011 2.99974 0.381 21
DS 3.79984 -3.50012 8.8011 -3.50012 0.381 21
DS 8.8011 -3.50012 8.8011 3.50012 0.381 21
DS 8.8011 3.50012 3.79984 3.50012 0.381 21
DS 3.79984 -7.50062 -6.70052 -7.50062 0.381 21
DS -6.70052 -7.50062 -6.70052 7.50062 0.381 21
DS -6.70052 7.50062 3.79984 7.50062 0.381 21
DS 3.79984 7.50062 3.79984 -7.50062 0.381 21
$PAD
Sh "2" O 4.0005 2.99974 0 0 0
Dr 1.39954 0 0
At STD N 00E0FFFF
Ne 0 ""
Po 0 0
$EndPAD
$PAD
Sh "3" O 4.0005 2.99974 0 0 0
Dr 1.39954 0 0
At STD N 00E0FFFF
Ne 0 ""
Po 0 5.00126
$EndPAD
$PAD
Sh "1" O 4.0005 2.99974 0 0 0
Dr 1.39954 0 0
At STD N 00E0FFFF
Ne 0 ""
Po 0 -5.00126
$EndPAD
$EndMODULE Potentiometer_Alps-RK16-single_largePads_RevA_30July2010
$MODULE Potentiometer_Bourns_3296W_3-8Zoll_Inline_ScrewUp
Po 0 0 0 15 4BC75453 00000000 ~~
Li Potentiometer_Bourns_3296W_3-8Zoll_Inline_ScrewUp
Cd Potentiometer, Trimmer, Bourns 3296W, 3/8 Inch, Inline, Screw up,
Kw Potentiometer, Trimmer, Bourns 3296W, 3/8 Inch, Inline, Screw up
Sc 0
AR 
Op 0 0 0
T0 0 -7.62 1.524 1.524 0 0.3048 N V 21 N "R"
T1 1.27 7.62 1.524 1.524 0 0.3048 N I 21 N "Potentiometer_Bourns3296W_3/8Inch_Inline_ScrewUp"
DS -2.032 3.556 -0.762 3.556 0.381 21
DS -1.2827 2.7686 -1.5367 2.8067 0.381 21
DS -1.5367 2.8067 -1.8161 2.9845 0.381 21
DS -1.8161 2.9845 -2.032 3.302 0.381 21
DS -2.032 3.302 -2.0447 3.7465 0.381 21
DS -2.0447 3.7465 -1.8415 4.1021 0.381 21
DS -1.8415 4.1021 -1.5494 4.2799 0.381 21
DS -1.5494 4.2799 -1.2319 4.3307 0.381 21
DS -1.2319 4.3307 -0.8255 4.2291 0.381 21
DS -0.8255 4.2291 -0.5715 3.8862 0.381 21
DS -0.5715 3.8862 -0.4826 3.7084 0.381 21
DS 1.778 -4.826 1.778 4.826 0.381 21
DS -1.27 4.826 -2.54 4.826 0.381 21
DS -2.54 4.826 -2.54 -4.826 0.381 21
DS -2.54 -4.826 2.54 -4.826 0.381 21
DS 2.54 4.826 0 4.826 0.381 21
DS 0 4.826 -1.27 4.826 0.381 21
$PAD
Sh "2" C 1.524 1.524 0 0 0
Dr 0.8128 0 0
At STD N 00E0FFFF
Ne 0 ""
Po 0 0
$EndPAD
$PAD
Sh "3" C 1.524 1.524 0 0 0
Dr 0.8128 0 0
At STD N 00E0FFFF
Ne 0 ""
Po 0 -2.54
$EndPAD
$PAD
Sh "1" C 1.524 1.524 0 0 0
Dr 0.8128 0 0
At STD N 00E0FFFF
Ne 0 ""
Po 0 2.54
$EndPAD
$EndMODULE Potentiometer_Bourns_3296W_3-8Zoll_Inline_ScrewUp
$MODULE Potentiometer_Bourns_3296X_3-8Zoll_Inline_ScrewFront
Po 0 0 0 15 4BC75464 00000000 ~~
Li Potentiometer_Bourns_3296X_3-8Zoll_Inline_ScrewFront
Cd Potentiometer, Trimmer, Bourns 3296X, 3/8 Inch, Inline, Screw Front,
Kw Potentiometer, Trimmer, Bourns 3296X, 3/8 Inch, Inline, Screw Front,
Sc 0
AR 
Op 0 0 0
T0 2.54 -6.35 1.524 1.524 0 0.3048 N V 21 N "R"
T1 1.27 7.62 1.524 1.524 0 0.3048 N I 21 N "Potentiometer_Bourns3296X_3/8Inch_Inline_ScrewFront"
DS -1.016 -6.35 -1.016 -5.715 0.381 21
DS -2.032 -4.826 -2.032 -6.35 0.381 21
DS -2.032 -6.35 -0.127 -6.35 0.381 21
DS -0.127 -6.35 -0.127 -4.826 0.381 21
DS 1.778 -4.826 1.778 4.826 0.381 21
DS -1.27 4.826 -2.54 4.826 0.381 21
DS -2.54 4.826 -2.54 -4.826 0.381 21
DS -2.54 -4.826 2.54 -4.826 0.381 21
DS 2.54 4.826 0 4.826 0.381 21
DS 0 4.826 -1.27 4.826 0.381 21
$PAD
Sh "2" C 1.524 1.524 0 0 0
Dr 0.8128 0 0
At STD N 00E0FFFF
Ne 0 ""
Po 0 0
$EndPAD
$PAD
Sh "3" C 1.524 1.524 0 0 0
Dr 0.8128 0 0
At STD N 00E0FFFF
Ne 0 ""
Po 0 -2.54
$EndPAD
$PAD
Sh "1" C 1.524 1.524 0 0 0
Dr 0.8128 0 0
At STD N 00E0FFFF
Ne 0 ""
Po 0 2.54
$EndPAD
$EndMODULE Potentiometer_Bourns_3296X_3-8Zoll_Inline_ScrewFront
$MODULE Potentiometer_Bourns_3296Y_3-8Zoll_Angular_ScrewUp
Po 0 0 0 15 4BC75481 00000000 ~~
Li Potentiometer_Bourns_3296Y_3-8Zoll_Angular_ScrewUp
Cd Potentiometer, Trimmer, Bourns 3296Y, 3/8 Inch, Angular, Screw up,
Kw Potentiometer, Trimmer, Bourns 3296Y, 3/8 Inch, Angular, Screw up
Sc 0
AR 
Op 0 0 0
T0 0 -7.62 1.524 1.524 0 0.3048 N V 21 N "R"
T1 1.27 7.62 1.524 1.524 0 0.3048 N I 21 N "Potentiometer_Bourns3296Y_3/8Inch_Angular_ScrewUp"
DS 1.905 3.81 1.905 4.826 0.381 21
DS 1.905 -1.27 1.905 1.27 0.381 21
DS 1.905 -4.826 1.905 -3.81 0.381 21
DS -2.032 3.556 -0.762 3.556 0.381 21
DS -1.2827 2.7686 -1.5367 2.8067 0.381 21
DS -1.5367 2.8067 -1.8161 2.9845 0.381 21
DS -1.8161 2.9845 -2.032 3.302 0.381 21
DS -2.032 3.302 -2.0447 3.7465 0.381 21
DS -2.0447 3.7465 -1.8415 4.1021 0.381 21
DS -1.8415 4.1021 -1.5494 4.2799 0.381 21
DS -1.5494 4.2799 -1.2319 4.3307 0.381 21
DS -1.2319 4.3307 -0.8255 4.2291 0.381 21
DS -0.8255 4.2291 -0.5715 3.8862 0.381 21
DS -0.5715 3.8862 -0.4826 3.7084 0.381 21
DS -1.27 4.826 -2.54 4.826 0.381 21
DS -2.54 4.826 -2.54 -4.826 0.381 21
DS -2.54 -4.826 2.54 -4.826 0.381 21
DS 2.54 4.826 0 4.826 0.381 21
DS 0 4.826 -1.27 4.826 0.381 21
$PAD
Sh "2" C 1.524 1.524 0 0 0
Dr 0.8128 0 0
At STD N 00E0FFFF
Ne 0 ""
Po -1.27 0
$EndPAD
$PAD
Sh "3" C 1.524 1.524 0 0 0
Dr 0.8128 0 0
At STD N 00E0FFFF
Ne 0 ""
Po 1.27 -2.54
$EndPAD
$PAD
Sh "1" C 1.524 1.524 0 0 0
Dr 0.8128 0 0
At STD N 00E0FFFF
Ne 0 ""
Po 1.27 2.54
$EndPAD
$EndMODULE Potentiometer_Bourns_3296Y_3-8Zoll_Angular_ScrewUp
$MODULE Potentiometer_Bourns_3296Z_3-8Zoll_Angular_ScrewFront
Po 0 0 0 15 4BC75494 00000000 ~~
Li Potentiometer_Bourns_3296Z_3-8Zoll_Angular_ScrewFront
Cd Potentiometer, Trimmer, Bourns 3296Z, 3/8 Inch, Angular, Screw Front,
Kw Potentiometer, Trimmer, Bourns 3296Z, 3/8 Inch, Angular, Screw Front,
Sc 0
AR 
Op 0 0 0
T0 2.54 -6.35 1.524 1.524 0 0.3048 N V 21 N "R"
T1 1.27 7.62 1.524 1.524 0 0.3048 N I 21 N "Potentiometer_Bourns3296Z_3/8Inch_Angular_ScrewFront"
DS 1.905 3.81 1.905 4.445 0.381 21
DS 1.905 -1.27 1.905 1.27 0.381 21
DS 1.905 -4.445 1.905 -3.81 0.381 21
DS -1.016 -6.35 -1.016 -5.715 0.381 21
DS -2.032 -4.826 -2.032 -6.35 0.381 21
DS -2.032 -6.35 -0.127 -6.35 0.381 21
DS -0.127 -6.35 -0.127 -4.826 0.381 21
DS -1.27 4.826 -2.54 4.826 0.381 21
DS -2.54 4.826 -2.54 -4.826 0.381 21
DS -2.54 -4.826 2.54 -4.826 0.381 21
DS 2.54 4.826 0 4.826 0.381 21
DS 0 4.826 -1.27 4.826 0.381 21
$PAD
Sh "2" C 1.524 1.524 0 0 0
Dr 0.8128 0 0
At STD N 00E0FFFF
Ne 0 ""
Po -1.27 0
$EndPAD
$PAD
Sh "3" C 1.524 1.524 0 0 0
Dr 0.8128 0 0
At STD N 00E0FFFF
Ne 0 ""
Po 1.27 -2.54
$EndPAD
$PAD
Sh "1" C 1.524 1.524 0 0 0
Dr 0.8128 0 0
At STD N 00E0FFFF
Ne 0 ""
Po 1.27 2.54
$EndPAD
$EndMODULE Potentiometer_Bourns_3296Z_3-8Zoll_Angular_ScrewFront
$MODULE Potentiometer_Spectrol-Type148-Type149_Dual_RevA_02Aug2010
Po 0 0 0 15 4C568080 00000000 ~~
Li Potentiometer_Spectrol-Type148-Type149_Dual_RevA_02Aug2010
Cd Potentiometer,  Spectro,l Type 149, Type 148, Dual, Rev A, 02 Aug 2010,
Kw Potentiometer, Spectrol, Type 149, Type 148, Dual, Rev A, 02 Aug 2010,
Sc 0
AR 
Op 0 0 0
T0 0 -12.7 1.524 1.524 0 0.3048 N V 21 N "R"
T1 0 20.32 1.524 1.524 0 0.3048 N I 21 N "Potentiometer_Spectrol-Type148-Type149_Dual_RevA_02Aug2010"
DS 6.25094 -3.7592 6.25094 -11.3792 0.381 21
DS 6.25094 -11.3792 -6.25094 -11.3792 0.381 21
DS -6.25094 -11.3792 -6.25094 -3.7592 0.381 21
DS 1.6002 11.41984 1.6002 17.76984 0.381 21
DS 1.6002 17.76984 -1.6002 17.76984 0.381 21
DS -1.6002 17.76984 -1.6002 11.41984 0.381 21
DS -3.18008 11.41984 3.18008 11.41984 0.381 21
DS 3.18008 5.06984 3.18008 11.41984 0.381 21
DS -3.18008 11.41984 -3.18008 5.06984 0.381 21
DS 6.25094 5.06984 -6.25094 5.06984 0.381 21
DS -6.25094 5.06984 -6.25094 -3.7592 0.381 21
DS -6.25094 -3.7592 6.25094 -3.7592 0.381 21
DS 6.25094 -3.7592 6.25094 5.06984 0.381 21
$PAD
Sh "12" C 1.50114 1.50114 0 0 0
Dr 0.8001 0 0
At STD N 00E0FFFF
Ne 0 ""
Po 0 0
$EndPAD
$PAD
Sh "13" C 1.50114 1.50114 0 0 0
Dr 0.8001 0 0
At STD N 00E0FFFF
Ne 0 ""
Po 2.54 0
$EndPAD
$PAD
Sh "11" C 1.50114 1.50114 0 0 0
Dr 0.8001 0 0
At STD N 00E0FFFF
Ne 0 ""
Po -2.54 0
$EndPAD
$PAD
Sh "22" C 1.50114 1.50114 0 0 0
Dr 0.8001 0 0
At STD N 00E0FFFF
Ne 0 ""
Po 0 -7.62
$EndPAD
$PAD
Sh "23" C 1.50114 1.50114 0 0 0
Dr 0.8001 0 0
At STD N 00E0FFFF
Ne 0 ""
Po 2.54 -7.62
$EndPAD
$PAD
Sh "21" C 1.50114 1.50114 0 0 0
Dr 0.8001 0 0
At STD N 00E0FFFF
Ne 0 ""
Po -2.54 -7.62
$EndPAD
$EndMODULE Potentiometer_Spectrol-Type148-Type149_Dual_RevA_02Aug2010
$MODULE Potentiometer_Spectrol-Type148-Type149_Single_RevA_02Aug2010
Po 0 0 0 15 4C567D1A 00000000 ~~
Li Potentiometer_Spectrol-Type148-Type149_Single_RevA_02Aug2010
Cd Potentiometer,  Spectro,l Type 149, Type 148, single, Rev A, 02 Aug 2010,
Kw Potentiometer, Spectrol, Type 149, Type 148,  single, Rev A, 02 Aug 2010,
Sc 0
AR 
Op 0 0 0
T0 0 -5.08 1.524 1.524 0 0.3048 N V 21 N "R"
T1 1.27 20.32 1.524 1.524 0 0.3048 N I 21 N "Potentiometer_Spectrol-Type148-Type149_Single_RevA_02Aug2010"
DS 1.6002 11.41984 1.6002 17.76984 0.381 21
DS 1.6002 17.76984 -1.6002 17.76984 0.381 21
DS -1.6002 17.76984 -1.6002 11.41984 0.381 21
DS -3.18008 11.41984 3.18008 11.41984 0.381 21
DS 3.18008 5.06984 3.18008 11.41984 0.381 21
DS -3.18008 11.41984 -3.18008 5.06984 0.381 21
DS 6.25094 5.06984 -6.25094 5.06984 0.381 21
DS -6.25094 5.06984 -6.25094 -3.7592 0.381 21
DS -6.25094 -3.7592 6.25094 -3.7592 0.381 21
DS 6.25094 -3.7592 6.25094 5.06984 0.381 21
$PAD
Sh "2" C 1.50114 1.50114 0 0 0
Dr 0.8001 0 0
At STD N 00E0FFFF
Ne 0 ""
Po 0 0
$EndPAD
$PAD
Sh "3" C 1.50114 1.50114 0 0 0
Dr 0.8001 0 0
At STD N 00E0FFFF
Ne 0 ""
Po 2.54 0
$EndPAD
$PAD
Sh "1" C 1.50114 1.50114 0 0 0
Dr 0.8001 0 0
At STD N 00E0FFFF
Ne 0 ""
Po -2.54 0
$EndPAD
$EndMODULE Potentiometer_Spectrol-Type148-Type149_Single_RevA_02Aug2010
$MODULE Potentiometer_Spectrol-Type43
Po 0 0 0 15 4BC754A8 00000000 ~~
Li Potentiometer_Spectrol-Type43
Cd Potentiometer, Spindeltrimmer, Spectrol Type 43,
Kw Potentiometer, Spindeltrimmer, Spectrol Type 43,
Sc 0
AR 
Op 0 0 0
T0 -0.20066 -5.10032 1.524 1.524 0 0.3048 N V 21 N "R"
T1 -0.20066 5.10032 1.524 1.524 0 0.3048 N I 21 N "Potentiometer_Spectrol-Type43"
DS 9.525 0 10.16 0 0.381 21
DS 8.255 -1.27 10.16 -1.27 0.381 21
DS 10.16 -1.27 10.16 1.27 0.381 21
DS 10.16 1.27 8.255 1.27 0.381 21
DS 8.001 -2.54 -11.43 -2.54 0.381 21
DS -11.43 -2.54 -11.43 2.413 0.381 21
DS -11.43 2.413 -11.43 2.54 0.381 21
DS -11.43 2.54 8.001 2.54 0.381 21
DS 8.001 2.413 8.001 -2.54 0.381 21
$PAD
Sh "2" C 1.50114 1.50114 0 0 0
Dr 0.8001 0 0
At STD N 00E0FFFF
Ne 0 ""
Po 0 1.27
$EndPAD
$PAD
Sh "3" C 1.50114 1.50114 0 0 0
Dr 0.8001 0 0
At STD N 00E0FFFF
Ne 0 ""
Po 5.08 -1.27
$EndPAD
$PAD
Sh "1" C 1.50114 1.50114 0 0 0
Dr 0.8001 0 0
At STD N 00E0FFFF
Ne 0 ""
Po -7.62 -1.27
$EndPAD
$EndMODULE Potentiometer_Spectrol-Type43
$MODULE Potentiometer_Trimmer-Piher-PT15-h2-5_vertical_RevA_02Aug2010
Po 0 0 0 15 4C569331 00000000 ~~
Li Potentiometer_Trimmer-Piher-PT15-h2-5_vertical_RevA_02Aug2010
Cd Potentiometer, Trimmer, Piher, PT15, Type h 2.5, vertical, Rev A, 02 Aug 2010,
Kw Potentiometer, Trimmer, Piher, PT15, Type h 2.5, vertical, Rev A, 02 Aug 2010,
Sc 0
AR 
Op 0 0 0
T0 2.54 -5.08 1.524 1.524 0 0.3048 N V 21 N "R"
T1 0 6.35 1.524 1.524 0 0.3048 N I 21 N "Potentiometer_Trimmer-Piher-PT15-h2-5_vertical_RevA_02Aug2010"
DS -3.2512 2.79908 3.2512 2.79908 0.381 21
DS 6.74878 2.79908 7.50062 2.79908 0.381 21
DS -7.50062 2.79908 -6.74878 2.79908 0.381 21
DS 7.55142 2.79908 7.55142 -3.50012 0.381 21
DS 7.54888 -3.50012 -7.45236 -3.50012 0.381 21
DS -7.50062 -3.50012 -7.50062 2.79908 0.381 21
$PAD
Sh "2" C 2.49936 2.49936 0 0 0
Dr 1.30048 0 0
At STD N 00E0FFFF
Ne 0 ""
Po 0 0
$EndPAD
$PAD
Sh "3" C 2.49936 2.49936 0 0 0
Dr 1.30048 0 0
At STD N 00E0FFFF
Ne 0 ""
Po 5.00126 2.49936
$EndPAD
$PAD
Sh "1" C 2.49936 2.49936 0 0 0
Dr 1.30048 0 0
At STD N 00E0FFFF
Ne 0 ""
Po -5.00126 2.49936
$EndPAD
$EndMODULE Potentiometer_Trimmer-Piher-PT15-h2-5_vertical_RevA_02Aug2010
$MODULE Potentiometer_Trimmer-Piher-PT15-h5_vertical_RevA_02Aug2010
Po 0 0 0 15 4C5693FC 00000000 ~~
Li Potentiometer_Trimmer-Piher-PT15-h5_vertical_RevA_02Aug2010
Cd Potentiometer, Trimmer, Piher, PT15, Type h5, vertical, Rev A, 02 Aug 2010,
Kw Potentiometer, Trimmer, Piher, PT15, Type h5, vertical, Rev A, 02 Aug 2010,
Sc 0
AR 
Op 0 0 0
T0 3.81 -5.08 1.524 1.524 0 0.3048 N V 21 N "R"
T1 0 6.35 1.524 1.524 0 0.3048 N I 21 N "Potentiometer_Trimmer-Piher-PT15-h5_vertical_RevA_02Aug2010"
DS -3.29946 2.79908 3.29946 2.79908 0.381 21
DS 6.74878 2.79908 7.50062 2.79908 0.381 21
DS 7.50062 2.79908 7.50062 -3.50012 0.381 21
DS -7.50062 -3.50012 -7.50062 2.79908 0.381 21
DS -7.50062 2.79908 -6.74878 2.79908 0.381 21
DS -1.50114 -3.50012 -7.50062 -3.50012 0.381 21
DS 7.50062 -3.50012 1.50114 -3.50012 0.381 21
$PAD
Sh "2" C 2.49936 2.49936 0 0 0
Dr 1.30048 0 0
At STD N 00E0FFFF
Ne 0 ""
Po 0 -2.49936
$EndPAD
$PAD
Sh "3" C 2.49936 2.49936 0 0 0
Dr 1.30048 0 0
At STD N 00E0FFFF
Ne 0 ""
Po 5.00126 2.49936
$EndPAD
$PAD
Sh "1" C 2.49936 2.49936 0 0 0
Dr 1.30048 0 0
At STD N 00E0FFFF
Ne 0 ""
Po -5.00126 2.49936
$EndPAD
$EndMODULE Potentiometer_Trimmer-Piher-PT15-h5_vertical_RevA_02Aug2010
$MODULE Potentiometer_Trimmer-Piher_PT15-B_vertical_RevA_02Aug2010
Po 0 0 0 15 4C56930F 00000000 ~~
Li Potentiometer_Trimmer-Piher_PT15-B_vertical_RevA_02Aug2010
Cd Potentiometer, Trimmer, Piher, PT15, Type B, vertical, Rev A, 02 Aug 2010,
Kw Potentiometer, Trimmer, Piher, PT15, Type B, vertical, Rev A, 02 Aug 2010,
Sc 0
AR 
Op 0 0 0
T0 0 -5.08 1.524 1.524 0 0.3048 N V 21 N "R"
T1 0 5.08 1.524 1.524 0 0.3048 N I 21 N "Potentiometer_Trimmer-Piher_PT15-B_vertical_RevA_02Aug2010"
DS -1.09982 -3.50012 -7.50062 -3.50012 0.381 21
DS 7.50062 -3.50012 1.09982 -3.50012 0.381 21
DS 2.79908 2.79908 -2.79908 2.79908 0.381 21
DS -6.85038 2.79908 -5.99948 2.79908 0.381 21
DS 6.85038 2.79908 5.99948 2.79908 0.381 21
DS 6.74878 2.79908 7.50062 2.79908 0.381 21
DS -7.50062 2.79908 -6.74878 2.79908 0.381 21
DS 7.55142 2.79908 7.55142 -3.50012 0.381 21
DS -7.50062 -3.50012 -7.50062 2.79908 0.381 21
$PAD
Sh "2" C 2.49936 2.49936 0 0 0
Dr 1.30048 0 0
At STD N 00E0FFFF
Ne 0 ""
Po 0 -1.99898
$EndPAD
$PAD
Sh "3" C 2.49936 2.49936 0 0 0
Dr 1.30048 0 0
At STD N 00E0FFFF
Ne 0 ""
Po 4.39928 1.99898
$EndPAD
$PAD
Sh "1" C 2.49936 2.49936 0 0 0
Dr 1.30048 0 0
At STD N 00E0FFFF
Ne 0 ""
Po -4.39928 1.99898
$EndPAD
$EndMODULE Potentiometer_Trimmer-Piher_PT15-B_vertical_RevA_02Aug2010
$MODULE Potentiometer_Trimmer-Piher_PT15-V12-5_horizontal_RevA_02Aug2010
Po 0 0 0 15 4C569D2F 00000000 ~~
Li Potentiometer_Trimmer-Piher_PT15-V12-5_horizontal_RevA_02Aug2010
Cd Potentiometer, Trimmer, Piher, PT15, Type V12.5, horizontal, Rev A, 02 Aug 2010,
Kw Potentiometer, Trimmer, Piher, PT15, Type V12.5, horizontal, Rev A, 02 Aug 2010,
Sc 0
AR 
Op 0 0 0
T0 7.62 -6.35 1.524 1.524 0 0.3048 N V 21 N "R"
T1 -1.27 11.43 1.524 1.524 0 0.3048 N I 21 N "Potentiometer_Trimmer-Piher_PT15-V12-5_horizontal_RevA_02Aug2010"
DS -3.35026 6.70052 -2.79908 6.94944 0.381 21
DS -2.79908 6.94944 -2.14884 7.1501 0.381 21
DS -2.14884 7.1501 -1.39954 7.35076 0.381 21
DS -1.39954 7.35076 -0.65024 7.44982 0.381 21
DS -0.65024 7.44982 0 7.50062 0.381 21
DS 0 7.50062 0.65024 7.44982 0.381 21
DS 0.65024 7.44982 1.6002 7.35076 0.381 21
DS 1.6002 7.35076 2.70002 7.00024 0.381 21
DS 2.70002 7.00024 3.40106 6.70052 0.381 21
DS -7.50062 0.8001 -7.29996 1.80086 0.381 21
DS -7.29996 1.80086 -7.00024 2.75082 0.381 21
DS -7.00024 2.75082 -6.35 3.9497 0.381 21
DS -6.35 3.9497 -5.84962 4.699 0.381 21
DS -5.84962 4.699 -5.34924 5.30098 0.381 21
DS -5.34924 5.30098 -4.89966 5.64896 0.381 21
DS 0 -7.50062 -1.00076 -7.44982 0.381 21
DS -1.00076 -7.44982 -1.95072 -7.29996 0.381 21
DS -1.95072 -7.29996 -2.90068 -6.90118 0.381 21
DS -2.90068 -6.90118 -3.9497 -6.4008 0.381 21
DS -3.9497 -6.4008 -4.8006 -5.79882 0.381 21
DS -4.8006 -5.79882 -5.45084 -5.15112 0.381 21
DS -5.45084 -5.15112 -6.05028 -4.50088 0.381 21
DS -6.05028 -4.50088 -6.55066 -3.70078 0.381 21
DS -6.55066 -3.70078 -7.05104 -2.64922 0.381 21
DS -7.05104 -2.64922 -7.35076 -1.50114 0.381 21
DS -7.35076 -1.50114 -7.54888 -0.20066 0.381 21
DS -7.54888 -0.20066 -7.44982 0.8001 0.381 21
DS 6.55066 -3.59918 6.05028 -4.39928 0.381 21
DS 6.05028 -4.39928 5.4991 -5.10032 0.381 21
DS 5.4991 -5.10032 4.89966 -5.69976 0.381 21
DS 4.89966 -5.69976 4.04876 -6.2992 0.381 21
DS 4.04876 -6.2992 3.2004 -6.79958 0.381 21
DS 3.2004 -6.79958 2.3495 -7.0993 0.381 21
DS 2.3495 -7.0993 1.34874 -7.39902 0.381 21
DS 1.34874 -7.39902 0.55118 -7.50062 0.381 21
DS 0.55118 -7.50062 0.0508 -7.50062 0.381 21
DS 4.84886 5.69976 5.30098 5.25018 0.381 21
DS 5.30098 5.25018 5.84962 4.65074 0.381 21
DS 5.84962 4.65074 6.35 3.9497 0.381 21
DS 6.35 3.9497 6.79958 3.1496 0.381 21
DS 6.79958 3.1496 7.0993 2.25044 0.381 21
DS 7.0993 2.25044 7.35076 1.39954 0.381 21
DS 7.35076 1.39954 7.50062 0.55118 0.381 21
DS 7.50062 0.55118 7.50062 0 0.381 21
DS 7.50062 0 7.44982 -0.70104 0.381 21
DS 7.44982 -0.70104 7.29996 -1.69926 0.381 21
DS 7.29996 -1.69926 7.00024 -2.70002 0.381 21
DS 7.00024 -2.70002 6.55066 -3.59918 0.381 21
DS 0 -1.00076 0 1.00076 0.381 21
DS -1.00076 0 1.00076 0 0.381 21
$PAD
Sh "2" C 2.49936 2.49936 0 0 0
Dr 1.30048 0 0
At STD N 00E0FFFF
Ne 0 ""
Po 0 -5.00126
$EndPAD
$PAD
Sh "3" C 2.49936 2.49936 0 0 0
Dr 1.30048 0 0
At STD N 00E0FFFF
Ne 0 ""
Po 5.00126 7.50062
$EndPAD
$PAD
Sh "1" C 2.49936 2.49936 0 0 0
Dr 1.30048 0 0
At STD N 00E0FFFF
Ne 0 ""
Po -5.00126 7.50062
$EndPAD
$EndMODULE Potentiometer_Trimmer-Piher_PT15-V12-5_horizontal_RevA_02Aug2010
$MODULE Potentiometer_Trimmer-Piher_PT15-V12-5_horizontal_revers_RevA_02Aug2010
Po 0 0 0 15 51AF674A 00000000 ~~
Li Potentiometer_Trimmer-Piher_PT15-V12-5_horizontal_revers_RevA_02Aug2010
Cd Potentiometer, Trimmer, Piher, PT15, Type V12.5, horizontal, Rev A, 02 Aug 2010,
Kw Potentiometer, Trimmer, Piher, PT15, Type V12.5, horizontal, Rev A, 02 Aug 2010,
Sc 0
AR 
Op 0 0 0
T0 7.62 -6.35 1.524 1.524 0 0.3048 N V 21 N "R"
T1 0 11.43 1.524 1.524 0 0.3048 N I 21 N "Potentiometer_Trimmer-Piher_PT15-V12-5_horizontal_RevA_02Aug2010"
DS 7.35076 1.30048 7.44982 0.65024 0.381 21
DS 7.00024 2.60096 7.2009 1.99898 0.381 21
DS 6.4008 3.85064 6.64972 3.35026 0.381 21
DS 5.5499 4.95046 5.95122 4.45008 0.381 21
DS 4.699 5.75056 5.10032 5.40004 0.381 21
DS 2.49936 7.00024 3.0988 6.70052 0.381 21
DS 1.19888 7.29996 1.84912 7.1501 0.381 21
DS -0.09906 7.35076 0.44958 7.35076 0.381 21
DS -1.30048 7.24916 -0.7493 7.35076 0.381 21
DS -2.49936 6.90118 -2.04978 7.05104 0.381 21
DS -3.50012 6.44906 -3.0988 6.64972 0.381 21
DS -5.30098 4.95046 -4.95046 5.34924 0.381 21
DS -6.10108 4.04876 -5.79882 4.50088 0.381 21
DS -5.79882 4.50088 -5.75056 4.50088 0.381 21
DS -6.64972 3.05054 -6.4008 3.55092 0.381 21
DS -7.05104 1.95072 -6.85038 2.49936 0.381 21
DS -7.29996 0.8001 -7.2009 1.34874 0.381 21
DS -7.29996 -0.39878 -7.29996 0.14986 0.381 21
DS -7.1501 -1.45034 -7.2009 -1.00076 0.381 21
DS -6.85038 -2.55016 -7.00024 -2.04978 0.381 21
DS -6.35 -3.64998 -6.59892 -3.1496 0.381 21
DS -5.64896 -4.699 -6.05028 -4.15036 0.381 21
DS -4.7498 -5.5499 -5.15112 -5.19938 0.381 21
DS -3.70078 -6.35 -4.15036 -6.05028 0.381 21
DS -2.55016 -6.90118 -3.2004 -6.64972 0.381 21
DS -3.2004 -6.64972 -3.1496 -6.64972 0.381 21
DS -1.15062 -7.29996 -1.75006 -7.1501 0.381 21
DS 0.20066 -7.39902 -0.39878 -7.39902 0.381 21
DS 1.39954 -7.29996 0.89916 -7.35076 0.381 21
DS 2.75082 -6.90118 2.14884 -7.0993 0.381 21
DS 3.79984 -6.35 3.35026 -6.59892 0.381 21
DS 4.89966 -5.6007 4.50088 -5.95122 0.381 21
DS 5.79882 -4.699 5.40004 -5.10032 0.381 21
DS 6.49986 -3.64998 6.20014 -4.15036 0.381 21
DS 7.05104 -2.4511 6.79958 -3.0988 0.381 21
DS 7.35076 -1.24968 7.24916 -1.80086 0.381 21
DS 7.50062 0 7.44982 -0.59944 0.381 21
$PAD
Sh "2" C 2.49936 2.49936 0 0 0
Dr 1.30048 0 0
At STD N 00E0FFFF
Ne 0 ""
Po 0 -5.00126
$EndPAD
$PAD
Sh "1" C 2.49936 2.49936 0 0 0
Dr 1.30048 0 0
At STD N 00E0FFFF
Ne 0 ""
Po 5.00126 7.50062
$EndPAD
$PAD
Sh "3" C 2.49936 2.49936 0 0 0
Dr 1.30048 0 0
At STD N 00E0FFFF
Ne 0 ""
Po -5.00126 7.50062
$EndPAD
$PAD
Sh "" C 7.00024 7.00024 0 0 0
Dr 6.79958 0 0
At HOLE N 00E0FFFF
Ne 0 ""
Po 0 0
$EndPAD
$EndMODULE Potentiometer_Trimmer-Piher_PT15-V12-5_horizontal_revers_RevA_02Aug2010
$MODULE Potentiometer_Trimmer-Piher_PT15-V15_horizontal_RevA_02Aug2010
Po 0 0 0 15 4C569D04 00000000 ~~
Li Potentiometer_Trimmer-Piher_PT15-V15_horizontal_RevA_02Aug2010
Cd Potentiometer, Trimmer, Piher, PT15, Type V15, horizontal, Rev A, 02 Aug 2010,
Kw Potentiometer, Trimmer, Piher, PT15, Type V15, horizontal, Rev A, 02 Aug 2010,
Sc 0
AR 
Op 0 0 0
T0 7.62 -7.62 1.524 1.524 0 0.3048 N V 21 N "R"
T1 0 11.43 1.524 1.524 0 0.3048 N I 21 N "Potentiometer_Trimmer-Piher_PT15-V15_horizontal_RevA_02Aug2010"
DS -1.95072 -7.29996 -1.75006 -7.35076 0.381 21
DS 2.4003 -7.0993 1.69926 -7.24916 0.381 21
DS -3.35026 6.70052 -2.79908 6.94944 0.381 21
DS -2.79908 6.94944 -2.14884 7.1501 0.381 21
DS -2.14884 7.1501 -1.39954 7.35076 0.381 21
DS -1.39954 7.35076 -0.65024 7.44982 0.381 21
DS -0.65024 7.44982 0 7.50062 0.381 21
DS 0 7.50062 0.65024 7.44982 0.381 21
DS 0.65024 7.44982 1.6002 7.35076 0.381 21
DS 1.6002 7.35076 2.70002 7.00024 0.381 21
DS 2.70002 7.00024 3.40106 6.70052 0.381 21
DS -7.50062 0.8001 -7.29996 1.80086 0.381 21
DS -7.29996 1.80086 -7.00024 2.75082 0.381 21
DS -7.00024 2.75082 -6.35 3.9497 0.381 21
DS -6.35 3.9497 -5.84962 4.699 0.381 21
DS -5.84962 4.699 -5.34924 5.30098 0.381 21
DS -5.34924 5.30098 -4.89966 5.64896 0.381 21
DS -1.95072 -7.29996 -2.90068 -6.90118 0.381 21
DS -2.90068 -6.90118 -3.9497 -6.4008 0.381 21
DS -3.9497 -6.4008 -4.8006 -5.79882 0.381 21
DS -4.8006 -5.79882 -5.45084 -5.15112 0.381 21
DS -5.45084 -5.15112 -6.05028 -4.50088 0.381 21
DS -6.05028 -4.50088 -6.55066 -3.70078 0.381 21
DS -6.55066 -3.70078 -7.05104 -2.64922 0.381 21
DS -7.05104 -2.64922 -7.35076 -1.50114 0.381 21
DS -7.35076 -1.50114 -7.54888 -0.20066 0.381 21
DS -7.54888 -0.20066 -7.44982 0.8001 0.381 21
DS 6.55066 -3.59918 6.05028 -4.39928 0.381 21
DS 6.05028 -4.39928 5.4991 -5.10032 0.381 21
DS 5.4991 -5.10032 4.89966 -5.69976 0.381 21
DS 4.89966 -5.69976 4.04876 -6.2992 0.381 21
DS 4.04876 -6.2992 3.2004 -6.79958 0.381 21
DS 3.2004 -6.79958 2.3495 -7.0993 0.381 21
DS 4.84886 5.69976 5.30098 5.25018 0.381 21
DS 5.30098 5.25018 5.84962 4.65074 0.381 21
DS 5.84962 4.65074 6.35 3.9497 0.381 21
DS 6.35 3.9497 6.79958 3.1496 0.381 21
DS 6.79958 3.1496 7.0993 2.25044 0.381 21
DS 7.0993 2.25044 7.35076 1.39954 0.381 21
DS 7.35076 1.39954 7.50062 0.55118 0.381 21
DS 7.50062 0.55118 7.50062 0 0.381 21
DS 7.50062 0 7.44982 -0.70104 0.381 21
DS 7.44982 -0.70104 7.29996 -1.69926 0.381 21
DS 7.29996 -1.69926 7.00024 -2.70002 0.381 21
DS 7.00024 -2.70002 6.55066 -3.59918 0.381 21
DS 0 -1.00076 0 1.00076 0.381 21
DS -1.00076 0 1.00076 0 0.381 21
$PAD
Sh "2" C 2.49936 2.49936 0 0 0
Dr 1.30048 0 0
At STD N 00E0FFFF
Ne 0 ""
Po 0 -7.50062
$EndPAD
$PAD
Sh "3" C 2.49936 2.49936 0 0 0
Dr 1.30048 0 0
At STD N 00E0FFFF
Ne 0 ""
Po 5.00126 7.50062
$EndPAD
$PAD
Sh "1" C 2.49936 2.49936 0 0 0
Dr 1.30048 0 0
At STD N 00E0FFFF
Ne 0 ""
Po -5.00126 7.50062
$EndPAD
$EndMODULE Potentiometer_Trimmer-Piher_PT15-V15_horizontal_RevA_02Aug2010
$MODULE Potentiometer_Trimmer-Piher_PT15-V17-5_horizontal_RevA_02Aug2010
Po 0 0 0 15 4C569CEA 00000000 ~~
Li Potentiometer_Trimmer-Piher_PT15-V17-5_horizontal_RevA_02Aug2010
Cd Potentiometer, Trimmer, Piher, PT15, Type V17.5, horizontal, Rev A, 02 Aug 2010,
Kw Potentiometer, Trimmer, Piher, PT15, Type V17.5, horizontal, Rev A, 02 Aug 2010,
Sc 0
AR 
Op 0 0 0
T0 7.62 -7.62 1.524 1.524 0 0.3048 N V 21 N "R"
T1 0 13.97 1.524 1.524 0 0.3048 N I 21 N "Potentiometer_Trimmer-Piher_PT15-V17-5_horizontal_RevA_02Aug2010"
DS -3.35026 6.70052 -4.89966 5.64896 0.381 21
DS 4.89966 5.69976 3.44932 6.70052 0.381 21
DS -1.95072 -7.29996 -1.75006 -7.35076 0.381 21
DS 2.4003 -7.0993 1.69926 -7.24916 0.381 21
DS -3.35026 6.70052 -2.79908 6.94944 0.381 21
DS -2.79908 6.94944 -2.14884 7.1501 0.381 21
DS -2.14884 7.1501 -1.39954 7.35076 0.381 21
DS -1.39954 7.35076 -0.65024 7.44982 0.381 21
DS -0.65024 7.44982 0 7.50062 0.381 21
DS 0 7.50062 0.65024 7.44982 0.381 21
DS 0.65024 7.44982 1.6002 7.35076 0.381 21
DS 1.6002 7.35076 2.70002 7.00024 0.381 21
DS 2.70002 7.00024 3.40106 6.70052 0.381 21
DS -7.50062 0.8001 -7.29996 1.80086 0.381 21
DS -7.29996 1.80086 -7.00024 2.75082 0.381 21
DS -7.00024 2.75082 -6.35 3.9497 0.381 21
DS -6.35 3.9497 -5.84962 4.699 0.381 21
DS -5.84962 4.699 -5.34924 5.30098 0.381 21
DS -5.34924 5.30098 -4.89966 5.64896 0.381 21
DS -1.95072 -7.29996 -2.90068 -6.90118 0.381 21
DS -2.90068 -6.90118 -3.9497 -6.4008 0.381 21
DS -3.9497 -6.4008 -4.8006 -5.79882 0.381 21
DS -4.8006 -5.79882 -5.45084 -5.15112 0.381 21
DS -5.45084 -5.15112 -6.05028 -4.50088 0.381 21
DS -6.05028 -4.50088 -6.55066 -3.70078 0.381 21
DS -6.55066 -3.70078 -7.05104 -2.64922 0.381 21
DS -7.05104 -2.64922 -7.35076 -1.50114 0.381 21
DS -7.35076 -1.50114 -7.54888 -0.20066 0.381 21
DS -7.54888 -0.20066 -7.44982 0.8001 0.381 21
DS 6.55066 -3.59918 6.05028 -4.39928 0.381 21
DS 6.05028 -4.39928 5.4991 -5.10032 0.381 21
DS 5.4991 -5.10032 4.89966 -5.69976 0.381 21
DS 4.89966 -5.69976 4.04876 -6.2992 0.381 21
DS 4.04876 -6.2992 3.2004 -6.79958 0.381 21
DS 3.2004 -6.79958 2.3495 -7.0993 0.381 21
DS 4.84886 5.69976 5.30098 5.25018 0.381 21
DS 5.30098 5.25018 5.84962 4.65074 0.381 21
DS 5.84962 4.65074 6.35 3.9497 0.381 21
DS 6.35 3.9497 6.79958 3.1496 0.381 21
DS 6.79958 3.1496 7.0993 2.25044 0.381 21
DS 7.0993 2.25044 7.35076 1.39954 0.381 21
DS 7.35076 1.39954 7.50062 0.55118 0.381 21
DS 7.50062 0.55118 7.50062 0 0.381 21
DS 7.50062 0 7.44982 -0.70104 0.381 21
DS 7.44982 -0.70104 7.29996 -1.69926 0.381 21
DS 7.29996 -1.69926 7.00024 -2.70002 0.381 21
DS 7.00024 -2.70002 6.55066 -3.59918 0.381 21
DS 0 -1.00076 0 1.00076 0.381 21
DS -1.00076 0 1.00076 0 0.381 21
$PAD
Sh "2" C 2.49936 2.49936 0 0 0
Dr 1.30048 0 0
At STD N 00E0FFFF
Ne 0 ""
Po 0 -7.50062
$EndPAD
$PAD
Sh "3" C 2.49936 2.49936 0 0 0
Dr 1.30048 0 0
At STD N 00E0FFFF
Ne 0 ""
Po 5.10032 9.99998
$EndPAD
$PAD
Sh "1" C 2.49936 2.49936 0 0 0
Dr 1.30048 0 0
At STD N 00E0FFFF
Ne 0 ""
Po -5.00126 9.99998
$EndPAD
$EndMODULE Potentiometer_Trimmer-Piher_PT15-V17-5_horizontal_RevA_02Aug2010
$MODULE Potentiometer_Trimmer-Piher_PT15-V17-5_horizontal_revers_RevA_02Aug2010
Po 0 0 0 15 51AF697A 00000000 ~~
Li Potentiometer_Trimmer-Piher_PT15-V17-5_horizontal_revers_RevA_02Aug2010
Cd Potentiometer, Trimmer, Piher, PT15, Type V17.5, horizontal, Rev A, 02 Aug 2010,
Kw Potentiometer, Trimmer, Piher, PT15, Type V17.5, horizontal, Rev A, 02 Aug 2010,
Sc 0
AR 
Op 0 0 0
T0 5.08 -8.89 1.524 1.524 0 0.3048 N V 21 N "R"
T1 0 13.97 1.524 1.524 0 0.3048 N I 21 N "Potentiometer_Trimmer-Piher_PT15-V17-5_horizontal_RevA_02Aug2010"
DS 0 0.44958 0 1.00076 0.381 21
DS -0.0508 -1.00076 0 -0.59944 0.381 21
DS 0.70104 0 1.00076 0 0.381 21
DS -0.29972 0 0.29972 0 0.381 21
DS -1.00076 0 -0.7493 0 0.381 21
DS -2.19964 -7.2009 -1.75006 -7.35076 0.381 21
DS -3.05054 -6.85038 -2.70002 -7.00024 0.381 21
DS -4.04876 -6.35 -3.59918 -6.55066 0.381 21
DS -5.04952 -5.6007 -4.54914 -5.99948 0.381 21
DS -5.84962 -4.7498 -5.45084 -5.19938 0.381 21
DS -6.55066 -3.74904 -6.20014 -4.24942 0.381 21
DS -7.0993 -2.64922 -6.85038 -3.2004 0.381 21
DS -7.44982 -1.30048 -7.29996 -1.99898 0.381 21
DS -7.54888 0 -7.50062 -0.59944 0.381 21
DS -7.39902 1.15062 -7.50062 0.50038 0.381 21
DS -7.1501 2.30124 -7.29996 1.80086 0.381 21
DS -6.59892 3.50012 -6.90118 2.94894 0.381 21
DS -5.84962 4.699 -6.25094 4.15036 0.381 21
DS -4.8006 5.69976 -5.40004 5.19938 0.381 21
DS -3.59918 6.49986 -4.20116 6.14934 0.381 21
DS -2.04978 7.2009 -2.90068 6.94944 0.381 21
DS -0.50038 7.44982 -1.19888 7.39902 0.381 21
DS 0.65024 7.50062 0.14986 7.50062 0.381 21
DS 1.80086 7.29996 1.34874 7.39902 0.381 21
DS 2.75082 7.00024 2.4003 7.1501 0.381 21
DS 3.74904 6.55066 3.35026 6.74878 0.381 21
DS 4.59994 5.95122 4.24942 6.20014 0.381 21
DS 5.40004 5.15112 5.04952 5.4991 0.381 21
DS 6.14934 4.24942 5.79882 4.699 0.381 21
DS 6.90118 2.94894 6.49986 3.70078 0.381 21
DS 7.24916 1.75006 7.05104 2.3495 0.381 21
DS 7.44982 0.59944 7.39902 1.15062 0.381 21
DS 7.44982 -0.50038 7.50062 0.0508 0.381 21
DS 7.29996 -1.69926 7.39902 -1.15062 0.381 21
DS 6.94944 -2.90068 7.0993 -2.30124 0.381 21
DS 6.4008 -3.85064 6.64972 -3.40106 0.381 21
DS 5.75056 -4.8006 6.05028 -4.39928 0.381 21
DS 4.84886 -5.69976 5.34924 -5.25018 0.381 21
DS 3.9497 -6.2992 4.39928 -6.05028 0.381 21
DS 2.99974 -6.85038 3.50012 -6.64972 0.381 21
DS 1.75006 -7.24916 2.3495 -7.0993 0.381 21
DS 2.3495 -7.0993 2.4511 -7.05104 0.381 21
$PAD
Sh "2" C 2.49936 2.49936 0 0 0
Dr 1.30048 0 0
At STD N 00E0FFFF
Ne 0 ""
Po 0 -7.50062
$EndPAD
$PAD
Sh "1" C 2.49936 2.49936 0 0 0
Dr 1.30048 0 0
At STD N 00E0FFFF
Ne 0 ""
Po 5.10032 9.99998
$EndPAD
$PAD
Sh "3" C 2.49936 2.49936 0 0 0
Dr 1.30048 0 0
At STD N 00E0FFFF
Ne 0 ""
Po -5.00126 9.99998
$EndPAD
$PAD
Sh "" C 7.00024 7.00024 0 0 0
Dr 7.00024 0 0
At HOLE N 00E0FFFF
Ne 0 ""
Po 0 0
$EndPAD
$EndMODULE Potentiometer_Trimmer-Piher_PT15-V17-5_horizontal_revers_RevA_02Aug2010
$MODULE Potentiometer_VishaySpectrol-Econtrim-Type36M_RevA_02Aug2010
Po 0 0 0 15 4C568A4D 00000000 ~~
Li Potentiometer_VishaySpectrol-Econtrim-Type36M_RevA_02Aug2010
Cd Potentiometer, Trimmer, Spectrol Type 36M, Econtrim, Rev A, 02 Aug 2010,
Kw Potentiometer, Trimmer, Spectrol Type 36M, Econtrim, Rev A, 02 Aug 2010,
Sc 0
AR 
Op 0 0 0
T0 3.81 -3.81 1.524 1.524 0 0.3048 N V 21 N "R"
T1 0 6.35 1.524 1.524 0 0.3048 N I 21 N "Potentiometer_VishaySpectrol-Econtrim-Type36M_RevA_02Aug2010"
DS 0.59944 0 -0.59944 0 0.381 21
DS 0 -0.59944 0 0.59944 0.381 21
DS -1.09982 -4.0005 -1.50114 -4.0005 0.381 21
DS -1.50114 -4.0005 -3.40106 -2.4003 0.381 21
DS -3.40106 -2.4003 -3.40106 0.70104 0.381 21
DS 1.09982 -4.0005 1.50114 -4.0005 0.381 21
DS 1.50114 -4.0005 3.40106 -2.4003 0.381 21
DS 3.40106 -2.4003 3.40106 0.70104 0.381 21
DS 0 4.09956 -1.6002 4.09956 0.381 21
DS 0 4.09956 1.6002 4.09956 0.381 21
$PAD
Sh "2" C 2.49936 2.49936 0 0 0
Dr 1.19888 0 0
At STD N 00E0FFFF
Ne 0 ""
Po 0 -2.49936
$EndPAD
$PAD
Sh "3" C 2.49936 2.49936 0 0 0
Dr 1.19888 0 0
At STD N 00E0FFFF
Ne 0 ""
Po 2.49936 2.49936
$EndPAD
$PAD
Sh "1" C 2.49936 2.49936 0 0 0
Dr 1.19888 0 0
At STD N 00E0FFFF
Ne 0 ""
Po -2.49936 2.49936
$EndPAD
$EndMODULE Potentiometer_VishaySpectrol-Econtrim-Type36M_RevA_02Aug2010
$MODULE Potentiometer_VishaySpectrol-Econtrim-Type36P_RevA_02Aug2010
Po 0 0 0 15 4C568A32 00000000 ~~
Li Potentiometer_VishaySpectrol-Econtrim-Type36P_RevA_02Aug2010
Cd Potentiometer, Trimmer, Spectrol Type 36P, Econtrim, Rev A, 02 Aug 2010,
Kw Potentiometer, Trimmer, Spectrol Type 36P, Econtrim, Rev A, 02 Aug 2010,
Sc 0
AR 
Op 0 0 0
T0 3.81 -3.81 1.524 1.524 0 0.3048 N V 21 N "R"
T1 0 5.08 1.524 1.524 0 0.3048 N I 21 N "Potentiometer_VishaySpectrol-Econtrim-Type36P_RevA_02Aug2010"
DS 0 0 0 0.70104 0.381 21
DS 1.6002 -3.2512 1.00076 -3.2512 0.381 21
DS -1.6002 -3.2512 -1.00076 -3.2512 0.381 21
DS 2.99974 -1.69926 2.99974 0 0.381 21
DS -2.99974 -1.69926 -2.99974 0 0.381 21
DS -1.50114 3.2512 1.24968 3.2512 0.381 21
DS -0.70104 0 0.70104 0 0.381 21
DS -1.6002 -3.2512 -2.99974 -1.69926 0.381 21
DS 1.6002 -3.2512 2.99974 -1.69926 0.381 21
$PAD
Sh "2" C 2.49936 2.49936 0 0 0
Dr 1.19888 0 0
At STD N 00E0FFFF
Ne 0 ""
Po 0 -1.75006
$EndPAD
$PAD
Sh "3" C 2.49936 2.49936 0 0 0
Dr 1.19888 0 0
At STD N 00E0FFFF
Ne 0 ""
Po 2.49936 1.75006
$EndPAD
$PAD
Sh "1" C 2.49936 2.49936 0 0 0
Dr 1.19888 0 0
At STD N 00E0FFFF
Ne 0 ""
Po -2.49936 1.75006
$EndPAD
$EndMODULE Potentiometer_VishaySpectrol-Econtrim-Type36P_RevA_02Aug2010
$MODULE Potentiometer_VishaySpectrol-Econtrim-Type36T_RevA_02Aug2010
Po 0 0 0 15 4C568A21 00000000 ~~
Li Potentiometer_VishaySpectrol-Econtrim-Type36T_RevA_02Aug2010
Cd Potentiometer, Trimmer, Spectrol Type 36T, Econtrim, Rev A, 02 Aug 2010,
Kw Potentiometer, Trimmer, Spectrol Type 36T, Econtrim, Rev A, 02 Aug 2010,
Sc 0
AR 
Op 0 0 0
T0 3.81 -3.81 1.524 1.524 0 0.3048 N V 21 N "R"
T1 1.27 6.35 1.524 1.524 0 0.3048 N I 21 N "Potentiometer_VishaySpectrol-Econtrim-Type36T_RevA_02Aug2010"
DS -0.89916 3.2512 0.89916 3.2512 0.381 21
DS 0 0.70104 0 -0.70104 0.381 21
DS -0.70104 0 0.70104 0 0.381 21
DS 1.6002 -3.2512 2.99974 -1.69926 0.381 21
DS 2.99974 -1.69926 2.99974 0.8001 0.381 21
DS -1.6002 -3.2512 -2.99974 -1.69926 0.381 21
DS -2.99974 -1.69926 -2.99974 0.8001 0.381 21
$PAD
Sh "2" C 2.49936 2.49936 0 0 0
Dr 1.19888 0 0
At STD N 00E0FFFF
Ne 0 ""
Po 0 -2.49936
$EndPAD
$PAD
Sh "3" C 2.49936 2.49936 0 0 0
Dr 1.19888 0 0
At STD N 00E0FFFF
Ne 0 ""
Po 2.49936 2.49936
$EndPAD
$PAD
Sh "1" C 2.49936 2.49936 0 0 0
Dr 1.19888 0 0
At STD N 00E0FFFF
Ne 0 ""
Po -2.49936 2.49936
$EndPAD
$EndMODULE Potentiometer_VishaySpectrol-Econtrim-Type36T_RevA_02Aug2010
$MODULE Potentiometer_VishaySpectrol-Econtrim-Type36X_RevA_02Aug2010
Po 0 0 0 15 4C568A04 00000000 ~~
Li Potentiometer_VishaySpectrol-Econtrim-Type36X_RevA_02Aug2010
Cd Potentiometer, Trimmer, Spectrol Type 36X, Econtrim, Rev A, 02 Aug 2010,
Kw Potentiometer, Trimmer, Spectrol Type 36X, Econtrim, Rev A, 02 Aug 2010,
Sc 0
AR 
Op 0 0 0
T0 2.54 -2.54 1.524 1.524 0 0.3048 N V 21 N "R"
T1 2.54 5.08 1.524 1.524 0 0.3048 N I 21 N "Potentiometer_VishaySpectrol-Econtrim-Type36X_RevA_02Aug2010"
DS 0 2.60096 0 3.59918 0.381 21
DS -2.99974 0 2.99974 0 0.381 21
DS 2.99974 3.59918 -2.99974 3.59918 0.381 21
$PAD
Sh "2" C 2.49936 2.49936 0 0 0
Dr 1.19888 0 0
At STD N 00E0FFFF
Ne 0 ""
Po 0 -1.75006
$EndPAD
$PAD
Sh "3" C 2.49936 2.49936 0 0 0
Dr 1.19888 0 0
At STD N 00E0FFFF
Ne 0 ""
Po 2.49936 1.75006
$EndPAD
$PAD
Sh "1" C 2.49936 2.49936 0 0 0
Dr 1.19888 0 0
At STD N 00E0FFFF
Ne 0 ""
Po -2.49936 1.75006
$EndPAD
$EndMODULE Potentiometer_VishaySpectrol-Econtrim-Type36X_RevA_02Aug2010
$MODULE Potentiometer_VishaySpectrol-Econtrim-Type36k_RevA_02Aug2010
Po 0 0 0 15 4C568A64 00000000 ~~
Li Potentiometer_VishaySpectrol-Econtrim-Type36k_RevA_02Aug2010
Cd Potentiometer, Trimmer, Spectrol Type 36k, Econtrim, Rev A, 02 Aug 2010,
Kw Potentiometer, Trimmer, Spectrol Type 36k, Econtrim, Rev A, 02 Aug 2010,
Sc 0
AR 
Op 0 0 0
T0 3.81 -1.27 1.524 1.524 0 0.3048 N V 21 N "R"
T1 0 8.89 1.524 1.524 0 0.3048 N I 21 N "Potentiometer_VishaySpectrol-Econtrim-Type36k_RevA_02Aug2010"
DS 0 7.00024 0 6.4008 0.381 21
DS -2.49936 7.00024 2.49936 7.00024 0.381 21
DS -0.70104 2.49936 0.70104 2.49936 0.381 21
DS -2.49936 4.30022 -2.49936 7.00024 0.381 21
DS 2.49936 7.00024 2.49936 4.30022 0.381 21
$PAD
Sh "2" C 2.49936 2.49936 0 0 0
Dr 1.19888 0 0
At STD N 00E0FFFF
Ne 0 ""
Po 0 0
$EndPAD
$PAD
Sh "3" C 2.49936 2.49936 0 0 0
Dr 1.19888 0 0
At STD N 00E0FFFF
Ne 0 ""
Po 2.49936 2.49936
$EndPAD
$PAD
Sh "1" C 2.49936 2.49936 0 0 0
Dr 1.19888 0 0
At STD N 00E0FFFF
Ne 0 ""
Po -2.49936 2.49936
$EndPAD
$EndMODULE Potentiometer_VishaySpectrol-Econtrim-Type36k_RevA_02Aug2010
$MODULE Potentiometer_WirePads_RevA_30July2010
Po 0 0 0 15 4C529C54 00000000 ~~
Li Potentiometer_WirePads_RevA_30July2010
Cd Potentiometer, Wire Pads only, RevA, 30 July 2010,
Kw Potentiometer, Wire Pads only, RevA, 30 July 2010,
Sc 0
AR 
Op 0 0 0
T0 0.0508 -8.49884 1.524 1.524 0 0.3048 N V 21 N "R"
T1 -1.34874 8.24992 1.524 1.524 0 0.3048 N V 21 N "Potentiometer_WirePads_RevA_30July2010"
DS 5.4991 5.04952 1.95072 5.04952 0.381 21
DS 5.4991 3.29946 5.4991 5.04952 0.381 21
DS 5.4991 -3.29946 5.4991 -5.04952 0.381 21
DS 5.4991 -5.04952 1.89992 -5.04952 0.381 21
DS 4.09956 0 1.84912 0.0508 0.381 21
DS 4.09956 0 3.0988 0.94996 0.381 21
DS 4.09956 0.0508 3.1496 -0.94996 0.381 21
DS 4.09956 -3.29946 6.79958 -3.29946 0.381 21
DS 6.79958 -3.29946 6.79958 3.29946 0.381 21
DS 6.79958 3.29946 4.09956 3.29946 0.381 21
DS 4.09956 3.29946 4.09956 -3.29946 0.381 21
$PAD
Sh "2" C 2.49936 2.49936 0 0 0
Dr 1.19888 0 0
At STD N 00E0FFFF
Ne 0 ""
Po 0 0
$EndPAD
$PAD
Sh "3" C 2.49936 2.49936 0 0 0
Dr 1.19888 0 0
At STD N 00E0FFFF
Ne 0 ""
Po 0 5.00126
$EndPAD
$PAD
Sh "1" C 2.49936 2.49936 0 0 0
Dr 1.19888 0 0
At STD N 00E0FFFF
Ne 0 ""
Po 0 -5.00126
$EndPAD
$EndMODULE Potentiometer_WirePads_RevA_30July2010
$MODULE Potentiometer_WirePads_Small_RevA_02Aug2010
Po 0 0 0 15 4C56BCA5 00000000 ~~
Li Potentiometer_WirePads_Small_RevA_02Aug2010
Cd Potentiometer, Wire Pads only, small, RevA, 02 Aug 2010,
Kw Potentiometer, Wire Pads only, small, RevA, 02 Aug 2010,
Sc 0
AR 
Op 0 0 0
T0 0.0508 -8.49884 1.524 1.524 0 0.3048 N V 21 N "R"
T1 -1.34874 8.24992 1.524 1.524 0 0.3048 N V 21 N "Potentiometer_WirePads_small_RevA_30July2010"
DS 2.921 1.651 2.921 2.667 0.381 21
DS 2.921 2.667 1.524 2.667 0.381 21
DS 2.921 -1.651 2.921 -2.667 0.381 21
DS 2.921 -2.667 1.524 -2.667 0.381 21
DS 2.159 0 1.524 0 0.381 21
DS 2.159 0 1.651 0.508 0.381 21
DS 2.159 0 1.651 -0.508 0.381 21
DS 2.159 -1.651 3.556 -1.651 0.381 21
DS 3.556 -1.651 3.556 1.651 0.381 21
DS 3.556 1.651 2.159 1.651 0.381 21
DS 2.159 1.651 2.159 -1.651 0.381 21
$PAD
Sh "2" C 1.99898 1.99898 0 0 0
Dr 1.19888 0 0
At STD N 00E0FFFF
Ne 0 ""
Po 0 0
$EndPAD
$PAD
Sh "3" C 1.99898 1.99898 0 0 0
Dr 1.19888 0 0
At STD N 00E0FFFF
Ne 0 ""
Po 0 2.54
$EndPAD
$PAD
Sh "1" C 1.99898 1.99898 0 0 0
Dr 1.19888 0 0
At STD N 00E0FFFF
Ne 0 ""
Po 0 -2.54
$EndPAD
$EndMODULE Potentiometer_WirePads_Small_RevA_02Aug2010
$MODULE Potentiometer_WirePads_large Pads_RevA_30July2010
Po 0 0 0 15 4C529C54 00000000 ~~
Li Potentiometer_WirePads_large Pads_RevA_30July2010
Cd Potentiometer, Wire Pads only, RevA, 30 July 2010,
Kw Potentiometer, Wire Pads only, RevA, 30 July 2010,
Sc 0
AR 
Op 0 0 0
T0 0.0508 -8.49884 1.524 1.524 0 0.3048 N V 21 N "R"
T1 -1.34874 8.24992 1.524 1.524 0 0.3048 N V 21 N "Potentiometer_WirePads_RevA_30July2010"
DS 5.4991 5.04952 1.95072 5.04952 0.381 21
DS 5.4991 3.29946 5.4991 5.04952 0.381 21
DS 5.4991 -3.29946 5.4991 -5.04952 0.381 21
DS 5.4991 -5.04952 1.89992 -5.04952 0.381 21
DS 4.09956 0 1.84912 0.0508 0.381 21
DS 4.09956 0 3.0988 0.94996 0.381 21
DS 4.09956 0.0508 3.1496 -0.94996 0.381 21
DS 4.09956 -3.29946 6.79958 -3.29946 0.381 21
DS 6.79958 -3.29946 6.79958 3.29946 0.381 21
DS 6.79958 3.29946 4.09956 3.29946 0.381 21
DS 4.09956 3.29946 4.09956 -3.29946 0.381 21
$PAD
Sh "2" C 2.49936 2.49936 0 0 0
Dr 1.19888 0 0
At STD N 00E0FFFF
Ne 0 ""
Po 0 0
$EndPAD
$PAD
Sh "3" C 2.49936 2.49936 0 0 0
Dr 1.19888 0 0
At STD N 00E0FFFF
Ne 0 ""
Po 0 5.00126
$EndPAD
$PAD
Sh "1" C 2.49936 2.49936 0 0 0
Dr 1.19888 0 0
At STD N 00E0FFFF
Ne 0 ""
Po 0 -5.00126
$EndPAD
$EndMODULE Potentiometer_WirePads_large Pads_RevA_30July2010
$MODULE Potentiometer_WirePads_largePads_RevA_30July2010
Po 0 0 0 15 4C529DB4 00000000 ~~
Li Potentiometer_WirePads_largePads_RevA_30July2010
Cd Potentiometer, Wire Pads only, large Pads, RevA, 30 July 2010,
Kw Potentiometer, Wire Pads only, large Pads, RevA, 30 July 2010,
Sc 0
AR 
Op 0 0 0
T0 0.0508 -8.49884 1.524 1.524 0 0.3048 N V 21 N "R"
T1 -1.34874 8.24992 1.524 1.524 0 0.3048 N V 21 N "Potentiometer_WirePads_largePads_RevA_30July2010"
DS 4.09956 0.09906 2.55016 0.09906 0.381 21
DS 5.45084 4.95046 2.55016 4.95046 0.381 21
DS 5.4991 -5.00126 2.60096 -5.00126 0.381 21
DS 5.4991 3.29946 5.4991 5.04952 0.381 21
DS 5.4991 -3.29946 5.4991 -5.04952 0.381 21
DS 4.09956 0 3.0988 0.94996 0.381 21
DS 4.09956 0.0508 3.1496 -0.94996 0.381 21
DS 4.09956 -3.29946 6.79958 -3.29946 0.381 21
DS 6.79958 -3.29946 6.79958 3.29946 0.381 21
DS 6.79958 3.29946 4.09956 3.29946 0.381 21
DS 4.09956 3.29946 4.09956 -3.29946 0.381 21
$PAD
Sh "2" O 4.0005 2.99974 0 0 0
Dr 1.50114 0 0
At STD N 00E0FFFF
Ne 0 ""
Po 0 0
$EndPAD
$PAD
Sh "3" O 4.0005 2.99974 0 0 0
Dr 1.50114 0 0
At STD N 00E0FFFF
Ne 0 ""
Po 0 5.00126
$EndPAD
$PAD
Sh "1" O 4.0005 2.99974 0 0 0
Dr 1.50114 0 0
At STD N 00E0FFFF
Ne 0 ""
Po 0 -5.00126
$EndPAD
$EndMODULE Potentiometer_WirePads_largePads_RevA_30July2010
$EndLIBRARY
