PCBNEW-LibModule-V1  Mo 07 Okt 2013 23:11:09 CEST
# encoding utf-8
Units mm
$INDEX
Relais_DPDT_Schrack-RT2_RM5mm
Relais_SPDS_OMRON-G6E
Relais_SPDT_PotterBrumfield_T9AP5D52_12V30A
Relais_SPDT_Schrack-RP-II-1_RM3-5mm
Relais_SPDT_Schrack-RT1_RM5mm
Relais_SPST_PotterBrumfield_T9AP1D52_12V30A
Relais_SPST_Schrack-RP-3SL_bistabil_RevB_07Oct2013
Relais_SPST_Schrack-RP-3SL_mono_RevB_07Oct2013
Relais_SPST_Schrack-RP-II-1_RM3-5mm
Relays_SPDT_SingleRow_Laying_FinderType34Point51_RevB_Date25Jun2010
Relays_SPDT_SingleRow_Standing_FinderType34Point51_RevB_Date25Jun2010
$EndINDEX
$MODULE Relais_DPDT_Schrack-RT2_RM5mm
Po 0 0 0 15 4BF1BC88 00000000 ~~
Li Relais_DPDT_Schrack-RT2_RM5mm
Cd Relay, DPST, Schrack-RT2, RM5mm,
Kw Relay, DPST,  Schrack-RT1, RM5mm, Reais, 2 x um,
Sc 0
AR 
Op 0 0 0
T0 13.97 -11.43 1.524 1.524 0 0.3048 N V 21 N "K"
T1 12.7 5.08 1.524 1.524 0 0.3048 N V 21 N "Relais_DPDT_Schrack-RT2_RM5mm"
DS 2.54 -5.08 5.08 -3.81 0.381 21
DS 3.81 -1.27 3.81 0 0.381 21
DS 3.81 0 2.54 0 0.381 21
DS 2.54 -7.62 3.81 -7.62 0.381 21
DS 3.81 -7.62 3.81 -6.35 0.381 21
DS 3.81 -6.35 5.08 -6.35 0.381 21
DS 5.08 -6.35 5.08 -1.27 0.381 21
DS 5.08 -1.27 2.54 -1.27 0.381 21
DS 2.54 -1.27 2.54 -6.35 0.381 21
DS 2.54 -6.35 3.81 -6.35 0.381 21
DS -2.54 -10.16 27.94 -10.16 0.381 21
DS 27.94 -10.16 27.94 2.54 0.381 21
DS 27.94 2.54 -2.54 2.54 0.381 21
DS -2.54 2.54 -2.54 -10.16 0.381 21
$PAD
Sh "A1" C 2.99974 2.99974 0 0 0
Dr 1.19888 0 0
At STD N 00E0FFFF
Ne 0 ""
Po 0 -7.62
$EndPAD
$PAD
Sh "A2" C 2.99974 2.99974 0 0 0
Dr 1.19888 0 0
At STD N 00E0FFFF
Ne 0 ""
Po 0 0
$EndPAD
$PAD
Sh "22" C 2.99974 2.99974 0 0 0
Dr 1.19888 0 0
At STD N 00E0FFFF
Ne 0 ""
Po 15.24 0
$EndPAD
$PAD
Sh "21" C 2.99974 2.99974 0 0 0
Dr 1.19888 0 0
At STD N 00E0FFFF
Ne 0 ""
Po 20.32 0
$EndPAD
$PAD
Sh "24" C 2.99974 2.99974 0 0 0
Dr 1.19888 0 0
At STD N 00E0FFFF
Ne 0 ""
Po 25.4 0
$EndPAD
$PAD
Sh "12" C 2.99974 2.99974 0 0 0
Dr 1.19888 0 0
At STD N 00E0FFFF
Ne 0 ""
Po 15.24 -7.62
$EndPAD
$PAD
Sh "11" C 2.99974 2.99974 0 0 0
Dr 1.19888 0 0
At STD N 00E0FFFF
Ne 0 ""
Po 20.32 -7.62
$EndPAD
$PAD
Sh "14" C 2.99974 2.99974 0 0 0
Dr 1.19888 0 0
At STD N 00E0FFFF
Ne 0 ""
Po 25.4 -7.62
$EndPAD
$EndMODULE Relais_DPDT_Schrack-RT2_RM5mm
$MODULE Relais_SPDS_OMRON-G6E
Po 0 0 0 15 4BAE1A63 00000000 ~~
Li Relais_SPDS_OMRON-G6E
Cd Relay, SPDT, Omron, Serie, G6E,
Kw Relay, SPDT, Omron, Serie, G6E, 1 x um, Relais,
Sc 0
AR 
Op 0 0 0
T0 6.35 -11.43 1.524 1.524 0 0.3048 N V 21 N "K"
T1 5.08 3.81 1.524 1.524 0 0.3048 N V 21 N "Relais_SPDS_OMRON-G6E"
DS 3.81 -1.651 0 -1.651 0.381 21
DS 0 -1.651 0 -1.27 0.381 21
DS 7.874 -1.651 12.573 -1.651 0.381 21
DS 12.573 -1.651 12.573 -1.397 0.381 21
DS 5.334 -1.143 6.477 -2.286 0.381 21
DS 3.937 -1.016 3.937 -2.286 0.381 21
DS 3.937 -2.286 7.874 -2.286 0.381 21
DS 7.874 -2.286 7.874 -1.016 0.381 21
DS 7.874 -1.016 3.937 -1.016 0.381 21
T2 0 -5.08 1.00076 1.00076 0 0.20066 N V 21 N "NO"
T2 5.08 -5.08 1.00076 1.00076 0 0.20066 N V 21 N "NC"
T2 12.7 -5.08 1.00076 1.00076 0 0.20066 N V 21 N "C"
DS -1.27 -8.89 -1.27 1.27 0.381 21
DS -1.27 1.27 13.97 1.27 0.381 21
DS 13.97 1.27 13.97 -8.89 0.381 21
DS 13.97 -8.89 -1.27 -8.89 0.381 21
$PAD
Sh "1" C 1.50114 1.50114 0 0 0
Dr 0.8001 0 0
At STD N 00E0FFFF
Ne 0 ""
Po 0 0
$EndPAD
$PAD
Sh "12" C 1.50114 1.50114 0 0 0
Dr 0.8001 0 0
At STD N 00E0FFFF
Ne 0 ""
Po 0 -7.62
$EndPAD
$PAD
Sh "10" C 1.50114 1.50114 0 0 0
Dr 0.8001 0 0
At STD N 00E0FFFF
Ne 0 ""
Po 5.08 -7.62
$EndPAD
$PAD
Sh "6" C 1.50114 1.50114 0 0 0
Dr 0.8001 0 0
At STD N 00E0FFFF
Ne 0 ""
Po 12.7 0
$EndPAD
$PAD
Sh "7" C 1.50114 1.50114 0 0 0
Dr 0.8001 0 0
At STD N 00E0FFFF
Ne 0 ""
Po 12.7 -7.62
$EndPAD
$EndMODULE Relais_SPDS_OMRON-G6E
$MODULE Relais_SPDT_PotterBrumfield_T9AP5D52_12V30A
Po 0 0 0 15 4BE7ECFB 00000000 ~~
Li Relais_SPDT_PotterBrumfield_T9AP5D52_12V30A
Cd Relais, SPDT, Potter&Brumfield, T9AP5D52, 12V, 30A, 1xUn, Connector Fast ON, Only Dummy for Space, NO Pads,
Kw Relais, SPDT, Potter&Brumfield, T9AP5D52, 12V, 30A, 1xUm, Connector Fast ON, Flachsteckeranschluss, Only Dummy for Space, NO Pads,
Sc 0
AR 
Op 0 0 0
T0 -7.82574 -11.27506 1.99898 1.99898 0 0.3048 N V 21 N "K"
T1 16.34998 0.59944 1.50114 1.00076 900 0.25146 N V 21 N "Relais_SPDT_PotterBrumfield_T9AP5D52_12V30A"
DS -6.82498 12.7254 -10.2743 12.7254 0.381 21
T2 3.2512 10.80008 1.524 1.524 0 0.3048 N V 21 N "A2"
T2 -8.57504 10.74928 1.524 1.524 0 0.3048 N V 21 N "A1"
T2 -10.2743 -4.15036 1.524 1.524 0 0.3048 N V 21 N "11/C"
T2 6.59892 -0.20066 1.524 1.524 0 0.3048 N V 21 N "14/NO"
T2 6.85038 -8.7249 1.524 1.524 0 0.3048 N V 21 N "12/NC"
DS 11.27506 -11.24966 3.42392 -11.22426 0.381 21
DS 11.24966 -2.77622 3.35026 -2.79908 0.381 21
DS 3.35026 -2.79908 3.32486 -2.79908 0.381 21
DS -11.00074 -2.77622 -11.00074 3.8989 0.381 21
DS 1.42494 12.7 5.00126 12.7 0.381 21
DS -1.97612 -20.89912 -1.89992 -20.6248 0.381 21
DS -1.89992 -20.6248 -1.5494 -20.27428 0.381 21
DS -1.5494 -20.27428 -1.12522 -19.97456 0.381 21
DS -1.12522 -19.97456 -0.44958 -19.75104 0.381 21
DS -0.44958 -19.75104 0.20066 -19.72564 0.381 21
DS 0.20066 -19.72564 0.8255 -19.8247 0.381 21
DS 0.8255 -19.8247 1.27508 -20.07616 0.381 21
DS 1.27508 -20.07616 1.67386 -20.47494 0.381 21
DS 1.67386 -20.47494 1.95072 -20.87626 0.381 21
DS 1.95072 -20.87626 1.99898 -21.04898 0.381 21
DS 1.97612 -23.09876 1.97612 -25.00122 0.381 21
DS -1.97612 -23.20036 -1.97612 -25.00122 0.381 21
DS 1.97612 20.6756 1.82626 20.47494 0.381 21
DS 1.82626 20.47494 1.45034 20.05076 0.381 21
DS 1.45034 20.05076 0.8001 19.72564 0.381 21
DS 0.8001 19.72564 0.37592 19.60118 0.381 21
DS 0.37592 19.60118 0.0762 19.60118 0.381 21
DS 0.0762 19.60118 -0.8509 19.72564 0.381 21
DS -0.8509 19.72564 -1.30048 19.94916 0.381 21
DS -1.30048 19.94916 -1.75006 20.32508 0.381 21
DS -1.75006 20.32508 -1.97612 20.6756 0.381 21
DS -1.97612 23.09876 -1.97612 25.00122 0.381 21
DS 1.95072 23.09876 1.97612 24.97582 0.381 21
DS 13.74902 15.75054 -13.74902 15.75054 0.381 21
DS -13.74902 -15.75054 13.74902 -15.75054 0.381 21
DS 13.74902 0 13.74902 -25.00122 0.381 21
DS 13.74902 -25.00122 -13.74902 -25.00122 0.381 21
DS -13.74902 -25.00122 -13.74902 25.00122 0.381 21
DS -13.74902 25.00122 13.74902 25.00122 0.381 21
DS 13.74902 25.00122 13.74902 0 0.381 21
$PAD
Sh "1" C 3.50012 3.50012 0 0 0
Dr 3.50012 0 0
At STD N 00E0FFFF
Ne 0 ""
Po 0 -21.99894
$EndPAD
$PAD
Sh "2" C 3.50012 3.50012 0 0 0
Dr 3.50012 0 0
At STD N 00E0FFFF
Ne 0 ""
Po 0 21.99894
$EndPAD
$EndMODULE Relais_SPDT_PotterBrumfield_T9AP5D52_12V30A
$MODULE Relais_SPDT_Schrack-RP-II-1_RM3-5mm
Po 0 0 0 15 4BAE1A37 00000000 ~~
Li Relais_SPDT_Schrack-RP-II-1_RM3-5mm
Cd Relay, SPST, Schrack-RP-II/1, RM3.5mm, 8A250VAC
Kw Relay, SPST,  Schrack-RP-II/1, RM3.5mm, 8A 250V AC, Reais. 1 x ein,
Sc 0
AR 
Op 0 0 0
T0 13.97 -12.7 1.524 1.524 0 0.3048 N V 21 N "K"
T1 11.43 5.08 1.524 1.524 0 0.3048 N V 21 N "Relais_SPST_Schrack-RP-II/1_RM3-5mm"
DS 2.54 -5.08 5.08 -3.81 0.381 21
DS 3.81 -1.27 3.81 0 0.381 21
DS 3.81 0 2.54 0 0.381 21
DS 2.54 -7.62 3.81 -7.62 0.381 21
DS 3.81 -7.62 3.81 -6.35 0.381 21
DS 3.81 -6.35 5.08 -6.35 0.381 21
DS 5.08 -6.35 5.08 -1.27 0.381 21
DS 5.08 -1.27 2.54 -1.27 0.381 21
DS 2.54 -1.27 2.54 -6.35 0.381 21
DS 2.54 -6.35 3.81 -6.35 0.381 21
DS -2.54 -10.16 27.94 -10.16 0.381 21
DS 27.94 -10.16 27.94 2.54 0.381 21
DS 27.94 2.54 -2.54 2.54 0.381 21
DS -2.54 2.54 -2.54 -10.16 0.381 21
$PAD
Sh "A1" C 2.99974 2.99974 0 0 0
Dr 1.19888 0 0
At STD N 00E0FFFF
Ne 0 ""
Po 0 -7.62
$EndPAD
$PAD
Sh "A2" C 2.99974 2.99974 0 0 0
Dr 1.19888 0 0
At STD N 00E0FFFF
Ne 0 ""
Po 0 0
$EndPAD
$PAD
Sh "11" C 2.99974 2.99974 0 0 0
Dr 1.19888 0 0
At STD N 00E0FFFF
Ne 0 ""
Po 20.32 -7.62
$EndPAD
$PAD
Sh "14" C 2.99974 2.99974 0 0 0
Dr 1.19888 0 0
At STD N 00E0FFFF
Ne 0 ""
Po 24.13 0
$EndPAD
$EndMODULE Relais_SPDT_Schrack-RP-II-1_RM3-5mm
$MODULE Relais_SPDT_Schrack-RT1_RM5mm
Po 0 0 0 15 4BF1BCFA 00000000 ~~
Li Relais_SPDT_Schrack-RT1_RM5mm
Cd Relay, SPST, Schrack-RT1, RM5mm,
Kw Relay, SPST,  Schrack-RT1, RM5mm, Reais, 1 x um,
Sc 0
AR 
Op 0 0 0
T0 13.97 -12.7 1.524 1.524 0 0.3048 N V 21 N "K"
T1 10.16 5.08 1.524 1.524 0 0.3048 N V 21 N "Relais_SPDT_Schrack-RT1_RM5mm"
DS 2.54 -5.08 5.08 -3.81 0.381 21
DS 3.81 -1.27 3.81 0 0.381 21
DS 3.81 0 2.54 0 0.381 21
DS 2.54 -7.62 3.81 -7.62 0.381 21
DS 3.81 -7.62 3.81 -6.35 0.381 21
DS 3.81 -6.35 5.08 -6.35 0.381 21
DS 5.08 -6.35 5.08 -1.27 0.381 21
DS 5.08 -1.27 2.54 -1.27 0.381 21
DS 2.54 -1.27 2.54 -6.35 0.381 21
DS 2.54 -6.35 3.81 -6.35 0.381 21
DS -2.54 -10.16 27.94 -10.16 0.381 21
DS 27.94 -10.16 27.94 2.54 0.381 21
DS 27.94 2.54 -2.54 2.54 0.381 21
DS -2.54 2.54 -2.54 -10.16 0.381 21
$PAD
Sh "A1" C 2.99974 2.99974 0 0 0
Dr 1.19888 0 0
At STD N 00E0FFFF
Ne 0 ""
Po 0 -7.62
$EndPAD
$PAD
Sh "A2" C 2.99974 2.99974 0 0 0
Dr 1.19888 0 0
At STD N 00E0FFFF
Ne 0 ""
Po 0 0
$EndPAD
$PAD
Sh "12" C 2.99974 2.99974 0 0 0
Dr 1.19888 0 0
At STD N 00E0FFFF
Ne 0 ""
Po 15.24 0
$EndPAD
$PAD
Sh "11" C 2.99974 2.99974 0 0 0
Dr 1.19888 0 0
At STD N 00E0FFFF
Ne 0 ""
Po 20.32 0
$EndPAD
$PAD
Sh "14" C 2.99974 2.99974 0 0 0
Dr 1.19888 0 0
At STD N 00E0FFFF
Ne 0 ""
Po 25.4 0
$EndPAD
$PAD
Sh "12" C 2.99974 2.99974 0 0 0
Dr 1.19888 0 0
At STD N 00E0FFFF
Ne 0 ""
Po 15.24 -7.62
$EndPAD
$PAD
Sh "11" C 2.99974 2.99974 0 0 0
Dr 1.19888 0 0
At STD N 00E0FFFF
Ne 0 ""
Po 20.32 -7.62
$EndPAD
$PAD
Sh "14" C 2.99974 2.99974 0 0 0
Dr 1.19888 0 0
At STD N 00E0FFFF
Ne 0 ""
Po 25.4 -7.62
$EndPAD
$EndMODULE Relais_SPDT_Schrack-RT1_RM5mm
$MODULE Relais_SPST_PotterBrumfield_T9AP1D52_12V30A
Po 0 0 0 15 4BE7ECB8 00000000 ~~
Li Relais_SPST_PotterBrumfield_T9AP1D52_12V30A
Cd Relais, SPST, Potter&Brumfield, T9AP1D52, 12V, 30A, 1xEin, Connector Fast ON, Only Dummy for Space, NO Pads,
Kw Relais, SPST, Potter&Brumfield, T9AP1D52, 12V, 30A, 1xEin, Connector Fast ON, Flachsteckeranschluss, Only Dummy for Space, NO Pads,
Sc 0
AR 
Op 0 0 0
T0 -6.10108 -11.176 1.99898 1.99898 0 0.3048 N V 21 N "K"
T1 16.05026 -0.59944 1.524 1.00076 900 0.25146 N V 21 N "Relais_SPST_PotterBrumfield_T9AP1D52_12V30A"
T2 7.32536 -4.37388 1.524 1.524 0 0.3048 N V 21 N "14"
T2 -11.0744 -4.47548 1.524 1.524 0 0.3048 N V 21 N "13"
T2 3.1496 10.97534 1.524 1.524 0 0.3048 N V 21 N "A2"
T2 -8.52424 11.0744 1.524 1.524 0 0.3048 N V 21 N "A1"
DS 11.24966 -2.77622 3.35026 -2.79908 0.381 21
DS 3.35026 -2.79908 3.32486 -2.79908 0.381 21
DS -6.90118 12.6746 -10.20064 12.7 0.381 21
DS -11.00074 -2.77622 -11.00074 3.8989 0.381 21
DS 1.42494 12.7 5.00126 12.7 0.381 21
DS -1.97612 -20.89912 -1.89992 -20.6248 0.381 21
DS -1.89992 -20.6248 -1.5494 -20.27428 0.381 21
DS -1.5494 -20.27428 -1.12522 -19.97456 0.381 21
DS -1.12522 -19.97456 -0.44958 -19.75104 0.381 21
DS -0.44958 -19.75104 0.20066 -19.72564 0.381 21
DS 0.20066 -19.72564 0.8255 -19.8247 0.381 21
DS 0.8255 -19.8247 1.27508 -20.07616 0.381 21
DS 1.27508 -20.07616 1.67386 -20.47494 0.381 21
DS 1.67386 -20.47494 1.95072 -20.87626 0.381 21
DS 1.95072 -20.87626 1.99898 -21.04898 0.381 21
DS 1.97612 -23.09876 1.97612 -25.00122 0.381 21
DS -1.97612 -23.20036 -1.97612 -25.00122 0.381 21
DS 1.97612 20.6756 1.82626 20.47494 0.381 21
DS 1.82626 20.47494 1.45034 20.05076 0.381 21
DS 1.45034 20.05076 0.8001 19.72564 0.381 21
DS 0.8001 19.72564 0.37592 19.60118 0.381 21
DS 0.37592 19.60118 0.0762 19.60118 0.381 21
DS 0.0762 19.60118 -0.8509 19.72564 0.381 21
DS -0.8509 19.72564 -1.30048 19.94916 0.381 21
DS -1.30048 19.94916 -1.75006 20.32508 0.381 21
DS -1.75006 20.32508 -1.97612 20.6756 0.381 21
DS -1.97612 23.09876 -1.97612 25.00122 0.381 21
DS 1.95072 23.09876 1.97612 24.97582 0.381 21
DS 13.74902 15.75054 -13.74902 15.75054 0.381 21
DS -13.74902 -15.75054 13.74902 -15.75054 0.381 21
DS 13.74902 0 13.74902 -25.00122 0.381 21
DS 13.74902 -25.00122 -13.74902 -25.00122 0.381 21
DS -13.74902 -25.00122 -13.74902 25.00122 0.381 21
DS -13.74902 25.00122 13.74902 25.00122 0.381 21
DS 13.74902 25.00122 13.74902 0 0.381 21
$PAD
Sh "1" C 3.50012 3.50012 0 0 0
Dr 3.50012 0 0
At STD N 00E0FFFF
Ne 0 ""
Po 0 -21.99894
$EndPAD
$PAD
Sh "2" C 3.50012 3.50012 0 0 0
Dr 3.50012 0 0
At STD N 00E0FFFF
Ne 0 ""
Po 0 21.99894
$EndPAD
$EndMODULE Relais_SPST_PotterBrumfield_T9AP1D52_12V30A
$MODULE Relais_SPST_Schrack-RP-3SL_bistabil_RevB_07Oct2013
Po 0 0 0 15 5253158E 00000000 ~~
Li Relais_SPST_Schrack-RP-3SL_bistabil_RevB_07Oct2013
Cd Relay, SPST, bistabil, Schrack-RP-3SL, 12A, 250V, AC,
Kw Relay, SPST, bistabil, Schrack-RP-3SL, 12A, 250V, AC, Relais, 1 x ein,
Sc 0
AR 
Op 0 0 0
T0 12.4206 -12.3952 1.524 1.524 0 0.3048 N V 21 N "K"
T1 -0.25 9.5 1.524 1.524 0 0.3048 N I 21 N "Relais_SPST_Schrack-RP-3SL_bistabil_RevB_07Oct2013"
DS -7.2 3.75 -9.6 3.75 0.381 21
DS -7.2 0 -9.55 0 0.381 21
DS -7.05 -3.85 -9.6 -3.85 0.381 21
DS -14.5 6.3 14.5 6.3 0.381 21
DS 14.5 6.3 14.5 -6.3 0.381 21
DS 14.5 -6.3 -14.5 -6.3 0.381 21
DS -14.5 -6.3 -14.5 6.3 0.381 21
DS -7.162 -1.33 -4.622 -0.06 0.381 21
DS -5.892 2.48 -5.892 3.75 0.381 21
DS -5.892 3.75 -7.162 3.75 0.381 21
DS -7.162 -3.87 -5.892 -3.87 0.381 21
DS -5.892 -3.87 -5.892 -2.6 0.381 21
DS -5.892 -2.6 -4.622 -2.6 0.381 21
DS -4.622 -2.6 -4.622 2.48 0.381 21
DS -4.622 2.48 -7.162 2.48 0.381 21
DS -7.162 2.48 -7.162 -2.6 0.381 21
DS -7.162 -2.6 -5.892 -2.6 0.381 21
$PAD
Sh "A2" C 2.5 2.5 0 0 0
Dr 1.19888 0 0
At STD N 00E0FFFF
Ne 0 ""
Po -12.1 -3.6
$EndPAD
$PAD
Sh "A1" C 2.5 2.5 0 0 0
Dr 1.19888 0 0
At STD N 00E0FFFF
Ne 0 ""
Po -12.1 3.6
$EndPAD
$PAD
Sh "11" C 2.5 2.5 0 0 0
Dr 1.19888 0 0
At STD N 00E0FFFF
Ne 0 ""
Po 7.1 -3.6
$EndPAD
$PAD
Sh "11" C 2.5 2.5 0 0 0
Dr 1.19888 0 0
At STD N 00E0FFFF
Ne 0 ""
Po 7.1 3.6
$EndPAD
$PAD
Sh "14" C 2.5 2.5 0 0 0
Dr 1.19888 0 0
At STD N 00E0FFFF
Ne 0 ""
Po 11.9 3.6
$EndPAD
$PAD
Sh "14" C 2.5 2.5 0 0 0
Dr 1.19888 0 0
At STD N 00E0FFFF
Ne 0 ""
Po 11.9 -3.6
$EndPAD
$PAD
Sh "A3" C 2.5 2.5 0 0 0
Dr 1.19888 0 0
At STD N 00E0FFFF
Ne 0 ""
Po -12.1 0
$EndPAD
$SHAPE3D
Na "Relay_ThroughHole_Packages_Wings3d_RevC_07Oct2013/Relay_Schrack-RP3SL_Bistabil_Faktor03937_RevA_07Oct2013.wrl"
Sc 0.3937 0.3937 0.3937
Of 0 0 0
Ro 0 0 0
$EndSHAPE3D
$EndMODULE Relais_SPST_Schrack-RP-3SL_bistabil_RevB_07Oct2013
$MODULE Relais_SPST_Schrack-RP-3SL_mono_RevB_07Oct2013
Po 0 0 0 15 52531AA9 00000000 ~~
Li Relais_SPST_Schrack-RP-3SL_mono_RevB_07Oct2013
Cd Relay, SPST, bistabil, Schrack-RP-3SL, 12A, 250V, AC,
Kw Relay, SPST, bistabil, Schrack-RP-3SL, 12A, 250V, AC, Relais, 1 x ein,
Sc 0
AR 
Op 0 0 0
T0 12.4206 -12.3952 1.524 1.524 0 0.3048 N V 21 N "K"
T1 -0.25 9.5 1.524 1.524 0 0.3048 N I 21 N "Relais_SPST_Schrack-RP-3SL_mono_RevB_07Oct2013"
DS -7.2 3.75 -9.6 3.75 0.381 21
DS -7.05 -3.85 -9.6 -3.85 0.381 21
DS -14.5 6.3 14.5 6.3 0.381 21
DS 14.5 6.3 14.5 -6.3 0.381 21
DS 14.5 -6.3 -14.5 -6.3 0.381 21
DS -14.5 -6.3 -14.5 6.3 0.381 21
DS -7.162 -1.33 -4.622 -0.06 0.381 21
DS -5.892 2.48 -5.892 3.75 0.381 21
DS -5.892 3.75 -7.162 3.75 0.381 21
DS -7.162 -3.87 -5.892 -3.87 0.381 21
DS -5.892 -3.87 -5.892 -2.6 0.381 21
DS -5.892 -2.6 -4.622 -2.6 0.381 21
DS -4.622 -2.6 -4.622 2.48 0.381 21
DS -4.622 2.48 -7.162 2.48 0.381 21
DS -7.162 2.48 -7.162 -2.6 0.381 21
DS -7.162 -2.6 -5.892 -2.6 0.381 21
$PAD
Sh "A2" C 2.5 2.5 0 0 0
Dr 1.19888 0 0
At STD N 00E0FFFF
Ne 0 ""
Po -12.1 -3.6
$EndPAD
$PAD
Sh "A1" C 2.5 2.5 0 0 0
Dr 1.19888 0 0
At STD N 00E0FFFF
Ne 0 ""
Po -12.1 3.6
$EndPAD
$PAD
Sh "11" C 2.5 2.5 0 0 0
Dr 1.19888 0 0
At STD N 00E0FFFF
Ne 0 ""
Po 7.1 -3.6
$EndPAD
$PAD
Sh "11" C 2.5 2.5 0 0 0
Dr 1.19888 0 0
At STD N 00E0FFFF
Ne 0 ""
Po 7.1 3.6
$EndPAD
$PAD
Sh "14" C 2.5 2.5 0 0 0
Dr 1.19888 0 0
At STD N 00E0FFFF
Ne 0 ""
Po 11.9 3.6
$EndPAD
$PAD
Sh "14" C 2.5 2.5 0 0 0
Dr 1.19888 0 0
At STD N 00E0FFFF
Ne 0 ""
Po 11.9 -3.6
$EndPAD
$SHAPE3D
Na "Relay_ThroughHole_Packages_Wings3d_RevC_07Oct2013/Relay_Schrack-RP3SL_Faktor03937_RevA_07Oct2013.wrl"
Sc 0.3937 0.3937 0.3937
Of 0 0 0
Ro 0 0 0
$EndSHAPE3D
$EndMODULE Relais_SPST_Schrack-RP-3SL_mono_RevB_07Oct2013
$MODULE Relais_SPST_Schrack-RP-II-1_RM3-5mm
Po 0 0 0 15 4BE9279A 00000000 ~~
Li Relais_SPST_Schrack-RP-II-1_RM3-5mm
Cd Relay, SPST, Schrack-RP-II/1, RM3.5mm, 8A250VAC
Kw Relay, SPST,  Schrack-RP-II/1, RM3.5mm, 8A 250V AC, Reais. 1 x ein,
Sc 0
AR 
Op 0 0 0
T0 13.081 -12.192 1.524 1.524 0 0.3048 N V 21 N "K"
T1 13.97 5.08 1.524 1.524 0 0.3048 N V 21 N "Relais_SPST_Schrack-RP-II/1_RM3-5mm"
DS 2.54 -5.08 5.08 -3.81 0.381 21
DS 3.81 -1.27 3.81 0 0.381 21
DS 3.81 0 2.54 0 0.381 21
DS 2.54 -7.62 3.81 -7.62 0.381 21
DS 3.81 -7.62 3.81 -6.35 0.381 21
DS 3.81 -6.35 5.08 -6.35 0.381 21
DS 5.08 -6.35 5.08 -1.27 0.381 21
DS 5.08 -1.27 2.54 -1.27 0.381 21
DS 2.54 -1.27 2.54 -6.35 0.381 21
DS 2.54 -6.35 3.81 -6.35 0.381 21
DS -2.54 -10.16 27.94 -10.16 0.381 21
DS 27.94 -10.16 27.94 2.54 0.381 21
DS 27.94 2.54 -2.54 2.54 0.381 21
DS -2.54 2.54 -2.54 -10.16 0.381 21
$PAD
Sh "A1" C 2.99974 2.99974 0 0 0
Dr 1.19888 0 0
At STD N 00E0FFFF
Ne 0 ""
Po 0 -7.62
$EndPAD
$PAD
Sh "A2" C 2.99974 2.99974 0 0 0
Dr 1.19888 0 0
At STD N 00E0FFFF
Ne 0 ""
Po 0 0
$EndPAD
$PAD
Sh "13" C 2.99974 2.99974 0 0 0
Dr 1.19888 0 0
At STD N 00E0FFFF
Ne 0 ""
Po 20.32 -7.62
$EndPAD
$PAD
Sh "14" C 2.99974 2.99974 0 0 0
Dr 1.19888 0 0
At STD N 00E0FFFF
Ne 0 ""
Po 24.13 0
$EndPAD
$EndMODULE Relais_SPST_Schrack-RP-II-1_RM3-5mm
$MODULE Relays_SPDT_SingleRow_Laying_FinderType34Point51_RevB_Date25Jun2010
Po 0 0 0 15 4C24C039 00000000 ~~
Li Relays_SPDT_SingleRow_Laying_FinderType34Point51_RevB_Date25Jun2010
Cd Relays, SPDT, Wechsler, 1 x Um, Single Row, Einreihig, Laying, liegend, Finder Type34.51, RevB, Date 25Jun2010
Kw Relays, SPDT, Wechsler, 1 x Um, Single Row, Einreihig, Laying, liegend, Finder Type34.51, RevB, Date 25Jun2010
Sc 0
AR 
Op 0 0 0
T0 0 -16.51 1.524 1.524 0 0.3048 N V 21 N "K"
T1 1.27 5.08 1.524 1.524 0 0.3048 N V 21 N "Relays_SPDT_SingleRow_Laying_FinderType34Point51_RevB_Date25Jun2010"
DS -11.99896 -8.001 -12.99972 -8.001 0.381 21
DS -12.99972 -8.001 -12.99972 -1.69926 0.381 21
DS -9.79932 -8.001 -8.99922 -8.001 0.381 21
DS -8.99922 -8.001 -8.99922 -1.80086 0.381 21
DS 8.49884 -7.8994 12.10056 -7.8994 0.381 21
DS 12.10056 -7.8994 12.10056 -1.99898 0.381 21
DS 4.59994 -7.8994 2.10058 -7.8994 0.381 21
DS 2.10058 -7.8994 2.10058 -1.80086 0.381 21
DS 7.0993 -1.99898 7.0993 -6.79958 0.381 21
DS 7.0993 -6.79958 5.10032 -8.6995 0.381 21
DS 14.00048 -15.30096 14.00048 0.29972 0.381 21
DS -10.70102 0.29972 -11.39952 0.29972 0.381 21
DS 0.29972 0.29972 -7.59968 0.29972 0.381 21
DS 5.30098 0.29972 3.79984 0.29972 0.381 21
DS 10.39876 0.29972 8.8011 0.29972 0.381 21
DS 13.89888 0.29972 13.70076 0.29972 0.381 21
DS 14.00048 -15.30096 -14.00048 -15.30096 0.381 21
DS -14.00048 -15.30096 -14.00048 -1.19888 0.381 21
T2 -13.10132 2.1971 0.50038 0.50038 0 0.09906 N V 21 N "A2"
T2 -9.25068 2.14884 0.50038 0.50038 0 0.09906 N V 21 N "A1"
DS -9.75106 -8.15086 -9.75106 -8.8011 0.381 21
DS -9.75106 -8.8011 -11.9761 -8.8011 0.381 21
DS -11.9761 -8.8011 -11.9761 -7.27456 0.381 21
DS -11.9761 -7.27456 -9.75106 -7.27456 0.381 21
DS -9.75106 -7.27456 -9.75106 -8.20166 0.381 21
T2 2.09804 2.14884 0.50038 0.50038 0 0.09906 N V 21 N "NC"
T2 12.14882 2.12344 0.50038 0.50038 0 0.09906 N V 21 N "NO"
T2 7.22376 2.10058 0.50038 0.50038 0 0.09906 N V 21 N "C"
$PAD
Sh "14" C 2.30124 2.30124 0 0 0
Dr 1.30048 0 0
At STD N 00E0FFFF
Ne 0 ""
Po 12.10056 0
$EndPAD
$PAD
Sh "11" C 2.30124 2.30124 0 0 0
Dr 1.30048 0 0
At STD N 00E0FFFF
Ne 0 ""
Po 7.0993 0
$EndPAD
$PAD
Sh "12" C 2.30124 2.30124 0 0 0
Dr 1.30048 0 0
At STD N 00E0FFFF
Ne 0 ""
Po 2.10058 0
$EndPAD
$PAD
Sh "A1" C 1.99898 1.99898 0 0 0
Dr 1.00076 0 0
At STD N 00E0FFFF
Ne 0 ""
Po -9.14908 0
$EndPAD
$PAD
Sh "A2" C 1.99898 1.99898 0 0 0
Dr 1.00076 0 0
At STD N 00E0FFFF
Ne 0 ""
Po -12.90066 0
$EndPAD
$EndMODULE Relays_SPDT_SingleRow_Laying_FinderType34Point51_RevB_Date25Jun2010
$MODULE Relays_SPDT_SingleRow_Standing_FinderType34Point51_RevB_Date25Jun2010
Po 0 0 0 15 4C24C00F 00000000 ~~
Li Relays_SPDT_SingleRow_Standing_FinderType34Point51_RevB_Date25Jun2010
Cd Relays, SPDT, Wechsler, 1 x Um, Single Row, Einreihig, Standing, stehend, Finder Type34.51, RevB, Date 25Jun2010
Kw Relays, SPDT, Wechsler, 1 x Um, Single Row, Einreihig, Standing, stehend, Finder Type34.51, RevB, Date 25Jun2010
Sc 0
AR 
Op 0 0 0
T0 0 -5.08 1.524 1.524 0 0.3048 N V 21 N "K"
T1 1.27 5.08 1.524 1.524 0 0.3048 N V 21 N "Relays_SPDT_SingleRow_Standing_FinderType34Point51_RevB_Date25Jun2010"
T2 -13.10132 2.1971 0.50038 0.50038 0 0.09906 N V 21 N "A2"
T2 -9.25068 2.14884 0.50038 0.50038 0 0.09906 N V 21 N "A1"
DS -12.30122 -2.55016 -12.94892 -2.55016 0.381 21
DS -12.94892 -2.55016 -12.94892 -1.6002 0.381 21
DS -9.14908 -1.6002 -9.14908 -2.55016 0.381 21
DS -9.14908 -2.55016 -10.05078 -2.55016 0.381 21
DS -10.05078 -2.55016 -10.05078 -3.2004 0.381 21
DS -10.05078 -3.2004 -12.27582 -3.2004 0.381 21
DS -12.27582 -3.2004 -12.27582 -1.67386 0.381 21
DS -12.27582 -1.67386 -10.05078 -1.67386 0.381 21
DS -10.05078 -1.67386 -10.05078 -2.60096 0.381 21
T2 2.09804 2.14884 0.50038 0.50038 0 0.09906 N V 21 N "NC"
T2 12.14882 2.12344 0.50038 0.50038 0 0.09906 N V 21 N "NO"
T2 7.22376 2.10058 0.50038 0.50038 0 0.09906 N V 21 N "C"
DS 8.39978 -2.60096 12.10056 -2.60096 0.381 21
DS 12.10056 -2.60096 12.10056 -1.75006 0.381 21
DS 5.69976 -2.62382 2.04978 -2.62382 0.381 21
DS 2.04978 -2.62382 2.04978 -1.77546 0.381 21
DS 7.1247 -1.75006 7.1247 -2.27584 0.381 21
DS 7.1247 -2.27584 6.12394 -3.05054 0.381 21
DS -14.00048 1.30048 -13.94968 1.30048 0.381 21
DS 13.20038 1.30048 14.00048 1.30048 0.381 21
DS 8.24992 1.30048 10.85088 1.30048 0.381 21
DS 3.1496 1.30048 5.84962 1.30048 0.381 21
DS 0 1.30048 0.8001 1.30048 0.381 21
DS -8.10006 1.30048 0 1.30048 0.381 21
DS -11.8491 1.30048 -10.39876 1.30048 0.381 21
DS 14.00048 1.30048 14.00048 -3.70078 0.381 21
DS 14.00048 -3.70078 -14.00048 -3.70078 0.381 21
DS -14.00048 -3.70078 -14.00048 -1.30048 0.381 21
$PAD
Sh "14" C 2.30124 2.30124 0 0 0
Dr 1.30048 0 0
At STD N 00E0FFFF
Ne 0 ""
Po 12.10056 0
$EndPAD
$PAD
Sh "11" C 2.30124 2.30124 0 0 0
Dr 1.30048 0 0
At STD N 00E0FFFF
Ne 0 ""
Po 7.0993 0
$EndPAD
$PAD
Sh "12" C 2.30124 2.30124 0 0 0
Dr 1.30048 0 0
At STD N 00E0FFFF
Ne 0 ""
Po 2.10058 0
$EndPAD
$PAD
Sh "A1" C 1.99898 1.99898 0 0 0
Dr 1.00076 0 0
At STD N 00E0FFFF
Ne 0 ""
Po -9.14908 0
$EndPAD
$PAD
Sh "A2" C 1.99898 1.99898 0 0 0
Dr 1.00076 0 0
At STD N 00E0FFFF
Ne 0 ""
Po -12.90066 0
$EndPAD
$EndMODULE Relays_SPDT_SingleRow_Standing_FinderType34Point51_RevB_Date25Jun2010
$EndLIBRARY
