PCBNEW-LibModule-V1  Di 12 Jun 2012 18:44:40 CEST
# encoding utf-8
$INDEX
Resistor_SMD0805_HandSoldering_RevA_Date21Jun2010
Resistor_SMD0805_ReflowWave_RevA_Date21Jun2010
Resistor_SMD1206_HandSoldering_RevA_Date21Jun2010
Resistor_SMD1206_ReflowWave_RevA_Date21Jun2010
Resistor_SMD1210_ReflowWave_RevA_Date21Jun2010
Resistor_SMD2010_ReflowWave_RevA_Date21Jun2010
Resistor_SMD2512_HandSoldering_RevA_Date21Jun2010
Resistor_SMD2512_ReflowWave_RevA_Date21Jun2010
r_cat16-2
r_cat16-4
r_cat16-8
$EndINDEX
$MODULE Resistor_SMD0805_HandSoldering_RevA_Date21Jun2010
Po 0 0 0 15 4FD770D3 00000000 ~~
Li Resistor_SMD0805_HandSoldering_RevA_Date21Jun2010
Cd Resistor, SMD, 0805, Hand soldering,
Kw Resistor, SMD, 0805, Hand soldering,
Sc 00000000
AR Resistor_SMD0805_HandSoldering_RevA_Date21Jun2010
Op 0 0 0
At SMD
T0 39 -906 600 600 0 120 N V 21 N "R"
T1 79 1024 600 600 0 120 N I 21 N "Resistor_SMD0805_HandSoldering_RevA_Date21Jun2010"
DS 0 -450 -400 -450 150 21
DS 0 -450 400 -450 150 21
DS 0 450 -400 450 150 21
DS 0 450 400 450 150 21
$PAD
Sh "1" R 591 472 0 0 0
Dr 0 0 0
At SMD N 00888000
Ne 0 ""
Po -512 0
$EndPAD
$PAD
Sh "2" R 591 472 0 0 0
Dr 0 0 0
At SMD N 00888000
Ne 0 ""
Po 512 0
$EndPAD
$EndMODULE  Resistor_SMD0805_HandSoldering_RevA_Date21Jun2010
$MODULE Resistor_SMD0805_ReflowWave_RevA_Date21Jun2010
Po 0 0 0 15 4FD770E3 00000000 ~~
Li Resistor_SMD0805_ReflowWave_RevA_Date21Jun2010
Cd Resistor, SMD, 0805, Reflow, Wave,
Kw Resistor, SMD, 0805, Reflow, Wave,
Sc 00000000
AR
Op 0 0 0
At SMD
T0 39 -906 600 600 0 120 N V 21 N "R"
T1 79 1024 600 600 0 120 N I 21 N "Resistor_SMD0805_ReflowWave_RevA_Date21Jun2010"
DS -748 197 -748 433 150 21
DS -748 433 748 433 150 21
DS 748 433 748 197 150 21
DS 748 -197 748 -433 150 21
DS 748 -433 -748 -433 150 21
DS -748 -433 -748 -197 150 21
$PAD
Sh "1" R 315 472 0 0 0
Dr 0 0 0
At SMD N 00888000
Ne 0 ""
Po -394 0
$EndPAD
$PAD
Sh "2" R 315 472 0 0 0
Dr 0 0 0
At SMD N 00888000
Ne 0 ""
Po 394 0
$EndPAD
$EndMODULE  Resistor_SMD0805_ReflowWave_RevA_Date21Jun2010
$MODULE Resistor_SMD1206_HandSoldering_RevA_Date21Jun2010
Po 0 0 0 15 4FD77140 00000000 ~~
Li Resistor_SMD1206_HandSoldering_RevA_Date21Jun2010
Cd Resistor, SMD, 1206, HandSoldering,
Kw Resistor, SMD, 1206, Hand soldering,
Sc 00000000
AR
Op 0 0 0
At SMD
T0 39 -945 600 600 0 120 N V 21 N "R"
T1 1063 1063 600 600 0 120 N V 21 N "Resistor_SMD1206_HandSoldering_RevA_Date21Jun2010"
DC 0 0 197 39 150 17
DC 0 0 59 20 150 17
DS 650 450 -650 450 150 21
DS 0 -450 -650 -450 150 21
DS 0 -450 650 -450 150 21
$PAD
Sh "1" R 906 551 0 0 0
Dr 0 0 0
At SMD N 00888000
Ne 0 ""
Po -906 0
$EndPAD
$PAD
Sh "2" R 906 551 0 0 0
Dr 0 0 0
At SMD N 00888000
Ne 0 ""
Po 906 0
$EndPAD
$EndMODULE  Resistor_SMD1206_HandSoldering_RevA_Date21Jun2010
$MODULE Resistor_SMD1206_ReflowWave_RevA_Date21Jun2010
Po 0 0 0 15 4FD7717F 00000000 ~~
Li Resistor_SMD1206_ReflowWave_RevA_Date21Jun2010
Cd Resistor, SMD, 1206, Reflow, Wave,
Kw Resistor, SMD, 1206, Reflow, Wave,
Sc 00000000
AR
Op 0 0 0
At SMD
T0 39 -945 600 600 0 120 N V 21 N "R"
T1 1063 1063 600 600 0 120 N I 21 N "Resistor_SMD1206_ReflowWave_RevA_Date21Jun2010"
DC 0 0 197 0 150 17
DC 0 0 59 20 150 17
DS -1063 197 -1063 472 150 21
DS -1063 472 1063 472 150 21
DS 1063 472 1063 197 150 21
DS 1063 -197 1063 -472 150 21
DS 1063 -472 -1063 -472 150 21
DS -1063 -472 -1063 -197 150 21
$PAD
Sh "1" R 394 551 0 0 0
Dr 0 0 0
At SMD N 00888000
Ne 0 ""
Po -669 0
$EndPAD
$PAD
Sh "2" R 394 551 0 0 0
Dr 0 0 0
At SMD N 00888000
Ne 0 ""
Po 669 0
$EndPAD
$EndMODULE  Resistor_SMD1206_ReflowWave_RevA_Date21Jun2010
$MODULE Resistor_SMD1210_ReflowWave_RevA_Date21Jun2010
Po 0 0 0 15 4FD77195 00000000 ~~
Li Resistor_SMD1210_ReflowWave_RevA_Date21Jun2010
Cd Resistor, SMD, 1210, Reflow, Wave,
Kw Resistor, SMD, 1210, Reflow, Wave,
Sc 00000000
AR
Op 0 0 0
At SMD
T0 39 -1220 600 600 0 120 N V 21 N "R"
T1 -79 1339 600 600 0 120 N I 21 N "Resistor_SMD1210_ReflowWave_RevA_Date21Jun2010"
DC 0 0 236 0 150 17
DC 0 0 157 0 150 17
DC 0 0 79 0 150 17
DS -1142 433 -1142 669 150 21
DS -1142 669 1142 669 150 21
DS 1142 669 1142 433 150 21
DS 1142 -433 1142 -669 150 21
DS 1142 -669 -1142 -669 150 21
DS -1142 -669 -1142 -433 150 21
$PAD
Sh "1" R 472 945 0 0 0
Dr 0 0 0
At SMD N 00888000
Ne 0 ""
Po -709 0
$EndPAD
$PAD
Sh "2" R 472 945 0 0 0
Dr 0 0 0
At SMD N 00888000
Ne 0 ""
Po 709 0
$EndPAD
$EndMODULE  Resistor_SMD1210_ReflowWave_RevA_Date21Jun2010
$MODULE Resistor_SMD2010_ReflowWave_RevA_Date21Jun2010
Po 0 0 0 15 4FD771B6 00000000 ~~
Li Resistor_SMD2010_ReflowWave_RevA_Date21Jun2010
Cd Resistor, SMD, 2010, Reflow, Wave,
Kw Resistor, SMD, 2010, Reflow, Wave,
Sc 00000000
AR
Op 0 0 0
At SMD
T0 39 -1220 600 600 0 120 N V 21 N "R"
T1 39 1496 600 600 0 120 N I 21 N "Resistor_SMD2010_ReflowWave_RevA_Date21Jun2010"
DS -1535 433 -1535 709 150 21
DS -1535 709 1535 709 150 21
DS 1535 709 1535 433 150 21
DS 1535 -433 1535 -709 150 21
DS 1535 -709 -1535 -709 150 21
DS -1535 -709 -1535 -433 150 21
DC 0 0 236 0 150 17
DC 0 0 157 0 150 17
DC 0 0 79 0 150 17
$PAD
Sh "1" R 591 1024 0 0 0
Dr 0 0 0
At SMD N 00888000
Ne 0 ""
Po -1024 0
$EndPAD
$PAD
Sh "2" R 591 1024 0 0 0
Dr 0 0 0
At SMD N 00888000
Ne 0 ""
Po 1024 0
$EndPAD
$EndMODULE  Resistor_SMD2010_ReflowWave_RevA_Date21Jun2010
$MODULE Resistor_SMD2512_HandSoldering_RevA_Date21Jun2010
Po 0 0 0 15 4FD771D1 00000000 ~~
Li Resistor_SMD2512_HandSoldering_RevA_Date21Jun2010
Cd Resistor, SMD, 2512, Hand soldering,
Kw Resistor, SMD, 2512, Hand soldering,
Sc 00000000
AR
Op 0 0 0
At SMD
T0 39 -1220 600 600 0 120 N V 21 N "R"
T1 -157 1654 600 600 0 120 N I 21 N "Resistor_SMD2512_HandSoldering_RevA_Date21Jun2010"
DC 0 0 315 0 150 17
DS -1969 827 1969 827 150 21
DS 1929 -827 -591 -827 150 21
DS -591 -827 -1969 -827 150 21
DC 0 0 197 0 150 17
DC 0 0 79 0 150 17
$PAD
Sh "1" R 1772 1260 0 0 0
Dr 0 0 0
At SMD N 00888000
Ne 0 ""
Po -1890 0
$EndPAD
$PAD
Sh "2" R 1772 1260 0 0 0
Dr 0 0 0
At SMD N 00888000
Ne 0 ""
Po 1890 0
$EndPAD
$EndMODULE  Resistor_SMD2512_HandSoldering_RevA_Date21Jun2010
$MODULE Resistor_SMD2512_ReflowWave_RevA_Date21Jun2010
Po 0 0 0 15 4FD771F1 00000000 ~~
Li Resistor_SMD2512_ReflowWave_RevA_Date21Jun2010
Cd Resistor, SMD, 2512, Reflow, Wave,
Kw Resistor, SMD, 2512, Reflow, Wave,
Sc 00000000
AR 
Op 0 0 0
At SMD 
T0 39 -1220 600 600 0 120 N V 21 N "R"
T1 -157 1654 600 600 0 120 N I 21 N "Resistor_SMD2512_ReflowWave_RevA_Date21Jun2010"
DC 0 0 315 0 150 17
DS 1969 -827 1969 -512 150 21
DS -1969 591 -1969 827 150 21
DS -1969 827 1969 827 150 21
DS 1969 827 1969 512 150 21
DS 1929 -827 -591 -827 150 21
DS -591 -827 -1969 -827 150 21
DS -1969 -827 -1969 -591 150 21
DC 0 0 197 0 150 17
DC 0 0 79 0 150 17
$PAD
Sh "1" R 787 1260 0 0 0
Dr 0 0 0
At SMD N 00888000
Ne 0 ""
Po -1378 0
$EndPAD
$PAD
Sh "2" R 787 1260 0 0 0
Dr 0 0 0
At SMD N 00888000
Ne 0 ""
Po 1378 0
$EndPAD
$EndMODULE  Resistor_SMD2512_ReflowWave_RevA_Date21Jun2010
$MODULE r_cat16-8
Po 0 0 0 15 4A9CE189 00000000 ~~
Li r_cat16-8
Cd SMT resistor net, Bourns CAT16 series, 8 way
Sc 00000000
AR
Op 0 0 0
T0 0 -1417 79 79 0 16 N V 21 N"r_cat16-8"
T1 0 1417 79 79 0 16 N I 21 N"RN***"
DS -197 -945 197 -945 50 21
DS -197 -630 197 -630 50 21
DS -197 -315 197 -315 50 21
DS -197 0 197 0 50 21
DS -197 315 197 315 50 21
DS -197 630 197 630 50 21
DS -197 945 197 945 50 21
DS -354 -1181 -197 -1181 50 21
DS 197 -1181 354 -1181 50 21
DS -354 -1024 -197 -1024 50 21
DS 197 -1024 354 -1024 50 21
DS -354 -866 -197 -866 50 21
DS 197 -866 354 -866 50 21
DS -354 -709 -197 -709 50 21
DS 197 -709 354 -709 50 21
DS -354 -551 -197 -551 50 21
DS 197 -551 354 -551 50 21
DS -354 -394 -197 -394 50 21
DS 197 -394 354 -394 50 21
DS 354 -236 197 -236 50 21
DS -197 -236 -354 -236 50 21
DS -354 -79 -197 -79 50 21
DS 197 -79 354 -79 50 21
DS 354 79 197 79 50 21
DS -197 79 -354 79 50 21
DS -354 236 -197 236 50 21
DS 197 236 354 236 50 21
DS 197 551 354 551 50 21
DS 197 394 354 394 50 21
DS -354 394 -197 394 50 21
DS -354 551 -197 551 50 21
DS -354 866 -197 866 50 21
DS -197 709 -354 709 50 21
DS 354 709 197 709 50 21
DS 354 866 197 866 50 21
DS 197 1181 354 1181 50 21
DS 354 1024 197 1024 50 21
DS -197 1024 -354 1024 50 21
DS -354 1181 -197 1181 50 21
DS -197 -1299 -197 1299 50 21
DS 197 1299 197 -1299 50 21
DS -354 1299 -354 -1299 50 21
DS -354 -1299 354 -1299 50 21
DS 354 -1299 354 1299 50 21
DS 354 1299 -354 1299 50 21
$PAD
Sh "4" R 300 170 0 0 0
Dr 0 0 0
At SMD N 00888000
Ne 0 ""
Po 300 157
$EndPAD
$PAD
Sh "13" R 300 170 0 0 0
Dr 0 0 0
At SMD N 00888000
Ne 0 ""
Po -300 157
$EndPAD
$PAD
Sh "5" R 300 170 0 0 0
Dr 0 0 0
At SMD N 00888000
Ne 0 ""
Po 300 -157
$EndPAD
$PAD
Sh "12" R 300 170 0 0 0
Dr 0 0 0
At SMD N 00888000
Ne 0 ""
Po -300 -157
$EndPAD
$PAD
Sh "3" R 300 170 0 0 0
Dr 0 0 0
At SMD N 00888000
Ne 0 ""
Po 300 472
$EndPAD
$PAD
Sh "6" R 300 170 0 0 0
Dr 0 0 0
At SMD N 00888000
Ne 0 ""
Po 300 -472
$EndPAD
$PAD
Sh "11" R 300 170 0 0 0
Dr 0 0 0
At SMD N 00888000
Ne 0 ""
Po -300 -472
$EndPAD
$PAD
Sh "14" R 300 170 0 0 0
Dr 0 0 0
At SMD N 00888000
Ne 0 ""
Po -300 472
$EndPAD
$PAD
Sh "7" R 300 170 0 0 0
Dr 0 0 0
At SMD N 00888000
Ne 0 ""
Po 300 -787
$EndPAD
$PAD
Sh "8" R 300 170 0 0 0
Dr 0 0 0
At SMD N 00888000
Ne 0 ""
Po 300 -1102
$EndPAD
$PAD
Sh "1" R 300 170 0 0 0
Dr 0 0 0
At SMD N 00888000
Ne 0 ""
Po 300 1102
$EndPAD
$PAD
Sh "2" R 300 170 0 0 0
Dr 0 0 0
At SMD N 00888000
Ne 0 ""
Po 300 787
$EndPAD
$PAD
Sh "15" R 300 170 0 0 0
Dr 0 0 0
At SMD N 00888000
Ne 0 ""
Po -300 787
$EndPAD
$PAD
Sh "16" R 300 170 0 0 0
Dr 0 0 0
At SMD N 00888000
Ne 0 ""
Po -300 1102
$EndPAD
$PAD
Sh "9" R 300 170 0 0 0
Dr 0 0 0
At SMD N 00888000
Ne 0 ""
Po -300 -1102
$EndPAD
$PAD
Sh "10" R 300 170 0 0 0
Dr 0 0 0
At SMD N 00888000
Ne 0 ""
Po -300 -787
$EndPAD
$SHAPE3D
Na "smd/resistors/r_cat16-8.wrl"
Sc 1.000000 1.000000 1.000000
Of 0.000000 0.000000 0.000000
Ro 0.000000 0.000000 0.000000
$EndSHAPE3D
$EndMODULE  r_cat16-8
$MODULE r_cat16-4
Po 0 0 0 15 4A9CE279 00000000 ~~
Li r_cat16-4
Cd SMT resistor net, Bourns CAT16 series, 4 way
Sc 00000000
AR
Op 0 0 0
T0 0 -827 79 79 0 16 N V 21 N"r_cat16-4"
T1 0 787 79 79 0 16 N I 21 N"RN***"
DS 197 -669 197 669 50 21
DS -197 669 -197 -669 50 21
DS -354 -669 -354 669 50 21
DS 354 669 354 -669 50 21
DS -354 -669 354 -669 50 21
DS -354 669 354 669 50 21
DS -197 -315 197 -315 50 21
DS -197 0 197 0 50 21
DS -197 315 197 315 50 21
DS -354 -551 -197 -551 50 21
DS 197 -551 354 -551 50 21
DS -354 -394 -197 -394 50 21
DS 197 -394 354 -394 50 21
DS 354 -236 197 -236 50 21
DS -197 -236 -354 -236 50 21
DS -354 -79 -197 -79 50 21
DS 197 -79 354 -79 50 21
DS 354 79 197 79 50 21
DS -197 79 -354 79 50 21
DS -354 236 -197 236 50 21
DS 197 236 354 236 50 21
DS 197 551 354 551 50 21
DS 197 394 354 394 50 21
DS -354 394 -197 394 50 21
DS -354 551 -197 551 50 21
$PAD
Sh "2" R 300 170 0 0 0
Dr 0 0 0
At SMD N 00888000
Ne 0 ""
Po 300 157
$EndPAD
$PAD
Sh "7" R 300 170 0 0 0
Dr 0 0 0
At SMD N 00888000
Ne 0 ""
Po -300 157
$EndPAD
$PAD
Sh "3" R 300 170 0 0 0
Dr 0 0 0
At SMD N 00888000
Ne 0 ""
Po 300 -157
$EndPAD
$PAD
Sh "6" R 300 170 0 0 0
Dr 0 0 0
At SMD N 00888000
Ne 0 ""
Po -300 -157
$EndPAD
$PAD
Sh "1" R 300 170 0 0 0
Dr 0 0 0
At SMD N 00888000
Ne 0 ""
Po 300 472
$EndPAD
$PAD
Sh "4" R 300 170 0 0 0
Dr 0 0 0
At SMD N 00888000
Ne 0 ""
Po 300 -472
$EndPAD
$PAD
Sh "5" R 300 170 0 0 0
Dr 0 0 0
At SMD N 00888000
Ne 0 ""
Po -300 -472
$EndPAD
$PAD
Sh "8" R 300 170 0 0 0
Dr 0 0 0
At SMD N 00888000
Ne 0 ""
Po -300 472
$EndPAD
$SHAPE3D
Na "smd/resistors/r_cat16-4.wrl"
Sc 1.000000 1.000000 1.000000
Of 0.000000 0.000000 0.000000
Ro 0.000000 0.000000 0.000000
$EndSHAPE3D
$EndMODULE  r_cat16-4
$MODULE r_cat16-2
Po 0 0 0 15 4A9CE2CD 00000000 ~~
Li r_cat16-2
Cd SMT resistor net, Bourns CAT16 series, 2 way
Sc 00000000
AR
Op 0 0 0
T0 0 -512 79 79 0 16 N V 21 N"r_cat16-2"
T1 0 472 79 79 0 16 N I 21 N"RN***"
DS -197 354 -197 -354 50 21
DS 197 -354 197 354 50 21
DS 354 -354 -354 -354 50 21
DS -354 -354 -354 354 50 21
DS -354 354 354 354 50 21
DS 354 354 354 -354 50 21
DS -197 0 197 0 50 21
DS 354 -236 197 -236 50 21
DS -197 -236 -354 -236 50 21
DS -354 -79 -197 -79 50 21
DS 197 -79 354 -79 50 21
DS 354 79 197 79 50 21
DS -197 79 -354 79 50 21
DS -354 236 -197 236 50 21
DS 197 236 354 236 50 21
$PAD
Sh "1" R 300 170 0 0 0
Dr 0 0 0
At SMD N 00888000
Ne 0 ""
Po 300 157
$EndPAD
$PAD
Sh "4" R 300 170 0 0 0
Dr 0 0 0
At SMD N 00888000
Ne 0 ""
Po -300 157
$EndPAD
$PAD
Sh "2" R 300 170 0 0 0
Dr 0 0 0
At SMD N 00888000
Ne 0 ""
Po 300 -157
$EndPAD
$PAD
Sh "3" R 300 170 0 0 0
Dr 0 0 0
At SMD N 00888000
Ne 0 ""
Po -300 -157
$EndPAD
$SHAPE3D
Na "smd/resistors/r_cat16-2.wrl"
Sc 1.000000 1.000000 1.000000
Of 0.000000 0.000000 0.000000
Ro 0.000000 0.000000 0.000000
$EndSHAPE3D
$EndMODULE  r_cat16-2
$EndLIBRARY
