PCBNEW-LibModule-V1  Do 06 Jun 2013 13:37:57 CEST
# encoding utf-8
Units mm
$INDEX
Resistor_Cement_Horizontal_Meggitt-SBC-2_22Apr2011
Resistor_Cement_KOA-BGR-3N_22Apr2011
Resistor_Cement_LargePads_KOA-BGR-3N_22Apr2011
Resistor_Cement_Vertical_KOA-BGR-5N-7N_22Apr2011
Resistor_Cement_Vertical_LargePads_KOA-BGR-5N-7N_22Apr2011
Resistor_Horizontal_RM10mm_22Apr2011
Resistor_Horizontal_RM15mm_22Apr2011
Resistor_Horizontal_RM20mm_22Apr2011
Resistor_Horizontal_RM25mm_22Apr2011
Resistor_Horizontal_RM30mm_22Apr2011
Resistor_TO-220_Horizontal
Resistor_TO-220_Horizontal_LargePads
Resistor_TO-220_Horizontal_MountedFromLS
Resistor_TO-220_Horizontal_MountedFromLS_LargePads
Resistor_TO-220_Vertical
Resistor_Vertical_RM5mm_22Apr2011
Resistor_Vertical_RM7.5mm_22Apr2011
$EndINDEX
$MODULE Resistor_Cement_Horizontal_Meggitt-SBC-2_22Apr2011
Po 0 0 0 15 4DB191FF 00000000 ~~
Li Resistor_Cement_Horizontal_Meggitt-SBC-2_22Apr2011
Cd Resistor, Cement, Horizontal, Meggit, SBC, SBC-2,
Kw Resistor, Cement, Horizontal, Meggit, SBC, SBC-2,
Sc 0
AR 
Op 0 0 0
T0 0 -5.99948 1.524 1.524 0 0.3048 N V 21 N "R"
T1 -0.24892 6.74878 1.524 1.524 0 0.3048 N V 21 N "Resistor_Cement_Horizontal_Meggitt-SBC-2_22Apr2011"
DS -9.99998 0 -15.49908 0 0.381 21
DS 9.99998 0 15.49908 0 0.381 21
DS 9.99998 0 9.99998 -3.29946 0.381 21
DS 9.99998 -3.29946 -9.99998 -3.29946 0.381 21
DS -9.99998 -3.29946 -9.99998 3.29946 0.381 21
DS -9.99998 3.29946 9.99998 3.29946 0.381 21
DS 9.99998 3.29946 9.99998 0 0.381 21
$PAD
Sh "1" C 2.49936 2.49936 0 0 1800
Dr 1.19888 0 0
At STD N 00E0FFFF
Ne 0 ""
Po -17.5006 0
$EndPAD
$PAD
Sh "2" C 2.49936 2.49936 0 0 1800
Dr 1.19888 0 0
At STD N 00E0FFFF
Ne 0 ""
Po 17.5006 0
$EndPAD
$EndMODULE Resistor_Cement_Horizontal_Meggitt-SBC-2_22Apr2011
$MODULE Resistor_Cement_KOA-BGR-3N_22Apr2011
Po 156.99994 58.99912 0 15 4DB17F88 00000000 ~~
Li Resistor_Cement_KOA-BGR-3N_22Apr2011
Cd Resistor, Cement, Vertical, 3W, Meggitt, KOA, BSR, BGR, BWR, 3N,
Kw Resistor, Cement, Vertical, 3W, Meggitt, KOA, BSR, BGR, BWR, 3N,
Sc 0
AR Resistor_Cement_Vertical_KOA-BGR-5N-7N_22Apr2011
Op 0 0 0
T0 0 -7.00024 1.524 1.524 0 0.3048 N V 21 N "R"
T1 0 8.49884 1.524 1.524 0 0.3048 N I 21 N "Resistor_Cement_KOA-BGR-3N_22Apr2011"
DS -4.50088 -4.50088 -4.50088 4.50088 0.381 21
DS 4.50088 -4.50088 4.50088 4.50088 0.381 21
DS 6.49986 -4.50088 -6.49986 -4.50088 0.381 21
DS -6.49986 -4.50088 -6.49986 4.50088 0.381 21
DS -6.49986 4.50088 6.49986 4.50088 0.381 21
DS 6.49986 4.50088 6.49986 -4.50088 0.381 21
$PAD
Sh "1" C 1.99898 1.99898 0 0 0
Dr 1.19888 0 0
At STD N 00E0FFFF
Ne 0 ""
Po -2.49936 0
$EndPAD
$PAD
Sh "2" C 1.99898 1.99898 0 0 0
Dr 1.19888 0 0
At STD N 00E0FFFF
Ne 0 ""
Po 2.49936 0
$EndPAD
$EndMODULE Resistor_Cement_KOA-BGR-3N_22Apr2011
$MODULE Resistor_Cement_LargePads_KOA-BGR-3N_22Apr2011
Po 175.99914 52.99964 0 15 4DB18011 00000000 ~~
Li Resistor_Cement_LargePads_KOA-BGR-3N_22Apr2011
Cd Resistor, Cement, Vertical, Large Pads, 3W, Meggitt, KOA, BSR, BGR, BWR, 3N,
Kw Resistor, Cement, Vertical, Large Pads, 3W, Meggitt, KOA, BSR, BGR, BWR, 3N,
Sc 0
AR Resistor_Cement_Vertical_KOA-BGR-5N-7N_22Apr2011
Op 0 0 0
T0 0 -7.00024 1.524 1.524 0 0.3048 N V 21 N "R"
T1 0 8.49884 1.524 1.524 0 0.3048 N I 21 N "Resistor_Cement_LargePads_KOA-BGR-3N_22Apr2011"
DS -4.50088 -4.50088 -4.50088 4.50088 0.381 21
DS 4.50088 -4.50088 4.50088 4.50088 0.381 21
DS 6.49986 -4.50088 -6.49986 -4.50088 0.381 21
DS -6.49986 -4.50088 -6.49986 4.50088 0.381 21
DS -6.49986 4.50088 6.49986 4.50088 0.381 21
DS 6.49986 4.50088 6.49986 -4.50088 0.381 21
$PAD
Sh "1" O 2.99974 1.99898 0 0 0
Dr 1.19888 -0.50038 0
At STD N 00E0FFFF
Ne 0 ""
Po -2.49936 0
$EndPAD
$PAD
Sh "2" O 2.99974 1.99898 0 0 1800
Dr 1.19888 -0.50038 0
At STD N 00E0FFFF
Ne 0 ""
Po 2.49936 0
$EndPAD
$EndMODULE Resistor_Cement_LargePads_KOA-BGR-3N_22Apr2011
$MODULE Resistor_Cement_Vertical_KOA-BGR-5N-7N_22Apr2011
Po 158.0007 75.99934 0 15 4DB17DAE 00000000 ~~
Li Resistor_Cement_Vertical_KOA-BGR-5N-7N_22Apr2011
Cd Resistor, Cement, Vertical, 5W, 7W, Meggitt, KOA, BSR, BGR, BWR, 5N, 7N,
Kw Resistor, Cement, Vertical, 5W, 7W, Meggitt, KOA, BSR, BGR, BWR, 5N, 7N,
Sc 0
AR Resistor_Cement_Vertical_KOA-BGR-5N-7N_22Apr2011
Op 0 0 0
T0 0 -7.00024 1.524 1.524 0 0.3048 N V 21 N "R"
T1 0 8.49884 1.524 1.524 0 0.3048 N I 21 N "Resistor_Cement_KOA-BGR-5N-7N_22Apr2011"
DS -5.00126 -5.00126 -5.00126 5.00126 0.381 21
DS 5.00126 -5.00126 5.00126 5.00126 0.381 21
DS 7.00024 -5.00126 -7.00024 -5.00126 0.381 21
DS -7.00024 -5.00126 -7.00024 5.00126 0.381 21
DS -7.00024 5.00126 7.00024 5.00126 0.381 21
DS 7.00024 5.00126 7.00024 -5.00126 0.381 21
$PAD
Sh "1" C 1.99898 1.99898 0 0 0
Dr 1.19888 0 0
At STD N 00E0FFFF
Ne 0 ""
Po -2.49936 0
$EndPAD
$PAD
Sh "2" C 1.99898 1.99898 0 0 0
Dr 1.19888 0 0
At STD N 00E0FFFF
Ne 0 ""
Po 2.49936 0
$EndPAD
$EndMODULE Resistor_Cement_Vertical_KOA-BGR-5N-7N_22Apr2011
$MODULE Resistor_Cement_Vertical_LargePads_KOA-BGR-5N-7N_22Apr2011
Po 182.00116 75.99934 0 15 4DB17E58 00000000 ~~
Li Resistor_Cement_Vertical_LargePads_KOA-BGR-5N-7N_22Apr2011
Cd Resistor, Cement, Vertical, LargePads, 5W, 7W, Meggitt, KOA, BSR, BGR, BWR, 5N, 7N,
Kw Resistor, Cement, Vertical, 5W, 7W, Meggitt, KOA, BSR, LargePads, BGR, BWR, 5N, 7N,
Sc 0
AR Resistor_Cement_Vertical_KOA-BGR-5N-7N_22Apr2011
Op 0 0 0
T0 0 -7.00024 1.524 1.524 0 0.3048 N V 21 N "R"
T1 0 8.49884 1.524 1.524 0 0.3048 N I 21 N "Resistor_Cement_LargePads_KOA-BGR-5N-7N_22Apr2011"
DS -5.00126 -5.00126 -5.00126 5.00126 0.381 21
DS 5.00126 -5.00126 5.00126 5.00126 0.381 21
DS 7.00024 -5.00126 -7.00024 -5.00126 0.381 21
DS -7.00024 -5.00126 -7.00024 5.00126 0.381 21
DS -7.00024 5.00126 7.00024 5.00126 0.381 21
DS 7.00024 5.00126 7.00024 -5.00126 0.381 21
$PAD
Sh "1" O 2.99974 1.99898 0 0 0
Dr 1.19888 -0.50038 0
At STD N 00E0FFFF
Ne 0 ""
Po -2.49936 0
$EndPAD
$PAD
Sh "2" O 2.99974 1.99898 0 0 1800
Dr 1.19888 -0.50038 0
At STD N 00E0FFFF
Ne 0 ""
Po 2.49936 0
$EndPAD
$EndMODULE Resistor_Cement_Vertical_LargePads_KOA-BGR-5N-7N_22Apr2011
$MODULE Resistor_Horizontal_RM10mm_22Apr2011
Po 47.00016 44.00042 0 15 4DB18A55 00000000 ~~
Li Resistor_Horizontal_RM10mm_22Apr2011
Cd Resistor, Axial,  RM 10mm, 1/3W,
Kw Resistor, Axial, RM 10mm, 1/3W,
Sc 0
AR 
Op 0 0 0
T0 0.24892 -3.50012 1.524 1.524 0 0.3048 N V 21 N "R"
T1 3.81 3.81 1.50114 1.50114 0 0.20066 N I 21 N "Resistor_Horizontal_RM10mm_22Apr2011"
DS -2.46126 0 -3.47726 0 0.381 21
DS 2.61874 0 3.63474 0 0.381 21
DS -2.46126 -1.27 2.61874 -1.27 0.381 21
DS 2.61874 -1.27 2.61874 1.27 0.381 21
DS 2.61874 1.27 -2.46126 1.27 0.381 21
DS -2.46126 1.27 -2.46126 -1.27 0.381 21
$PAD
Sh "1" C 1.99898 1.99898 0 0 0
Dr 1.00076 0 0
At STD N 0000FFFF
Ne 0 ""
Po -5.00126 0
$EndPAD
$PAD
Sh "2" C 1.99898 1.99898 0 0 0
Dr 1.00076 0 0
At STD N 0000FFFF
Ne 0 ""
Po 5.15874 0
$EndPAD
$EndMODULE Resistor_Horizontal_RM10mm_22Apr2011
$MODULE Resistor_Horizontal_RM15mm_22Apr2011
Po 48.99914 57.00014 0 15 4DB18A6D 00000000 ~~
Li Resistor_Horizontal_RM15mm_22Apr2011
Cd Resistor, Axial, RM 15mm,
Kw Resistor, Axial, RM 15mm,
Sc 0
AR 
Op 0 0 0
T0 0 -3.74904 1.524 1.524 0 0.3048 N V 21 N "R"
T1 0 4.0005 1.50114 1.50114 0 0.20066 N I 21 N "Resistor_Horizontal_RM15mm_22Apr2011"
DS -4.96062 0 -5.97662 0 0.381 21
DS 5.19938 0 6.21538 0 0.381 21
DS -4.96062 -1.27 5.19938 -1.27 0.381 21
DS 5.19938 -1.27 5.19938 1.27 0.381 21
DS 5.19938 1.27 -4.96062 1.27 0.381 21
DS -4.96062 1.27 -4.96062 -1.27 0.381 21
$PAD
Sh "1" C 1.99898 1.99898 0 0 0
Dr 1.00076 0 0
At STD N 0000FFFF
Ne 0 ""
Po -7.50062 0
$EndPAD
$PAD
Sh "2" C 1.99898 1.99898 0 0 0
Dr 1.00076 0 0
At STD N 0000FFFF
Ne 0 ""
Po 7.73938 0
$EndPAD
$EndMODULE Resistor_Horizontal_RM15mm_22Apr2011
$MODULE Resistor_Horizontal_RM20mm_22Apr2011
Po 51.00066 69.99986 0 15 4DB18B49 00000000 ~~
Li Resistor_Horizontal_RM20mm_22Apr2011
Cd Resistor, Axial, RM 20mm,
Kw Resistor, Axial, RM 20mm,
Sc 0
AR Resistor_Horizontal_RM20mm_22Apr2011
Op 0 0 0
T0 0 -5.4991 1.524 1.524 0 0.3048 N V 21 N "R"
T1 0 5.00126 1.50114 1.50114 0 0.20066 N I 21 N "Resistor_Horizontal_RM20mm_22Apr2011"
DS -7.45998 0 -8.47598 0 0.381 21
DS 7.78002 0 8.79602 0 0.381 21
DS -7.45998 -1.27 -7.45998 -2.54 0.381 21
DS -7.45998 -2.54 7.78002 -2.54 0.381 21
DS 7.78002 -2.54 7.78002 2.54 0.381 21
DS 7.78002 2.54 -7.45998 2.54 0.381 21
DS -7.45998 2.54 -7.45998 -1.27 0.381 21
$PAD
Sh "1" C 1.99898 1.99898 0 0 0
Dr 1.00076 0 0
At STD N 0000FFFF
Ne 0 ""
Po -9.99998 0
$EndPAD
$PAD
Sh "2" C 1.99898 1.99898 0 0 0
Dr 1.00076 0 0
At STD N 0000FFFF
Ne 0 ""
Po 10.32002 0
$EndPAD
$EndMODULE Resistor_Horizontal_RM20mm_22Apr2011
$MODULE Resistor_Horizontal_RM25mm_22Apr2011
Po 54.0004 85.99932 0 15 4DB18A7C 00000000 ~~
Li Resistor_Horizontal_RM25mm_22Apr2011
Cd Resistor, Axial, RM 25mm,
Kw Resistor, Axial, RM 25mm,
Sc 0
AR Resistor_Horizontal_RM25mm_22Apr2011
Op 0 0 0
T0 0 -5.75056 1.524 1.524 0 0.3048 N V 21 N "R"
T1 0 6.49986 1.50114 1.50114 0 0.20066 N I 21 N "Resistor_Horizontal_RM25mm_22Apr2011"
DS -8.94334 0 -10.97534 0 0.381 21
DS 9.34466 0 10.86866 0 0.381 21
DS -8.68934 -3.81 -8.68934 3.81 0.381 21
DS -8.68934 3.81 9.09066 3.81 0.381 21
DS 9.09066 3.81 9.09066 -3.81 0.381 21
DS 9.09066 -3.81 -8.68934 -3.81 0.381 21
$PAD
Sh "1" C 1.99898 1.99898 0 0 0
Dr 1.00076 0 0
At STD N 0000FFFF
Ne 0 ""
Po -12.49934 0
$EndPAD
$PAD
Sh "2" C 2.30124 2.30124 0 0 0
Dr 1.19888 0 0
At STD N 0000FFFF
Ne 0 ""
Po 12.49934 0
$EndPAD
$EndMODULE Resistor_Horizontal_RM25mm_22Apr2011
$MODULE Resistor_Horizontal_RM30mm_22Apr2011
Po 54.0004 104.0003 0 15 4DB188C1 00000000 ~~
Li Resistor_Horizontal_RM30mm_22Apr2011
Cd Resistor, Axial, RM 30mm,
Kw Resistor, Axial, RM 30mm,
Sc 0
AR 
Op 0 0 0
T0 0 -6.49986 1.524 1.524 0 0.3048 N V 21 N "R"
T1 0 8.49884 1.50114 1.50114 0 0.20066 N I 21 N "Resistor_Horizontal_RM30mm_22Apr2011"
DS -11.44524 0 -13.47724 0 0.381 21
DS 11.92276 0 13.44676 0 0.381 21
DS -11.19124 -5.08 11.66876 -5.08 0.381 21
DS 11.66876 -5.08 11.66876 5.08 0.381 21
DS 11.66876 5.08 -11.19124 5.08 0.381 21
DS -11.19124 5.08 -11.19124 -5.08 0.381 21
$PAD
Sh "1" C 1.99898 1.99898 0 0 0
Dr 1.00076 0 0
At STD N 0000FFFF
Ne 0 ""
Po -15.00124 0
$EndPAD
$PAD
Sh "2" C 2.30124 2.30124 0 0 0
Dr 1.19888 0 0
At STD N 0000FFFF
Ne 0 ""
Po 15.47876 0
$EndPAD
$EndMODULE Resistor_Horizontal_RM30mm_22Apr2011
$MODULE Resistor_TO-220_Horizontal
Po 0 0 0 15 51B0744C 00000000 ~~
Li Resistor_TO-220_Horizontal
Cd Resistor, TO-220, Horizontal,
Kw Resistor, TO-220, Horizontal,
Sc 0
AR 
Op 0 0 0
T0 0.254 -9.144 1.524 1.524 0 0.3048 N V 21 N "R"
T1 -1.016 8.128 1.524 1.524 0 0.3048 N I 21 N "Resistor_TO-220_Horizontal"
DC 0 -16.764 1.778 -14.986 0.381 21
DS -2.54 -3.683 -2.54 -1.905 0.381 21
DS 2.54 -3.683 2.54 -1.905 0.381 21
DS 5.334 -12.192 5.334 -20.193 0.381 21
DS 5.334 -20.193 -5.334 -20.193 0.381 21
DS -5.334 -20.193 -5.334 -12.192 0.381 21
DS 5.334 -3.683 5.334 -12.192 0.381 21
DS -5.334 -12.192 -5.334 -3.683 0.381 21
DS 0 -3.683 -5.334 -3.683 0.381 21
DS 0 -3.683 5.334 -3.683 0.381 21
$PAD
Sh "1" O 2.49936 1.50114 0 0 900
Dr 1.00076 0 0
At STD N 00E0FFFF
Ne 0 ""
Po -2.54 0
$EndPAD
$PAD
Sh "2" O 2.49936 1.50114 0 0 900
Dr 1.00076 0 0
At STD N 00E0FFFF
Ne 0 ""
Po 2.54 0
$EndPAD
$PAD
Sh "" C 3.79984 3.79984 0 0 900
Dr 3.79984 0 0
At HOLE N 00E0FFFF
Ne 0 ""
Po 0 -16.764
$EndPAD
$EndMODULE Resistor_TO-220_Horizontal
$MODULE Resistor_TO-220_Horizontal_LargePads
Po 0 0 0 15 51B07463 00000000 ~~
Li Resistor_TO-220_Horizontal_LargePads
Cd Resistor, TO-220, Horizontal, Large Pads,
Kw Resistor, TO-220, Horizontal, Large Pads,
Sc 0
AR 
Op 0 0 0
T0 0.254 -9.144 1.524 1.524 0 0.3048 N V 21 N "R"
T1 -1.016 8.128 1.524 1.524 0 0.3048 N I 21 N "Resistor_TO-220__Horizontal_LargePads"
DS -2.54 -3.683 -2.54 -2.286 0.381 21
DS 2.54 -3.683 2.54 -2.286 0.381 21
DC 0 -16.764 1.778 -14.986 0.381 21
DS 5.334 -12.192 5.334 -20.193 0.381 21
DS 5.334 -20.193 -5.334 -20.193 0.381 21
DS -5.334 -20.193 -5.334 -12.192 0.381 21
DS 5.334 -3.683 5.334 -12.192 0.381 21
DS -5.334 -12.192 -5.334 -3.683 0.381 21
DS 0 -3.683 -5.334 -3.683 0.381 21
DS 0 -3.683 5.334 -3.683 0.381 21
$PAD
Sh "1" O 3.50012 1.69926 0 0 900
Dr 1.00076 0 0
At STD N 00E0FFFF
Ne 0 ""
Po -2.54 0
$EndPAD
$PAD
Sh "2" O 3.50012 1.69926 0 0 900
Dr 1.00076 0 0
At STD N 00E0FFFF
Ne 0 ""
Po 2.54 0
$EndPAD
$PAD
Sh "" C 3.79984 3.79984 0 0 900
Dr 3.79984 0 0
At HOLE N 00E0FFFF
Ne 0 ""
Po 0 -16.764
$EndPAD
$EndMODULE Resistor_TO-220_Horizontal_LargePads
$MODULE Resistor_TO-220_Horizontal_MountedFromLS
Po 0 0 0 15 51B07476 00000000 ~~
Li Resistor_TO-220_Horizontal_MountedFromLS
Cd Resistor, TO-220, Horizontal, Mounted from LS,
Kw Resistor, TO-220, Horizontal, Mounted from LS,
Sc 0
AR 
Op 0 0 0
T0 0.254 -9.144 1.524 1.524 0 0.3048 N V 21 N "R"
T1 0 4.0005 1.524 1.524 0 0.3048 N I 21 N "Resistor_TO-220_Horizontal_ MountedFromLS"
T2 0 -12.7 0.52324 0.52324 0 0.13208 N V 21 N "Mounted from LS!"
DS -0.7874 -19.1516 -0.4572 -19.2278 0.381 21
DS -1.4986 -18.8214 -1.1684 -18.9992 0.381 21
DS -2.0574 -18.2372 -1.8034 -18.5166 0.381 21
DS -2.413 -17.526 -2.286 -17.8308 0.381 21
DS -2.5146 -16.6878 -2.4892 -17.0688 0.381 21
DS -2.3622 -15.9004 -2.4638 -16.2306 0.381 21
DS -1.9304 -15.1638 -2.1336 -15.4686 0.381 21
DS -1.3208 -14.6304 -1.6002 -14.8336 0.381 21
DS -0.4064 -14.3002 -0.889 -14.4272 0.381 21
DS 0.4064 -14.2748 0 -14.2494 0.381 21
DS 1.2446 -14.5796 0.8382 -14.4018 0.381 21
DS 1.8796 -15.113 1.5748 -14.8082 0.381 21
DS 2.3368 -15.8242 2.1336 -15.4432 0.381 21
DS 2.5146 -16.637 2.4384 -16.2306 0.381 21
DS 2.4384 -17.399 2.4638 -17.0688 0.381 21
DS 2.0828 -18.1864 2.2606 -17.8562 0.381 21
DS 1.4986 -18.8214 1.778 -18.542 0.381 21
DS 0.762 -19.1516 1.1176 -18.9992 0.381 21
DS 0.0254 -19.2786 0.3556 -19.2532 0.381 21
DS -5.334 -4.191 -5.334 -3.683 0.381 21
DS -5.334 -5.207 -5.334 -4.699 0.381 21
DS -5.334 -6.35 -5.334 -5.715 0.381 21
DS -5.334 -7.62 -5.334 -6.858 0.381 21
DS -5.334 -9.017 -5.334 -8.255 0.381 21
DS -5.334 -10.287 -5.334 -9.525 0.381 21
DS -5.334 -11.557 -5.334 -10.922 0.381 21
DS -5.334 -13.208 -5.334 -12.192 0.381 21
DS -5.334 -14.605 -5.334 -13.843 0.381 21
DS -5.334 -16.002 -5.334 -15.24 0.381 21
DS -5.334 -17.399 -5.334 -16.51 0.381 21
DS -5.334 -18.796 -5.334 -18.034 0.381 21
DS -5.334 -20.193 -5.334 -19.431 0.381 21
DS 5.334 -4.191 5.334 -3.683 0.381 21
DS 5.334 -5.207 5.334 -4.699 0.381 21
DS 5.334 -6.35 5.334 -5.715 0.381 21
DS 5.334 -7.62 5.334 -6.858 0.381 21
DS 5.334 -9.017 5.334 -8.255 0.381 21
DS 5.334 -10.287 5.334 -9.525 0.381 21
DS 5.334 -11.557 5.334 -10.922 0.381 21
DS 5.334 -13.208 5.334 -12.192 0.381 21
DS 5.334 -14.605 5.334 -13.843 0.381 21
DS 5.334 -16.002 5.334 -15.24 0.381 21
DS 5.334 -17.399 5.334 -16.51 0.381 21
DS 5.334 -18.796 5.334 -18.034 0.381 21
DS 5.334 -20.193 5.334 -19.431 0.381 21
DS 5.08 -20.193 5.334 -20.193 0.381 21
DS 4.318 -20.193 4.699 -20.193 0.381 21
DS 3.302 -20.193 3.81 -20.193 0.381 21
DS 2.159 -20.193 2.794 -20.193 0.381 21
DS 1.143 -20.193 1.778 -20.193 0.381 21
DS 0.127 -20.193 0.635 -20.193 0.381 21
DS -1.016 -20.193 -0.508 -20.193 0.381 21
DS -1.905 -20.193 -1.524 -20.193 0.381 21
DS -3.175 -20.193 -2.54 -20.193 0.381 21
DS -4.318 -20.193 -3.81 -20.193 0.381 21
DS -5.334 -20.193 -4.826 -20.193 0.381 21
DS 5.08 -3.683 5.334 -3.683 0.381 21
DS 4.318 -3.683 4.699 -3.683 0.381 21
DS 3.302 -3.683 3.81 -3.683 0.381 21
DS 2.159 -3.683 2.794 -3.683 0.381 21
DS 1.143 -3.683 1.778 -3.683 0.381 21
DS 0 -3.683 0.635 -3.683 0.381 21
DS -1.016 -3.683 -0.508 -3.683 0.381 21
DS -2.032 -3.683 -1.524 -3.683 0.381 21
DS -3.175 -3.683 -2.54 -3.683 0.381 21
DS -4.318 -3.683 -3.81 -3.683 0.381 21
DS -5.334 -3.683 -4.826 -3.683 0.381 21
DS -2.54 -3.683 -2.54 -1.905 0.381 21
DS 2.54 -3.683 2.54 -1.905 0.381 21
$PAD
Sh "2" O 2.49936 1.50114 0 0 900
Dr 1.00076 0 0
At STD N 00E0FFFF
Ne 0 ""
Po -2.54 0
$EndPAD
$PAD
Sh "1" O 2.49936 1.50114 0 0 900
Dr 1.00076 0 0
At STD N 00E0FFFF
Ne 0 ""
Po 2.54 0
$EndPAD
$PAD
Sh "" C 3.79984 3.79984 0 0 900
Dr 3.79984 0 0
At HOLE N 00E0FFFF
Ne 0 ""
Po 0 -16.764
$EndPAD
$EndMODULE Resistor_TO-220_Horizontal_MountedFromLS
$MODULE Resistor_TO-220_Horizontal_MountedFromLS_LargePads
Po 0 0 0 15 51B07489 00000000 ~~
Li Resistor_TO-220_Horizontal_MountedFromLS_LargePads
Cd Resistor, TO-220, Horizontal, Mounted from LS,
Kw Resistor, TO-220, Horizontal, Mounted from LS,
Sc 0
AR 
Op 0 0 0
T0 0 -7.62 1.524 1.524 0 0.3048 N V 21 N "R"
T1 0 4.50088 1.524 1.524 0 0.3048 N I 21 N "Resistor_TO-220_Horizontal_ MountedFromLS_LargePads"
DS -2.54 -3.6576 -2.54 -2.3622 0.381 21
DS 2.54 -3.6576 2.54 -2.3114 0.381 21
T2 0 -12.7 0.52324 0.52324 0 0.13208 N V 21 N "Mounted from LS!"
DS -0.7874 -19.1516 -0.4572 -19.2278 0.381 21
DS -1.4986 -18.8214 -1.1684 -18.9992 0.381 21
DS -2.0574 -18.2372 -1.8034 -18.5166 0.381 21
DS -2.413 -17.526 -2.286 -17.8308 0.381 21
DS -2.5146 -16.6878 -2.4892 -17.0688 0.381 21
DS -2.3622 -15.9004 -2.4638 -16.2306 0.381 21
DS -1.9304 -15.1638 -2.1336 -15.4686 0.381 21
DS -1.3208 -14.6304 -1.6002 -14.8336 0.381 21
DS -0.4064 -14.3002 -0.889 -14.4272 0.381 21
DS 0.4064 -14.2748 0 -14.2494 0.381 21
DS 1.2446 -14.5796 0.8382 -14.4018 0.381 21
DS 1.8796 -15.113 1.5748 -14.8082 0.381 21
DS 2.3368 -15.8242 2.1336 -15.4432 0.381 21
DS 2.5146 -16.637 2.4384 -16.2306 0.381 21
DS 2.4384 -17.399 2.4638 -17.0688 0.381 21
DS 2.0828 -18.1864 2.2606 -17.8562 0.381 21
DS 1.4986 -18.8214 1.778 -18.542 0.381 21
DS 0.762 -19.1516 1.1176 -18.9992 0.381 21
DS 0.0254 -19.2786 0.3556 -19.2532 0.381 21
DS -5.334 -4.191 -5.334 -3.683 0.381 21
DS -5.334 -5.207 -5.334 -4.699 0.381 21
DS -5.334 -6.35 -5.334 -5.715 0.381 21
DS -5.334 -7.62 -5.334 -6.858 0.381 21
DS -5.334 -9.017 -5.334 -8.255 0.381 21
DS -5.334 -10.287 -5.334 -9.525 0.381 21
DS -5.334 -11.557 -5.334 -10.922 0.381 21
DS -5.334 -13.208 -5.334 -12.192 0.381 21
DS -5.334 -14.605 -5.334 -13.843 0.381 21
DS -5.334 -16.002 -5.334 -15.24 0.381 21
DS -5.334 -17.399 -5.334 -16.51 0.381 21
DS -5.334 -18.796 -5.334 -18.034 0.381 21
DS -5.334 -20.193 -5.334 -19.431 0.381 21
DS 5.334 -4.191 5.334 -3.683 0.381 21
DS 5.334 -5.207 5.334 -4.699 0.381 21
DS 5.334 -6.35 5.334 -5.715 0.381 21
DS 5.334 -7.62 5.334 -6.858 0.381 21
DS 5.334 -9.017 5.334 -8.255 0.381 21
DS 5.334 -10.287 5.334 -9.525 0.381 21
DS 5.334 -11.557 5.334 -10.922 0.381 21
DS 5.334 -13.208 5.334 -12.192 0.381 21
DS 5.334 -14.605 5.334 -13.843 0.381 21
DS 5.334 -16.002 5.334 -15.24 0.381 21
DS 5.334 -17.399 5.334 -16.51 0.381 21
DS 5.334 -18.796 5.334 -18.034 0.381 21
DS 5.334 -20.193 5.334 -19.431 0.381 21
DS 5.08 -20.193 5.334 -20.193 0.381 21
DS 4.318 -20.193 4.699 -20.193 0.381 21
DS 3.302 -20.193 3.81 -20.193 0.381 21
DS 2.159 -20.193 2.794 -20.193 0.381 21
DS 1.143 -20.193 1.778 -20.193 0.381 21
DS 0.127 -20.193 0.635 -20.193 0.381 21
DS -1.016 -20.193 -0.508 -20.193 0.381 21
DS -1.905 -20.193 -1.524 -20.193 0.381 21
DS -3.175 -20.193 -2.54 -20.193 0.381 21
DS -4.318 -20.193 -3.81 -20.193 0.381 21
DS -5.334 -20.193 -4.826 -20.193 0.381 21
DS 5.08 -3.683 5.334 -3.683 0.381 21
DS 4.318 -3.683 4.699 -3.683 0.381 21
DS 3.302 -3.683 3.81 -3.683 0.381 21
DS 2.159 -3.683 2.794 -3.683 0.381 21
DS 1.143 -3.683 1.778 -3.683 0.381 21
DS 0 -3.683 0.635 -3.683 0.381 21
DS -1.016 -3.683 -0.508 -3.683 0.381 21
DS -2.032 -3.683 -1.524 -3.683 0.381 21
DS -3.175 -3.683 -2.54 -3.683 0.381 21
DS -4.318 -3.683 -3.81 -3.683 0.381 21
DS -5.334 -3.683 -4.826 -3.683 0.381 21
$PAD
Sh "3" O 3.50012 1.69926 0 0 900
Dr 1.00076 0 0
At STD N 00E0FFFF
Ne 0 ""
Po -2.54 0
$EndPAD
$PAD
Sh "1" O 3.50012 1.69926 0 0 900
Dr 1.00076 0 0
At STD N 00E0FFFF
Ne 0 ""
Po 2.54 0
$EndPAD
$PAD
Sh "" C 3.79984 3.79984 0 0 900
Dr 3.79984 0 0
At HOLE N 00E0FFFF
Ne 0 ""
Po 0 -16.764
$EndPAD
$EndMODULE Resistor_TO-220_Horizontal_MountedFromLS_LargePads
$MODULE Resistor_TO-220_Vertical
Po 155.99918 119.99976 0 15 4BBB3611 00000000 ~~
Li Resistor_TO-220_Vertical
Cd Resistor, TO-220, Vertical,
Kw Resistor, TO-220, Vertical,
Sc 0
AR 
Op 0 0 0
T0 0 -5.08 1.524 1.524 0 0.3048 N V 21 N "R"
T1 0 3.81 1.524 1.524 0 0.3048 N I 21 N "Resistor_TO-220_Vertical"
DS -1.524 -3.048 -1.524 -1.905 0.381 21
DS 1.524 -3.048 1.524 -1.905 0.381 21
DS 5.334 -1.905 5.334 1.778 0.381 21
DS 5.334 1.778 -5.334 1.778 0.381 21
DS -5.334 1.778 -5.334 -1.905 0.381 21
DS 5.334 -3.048 5.334 -1.905 0.381 21
DS 5.334 -1.905 -5.334 -1.905 0.381 21
DS -5.334 -1.905 -5.334 -3.048 0.381 21
DS 0 -3.048 -5.334 -3.048 0.381 21
DS 0 -3.048 5.334 -3.048 0.381 21
$PAD
Sh "1" O 2.49936 1.50114 0 0 900
Dr 1.00076 0 0
At STD N 00E0FFFF
Ne 0 ""
Po -2.54 0
$EndPAD
$PAD
Sh "2" O 2.49936 1.50114 0 0 900
Dr 1.00076 0 0
At STD N 00E0FFFF
Ne 0 ""
Po 2.54 0
$EndPAD
$EndMODULE Resistor_TO-220_Vertical
$MODULE Resistor_Vertical_RM5mm_22Apr2011
Po 98.00082 79.99984 0 15 4DB18956 00000000 ~~
Li Resistor_Vertical_RM5mm_22Apr2011
Cd Resistor, Vertical, RM 5mm, 1/3W,
Kw Resistor, Vertical, RM 5mm, 1/3W,
Sc 0
AR 
Op 0 0 0
T0 2.70002 -3.29946 1.524 1.524 0 0.3048 N V 21 N "R"
T1 0 4.50088 1.50114 1.50114 0 0.20066 N I 21 N "Resistor_Vertical_RM5mm_22Apr2011"
DS -0.09906 0 0.9017 0 0.381 21
DC -2.49936 0 0 0 0.381 21
$PAD
Sh "1" C 1.99898 1.99898 0 0 0
Dr 1.00076 0 0
At STD N 0000FFFF
Ne 0 ""
Po -2.49936 0
$EndPAD
$PAD
Sh "2" C 1.99898 1.99898 0 0 0
Dr 1.00076 0 0
At STD N 0000FFFF
Ne 0 ""
Po 2.5019 0
$EndPAD
$EndMODULE Resistor_Vertical_RM5mm_22Apr2011
$MODULE Resistor_Vertical_RM7.5mm_22Apr2011
Po 94.00032 62.99962 0 15 4DB189AC 00000000 ~~
Li Resistor_Vertical_RM7.5mm_22Apr2011
Cd Resistor, Vertical, RM 7.5mm,
Kw Resistor, Vertical, RM 7.5mm,
Sc 0
AR 
Op 0 0 0
T0 0 -6.35 1.524 1.524 0 0.3048 N V 21 N "R"
T1 0 7.50062 1.50114 1.50114 0 0.20066 N I 21 N "Resistor_Vertical_RM7.5mm_22Apr2011"
DS 1.25222 0 2.15138 0 0.381 21
DC -3.74904 0 1.25222 0 0.381 21
$PAD
Sh "1" C 1.99898 1.99898 0 0 0
Dr 1.00076 0 0
At STD N 0000FFFF
Ne 0 ""
Po -3.74904 0
$EndPAD
$PAD
Sh "2" C 1.99898 1.99898 0 0 0
Dr 1.00076 0 0
At STD N 0000FFFF
Ne 0 ""
Po 3.75158 0
$EndPAD
$EndMODULE Resistor_Vertical_RM7.5mm_22Apr2011
$EndLIBRARY
