PCBNEW-LibModule-V1  Do 06 Jun 2013 10:32:07 CEST
# encoding utf-8
Units mm
$INDEX
TO-247_Horizontal_FET-GDS
TO-247_Horizontal_FET-GDS_MountFromLS
TO-247_Horizontal_FET-GDS_MountFromLS_largePads
TO-247_Horizontal_FET-GDS_largePads
TO-247_Horizontal_FET-GDS_reverse
TO-247_Horizontal_FET-GDS_reverse_largePads
TO-247_Horizontal_IGBT-GCE
TO-247_Horizontal_IGBT-GCE_MountFromLS
TO-247_Horizontal_IGBT-GCE_MountFromLS_largePads
TO-247_Horizontal_IGBT-GCE_largePads
TO-247_Horizontal_IGBT-GCE_reverse
TO-247_Horizontal_IGBT-GCE_reverse_largePads
TO-247_Horizontal_Neutral123
TO-247_Horizontal_Neutral123_MountFromLS
TO-247_Horizontal_Neutral123_MountFromLS_largePads
TO-247_Horizontal_Neutral123_Reverse
TO-247_Horizontal_Neutral123_Reverse_largePads
TO-247_Horizontal_Neutral123_largePads
TO-247_PadsOnly_Neutral123
TO-247_Vertical_FET-GDS
TO-247_Vertical_FET-GDS_MountedFromLS
TO-247_Vertical_FET-GDS_MountedFromLS_largePads
TO-247_Vertical_FET-GDS_largePads
TO-247_Vertical_IGBT-GCE
TO-247_Vertical_IGBT-GCE_MountedFromLS
TO-247_Vertical_IGBT-GCE_MountedFromLS_largePads
TO-247_Vertical_IGBT-GCE_largePads
TO-247_Vertical_Neutral123
TO-247_Vertical_Neutral123_MountedFromLS
TO-247_Vertical_Neutral123_MountedFromLS_largePads
TO-247_Vertical_Neutral123_largePads
$EndINDEX
$MODULE TO-247_Horizontal_FET-GDS
Po 0 0 0 15 51B04709 00000000 ~~
Li TO-247_Horizontal_FET-GDS
Cd Transistor FET TO-247 TO-218 TOP-3, 1=Gate 2=Drain 3=Source, lying horizontal, Front upward
Kw Transistor FET GDS TO-247 TO-218 TOP-3
Sc 0
AR 
Op 0 0 0
T0 -1.016 -27.432 1.524 1.524 0 0.3048 N V 21 N "T"
T1 -1.27 5.08 1.524 1.524 0 0.3048 N I 21 N "TO-247-Horizontal-GDS"
DS -5.588 -2.794 -5.588 -5.08 0.381 21
DS 0 -2.794 0 -5.08 0.381 21
DS 5.588 -2.794 5.588 -5.08 0.381 21
T2 0.5588 -11.5316 1.524 1.524 0 0.3048 N V 21 N "TO-218"
T2 0.4064 -14.7066 1.524 1.524 0 0.3048 N V 21 N "TO-247"
DC 0 -19.558 1.778 -19.558 0.381 21
T2 7.6581 -3.1623 1.524 1.524 0 0.3048 N V 21 N "S"
T2 2.0701 -3.4163 1.524 1.524 0 0.3048 N V 21 N "D"
T2 -3.5179 -3.2893 1.524 1.524 0 0.3048 N V 21 N "G"
DS 8.128 -25.654 8.128 -5.08 0.381 21
DS -8.128 -25.654 8.128 -25.654 0.381 21
DS -8.128 -5.08 -8.128 -25.654 0.381 21
DS 8.128 -5.08 -8.128 -5.08 0.381 21
$PAD
Sh "D" O 4.50088 2.49936 0 0 900
Dr 1.50114 0 0
At STD N 00E0FFFF
Ne 0 ""
Po 0 0
$EndPAD
$PAD
Sh "G" O 4.50088 2.49936 0 0 900
Dr 1.50114 0 0
At STD N 00E0FFFF
Ne 0 ""
Po -5.588 0
$EndPAD
$PAD
Sh "S" O 4.50088 2.49936 0 0 900
Dr 1.50114 0 0
At STD N 00E0FFFF
Ne 0 ""
Po 5.588 0
$EndPAD
$PAD
Sh "" C 4.0005 4.0005 0 0 0
Dr 4.0005 0 0
At HOLE N 00E0FFFF
Ne 0 ""
Po 0.0635 -19.5707
$EndPAD
$EndMODULE TO-247_Horizontal_FET-GDS
$MODULE TO-247_Horizontal_FET-GDS_MountFromLS
Po 0 0 0 15 51B04740 00000000 ~~
Li TO-247_Horizontal_FET-GDS_MountFromLS
Cd Transistor FET TO-247 TO-218 TOP-3 lying horizontal, mounted from LS, 1=Gate 2=Drain 3=Source
Kw Transistor FET TO-247 TO-218 TOP-3 , LS mounted, GDS
Sc 0
AR 
Op 0 0 0
T0 -1.016 -27.432 1.524 1.524 0 0.3048 N V 21 N "T"
T1 1.27 5.334 1.524 1.524 0 0.3048 N I 21 N "TO-247-Horizontal-GDS-MountedFromLS"
T2 0.508 -22.86 0.50038 0.50038 0 0.03048 N V 21 N "Mount from LS!"
DS -8.128 -5.842 -8.128 -5.08 0.381 21
DS -8.128 -7.874 -8.128 -6.858 0.381 21
DS -8.128 -6.858 -8.128 -7.112 0.381 21
DS -8.128 -10.414 -8.128 -9.144 0.381 21
DS -8.128 -9.144 -8.128 -8.89 0.381 21
DS -8.128 -12.954 -8.128 -11.684 0.381 21
DS -8.128 -15.494 -8.128 -14.224 0.381 21
DS -8.128 -18.034 -8.128 -16.764 0.381 21
DS -8.128 -20.574 -8.128 -19.304 0.381 21
DS -8.128 -23.114 -8.128 -21.844 0.381 21
DS -8.128 -25.654 -8.128 -24.384 0.381 21
DS 8.128 -6.35 8.128 -5.334 0.381 21
DS 8.128 -8.89 8.128 -7.62 0.381 21
DS 8.128 -7.62 8.128 -7.366 0.381 21
DS 8.128 -11.43 8.128 -10.16 0.381 21
DS 8.128 -14.478 8.128 -12.954 0.381 21
DS 8.128 -17.526 8.128 -16.002 0.381 21
DS 8.128 -20.828 8.128 -19.05 0.381 21
DS 8.128 -23.368 8.128 -22.098 0.381 21
DS 8.128 -25.654 8.128 -24.638 0.381 21
DS 8.128 -24.638 8.128 -24.384 0.381 21
DS 7.366 -25.654 8.128 -25.654 0.381 21
DS 5.842 -25.654 6.604 -25.654 0.381 21
DS 3.302 -25.654 4.572 -25.654 0.381 21
DS 0.762 -25.654 2.286 -25.654 0.381 21
DS -1.524 -25.654 -0.254 -25.654 0.381 21
DS -3.81 -25.654 -2.54 -25.654 0.381 21
DS -6.096 -25.654 -4.826 -25.654 0.381 21
DS -8.128 -25.654 -7.112 -25.654 0.381 21
DS 6.096 -5.08 4.572 -5.08 0.381 21
DS 4.572 -5.08 4.826 -5.08 0.381 21
DS 8.128 -5.08 7.366 -5.08 0.381 21
DS 7.366 -5.08 7.112 -5.08 0.381 21
DS 1.778 -5.08 3.048 -5.08 0.381 21
DS -0.762 -5.08 0.508 -5.08 0.381 21
DS -3.302 -5.08 -1.778 -5.08 0.381 21
DS -6.096 -5.08 -4.826 -5.08 0.381 21
DS -4.826 -5.08 -4.572 -5.08 0.381 21
DS -4.572 -5.08 -4.318 -5.08 0.381 21
DS -8.128 -5.08 -7.366 -5.08 0.381 21
DS -7.366 -5.08 -7.112 -5.08 0.381 21
DS -5.588 -2.794 -5.588 -5.08 0.381 21
DS 0 -2.794 0 -5.08 0.381 21
DS 5.588 -2.794 5.588 -5.08 0.381 21
T2 0.4064 -14.7066 1.524 1.524 0 0.3048 N V 21 N "TO-247"
DC 0 -19.558 1.778 -19.558 0.381 21
T2 -4.064 -3.302 1.524 1.524 0 0.3048 N V 21 N "S"
T2 1.524 -3.302 1.524 1.524 0 0.3048 N V 21 N "D"
T2 6.858 -3.302 1.524 1.524 0 0.3048 N V 21 N "G"
$PAD
Sh "D" O 4.50088 2.49936 0 0 900
Dr 1.50114 0 0
At STD N 00E0FFFF
Ne 0 ""
Po 0 0
$EndPAD
$PAD
Sh "S" O 4.50088 2.49936 0 0 900
Dr 1.50114 0 0
At STD N 00E0FFFF
Ne 0 ""
Po -5.588 0
$EndPAD
$PAD
Sh "G" O 4.50088 2.49936 0 0 900
Dr 1.50114 0 0
At STD N 00E0FFFF
Ne 0 ""
Po 5.588 0
$EndPAD
$PAD
Sh "" C 4.0005 4.0005 0 0 0
Dr 4.0005 0 0
At HOLE N 00E0FFFF
Ne 0 ""
Po 0 -19.6215
$EndPAD
$EndMODULE TO-247_Horizontal_FET-GDS_MountFromLS
$MODULE TO-247_Horizontal_FET-GDS_MountFromLS_largePads
Po 0 0 0 15 51B04757 00000000 ~~
Li TO-247_Horizontal_FET-GDS_MountFromLS_largePads
Cd Transistor FET TO-247 TO-218 TOP-3 lying horizontal, mounted from LS, 1=Gate 2=Drain 3=Source
Kw Transistor FET TO-247 TO-218 TOP-3 , LS mounted, GDS
Sc 0
AR 
Op 0 0 0
T0 -1.016 -27.432 1.524 1.524 0 0.3048 N V 21 N "T"
T1 1.27 5.334 1.524 1.524 0 0.3048 N I 21 N "TO-247-Horizontal-GDS-MountedFromLS-LargePads"
DS -5.588 -3.302 -5.588 -5.08 0.381 21
DS 5.588 -3.302 5.588 -5.08 0.381 21
DS 0 -3.302 0 -4.826 0.381 21
T2 0.508 -22.86 0.50038 0.50038 0 0.03048 N V 21 N "Mount from LS!"
DS -8.128 -5.842 -8.128 -5.08 0.381 21
DS -8.128 -7.874 -8.128 -6.858 0.381 21
DS -8.128 -6.858 -8.128 -7.112 0.381 21
DS -8.128 -10.414 -8.128 -9.144 0.381 21
DS -8.128 -9.144 -8.128 -8.89 0.381 21
DS -8.128 -12.954 -8.128 -11.684 0.381 21
DS -8.128 -15.494 -8.128 -14.224 0.381 21
DS -8.128 -18.034 -8.128 -16.764 0.381 21
DS -8.128 -20.574 -8.128 -19.304 0.381 21
DS -8.128 -23.114 -8.128 -21.844 0.381 21
DS -8.128 -25.654 -8.128 -24.384 0.381 21
DS 8.128 -6.35 8.128 -5.334 0.381 21
DS 8.128 -8.89 8.128 -7.62 0.381 21
DS 8.128 -7.62 8.128 -7.366 0.381 21
DS 8.128 -11.43 8.128 -10.16 0.381 21
DS 8.128 -14.478 8.128 -12.954 0.381 21
DS 8.128 -17.526 8.128 -16.002 0.381 21
DS 8.128 -20.828 8.128 -19.05 0.381 21
DS 8.128 -23.368 8.128 -22.098 0.381 21
DS 8.128 -25.654 8.128 -24.638 0.381 21
DS 8.128 -24.638 8.128 -24.384 0.381 21
DS 7.366 -25.654 8.128 -25.654 0.381 21
DS 5.842 -25.654 6.604 -25.654 0.381 21
DS 3.302 -25.654 4.572 -25.654 0.381 21
DS 0.762 -25.654 2.286 -25.654 0.381 21
DS -1.524 -25.654 -0.254 -25.654 0.381 21
DS -3.81 -25.654 -2.54 -25.654 0.381 21
DS -6.096 -25.654 -4.826 -25.654 0.381 21
DS -8.128 -25.654 -7.112 -25.654 0.381 21
DS 6.096 -5.08 4.572 -5.08 0.381 21
DS 4.572 -5.08 4.826 -5.08 0.381 21
DS 8.128 -5.08 7.366 -5.08 0.381 21
DS 7.366 -5.08 7.112 -5.08 0.381 21
DS 1.778 -5.08 3.048 -5.08 0.381 21
DS -0.762 -5.08 0.508 -5.08 0.381 21
DS -3.302 -5.08 -1.778 -5.08 0.381 21
DS -6.096 -5.08 -4.826 -5.08 0.381 21
DS -4.826 -5.08 -4.572 -5.08 0.381 21
DS -4.572 -5.08 -4.318 -5.08 0.381 21
DS -8.128 -5.08 -7.366 -5.08 0.381 21
DS -7.366 -5.08 -7.112 -5.08 0.381 21
T2 0.5588 -11.5316 1.524 1.524 0 0.3048 N V 21 N "TO-218"
T2 0.4064 -14.7066 1.524 1.524 0 0.3048 N V 21 N "TO-247"
DC 0 -19.558 1.778 -19.558 0.381 21
T2 -4.064 -3.302 1.524 1.524 0 0.3048 N V 21 N "S"
T2 1.524 -3.302 1.524 1.524 0 0.3048 N V 21 N "D"
T2 6.858 -3.302 1.524 1.524 0 0.3048 N V 21 N "G"
$PAD
Sh "D" O 5.50164 3.50012 0 0 900
Dr 1.50114 0 0
At STD N 00E0FFFF
Ne 0 ""
Po 0 0
$EndPAD
$PAD
Sh "S" O 5.50164 3.50012 0 0 900
Dr 1.50114 0 0
At STD N 00E0FFFF
Ne 0 ""
Po -5.588 0
$EndPAD
$PAD
Sh "G" O 5.50164 3.50012 0 0 900
Dr 1.50114 0 0
At STD N 00E0FFFF
Ne 0 ""
Po 5.588 0
$EndPAD
$PAD
Sh "" C 4.0005 4.0005 0 0 0
Dr 4.0005 0 0
At HOLE N 00E0FFFF
Ne 0 ""
Po 0 -19.558
$EndPAD
$EndMODULE TO-247_Horizontal_FET-GDS_MountFromLS_largePads
$MODULE TO-247_Horizontal_FET-GDS_largePads
Po 0 0 0 15 51B0472A 00000000 ~~
Li TO-247_Horizontal_FET-GDS_largePads
Cd Transistor FET TO-247 TO-218 TOP-3, 1=Gate 2=Drain 3=Source, lying horizontal, Front upward, large Pads
Kw Transistor FET GDS TO-247 TO-218 TOP-3 large Pads
Sc 0
AR 
Op 0 0 0
T0 -1.016 -27.432 1.524 1.524 0 0.3048 N V 21 N "T"
T1 1.27 5.334 1.524 1.524 0 0.3048 N I 21 N "TO-247-Horizontal-GDS-Large_Pads"
DS -5.588 -3.302 -5.588 -5.08 0.381 21
DS 0 -3.302 0 -5.08 0.381 21
DS 5.588 -3.302 5.588 -5.08 0.381 21
T2 0.4064 -14.7066 1.524 1.524 0 0.3048 N V 21 N "TO-247"
DC 0 -19.558 1.778 -19.558 0.381 21
T2 7.112 -3.81 1.524 1.524 0 0.3048 N V 21 N "S"
T2 1.524 -3.81 1.524 1.524 0 0.3048 N V 21 N "D"
T2 -3.81 -3.81 1.524 1.524 0 0.3048 N V 21 N "G"
DS 8.128 -25.654 8.128 -5.08 0.381 21
DS -8.128 -25.654 8.128 -25.654 0.381 21
DS -8.128 -5.08 -8.128 -25.654 0.381 21
DS 8.128 -5.08 -8.128 -5.08 0.381 21
$PAD
Sh "D" O 5.50164 3.50012 0 0 900
Dr 1.50114 0 0
At STD N 00E0FFFF
Ne 0 ""
Po 0 0
$EndPAD
$PAD
Sh "G" O 5.50164 3.50012 0 0 900
Dr 1.50114 0 0
At STD N 00E0FFFF
Ne 0 ""
Po -5.588 0
$EndPAD
$PAD
Sh "S" O 5.50164 3.50012 0 0 900
Dr 1.50114 0 0
At STD N 00E0FFFF
Ne 0 ""
Po 5.588 0
$EndPAD
$PAD
Sh "" C 4.0005 4.0005 0 0 0
Dr 4.0005 0 0
At HOLE N 00E0FFFF
Ne 0 ""
Po 0 -19.558
$EndPAD
$EndMODULE TO-247_Horizontal_FET-GDS_largePads
$MODULE TO-247_Horizontal_FET-GDS_reverse
Po 0 0 0 15 51B04774 00000000 ~~
Li TO-247_Horizontal_FET-GDS_reverse
Cd Transistor FET TO-247 TO-218 TOP-3, 1=Gate 2=Drain 3=Source, lying horizontal, Backside upward
Kw Transistor FET TO-247 TO-218 TOP-3, GDS
Sc 0
AR 
Op 0 0 0
T0 -1.016 -27.432 1.524 1.524 0 0.3048 N V 21 N "T"
T1 1.27 5.334 1.524 1.524 0 0.3048 N I 21 N "TO-247-Horizontal-GDS-Reverse"
DS -7.366 -24.511 7.0485 -24.3205 0.381 21
DS 7.0485 -24.3205 7.0485 -9.906 0.381 21
DS 7.0485 -9.906 -7.239 -9.906 0.381 21
DS -7.239 -9.906 -7.239 -24.3205 0.381 21
DS -8.128 -5.08 8.128 -5.08 0.381 21
DS -8.128 -25.654 -8.128 -5.08 0.381 21
DS 8.128 -25.654 -8.128 -25.654 0.381 21
DS 8.128 -25.654 8.128 -5.08 0.381 21
T2 0.508 -22.86 0.50038 0.50038 0 0.03048 N V 21 N "Mount BACKSIDE upward!"
DS -5.588 -2.794 -5.588 -5.08 0.381 21
DS 0 -2.794 0 -5.08 0.381 21
DS 5.588 -2.794 5.588 -5.08 0.381 21
T2 0.4064 -14.7066 1.524 1.524 0 0.3048 N V 21 N "TO-247"
DC 0 -19.558 1.778 -19.558 0.381 21
T2 -4.318 -3.302 1.524 1.524 0 0.3048 N V 21 N "S"
T2 1.27 -3.302 1.524 1.524 0 0.3048 N V 21 N "D"
T2 7.112 -3.302 1.524 1.524 0 0.3048 N V 21 N "G"
$PAD
Sh "D" O 4.50088 2.49936 0 0 900
Dr 1.50114 0 0
At STD N 00E0FFFF
Ne 0 ""
Po 0 0
$EndPAD
$PAD
Sh "S" O 4.50088 2.49936 0 0 900
Dr 1.50114 0 0
At STD N 00E0FFFF
Ne 0 ""
Po -5.588 0
$EndPAD
$PAD
Sh "G" O 4.50088 2.49936 0 0 900
Dr 1.50114 0 0
At STD N 00E0FFFF
Ne 0 ""
Po 5.588 0
$EndPAD
$PAD
Sh "" C 4.0005 4.0005 0 0 0
Dr 4.0005 0 0
At HOLE N 00E0FFFF
Ne 0 ""
Po 0 -19.558
$EndPAD
$EndMODULE TO-247_Horizontal_FET-GDS_reverse
$MODULE TO-247_Horizontal_FET-GDS_reverse_largePads
Po 0 0 0 15 51B0478A 00000000 ~~
Li TO-247_Horizontal_FET-GDS_reverse_largePads
Cd Transistor FET TO-247 TO-218 TOP-3, 1=Gate 2=Drain 3=Source, lying horizontal, Backside upward, large Pads
Kw Transistor FET TO-247 TO-218 TOP-3, GDS, large Pads
Sc 0
AR 
Op 0 0 0
T0 -1.016 -27.432 1.524 1.524 0 0.3048 N V 21 N "T"
T1 1.27 5.334 1.524 1.524 0 0.3048 N I 21 N "TO-247-Horizontal-GDS-Reverse-LargePads"
DS -6.7945 -24.1935 -7.1755 -24.1935 0.381 21
DS -7.1755 -9.525 -7.1755 -24.13 0.381 21
DS -6.7945 -24.1935 6.7945 -24.1935 0.381 21
DS 6.7945 -24.1935 6.7945 -9.525 0.381 21
DS 6.7945 -9.525 -7.1755 -9.525 0.381 21
DS -5.588 -3.302 -5.588 -5.08 0.381 21
DS 0 -5.08 0 -3.302 0.381 21
DS 5.588 -5.08 5.588 -3.302 0.381 21
DS -8.128 -5.08 8.128 -5.08 0.381 21
DS -8.128 -25.654 -8.128 -5.08 0.381 21
DS 8.128 -25.654 -8.128 -25.654 0.381 21
DS 8.128 -25.654 8.128 -5.08 0.381 21
T2 0.0635 -22.86 0.50038 0.50038 0 0.03048 N V 21 N "Mount BACKSIDE upward!"
T2 0.4064 -14.7066 1.524 1.524 0 0.3048 N V 21 N "TO-247"
DC 0 -19.558 1.778 -19.558 0.381 21
T2 -4.064 -3.81 1.524 1.524 0 0.3048 N V 21 N "S"
T2 1.524 -3.81 1.524 1.524 0 0.3048 N V 21 N "D"
T2 7.112 -3.81 1.524 1.524 0 0.3048 N V 21 N "G"
$PAD
Sh "D" O 5.50164 3.49758 0 0 900
Dr 1.50114 0 0
At STD N 00E0FFFF
Ne 0 ""
Po 0 0
$EndPAD
$PAD
Sh "S" O 5.50164 3.50012 0 0 900
Dr 1.50114 0 0
At STD N 00E0FFFF
Ne 0 ""
Po -5.588 0
$EndPAD
$PAD
Sh "G" O 5.50164 3.50012 0 0 900
Dr 1.50114 0 0
At STD N 00E0FFFF
Ne 0 ""
Po 5.588 0
$EndPAD
$PAD
Sh "" C 4.0005 4.0005 0 0 0
Dr 4.0005 0 0
At HOLE N 00E0FFFF
Ne 0 ""
Po 0 -19.558
$EndPAD
$EndMODULE TO-247_Horizontal_FET-GDS_reverse_largePads
$MODULE TO-247_Horizontal_IGBT-GCE
Po 0 0 0 15 51B047A0 00000000 ~~
Li TO-247_Horizontal_IGBT-GCE
Cd Transistor IGBT TO-247 TO-218 TOP-3 lying horizontal, Front upward, 1=Gate 2=Collector 3=Emitter
Kw Transistor IGBT GCE TO-247 TO-218 TOP-3
Sc 0
AR 
Op 0 0 0
T0 -1.016 -27.432 1.524 1.524 0 0.3048 N V 21 N "T"
T1 1.27 5.334 1.524 1.524 0 0.3048 N I 21 N "TO-247-Horizontal-GCE"
T2 -3.81 -24.13 1.524 1.524 0 0.3048 N V 21 N "IGBT"
DS -5.588 -2.794 -5.588 -5.08 0.381 21
DS 0 -2.794 0 -5.08 0.381 21
DS 5.588 -2.794 5.588 -5.08 0.381 21
T2 0.4064 -14.7066 1.524 1.524 0 0.3048 N V 21 N "TO-247"
DC 0 -19.558 1.778 -19.558 0.381 21
T2 7.112 -3.81 1.524 1.524 0 0.3048 N V 21 N "E"
T2 1.524 -3.81 1.524 1.524 0 0.3048 N V 21 N "C"
T2 -4.064 -3.81 1.524 1.524 0 0.3048 N V 21 N "G"
DS 8.128 -25.654 8.128 -5.08 0.381 21
DS -8.128 -25.654 8.128 -25.654 0.381 21
DS -8.128 -5.08 -8.128 -25.654 0.381 21
DS 8.128 -5.08 -8.128 -5.08 0.381 21
$PAD
Sh "C" O 4.50088 2.49936 0 0 900
Dr 1.50114 0 0
At STD N 00E0FFFF
Ne 0 ""
Po 0 0
$EndPAD
$PAD
Sh "G" O 4.50088 2.49936 0 0 900
Dr 1.50114 0 0
At STD N 00E0FFFF
Ne 0 ""
Po -5.588 0
$EndPAD
$PAD
Sh "E" O 4.50088 2.49936 0 0 900
Dr 1.50114 0 0
At STD N 00E0FFFF
Ne 0 ""
Po 5.588 0
$EndPAD
$PAD
Sh "" C 4.0005 4.0005 0 0 0
Dr 4.0005 0 0
At HOLE N 00E0FFFF
Ne 0 ""
Po 0 -19.558
$EndPAD
$EndMODULE TO-247_Horizontal_IGBT-GCE
$MODULE TO-247_Horizontal_IGBT-GCE_MountFromLS
Po 0 0 0 15 51B047EE 00000000 ~~
Li TO-247_Horizontal_IGBT-GCE_MountFromLS
Cd Transistor IGBT TO-247 TO-218 TOP-3 lying horizontal, mounted from LS, 1=Gate 2=Collector 3=Emitter
Kw Transistor IGBT GCE TO-247 TO-218 TOP-3 , LS mounted
Sc 0
AR 
Op 0 0 0
T0 -1.016 -27.432 1.524 1.524 0 0.3048 N V 21 N "T"
T1 1.27 5.334 1.524 1.524 0 0.3048 N I 21 N "TO-247-Horizontal-GCE-MountedFromLS"
T2 -5.08 -24.13 1.524 1.524 0 0.3048 N V 21 N "IGBT"
T2 0.508 -22.86 0.50038 0.50038 0 0.03048 N V 21 N "Mount from LS!"
DS -8.128 -5.842 -8.128 -5.08 0.381 21
DS -8.128 -7.874 -8.128 -6.858 0.381 21
DS -8.128 -6.858 -8.128 -7.112 0.381 21
DS -8.128 -10.414 -8.128 -9.144 0.381 21
DS -8.128 -9.144 -8.128 -8.89 0.381 21
DS -8.128 -12.954 -8.128 -11.684 0.381 21
DS -8.128 -15.494 -8.128 -14.224 0.381 21
DS -8.128 -18.034 -8.128 -16.764 0.381 21
DS -8.128 -20.574 -8.128 -19.304 0.381 21
DS -8.128 -23.114 -8.128 -21.844 0.381 21
DS -8.128 -25.654 -8.128 -24.384 0.381 21
DS 8.128 -6.35 8.128 -5.334 0.381 21
DS 8.128 -8.89 8.128 -7.62 0.381 21
DS 8.128 -7.62 8.128 -7.366 0.381 21
DS 8.128 -11.43 8.128 -10.16 0.381 21
DS 8.128 -14.478 8.128 -12.954 0.381 21
DS 8.128 -17.526 8.128 -16.002 0.381 21
DS 8.128 -20.828 8.128 -19.05 0.381 21
DS 8.128 -23.368 8.128 -22.098 0.381 21
DS 8.128 -25.654 8.128 -24.638 0.381 21
DS 8.128 -24.638 8.128 -24.384 0.381 21
DS 7.366 -25.654 8.128 -25.654 0.381 21
DS 5.842 -25.654 6.604 -25.654 0.381 21
DS 3.302 -25.654 4.572 -25.654 0.381 21
DS 0.762 -25.654 2.286 -25.654 0.381 21
DS -1.524 -25.654 -0.254 -25.654 0.381 21
DS -3.81 -25.654 -2.54 -25.654 0.381 21
DS -6.096 -25.654 -4.826 -25.654 0.381 21
DS -8.128 -25.654 -7.112 -25.654 0.381 21
DS 6.096 -5.08 4.572 -5.08 0.381 21
DS 4.572 -5.08 4.826 -5.08 0.381 21
DS 8.128 -5.08 7.366 -5.08 0.381 21
DS 7.366 -5.08 7.112 -5.08 0.381 21
DS 1.778 -5.08 3.048 -5.08 0.381 21
DS -0.762 -5.08 0.508 -5.08 0.381 21
DS -3.302 -5.08 -1.778 -5.08 0.381 21
DS -6.096 -5.08 -4.826 -5.08 0.381 21
DS -4.826 -5.08 -4.572 -5.08 0.381 21
DS -4.572 -5.08 -4.318 -5.08 0.381 21
DS -8.128 -5.08 -7.366 -5.08 0.381 21
DS -7.366 -5.08 -7.112 -5.08 0.381 21
DS -5.588 -2.794 -5.588 -5.08 0.381 21
DS 0 -2.794 0 -5.08 0.381 21
DS 5.588 -2.794 5.588 -5.08 0.381 21
T2 0.4064 -14.7066 1.524 1.524 0 0.3048 N V 21 N "TO-247"
DC 0 -19.558 1.778 -19.558 0.381 21
T2 -4.064 -3.81 1.524 1.524 0 0.3048 N V 21 N "E"
T2 1.524 -3.81 1.524 1.524 0 0.3048 N V 21 N "C"
T2 7.112 -3.81 1.524 1.524 0 0.3048 N V 21 N "G"
$PAD
Sh "C" O 4.50088 2.49936 0 0 900
Dr 1.50114 0 0
At STD N 00E0FFFF
Ne 0 ""
Po 0 0
$EndPAD
$PAD
Sh "E" O 4.50088 2.49936 0 0 900
Dr 1.50114 0 0
At STD N 00E0FFFF
Ne 0 ""
Po -5.588 0
$EndPAD
$PAD
Sh "G" O 4.50088 2.49936 0 0 900
Dr 1.50114 0 0
At STD N 00E0FFFF
Ne 0 ""
Po 5.588 0
$EndPAD
$PAD
Sh "" C 4.0005 4.0005 0 0 0
Dr 4.0005 0 0
At HOLE N 00E0FFFF
Ne 0 ""
Po 0 -19.558
$EndPAD
$EndMODULE TO-247_Horizontal_IGBT-GCE_MountFromLS
$MODULE TO-247_Horizontal_IGBT-GCE_MountFromLS_largePads
Po 0 0 0 15 51B04801 00000000 ~~
Li TO-247_Horizontal_IGBT-GCE_MountFromLS_largePads
Cd Transistor IGBT TO-247 TO-218 TOP-3 lying horizontal, mounted from LS, 1=Gate 2=Collector 3=Emitter, large Pads
Kw Transistor IGBT GCE TO-247 TO-218 TOP-3 , LS mounted, large Pads
Sc 0
AR 
Op 0 0 0
T0 -1.016 -27.432 1.524 1.524 0 0.3048 N V 21 N "T"
T1 1.27 5.334 1.524 1.524 0 0.3048 N I 21 N "TO-247-Horizontal-GCE-MountedFromLS-LargePads"
T2 -5.08 -24.13 1.524 1.524 0 0.3048 N V 21 N "IGBT"
DS -5.588 -3.302 -5.588 -5.08 0.381 21
DS 5.588 -3.302 5.588 -5.08 0.381 21
DS 0 -3.302 0 -4.826 0.381 21
T2 0.508 -22.86 0.50038 0.50038 0 0.03048 N V 21 N "Mount from LS!"
DS -8.128 -5.842 -8.128 -5.08 0.381 21
DS -8.128 -7.874 -8.128 -6.858 0.381 21
DS -8.128 -6.858 -8.128 -7.112 0.381 21
DS -8.128 -10.414 -8.128 -9.144 0.381 21
DS -8.128 -9.144 -8.128 -8.89 0.381 21
DS -8.128 -12.954 -8.128 -11.684 0.381 21
DS -8.128 -15.494 -8.128 -14.224 0.381 21
DS -8.128 -18.034 -8.128 -16.764 0.381 21
DS -8.128 -20.574 -8.128 -19.304 0.381 21
DS -8.128 -23.114 -8.128 -21.844 0.381 21
DS -8.128 -25.654 -8.128 -24.384 0.381 21
DS 8.128 -6.35 8.128 -5.334 0.381 21
DS 8.128 -8.89 8.128 -7.62 0.381 21
DS 8.128 -7.62 8.128 -7.366 0.381 21
DS 8.128 -11.43 8.128 -10.16 0.381 21
DS 8.128 -14.478 8.128 -12.954 0.381 21
DS 8.128 -17.526 8.128 -16.002 0.381 21
DS 8.128 -20.828 8.128 -19.05 0.381 21
DS 8.128 -23.368 8.128 -22.098 0.381 21
DS 8.128 -25.654 8.128 -24.638 0.381 21
DS 8.128 -24.638 8.128 -24.384 0.381 21
DS 7.366 -25.654 8.128 -25.654 0.381 21
DS 5.842 -25.654 6.604 -25.654 0.381 21
DS 3.302 -25.654 4.572 -25.654 0.381 21
DS 0.762 -25.654 2.286 -25.654 0.381 21
DS -1.524 -25.654 -0.254 -25.654 0.381 21
DS -3.81 -25.654 -2.54 -25.654 0.381 21
DS -6.096 -25.654 -4.826 -25.654 0.381 21
DS -8.128 -25.654 -7.112 -25.654 0.381 21
DS 6.096 -5.08 4.572 -5.08 0.381 21
DS 4.572 -5.08 4.826 -5.08 0.381 21
DS 8.128 -5.08 7.366 -5.08 0.381 21
DS 7.366 -5.08 7.112 -5.08 0.381 21
DS 1.778 -5.08 3.048 -5.08 0.381 21
DS -0.762 -5.08 0.508 -5.08 0.381 21
DS -3.302 -5.08 -1.778 -5.08 0.381 21
DS -6.096 -5.08 -4.826 -5.08 0.381 21
DS -4.826 -5.08 -4.572 -5.08 0.381 21
DS -4.572 -5.08 -4.318 -5.08 0.381 21
DS -8.128 -5.08 -7.366 -5.08 0.381 21
DS -7.366 -5.08 -7.112 -5.08 0.381 21
T2 0.4064 -14.7066 1.524 1.524 0 0.3048 N V 21 N "TO-247"
DC 0 -19.558 1.778 -19.558 0.381 21
T2 -4.064 -3.81 1.524 1.524 0 0.3048 N V 21 N "E"
T2 1.524 -3.81 1.524 1.524 0 0.3048 N V 21 N "C"
T2 7.112 -3.81 1.524 1.524 0 0.3048 N V 21 N "G"
$PAD
Sh "C" O 5.50164 3.50012 0 0 900
Dr 1.50114 0 0
At STD N 00E0FFFF
Ne 0 ""
Po 0 0
$EndPAD
$PAD
Sh "E" O 5.50164 3.50012 0 0 900
Dr 1.50114 0 0
At STD N 00E0FFFF
Ne 0 ""
Po -5.588 0
$EndPAD
$PAD
Sh "G" O 5.50164 3.50012 0 0 900
Dr 1.50114 0 0
At STD N 00E0FFFF
Ne 0 ""
Po 5.588 0
$EndPAD
$PAD
Sh "" C 4.0005 4.0005 0 0 0
Dr 4.0005 0 0
At HOLE N 00E0FFFF
Ne 0 ""
Po 0 -19.558
$EndPAD
$EndMODULE TO-247_Horizontal_IGBT-GCE_MountFromLS_largePads
$MODULE TO-247_Horizontal_IGBT-GCE_largePads
Po 0 0 0 15 51B047D5 00000000 ~~
Li TO-247_Horizontal_IGBT-GCE_largePads
Cd Transistor IGBT TO-247 TO-218 TOP-3, 1=Gate 2=Collector 3=Emitter, lying horizontal, Front upward, large Pads
Kw Transistor IGBT GCE TO-247 TO-218 TOP-3 large Pads
Sc 0
AR 
Op 0 0 0
T0 -1.016 -27.432 1.524 1.524 0 0.3048 N V 21 N "T"
T1 1.27 5.334 1.524 1.524 0 0.3048 N I 21 N "TO-247-Horizontal-GCE-LargePads"
T2 -5.08 -24.13 1.524 1.524 0 0.3048 N V 21 N "IGBT"
DS -5.588 -3.302 -5.588 -5.08 0.381 21
DS 0 -3.302 0 -5.08 0.381 21
DS 5.588 -3.302 5.588 -5.08 0.381 21
T2 0.4064 -14.7066 1.524 1.524 0 0.3048 N V 21 N "TO-247"
DC 0 -19.558 1.778 -19.558 0.381 21
T2 7.112 -3.81 1.524 1.524 0 0.3048 N V 21 N "E"
T2 1.524 -3.81 1.524 1.524 0 0.3048 N V 21 N "C"
T2 -3.81 -3.81 1.524 1.524 0 0.3048 N V 21 N "G"
DS 8.128 -25.654 8.128 -5.08 0.381 21
DS -8.128 -25.654 8.128 -25.654 0.381 21
DS -8.128 -5.08 -8.128 -25.654 0.381 21
DS 8.128 -5.08 -8.128 -5.08 0.381 21
$PAD
Sh "C" O 5.50164 3.50012 0 0 900
Dr 1.50114 0 0
At STD N 00E0FFFF
Ne 0 ""
Po 0 0
$EndPAD
$PAD
Sh "G" O 5.50164 3.50012 0 0 900
Dr 1.50114 0 0
At STD N 00E0FFFF
Ne 0 ""
Po -5.588 0
$EndPAD
$PAD
Sh "E" O 5.50164 3.50012 0 0 900
Dr 1.50114 0 0
At STD N 00E0FFFF
Ne 0 ""
Po 5.588 0
$EndPAD
$PAD
Sh "" C 4.0005 4.0005 0 0 0
Dr 4.0005 0 0
At HOLE N 00E0FFFF
Ne 0 ""
Po 0 -19.558
$EndPAD
$EndMODULE TO-247_Horizontal_IGBT-GCE_largePads
$MODULE TO-247_Horizontal_IGBT-GCE_reverse
Po 0 0 0 15 51B04818 00000000 ~~
Li TO-247_Horizontal_IGBT-GCE_reverse
Cd Transistor IGBT TO-247 TO-218 TOP-3, 1=Gate 2=Collector 3=Emitter, lying horizontal, Backside upward
Kw Transistor IGBT GCE TO-247 TO-218 TOP-3, reverse, horizontal
Sc 0
AR 
Op 0 0 0
T0 -1.016 -27.432 1.524 1.524 0 0.3048 N V 21 N "T"
T1 1.27 5.334 1.524 1.524 0 0.3048 N I 21 N "TO-247-Horizontal-GCE-reverse"
DS -6.858 -8.255 -6.4135 -8.255 0.381 21
DS -6.9215 -24.003 -6.9215 -8.255 0.381 21
DS -6.985 -24.003 7.112 -24.0665 0.381 21
DS 7.112 -24.0665 7.112 -8.255 0.381 21
DS 7.112 -8.255 -6.6675 -8.255 0.381 21
T2 -5.08 -19.05 1.524 1.524 900 0.3048 N V 21 N "IGBT"
DS -8.128 -5.08 8.128 -5.08 0.381 21
DS -8.128 -25.654 -8.128 -5.08 0.381 21
DS 8.128 -25.654 -8.128 -25.654 0.381 21
DS 8.128 -25.654 8.128 -5.08 0.381 21
T2 0.508 -22.86 0.50038 0.50038 0 0.03048 N V 21 N "Mount BACKSIDE upward!"
DS -5.588 -2.794 -5.588 -5.08 0.381 21
DS 0 -2.794 0 -5.08 0.381 21
DS 5.588 -2.794 5.588 -5.08 0.381 21
T2 0.4064 -14.7066 1.524 1.524 0 0.3048 N V 21 N "TO-247"
DC 0 -19.558 1.778 -19.558 0.381 21
T2 -4.064 -3.81 1.524 1.524 0 0.3048 N V 21 N "E"
T2 1.524 -3.81 1.524 1.524 0 0.3048 N V 21 N "C"
T2 7.112 -3.81 1.524 1.524 0 0.3048 N V 21 N "G"
$PAD
Sh "C" O 4.50088 2.49936 0 0 900
Dr 1.50114 0 0
At STD N 00E0FFFF
Ne 0 ""
Po 0 0
$EndPAD
$PAD
Sh "E" O 4.50088 2.49936 0 0 900
Dr 1.50114 0 0
At STD N 00E0FFFF
Ne 0 ""
Po -5.588 0
$EndPAD
$PAD
Sh "G" O 4.50088 2.49936 0 0 900
Dr 1.50114 0 0
At STD N 00E0FFFF
Ne 0 ""
Po 5.588 0
$EndPAD
$PAD
Sh "" C 4.0005 4.0005 0 0 0
Dr 4.0005 0 0
At HOLE N 00E0FFFF
Ne 0 ""
Po 0 -19.558
$EndPAD
$EndMODULE TO-247_Horizontal_IGBT-GCE_reverse
$MODULE TO-247_Horizontal_IGBT-GCE_reverse_largePads
Po 0 0 0 15 51B0484E 00000000 ~~
Li TO-247_Horizontal_IGBT-GCE_reverse_largePads
Cd Transistor IGBT TO-247 TO-218 TOP-3, 1=Gate 2=Collector 3=Emitter, lying horizontal, Backside upward, large Pads
Kw Transistor IGBT GCE  TO-247 TO-218 TOP-3, reverse, large Pads
Sc 0
AR 
Op 0 0 0
T0 -1.016 -27.432 1.524 1.524 0 0.3048 N V 21 N "T"
T1 1.27 5.334 1.524 1.524 0 0.3048 N I 21 N "TO-247-Horizontal-GCE-reverse-LargePads"
T2 -5.08 -19.05 1.524 1.524 900 0.3048 N V 21 N "IGBT"
DS -6.6929 -24.2697 -7.0993 -24.2697 0.381 21
DS -6.7564 -24.2697 7.3279 -24.2697 0.381 21
DS 7.3279 -24.2697 7.3279 -9.8425 0.381 21
DS 7.3279 -9.8425 -7.1501 -9.7917 0.381 21
DS -7.1501 -9.7917 -7.1501 -24.2062 0.381 21
DS -5.588 -3.302 -5.588 -5.08 0.381 21
DS 0 -5.08 0 -3.302 0.381 21
DS 5.588 -5.08 5.588 -3.302 0.381 21
DS -8.128 -5.08 8.128 -5.08 0.381 21
DS -8.128 -25.654 -8.128 -5.08 0.381 21
DS 8.128 -25.654 -8.128 -25.654 0.381 21
DS 8.128 -25.654 8.128 -5.08 0.381 21
T2 0.508 -22.86 0.50038 0.50038 0 0.03048 N V 21 N "Mount BACKSIDE upward!"
T2 0.4064 -14.7066 1.524 1.524 0 0.3048 N V 21 N "TO-247"
DC 0 -19.558 1.778 -19.558 0.381 21
T2 -4.064 -3.81 1.524 1.524 0 0.3048 N V 21 N "E"
T2 1.524 -3.81 1.524 1.524 0 0.3048 N V 21 N "C"
T2 7.112 -3.81 1.524 1.524 0 0.3048 N V 21 N "G"
$PAD
Sh "C" O 5.50164 3.49758 0 0 900
Dr 1.50114 0 0
At STD N 00E0FFFF
Ne 0 ""
Po 0 0
$EndPAD
$PAD
Sh "E" O 5.50164 3.50012 0 0 900
Dr 1.50114 0 0
At STD N 00E0FFFF
Ne 0 ""
Po -5.588 0
$EndPAD
$PAD
Sh "G" O 5.50164 3.50012 0 0 900
Dr 1.50114 0 0
At STD N 00E0FFFF
Ne 0 ""
Po 5.588 0
$EndPAD
$PAD
Sh "" C 4.0005 4.0005 0 0 0
Dr 4.0005 0 0
At HOLE N 00E0FFFF
Ne 0 ""
Po 0 -19.558
$EndPAD
$EndMODULE TO-247_Horizontal_IGBT-GCE_reverse_largePads
$MODULE TO-247_Horizontal_Neutral123
Po 0 0 0 15 51B04869 00000000 ~~
Li TO-247_Horizontal_Neutral123
Cd Transistor FET TO-247 TO-218 TOP-3, 1=Gate 2=Drain 3=Source, lying horizontal, Front upward
Kw Transistor FET GDS TO-247 TO-218 TOP-3
Sc 0
AR 
Op 0 0 0
T0 -1.016 -27.432 1.524 1.524 0 0.3048 N V 21 N "IC"
T1 -1.27 5.08 1.524 1.524 0 0.3048 N I 21 N "TO-247-Horizontal-GDS"
DS -5.588 -2.794 -5.588 -5.08 0.381 21
DS 0 -2.794 0 -5.08 0.381 21
DS 5.588 -2.794 5.588 -5.08 0.381 21
T2 0.4064 -14.7066 1.524 1.524 0 0.3048 N V 21 N "TO-247"
DC 0 -19.558 1.778 -19.558 0.381 21
DS 8.128 -25.654 8.128 -5.08 0.381 21
DS -8.128 -25.654 8.128 -25.654 0.381 21
DS -8.128 -5.08 -8.128 -25.654 0.381 21
DS 8.128 -5.08 -8.128 -5.08 0.381 21
$PAD
Sh "2" O 4.50088 2.49936 0 0 900
Dr 1.50114 0 0
At STD N 00E0FFFF
Ne 0 ""
Po 0 0
$EndPAD
$PAD
Sh "1" O 4.50088 2.49936 0 0 900
Dr 1.50114 0 0
At STD N 00E0FFFF
Ne 0 ""
Po -5.588 0
$EndPAD
$PAD
Sh "3" O 4.50088 2.49936 0 0 900
Dr 1.50114 0 0
At STD N 00E0FFFF
Ne 0 ""
Po 5.588 0
$EndPAD
$PAD
Sh "" C 4.0005 4.0005 0 0 0
Dr 4.0005 0 0
At HOLE N 00E0FFFF
Ne 0 ""
Po 0.0635 -19.5707
$EndPAD
$EndMODULE TO-247_Horizontal_Neutral123
$MODULE TO-247_Horizontal_Neutral123_MountFromLS
Po 0 0 0 15 51B0489E 00000000 ~~
Li TO-247_Horizontal_Neutral123_MountFromLS
Cd Transistor FET TO-247 TO-218 TOP-3 lying horizontal, mounted from LS, 1=Gate 2=Drain 3=Source
Kw Transistor FET TO-247 TO-218 TOP-3 , LS mounted, GDS
Sc 0
AR 
Op 0 0 0
T0 -1.016 -27.432 1.524 1.524 0 0.3048 N V 21 N "IC"
T1 1.27 5.334 1.524 1.524 0 0.3048 N I 21 N "TO-247-Horizontal-GDS-MountedFromLS"
T2 0.508 -22.86 0.50038 0.50038 0 0.03048 N V 21 N "Mount from LS!"
DS -8.128 -5.842 -8.128 -5.08 0.381 21
DS -8.128 -7.874 -8.128 -6.858 0.381 21
DS -8.128 -6.858 -8.128 -7.112 0.381 21
DS -8.128 -10.414 -8.128 -9.144 0.381 21
DS -8.128 -9.144 -8.128 -8.89 0.381 21
DS -8.128 -12.954 -8.128 -11.684 0.381 21
DS -8.128 -15.494 -8.128 -14.224 0.381 21
DS -8.128 -18.034 -8.128 -16.764 0.381 21
DS -8.128 -20.574 -8.128 -19.304 0.381 21
DS -8.128 -23.114 -8.128 -21.844 0.381 21
DS -8.128 -25.654 -8.128 -24.384 0.381 21
DS 8.128 -6.35 8.128 -5.334 0.381 21
DS 8.128 -8.89 8.128 -7.62 0.381 21
DS 8.128 -7.62 8.128 -7.366 0.381 21
DS 8.128 -11.43 8.128 -10.16 0.381 21
DS 8.128 -14.478 8.128 -12.954 0.381 21
DS 8.128 -17.526 8.128 -16.002 0.381 21
DS 8.128 -20.828 8.128 -19.05 0.381 21
DS 8.128 -23.368 8.128 -22.098 0.381 21
DS 8.128 -25.654 8.128 -24.638 0.381 21
DS 8.128 -24.638 8.128 -24.384 0.381 21
DS 7.366 -25.654 8.128 -25.654 0.381 21
DS 5.842 -25.654 6.604 -25.654 0.381 21
DS 3.302 -25.654 4.572 -25.654 0.381 21
DS 0.762 -25.654 2.286 -25.654 0.381 21
DS -1.524 -25.654 -0.254 -25.654 0.381 21
DS -3.81 -25.654 -2.54 -25.654 0.381 21
DS -6.096 -25.654 -4.826 -25.654 0.381 21
DS -8.128 -25.654 -7.112 -25.654 0.381 21
DS 6.096 -5.08 4.572 -5.08 0.381 21
DS 4.572 -5.08 4.826 -5.08 0.381 21
DS 8.128 -5.08 7.366 -5.08 0.381 21
DS 7.366 -5.08 7.112 -5.08 0.381 21
DS 1.778 -5.08 3.048 -5.08 0.381 21
DS -0.762 -5.08 0.508 -5.08 0.381 21
DS -3.302 -5.08 -1.778 -5.08 0.381 21
DS -6.096 -5.08 -4.826 -5.08 0.381 21
DS -4.826 -5.08 -4.572 -5.08 0.381 21
DS -4.572 -5.08 -4.318 -5.08 0.381 21
DS -8.128 -5.08 -7.366 -5.08 0.381 21
DS -7.366 -5.08 -7.112 -5.08 0.381 21
DS -5.588 -2.794 -5.588 -5.08 0.381 21
DS 0 -2.794 0 -5.08 0.381 21
DS 5.588 -2.794 5.588 -5.08 0.381 21
T2 0.4064 -14.7066 1.524 1.524 0 0.3048 N V 21 N "TO-247"
DC 0 -19.558 1.778 -19.558 0.381 21
$PAD
Sh "2" O 4.50088 2.49936 0 0 900
Dr 1.50114 0 0
At STD N 00E0FFFF
Ne 0 ""
Po 0 0
$EndPAD
$PAD
Sh "3" O 4.50088 2.49936 0 0 900
Dr 1.50114 0 0
At STD N 00E0FFFF
Ne 0 ""
Po -5.588 0
$EndPAD
$PAD
Sh "1" O 4.50088 2.49936 0 0 900
Dr 1.50114 0 0
At STD N 00E0FFFF
Ne 0 ""
Po 5.588 0
$EndPAD
$PAD
Sh "" C 4.0005 4.0005 0 0 0
Dr 4.0005 0 0
At HOLE N 00E0FFFF
Ne 0 ""
Po 0 -19.6215
$EndPAD
$EndMODULE TO-247_Horizontal_Neutral123_MountFromLS
$MODULE TO-247_Horizontal_Neutral123_MountFromLS_largePads
Po 0 0 0 15 51B048C6 00000000 ~~
Li TO-247_Horizontal_Neutral123_MountFromLS_largePads
Cd Transistor FET TO-247 TO-218 TOP-3 lying horizontal, mounted from LS, 1=Gate 2=Drain 3=Source
Kw Transistor FET TO-247 TO-218 TOP-3 , LS mounted, GDS
Sc 0
AR 
Op 0 0 0
T0 -1.016 -27.432 1.524 1.524 0 0.3048 N V 21 N "IC"
T1 1.27 5.334 1.524 1.524 0 0.3048 N I 21 N "TO-247-Horizontal-GDS-MountedFromLS-LargePads"
DS -5.588 -3.302 -5.588 -5.08 0.381 21
DS 5.588 -3.302 5.588 -5.08 0.381 21
DS 0 -3.302 0 -4.826 0.381 21
T2 0.508 -22.86 0.50038 0.50038 0 0.03048 N V 21 N "Mount from LS!"
DS -8.128 -5.842 -8.128 -5.08 0.381 21
DS -8.128 -7.874 -8.128 -6.858 0.381 21
DS -8.128 -6.858 -8.128 -7.112 0.381 21
DS -8.128 -10.414 -8.128 -9.144 0.381 21
DS -8.128 -9.144 -8.128 -8.89 0.381 21
DS -8.128 -12.954 -8.128 -11.684 0.381 21
DS -8.128 -15.494 -8.128 -14.224 0.381 21
DS -8.128 -18.034 -8.128 -16.764 0.381 21
DS -8.128 -20.574 -8.128 -19.304 0.381 21
DS -8.128 -23.114 -8.128 -21.844 0.381 21
DS -8.128 -25.654 -8.128 -24.384 0.381 21
DS 8.128 -6.35 8.128 -5.334 0.381 21
DS 8.128 -8.89 8.128 -7.62 0.381 21
DS 8.128 -7.62 8.128 -7.366 0.381 21
DS 8.128 -11.43 8.128 -10.16 0.381 21
DS 8.128 -14.478 8.128 -12.954 0.381 21
DS 8.128 -17.526 8.128 -16.002 0.381 21
DS 8.128 -20.828 8.128 -19.05 0.381 21
DS 8.128 -23.368 8.128 -22.098 0.381 21
DS 8.128 -25.654 8.128 -24.638 0.381 21
DS 8.128 -24.638 8.128 -24.384 0.381 21
DS 7.366 -25.654 8.128 -25.654 0.381 21
DS 5.842 -25.654 6.604 -25.654 0.381 21
DS 3.302 -25.654 4.572 -25.654 0.381 21
DS 0.762 -25.654 2.286 -25.654 0.381 21
DS -1.524 -25.654 -0.254 -25.654 0.381 21
DS -3.81 -25.654 -2.54 -25.654 0.381 21
DS -6.096 -25.654 -4.826 -25.654 0.381 21
DS -8.128 -25.654 -7.112 -25.654 0.381 21
DS 6.096 -5.08 4.572 -5.08 0.381 21
DS 4.572 -5.08 4.826 -5.08 0.381 21
DS 8.128 -5.08 7.366 -5.08 0.381 21
DS 7.366 -5.08 7.112 -5.08 0.381 21
DS 1.778 -5.08 3.048 -5.08 0.381 21
DS -0.762 -5.08 0.508 -5.08 0.381 21
DS -3.302 -5.08 -1.778 -5.08 0.381 21
DS -6.096 -5.08 -4.826 -5.08 0.381 21
DS -4.826 -5.08 -4.572 -5.08 0.381 21
DS -4.572 -5.08 -4.318 -5.08 0.381 21
DS -8.128 -5.08 -7.366 -5.08 0.381 21
DS -7.366 -5.08 -7.112 -5.08 0.381 21
T2 0.4064 -14.7066 1.524 1.524 0 0.3048 N V 21 N "TO-247"
DC 0 -19.558 1.778 -19.558 0.381 21
$PAD
Sh "2" O 5.50164 3.50012 0 0 900
Dr 1.50114 0 0
At STD N 00E0FFFF
Ne 0 ""
Po 0 0
$EndPAD
$PAD
Sh "3" O 5.50164 3.50012 0 0 900
Dr 1.50114 0 0
At STD N 00E0FFFF
Ne 0 ""
Po -5.588 0
$EndPAD
$PAD
Sh "1" O 5.50164 3.50012 0 0 900
Dr 1.50114 0 0
At STD N 00E0FFFF
Ne 0 ""
Po 5.588 0
$EndPAD
$PAD
Sh "" C 4.0005 4.0005 0 0 0
Dr 4.0005 0 0
At HOLE N 00E0FFFF
Ne 0 ""
Po 0 -19.558
$EndPAD
$EndMODULE TO-247_Horizontal_Neutral123_MountFromLS_largePads
$MODULE TO-247_Horizontal_Neutral123_Reverse
Po 0 0 0 15 51B048DD 00000000 ~~
Li TO-247_Horizontal_Neutral123_Reverse
Cd Transistor FET TO-247 TO-218 TOP-3, 1=Gate 2=Drain 3=Source, lying horizontal, Backside upward
Kw Transistor FET TO-247 TO-218 TOP-3, GDS
Sc 0
AR 
Op 0 0 0
T0 -1.016 -27.432 1.524 1.524 0 0.3048 N V 21 N "IC"
T1 1.27 5.334 1.524 1.524 0 0.3048 N I 21 N "TO-247-Horizontal-GDS-Reverse"
DS -7.366 -24.511 7.0485 -24.3205 0.381 21
DS 7.0485 -24.3205 7.0485 -9.906 0.381 21
DS 7.0485 -9.906 -7.239 -9.906 0.381 21
DS -7.239 -9.906 -7.239 -24.3205 0.381 21
DS -8.128 -5.08 8.128 -5.08 0.381 21
DS -8.128 -25.654 -8.128 -5.08 0.381 21
DS 8.128 -25.654 -8.128 -25.654 0.381 21
DS 8.128 -25.654 8.128 -5.08 0.381 21
T2 0.508 -22.86 0.50038 0.50038 0 0.03048 N V 21 N "Mount BACKSIDE upward!"
DS -5.588 -2.794 -5.588 -5.08 0.381 21
DS 0 -2.794 0 -5.08 0.381 21
DS 5.588 -2.794 5.588 -5.08 0.381 21
T2 0.4064 -14.7066 1.524 1.524 0 0.3048 N V 21 N "TO-247"
DC 0 -19.558 1.778 -19.558 0.381 21
$PAD
Sh "2" O 4.50088 2.49936 0 0 900
Dr 1.50114 0 0
At STD N 00E0FFFF
Ne 0 ""
Po 0 0
$EndPAD
$PAD
Sh "3" O 4.50088 2.49936 0 0 900
Dr 1.50114 0 0
At STD N 00E0FFFF
Ne 0 ""
Po -5.588 0
$EndPAD
$PAD
Sh "1" O 4.50088 2.49936 0 0 900
Dr 1.50114 0 0
At STD N 00E0FFFF
Ne 0 ""
Po 5.588 0
$EndPAD
$PAD
Sh "" C 4.0005 4.0005 0 0 0
Dr 4.0005 0 0
At HOLE N 00E0FFFF
Ne 0 ""
Po 0 -19.558
$EndPAD
$EndMODULE TO-247_Horizontal_Neutral123_Reverse
$MODULE TO-247_Horizontal_Neutral123_Reverse_largePads
Po 0 0 0 15 51B048F7 00000000 ~~
Li TO-247_Horizontal_Neutral123_Reverse_largePads
Cd Transistor FET TO-247 TO-218 TOP-3, 1=Gate 2=Drain 3=Source, lying horizontal, Backside upward, large Pads
Kw Transistor FET TO-247 TO-218 TOP-3, GDS, large Pads
Sc 0
AR 
Op 0 0 0
T0 -1.016 -27.432 1.524 1.524 0 0.3048 N V 21 N "IC"
T1 1.27 5.334 1.524 1.524 0 0.3048 N I 21 N "TO-247-Horizontal-GDS-Reverse-LargePads"
DS -6.7945 -24.1935 -7.1755 -24.1935 0.381 21
DS -7.1755 -9.525 -7.1755 -24.13 0.381 21
DS -6.7945 -24.1935 6.7945 -24.1935 0.381 21
DS 6.7945 -24.1935 6.7945 -9.525 0.381 21
DS 6.7945 -9.525 -7.1755 -9.525 0.381 21
DS -5.588 -3.302 -5.588 -5.08 0.381 21
DS 0 -5.08 0 -3.302 0.381 21
DS 5.588 -5.08 5.588 -3.302 0.381 21
DS -8.128 -5.08 8.128 -5.08 0.381 21
DS -8.128 -25.654 -8.128 -5.08 0.381 21
DS 8.128 -25.654 -8.128 -25.654 0.381 21
DS 8.128 -25.654 8.128 -5.08 0.381 21
T2 0.0635 -22.86 0.50038 0.50038 0 0.03048 N V 21 N "Mount BACKSIDE upward!"
T2 0.4064 -14.7066 1.524 1.524 0 0.3048 N V 21 N "TO-247"
DC 0 -19.558 1.778 -19.558 0.381 21
$PAD
Sh "2" O 5.50164 3.49758 0 0 900
Dr 1.50114 0 0
At STD N 00E0FFFF
Ne 0 ""
Po 0 0
$EndPAD
$PAD
Sh "3" O 5.50164 3.50012 0 0 900
Dr 1.50114 0 0
At STD N 00E0FFFF
Ne 0 ""
Po -5.588 0
$EndPAD
$PAD
Sh "1" O 5.50164 3.50012 0 0 900
Dr 1.50114 0 0
At STD N 00E0FFFF
Ne 0 ""
Po 5.588 0
$EndPAD
$PAD
Sh "" C 4.0005 4.0005 0 0 0
Dr 4.0005 0 0
At HOLE N 00E0FFFF
Ne 0 ""
Po 0 -19.558
$EndPAD
$EndMODULE TO-247_Horizontal_Neutral123_Reverse_largePads
$MODULE TO-247_Horizontal_Neutral123_largePads
Po 0 0 0 15 51B0487D 00000000 ~~
Li TO-247_Horizontal_Neutral123_largePads
Cd Transistor FET TO-247 TO-218 TOP-3, 1=Gate 2=Drain 3=Source, lying horizontal, Front upward, large Pads
Kw Transistor FET GDS TO-247 TO-218 TOP-3 large Pads
Sc 0
AR 
Op 0 0 0
T0 -1.016 -27.432 1.524 1.524 0 0.3048 N V 21 N "IC"
T1 1.27 5.334 1.524 1.524 0 0.3048 N I 21 N "TO-247-Horizontal-GDS-Large_Pads"
DS -5.588 -3.302 -5.588 -5.08 0.381 21
DS 0 -3.302 0 -5.08 0.381 21
DS 5.588 -3.302 5.588 -5.08 0.381 21
T2 0.4064 -14.7066 1.524 1.524 0 0.3048 N V 21 N "TO-247"
DC 0 -19.558 1.778 -19.558 0.381 21
DS 8.128 -25.654 8.128 -5.08 0.381 21
DS -8.128 -25.654 8.128 -25.654 0.381 21
DS -8.128 -5.08 -8.128 -25.654 0.381 21
DS 8.128 -5.08 -8.128 -5.08 0.381 21
$PAD
Sh "2" O 5.50164 3.50012 0 0 900
Dr 1.50114 0 0
At STD N 00E0FFFF
Ne 0 ""
Po 0 0
$EndPAD
$PAD
Sh "1" O 5.50164 3.50012 0 0 900
Dr 1.50114 0 0
At STD N 00E0FFFF
Ne 0 ""
Po -5.588 0
$EndPAD
$PAD
Sh "3" O 5.50164 3.50012 0 0 900
Dr 1.50114 0 0
At STD N 00E0FFFF
Ne 0 ""
Po 5.588 0
$EndPAD
$PAD
Sh "" C 4.0005 4.0005 0 0 0
Dr 4.0005 0 0
At HOLE N 00E0FFFF
Ne 0 ""
Po 0 -19.558
$EndPAD
$EndMODULE TO-247_Horizontal_Neutral123_largePads
$MODULE TO-247_PadsOnly_Neutral123
Po 0 0 0 15 4BBB2355 00000000 ~~
Li TO-247_PadsOnly_Neutral123
Cd TO-247, Neutral, Pads Only,
Kw TO-247, Neutral, Pads Only,
Sc 0
AR 
Op 0 0 0
T0 0.254 -9.144 1.524 1.524 0 0.3048 N V 21 N "IC"
T1 -1.016 8.128 1.524 1.524 0 0.3048 N I 21 N "TO-247_Neutral_PadsOnly"
$PAD
Sh "2" O 3.50012 2.49936 0 0 900
Dr 1.50114 0 0
At STD N 00E0FFFF
Ne 0 ""
Po 0 0
$EndPAD
$PAD
Sh "1" O 3.50012 2.49936 0 0 900
Dr 1.50114 0 0
At STD N 00E0FFFF
Ne 0 ""
Po -5.588 0
$EndPAD
$PAD
Sh "3" O 3.50012 2.49936 0 0 900
Dr 1.50114 0 0
At STD N 00E0FFFF
Ne 0 ""
Po 5.588 0
$EndPAD
$EndMODULE TO-247_PadsOnly_Neutral123
$MODULE TO-247_Vertical_FET-GDS
Po 0 0 0 15 4BAE1FD3 00000000 ~~
Li TO-247_Vertical_FET-GDS
Cd TO-247 TO-218 TOP-3 FET 1=Gate 2=Drain 3=Source Vertical
Kw Transistor FET TO-247 TO-218 TOP-3 Vertical
Sc 0
AR 
Op 0 0 0
T0 1.27 -5.08 1.524 1.524 0 0.3048 N V 21 N "T"
T1 -1.016 8.128 1.524 1.524 0 0.3048 N I 21 N "TO-247-Vertical-GDS"
T2 5.9055 4.2545 1.50114 1.50114 0 0.29972 N V 21 N "S"
T2 0.254 4.318 1.50114 1.50114 0 0.29972 N V 21 N "D"
T2 -5.334 4.2545 1.50114 1.50114 0 0.29972 N V 21 N "G"
DS 8.128 2.794 8.128 -2.794 0.381 21
DS 8.128 -2.794 -8.128 -2.794 0.381 21
DS -8.128 -2.794 -8.128 2.794 0.381 21
DS -8.128 2.794 8.128 2.794 0.381 21
$PAD
Sh "D" O 4.50088 2.49936 0 0 900
Dr 1.50114 0 0
At STD N 00E0FFFF
Ne 0 ""
Po 0 0
$EndPAD
$PAD
Sh "G" O 4.50088 2.49936 0 0 900
Dr 1.50114 0 0
At STD N 00E0FFFF
Ne 0 ""
Po -5.588 0
$EndPAD
$PAD
Sh "S" O 4.50088 2.49936 0 0 900
Dr 1.50114 0 0
At STD N 00E0FFFF
Ne 0 ""
Po 5.588 0
$EndPAD
$EndMODULE TO-247_Vertical_FET-GDS
$MODULE TO-247_Vertical_FET-GDS_MountedFromLS
Po 0 0 0 15 4B72EF2D 00000000 ~~
Li TO-247_Vertical_FET-GDS_MountedFromLS
Cd TO-247 TO-218 TOP-3 FET 1=Gate 2=Drain 3=Source, Vertical, Mounted from LS
Kw Transistor FET TO-247 TO-218 TOP-3 Vertical, LS
Sc 0
AR 
Op 0 0 0
T0 1.016 -8.636 1.524 1.524 0 0.3048 N V 21 N "T"
T1 -1.016 8.128 1.524 1.524 0 0.3048 N I 21 N "TO-247-Vertical-GDS-MountedFromLS"
DS 8.128 1.016 8.128 1.524 0.381 21
DS 8.128 -0.254 8.128 0.254 0.381 21
DS 8.128 -1.524 8.128 -1.016 0.381 21
DS 8.128 2.794 8.128 2.286 0.381 21
DS 8.128 -2.794 8.128 -2.286 0.381 21
DS -8.128 -1.27 -8.128 -1.524 0.381 21
DS -8.128 0 -8.128 -0.508 0.381 21
DS -8.128 1.524 -8.128 0.762 0.381 21
DS -8.128 2.794 -8.128 2.286 0.381 21
DS -8.128 -2.794 -8.128 -2.286 0.381 21
DS 7.366 2.794 8.128 2.794 0.381 21
DS 6.35 2.794 6.858 2.794 0.381 21
DS 4.572 2.794 5.334 2.794 0.381 21
DS 2.54 2.794 3.556 2.794 0.381 21
DS 1.27 2.794 1.778 2.794 0.381 21
DS 1.27 2.794 0.762 2.794 0.381 21
DS -1.016 2.794 0 2.794 0.381 21
DS -2.794 2.794 -1.778 2.794 0.381 21
DS -4.572 2.794 -3.556 2.794 0.381 21
DS -6.35 2.794 -5.334 2.794 0.381 21
DS -8.128 2.794 -7.366 2.794 0.381 21
DS 5.08 -2.794 4.572 -2.794 0.381 21
DS 6.604 -2.794 5.842 -2.794 0.381 21
DS 8.128 -2.794 7.366 -2.794 0.381 21
DS 2.794 -2.794 3.556 -2.794 0.381 21
DS 0.508 -2.794 1.778 -2.794 0.381 21
DS -1.524 -2.794 -0.508 -2.794 0.381 21
DS -3.81 -2.794 -2.54 -2.794 0.381 21
DS -6.096 -2.794 -4.826 -2.794 0.381 21
DS -8.128 -2.794 -7.112 -2.794 0.381 21
T2 -5.588 4.2545 1.50114 1.50114 0 0.29972 N V 21 N "S"
T2 0.1905 4.2545 1.50114 1.50114 0 0.29972 N V 21 N "D"
T2 5.842 4.2545 1.50114 1.50114 0 0.29972 N V 21 N "G"
$PAD
Sh "D" O 4.50088 2.49936 0 0 900
Dr 1.50114 0 0
At STD N 00E0FFFF
Ne 0 ""
Po 0 0
$EndPAD
$PAD
Sh "S" O 4.50088 2.49936 0 0 900
Dr 1.50114 0 0
At STD N 00E0FFFF
Ne 0 ""
Po -5.588 0
$EndPAD
$PAD
Sh "G" O 4.50088 2.49936 0 0 900
Dr 1.50114 0 0
At STD N 00E0FFFF
Ne 0 ""
Po 5.588 0
$EndPAD
$EndMODULE TO-247_Vertical_FET-GDS_MountedFromLS
$MODULE TO-247_Vertical_FET-GDS_MountedFromLS_largePads
Po 0 0 0 15 4BAE205C 00000000 ~~
Li TO-247_Vertical_FET-GDS_MountedFromLS_largePads
Cd TO-247 TO-218 TOP-3 FET 1=Gate 2=Drain 3=Source, Vertical, Mounted from LS, large Pads,
Kw Transistor FET TO-247 TO-218 TOP-3 Vertical, LS, large Pads
Sc 0
AR 
Op 0 0 0
T0 1.27 -3.81 1.524 1.524 0 0.3048 N V 21 N "T"
T1 -1.27 6.35 1.524 1.524 0 0.3048 N I 21 N "TO-247-Vertical-GDS-MountedFromLS-LargePads"
DS 1.524 -2.794 2.286 -2.794 0.381 21
DS -2.54 -2.794 -1.27 -2.794 0.381 21
DS -4.318 -2.794 -3.302 -2.794 0.381 21
DS -7.62 -2.794 -8.128 -2.794 0.381 21
DS -8.128 -2.794 -7.874 -2.794 0.381 21
DS -6.858 -2.794 -7.112 -2.794 0.381 21
DS 2.54 2.794 1.524 2.794 0.381 21
DS -7.112 2.794 -6.858 2.794 0.381 21
DS -7.874 2.794 -7.62 2.794 0.381 21
DS -4.318 2.794 -3.302 2.794 0.381 21
DS 8.128 1.016 8.128 1.524 0.381 21
DS 8.128 -0.254 8.128 0.254 0.381 21
DS 8.128 -1.524 8.128 -1.016 0.381 21
DS 8.128 2.794 8.128 2.286 0.381 21
DS 8.128 -2.794 8.128 -2.286 0.381 21
DS -8.128 -1.27 -8.128 -1.524 0.381 21
DS -8.128 0 -8.128 -0.508 0.381 21
DS -8.128 1.524 -8.128 0.762 0.381 21
DS -8.128 2.794 -8.128 2.286 0.381 21
DS -8.128 -2.794 -8.128 -2.286 0.381 21
DS 7.366 2.794 8.128 2.794 0.381 21
DS 3.302 2.794 4.318 2.794 0.381 21
DS -2.286 2.794 -1.27 2.794 0.381 21
DS 8.128 -2.794 7.366 -2.794 0.381 21
DS 3.556 -2.794 4.318 -2.794 0.381 21
T2 -5.461 4.191 1.50114 1.50114 0 0.29972 N V 21 N "S"
T2 0.1905 4.2545 1.50114 1.50114 0 0.29972 N V 21 N "D"
T2 5.842 4.2545 1.50114 1.50114 0 0.29972 N V 21 N "G"
$PAD
Sh "D" O 5.50164 3.50012 0 0 900
Dr 1.50114 0 0
At STD N 00E0FFFF
Ne 0 ""
Po 0 0
$EndPAD
$PAD
Sh "S" O 5.50164 3.50012 0 0 900
Dr 1.50114 0 0
At STD N 00E0FFFF
Ne 0 ""
Po -5.588 0
$EndPAD
$PAD
Sh "G" O 5.50164 3.50012 0 0 900
Dr 1.50114 0 0
At STD N 00E0FFFF
Ne 0 ""
Po 5.588 0
$EndPAD
$EndMODULE TO-247_Vertical_FET-GDS_MountedFromLS_largePads
$MODULE TO-247_Vertical_FET-GDS_largePads
Po 0 0 0 15 4B72EED3 00000000 ~~
Li TO-247_Vertical_FET-GDS_largePads
Cd TO-247 TO-218 TOP-3 FET 1=Gate 2=Drain 3=Source Vertical, large Pads
Kw Transistor FET TO-247 TO-218 TOP-3 Vertical
Sc 0
AR 
Op 0 0 0
T0 1.016 -8.636 1.524 1.524 0 0.3048 N V 21 N "T"
T1 -1.016 8.128 1.524 1.524 0 0.3048 N I 21 N "TO-247-Vertical-GDS-LargePads"
DS 6.858 2.794 8.128 2.794 0.381 21
DS 1.27 2.794 4.318 2.794 0.381 21
DS -4.318 2.794 -1.27 2.794 0.381 21
DS -6.858 2.794 -8.128 2.794 0.381 21
DS 6.858 -2.794 8.128 -2.794 0.381 21
DS 1.27 -2.794 4.318 -2.794 0.381 21
DS -4.318 -2.794 -1.27 -2.794 0.381 21
DS -6.858 -2.794 -8.128 -2.794 0.381 21
T2 5.842 4.2545 1.50114 1.50114 0 0.29972 N V 21 N "S"
T2 0.1905 4.2545 1.50114 1.50114 0 0.29972 N V 21 N "D"
T2 -5.2705 4.2545 1.50114 1.50114 0 0.29972 N V 21 N "G"
DS 8.128 2.794 8.128 -2.794 0.381 21
DS -8.128 -2.794 -8.128 2.794 0.381 21
$PAD
Sh "D" O 5.50164 3.50012 0 0 900
Dr 1.50114 0 0
At STD N 00E0FFFF
Ne 0 ""
Po 0 0
$EndPAD
$PAD
Sh "G" O 5.50164 3.50012 0 0 900
Dr 1.50114 0 0
At STD N 00E0FFFF
Ne 0 ""
Po -5.588 0
$EndPAD
$PAD
Sh "S" O 5.50164 3.50012 0 0 900
Dr 1.50114 0 0
At STD N 00E0FFFF
Ne 0 ""
Po 5.588 0
$EndPAD
$EndMODULE TO-247_Vertical_FET-GDS_largePads
$MODULE TO-247_Vertical_IGBT-GCE
Po 0 0 0 15 4B72FB0D 00000000 ~~
Li TO-247_Vertical_IGBT-GCE
Cd TO-247 TO-218 TOP-3 IGBT 1=Gate 2=Collector 3=Emitter, Vertical
Kw Transistor IGBT GCE TO-247 TO-218 TOP-3 Vertical
Sc 0
AR 
Op 0 0 0
T0 1.016 -8.636 1.524 1.524 0 0.3048 N V 21 N "T"
T1 -1.016 8.128 1.524 1.524 0 0.3048 N I 21 N "TO-247-IGBT-Vertical-GCE"
T2 -0.0508 -11.9761 1.524 1.524 0 0.3048 N V 21 N "IGBT"
T2 5.9055 4.2545 1.50114 1.50114 0 0.29972 N V 21 N "E"
T2 0.1905 4.2545 1.50114 1.50114 0 0.29972 N V 21 N "C"
T2 -5.3975 4.2545 1.50114 1.50114 0 0.29972 N V 21 N "G"
DS 8.128 2.794 8.128 -2.794 0.381 21
DS 8.128 -2.794 -8.128 -2.794 0.381 21
DS -8.128 -2.794 -8.128 2.794 0.381 21
DS -8.128 2.794 8.128 2.794 0.381 21
$PAD
Sh "C" O 4.50088 2.49936 0 0 900
Dr 1.50114 0 0
At STD N 00E0FFFF
Ne 0 ""
Po 0 0
$EndPAD
$PAD
Sh "G" O 4.50088 2.49936 0 0 900
Dr 1.50114 0 0
At STD N 00E0FFFF
Ne 0 ""
Po -5.588 0
$EndPAD
$PAD
Sh "E" O 4.50088 2.49936 0 0 900
Dr 1.50114 0 0
At STD N 00E0FFFF
Ne 0 ""
Po 5.588 0
$EndPAD
$EndMODULE TO-247_Vertical_IGBT-GCE
$MODULE TO-247_Vertical_IGBT-GCE_MountedFromLS
Po 0 0 0 15 4B72FB91 00000000 ~~
Li TO-247_Vertical_IGBT-GCE_MountedFromLS
Cd TO-247 TO-218 TOP-3 IGBT  1=Gate 2=Collector 3=Emitter, Vertical, Mounted from LS
Kw Transistor IGBT GCE TO-247 TO-218 TOP-3 Vertical, LS
Sc 0
AR 
Op 0 0 0
T0 1.016 -8.636 1.524 1.524 0 0.3048 N V 21 N "T"
T1 -1.016 8.128 1.524 1.524 0 0.3048 N I 21 N "TO-247-Vertical-IGBT-GCE-MountedFromLS"
T2 -0.5588 -11.4173 1.524 1.524 0 0.3048 N V 21 N "IGBT"
DS 8.128 1.016 8.128 1.524 0.381 21
DS 8.128 -0.254 8.128 0.254 0.381 21
DS 8.128 -1.524 8.128 -1.016 0.381 21
DS 8.128 2.794 8.128 2.286 0.381 21
DS 8.128 -2.794 8.128 -2.286 0.381 21
DS -8.128 -1.27 -8.128 -1.524 0.381 21
DS -8.128 0 -8.128 -0.508 0.381 21
DS -8.128 1.524 -8.128 0.762 0.381 21
DS -8.128 2.794 -8.128 2.286 0.381 21
DS -8.128 -2.794 -8.128 -2.286 0.381 21
DS 7.366 2.794 8.128 2.794 0.381 21
DS 6.35 2.794 6.858 2.794 0.381 21
DS 4.572 2.794 5.334 2.794 0.381 21
DS 2.54 2.794 3.556 2.794 0.381 21
DS 1.27 2.794 1.778 2.794 0.381 21
DS 1.27 2.794 0.762 2.794 0.381 21
DS -1.016 2.794 0 2.794 0.381 21
DS -2.794 2.794 -1.778 2.794 0.381 21
DS -4.572 2.794 -3.556 2.794 0.381 21
DS -6.35 2.794 -5.334 2.794 0.381 21
DS -8.128 2.794 -7.366 2.794 0.381 21
DS 5.08 -2.794 4.572 -2.794 0.381 21
DS 6.604 -2.794 5.842 -2.794 0.381 21
DS 8.128 -2.794 7.366 -2.794 0.381 21
DS 2.794 -2.794 3.556 -2.794 0.381 21
DS 0.508 -2.794 1.778 -2.794 0.381 21
DS -1.524 -2.794 -0.508 -2.794 0.381 21
DS -3.81 -2.794 -2.54 -2.794 0.381 21
DS -6.096 -2.794 -4.826 -2.794 0.381 21
DS -8.128 -2.794 -7.112 -2.794 0.381 21
T2 -5.5245 4.2545 1.50114 1.50114 0 0.29972 N V 21 N "E"
T2 0.0635 4.2545 1.50114 1.50114 0 0.29972 N V 21 N "C"
T2 5.969 4.2545 1.50114 1.50114 0 0.29972 N V 21 N "G"
$PAD
Sh "C" O 4.50088 2.49936 0 0 900
Dr 1.50114 0 0
At STD N 00E0FFFF
Ne 0 ""
Po 0 0
$EndPAD
$PAD
Sh "E" O 4.50088 2.49936 0 0 900
Dr 1.50114 0 0
At STD N 00E0FFFF
Ne 0 ""
Po -5.588 0
$EndPAD
$PAD
Sh "G" O 4.50088 2.49936 0 0 900
Dr 1.50114 0 0
At STD N 00E0FFFF
Ne 0 ""
Po 5.588 0
$EndPAD
$EndMODULE TO-247_Vertical_IGBT-GCE_MountedFromLS
$MODULE TO-247_Vertical_IGBT-GCE_MountedFromLS_largePads
Po 0 0 0 15 4BAE213A 00000000 ~~
Li TO-247_Vertical_IGBT-GCE_MountedFromLS_largePads
Cd TO-247 TO-218 TOP-3 IGBT 1=Gate 2=Collector 3=Emitter, Vertical, Mounted from LS, large Pads,
Kw Transistor IGBT GCE TO-247 TO-218 TOP-3 Vertical, LS, large Pads
Sc 0
AR 
Op 0 0 0
T0 0 -5.08 1.524 1.524 0 0.3048 N V 21 N "T"
T1 -1.016 8.128 1.524 1.524 0 0.3048 N I 21 N "TO-247-Vertical-IGBT-GCE-MountedFromLS-LargePads"
T2 -11.43 1.27 1.524 1.524 0 0.3048 N V 21 N "IGBT"
DS 1.524 -2.794 2.286 -2.794 0.381 21
DS -2.54 -2.794 -1.27 -2.794 0.381 21
DS -4.318 -2.794 -3.302 -2.794 0.381 21
DS -7.62 -2.794 -8.128 -2.794 0.381 21
DS -8.128 -2.794 -7.874 -2.794 0.381 21
DS -6.858 -2.794 -7.112 -2.794 0.381 21
DS 2.54 2.794 1.524 2.794 0.381 21
DS -7.112 2.794 -6.858 2.794 0.381 21
DS -7.874 2.794 -7.62 2.794 0.381 21
DS -4.318 2.794 -3.302 2.794 0.381 21
DS 8.128 1.016 8.128 1.524 0.381 21
DS 8.128 -0.254 8.128 0.254 0.381 21
DS 8.128 -1.524 8.128 -1.016 0.381 21
DS 8.128 2.794 8.128 2.286 0.381 21
DS 8.128 -2.794 8.128 -2.286 0.381 21
DS -8.128 -1.27 -8.128 -1.524 0.381 21
DS -8.128 0 -8.128 -0.508 0.381 21
DS -8.128 1.524 -8.128 0.762 0.381 21
DS -8.128 2.794 -8.128 2.286 0.381 21
DS -8.128 -2.794 -8.128 -2.286 0.381 21
DS 7.366 2.794 8.128 2.794 0.381 21
DS 3.302 2.794 4.318 2.794 0.381 21
DS -2.286 2.794 -1.27 2.794 0.381 21
DS 8.128 -2.794 7.366 -2.794 0.381 21
DS 3.556 -2.794 4.318 -2.794 0.381 21
T2 -5.2705 4.318 1.50114 1.50114 0 0.29972 N V 21 N "E"
T2 0.254 4.318 1.50114 1.50114 0 0.29972 N V 21 N "C"
T2 5.969 4.318 1.50114 1.50114 0 0.29972 N V 21 N "G"
$PAD
Sh "C" O 5.50164 3.50012 0 0 900
Dr 1.50114 0 0
At STD N 00E0FFFF
Ne 0 ""
Po 0 0
$EndPAD
$PAD
Sh "E" O 5.50164 3.50012 0 0 900
Dr 1.50114 0 0
At STD N 00E0FFFF
Ne 0 ""
Po -5.588 0
$EndPAD
$PAD
Sh "G" O 5.50164 3.50012 0 0 900
Dr 1.50114 0 0
At STD N 00E0FFFF
Ne 0 ""
Po 5.588 0
$EndPAD
$EndMODULE TO-247_Vertical_IGBT-GCE_MountedFromLS_largePads
$MODULE TO-247_Vertical_IGBT-GCE_largePads
Po 0 0 0 15 4BAE20CE 00000000 ~~
Li TO-247_Vertical_IGBT-GCE_largePads
Cd TO-247 TO-218 TOP-3 IGBT 1=Gate 2=Collector 3=Emitter Vertical, large Pads
Kw Transistor IGBT GCE TO-247 TO-218 TOP-3 Vertical, large Pads
Sc 0
AR 
Op 0 0 0
T0 0 -5.08 1.524 1.524 0 0.3048 N V 21 N "T"
T1 -1.016 8.128 1.524 1.524 0 0.3048 N I 21 N "TO-247-Vertical-IGBT-GCE-LargePads"
T2 -12.7 0 1.50114 1.524 0 0.3048 N V 21 N "IGBT"
DS 6.858 2.794 8.128 2.794 0.381 21
DS 1.27 2.794 4.318 2.794 0.381 21
DS -4.318 2.794 -1.27 2.794 0.381 21
DS -6.858 2.794 -8.128 2.794 0.381 21
DS 6.858 -2.794 8.128 -2.794 0.381 21
DS 1.27 -2.794 4.318 -2.794 0.381 21
DS -4.318 -2.794 -1.27 -2.794 0.381 21
DS -6.858 -2.794 -8.128 -2.794 0.381 21
T2 5.842 4.2545 1.50114 1.50114 0 0.29972 N V 21 N "E"
T2 0.254 4.2545 1.50114 1.50114 0 0.29972 N V 21 N "C"
T2 -5.461 4.318 1.50114 1.50114 0 0.29972 N V 21 N "G"
DS 8.128 2.794 8.128 -2.794 0.381 21
DS -8.128 -2.794 -8.128 2.794 0.381 21
$PAD
Sh "C" O 5.50164 3.50012 0 0 900
Dr 1.50114 0 0
At STD N 00E0FFFF
Ne 0 ""
Po 0 0
$EndPAD
$PAD
Sh "G" O 5.50164 3.50012 0 0 900
Dr 1.50114 0 0
At STD N 00E0FFFF
Ne 0 ""
Po -5.588 0
$EndPAD
$PAD
Sh "E" O 5.50164 3.50012 0 0 900
Dr 1.50114 0 0
At STD N 00E0FFFF
Ne 0 ""
Po 5.588 0
$EndPAD
$EndMODULE TO-247_Vertical_IGBT-GCE_largePads
$MODULE TO-247_Vertical_Neutral123
Po 0 0 0 15 4BBA1E05 00000000 ~~
Li TO-247_Vertical_Neutral123
Cd TO-247 TO-218 TOP-3 FET 1=Gate 2=Drain 3=Source Vertical
Kw Transistor FET TO-247 TO-218 TOP-3 Vertical
Sc 0
AR 
Op 0 0 0
T0 1.27 -5.08 1.524 1.524 0 0.3048 N V 21 N "IC"
T1 -1.016 8.128 1.524 1.524 0 0.3048 N I 21 N "TO-247-Vertical-GDS"
DS 8.128 2.794 8.128 -2.794 0.381 21
DS 8.128 -2.794 -8.128 -2.794 0.381 21
DS -8.128 -2.794 -8.128 2.794 0.381 21
DS -8.128 2.794 8.128 2.794 0.381 21
$PAD
Sh "2" O 4.50088 2.49936 0 0 900
Dr 1.50114 0 0
At STD N 00E0FFFF
Ne 0 ""
Po 0 0
$EndPAD
$PAD
Sh "1" O 4.50088 2.49936 0 0 900
Dr 1.50114 0 0
At STD N 00E0FFFF
Ne 0 ""
Po -5.588 0
$EndPAD
$PAD
Sh "3" O 4.50088 2.49936 0 0 900
Dr 1.50114 0 0
At STD N 00E0FFFF
Ne 0 ""
Po 5.588 0
$EndPAD
$EndMODULE TO-247_Vertical_Neutral123
$MODULE TO-247_Vertical_Neutral123_MountedFromLS
Po 0 0 0 15 4BBA1E59 00000000 ~~
Li TO-247_Vertical_Neutral123_MountedFromLS
Cd TO-247 TO-218 TOP-3 FET 1=Gate 2=Drain 3=Source, Vertical, Mounted from LS
Kw Transistor FET TO-247 TO-218 TOP-3 Vertical, LS
Sc 0
AR 
Op 0 0 0
T0 0 -5.08 1.524 1.524 0 0.3048 N V 21 N "IC"
T1 -1.27 5.08 1.524 1.524 0 0.3048 N I 21 N "TO-247-Vertical-GDS-MountedFromLS"
DS 8.128 1.016 8.128 1.524 0.381 21
DS 8.128 -0.254 8.128 0.254 0.381 21
DS 8.128 -1.524 8.128 -1.016 0.381 21
DS 8.128 2.794 8.128 2.286 0.381 21
DS 8.128 -2.794 8.128 -2.286 0.381 21
DS -8.128 -1.27 -8.128 -1.524 0.381 21
DS -8.128 0 -8.128 -0.508 0.381 21
DS -8.128 1.524 -8.128 0.762 0.381 21
DS -8.128 2.794 -8.128 2.286 0.381 21
DS -8.128 -2.794 -8.128 -2.286 0.381 21
DS 7.366 2.794 8.128 2.794 0.381 21
DS 6.35 2.794 6.858 2.794 0.381 21
DS 4.572 2.794 5.334 2.794 0.381 21
DS 2.54 2.794 3.556 2.794 0.381 21
DS 1.27 2.794 1.778 2.794 0.381 21
DS 1.27 2.794 0.762 2.794 0.381 21
DS -1.016 2.794 0 2.794 0.381 21
DS -2.794 2.794 -1.778 2.794 0.381 21
DS -4.572 2.794 -3.556 2.794 0.381 21
DS -6.35 2.794 -5.334 2.794 0.381 21
DS -8.128 2.794 -7.366 2.794 0.381 21
DS 5.08 -2.794 4.572 -2.794 0.381 21
DS 6.604 -2.794 5.842 -2.794 0.381 21
DS 8.128 -2.794 7.366 -2.794 0.381 21
DS 2.794 -2.794 3.556 -2.794 0.381 21
DS 0.508 -2.794 1.778 -2.794 0.381 21
DS -1.524 -2.794 -0.508 -2.794 0.381 21
DS -3.81 -2.794 -2.54 -2.794 0.381 21
DS -6.096 -2.794 -4.826 -2.794 0.381 21
DS -8.128 -2.794 -7.112 -2.794 0.381 21
$PAD
Sh "2" O 4.50088 2.49936 0 0 900
Dr 1.50114 0 0
At STD N 00E0FFFF
Ne 0 ""
Po 0 0
$EndPAD
$PAD
Sh "3" O 4.50088 2.49936 0 0 900
Dr 1.50114 0 0
At STD N 00E0FFFF
Ne 0 ""
Po -5.588 0
$EndPAD
$PAD
Sh "1" O 4.50088 2.49936 0 0 900
Dr 1.50114 0 0
At STD N 00E0FFFF
Ne 0 ""
Po 5.588 0
$EndPAD
$EndMODULE TO-247_Vertical_Neutral123_MountedFromLS
$MODULE TO-247_Vertical_Neutral123_MountedFromLS_largePads
Po 0 0 0 15 4BB9E9F4 00000000 ~~
Li TO-247_Vertical_Neutral123_MountedFromLS_largePads
Cd TO-247 TO-218 TOP-3 FET 1=Gate 2=Drain 3=Source, Vertical, Mounted from LS, large Pads,
Kw Transistor FET TO-247 TO-218 TOP-3 Vertical, LS, large Pads
Sc 0
AR 
Op 0 0 0
T0 1.27 -5.08 1.524 1.524 0 0.3048 N V 21 N "IC"
T1 -1.27 6.35 1.524 1.524 0 0.3048 N I 21 N "TO-247-Vertical-GDS-MountedFromLS-LargePads"
DS 1.524 -2.794 2.286 -2.794 0.381 21
DS -2.54 -2.794 -1.27 -2.794 0.381 21
DS -4.318 -2.794 -3.302 -2.794 0.381 21
DS -7.62 -2.794 -8.128 -2.794 0.381 21
DS -8.128 -2.794 -7.874 -2.794 0.381 21
DS -6.858 -2.794 -7.112 -2.794 0.381 21
DS 2.54 2.794 1.524 2.794 0.381 21
DS -7.112 2.794 -6.858 2.794 0.381 21
DS -7.874 2.794 -7.62 2.794 0.381 21
DS -4.318 2.794 -3.302 2.794 0.381 21
DS 8.128 1.016 8.128 1.524 0.381 21
DS 8.128 -0.254 8.128 0.254 0.381 21
DS 8.128 -1.524 8.128 -1.016 0.381 21
DS 8.128 2.794 8.128 2.286 0.381 21
DS 8.128 -2.794 8.128 -2.286 0.381 21
DS -8.128 -1.27 -8.128 -1.524 0.381 21
DS -8.128 0 -8.128 -0.508 0.381 21
DS -8.128 1.524 -8.128 0.762 0.381 21
DS -8.128 2.794 -8.128 2.286 0.381 21
DS -8.128 -2.794 -8.128 -2.286 0.381 21
DS 7.366 2.794 8.128 2.794 0.381 21
DS 3.302 2.794 4.318 2.794 0.381 21
DS -2.286 2.794 -1.27 2.794 0.381 21
DS 8.128 -2.794 7.366 -2.794 0.381 21
DS 3.556 -2.794 4.318 -2.794 0.381 21
$PAD
Sh "2" O 5.50164 3.50012 0 0 900
Dr 1.50114 0 0
At STD N 00E0FFFF
Ne 0 ""
Po 0 0
$EndPAD
$PAD
Sh "3" O 5.50164 3.50012 0 0 900
Dr 1.50114 0 0
At STD N 00E0FFFF
Ne 0 ""
Po -5.588 0
$EndPAD
$PAD
Sh "1" O 5.50164 3.50012 0 0 900
Dr 1.50114 0 0
At STD N 00E0FFFF
Ne 0 ""
Po 5.588 0
$EndPAD
$EndMODULE TO-247_Vertical_Neutral123_MountedFromLS_largePads
$MODULE TO-247_Vertical_Neutral123_largePads
Po 0 0 0 15 4BBA1E30 00000000 ~~
Li TO-247_Vertical_Neutral123_largePads
Cd TO-247 TO-218 TOP-3 FET 1=Gate 2=Drain 3=Source Vertical, large Pads
Kw Transistor FET TO-247 TO-218 TOP-3 Vertical
Sc 0
AR 
Op 0 0 0
T0 0 -5.08 1.524 1.524 0 0.3048 N V 21 N "IC"
T1 -1.016 8.128 1.524 1.524 0 0.3048 N I 21 N "TO-247-Vertical-GDS-LargePads"
DS 6.858 2.794 8.128 2.794 0.381 21
DS 1.27 2.794 4.318 2.794 0.381 21
DS -4.318 2.794 -1.27 2.794 0.381 21
DS -6.858 2.794 -8.128 2.794 0.381 21
DS 6.858 -2.794 8.128 -2.794 0.381 21
DS 1.27 -2.794 4.318 -2.794 0.381 21
DS -4.318 -2.794 -1.27 -2.794 0.381 21
DS -6.858 -2.794 -8.128 -2.794 0.381 21
DS 8.128 2.794 8.128 -2.794 0.381 21
DS -8.128 -2.794 -8.128 2.794 0.381 21
$PAD
Sh "2" O 5.50164 3.50012 0 0 900
Dr 1.50114 0 0
At STD N 00E0FFFF
Ne 0 ""
Po 0 0
$EndPAD
$PAD
Sh "1" O 5.50164 3.50012 0 0 900
Dr 1.50114 0 0
At STD N 00E0FFFF
Ne 0 ""
Po -5.588 0
$EndPAD
$PAD
Sh "3" O 5.50164 3.50012 0 0 900
Dr 1.50114 0 0
At STD N 00E0FFFF
Ne 0 ""
Po 5.588 0
$EndPAD
$EndMODULE TO-247_Vertical_Neutral123_largePads
$EndLIBRARY
